Time;EMG;EDA;LUX;ECG;ACC;BATT;Digit0;Digit1;Digit2;Digit3
4, -1.36363636363636
4, -1.36363636363636
4, -1.36363636363636
4, -1.36363636363636
4, -1.36363636363636
4, -1.36363636363636
4, -1.36363636363636
4, -1.36363636363636
4, -1.36363636363636
4, -1.36363636363636
4, -1.36363636363636
4, -1.36363636363636
4, -1.36363636363636
4, -1.36363636363636
4, -1.36363636363636
4, -1.36363636363636
4, -1.36363636363636
4, -1.36363636363636
4, -1.36363636363636
5, -1.36363636363636
5, -1.36363636363636
5, -1.36363636363636
5, -1.36363636363636
5, -1.36363636363636
5, -1.36363636363636
5, -1.36363636363636
5, -1.36363636363636
5, -1.36363636363636
5, -1.36363636363636
5, -1.36363636363636
5, -1.36363636363636
5, -1.36363636363636
5, -1.36363636363636
5, -1.36363636363636
9, -1.36363636363636
9, -1.36363636363636
9, -1.36363636363636
9, -1.36363636363636
9, -1.36363636363636
9, -1.36363636363636
9, -1.36363636363636
9, -1.36363636363636
9, -1.36363636363636
9, -1.36363636363636
9, -1.36363636363636
9, -1.36363636363636
20, -1.36363636363636
25, -1.36363636363636
27, -1.36363636363636
28, -1.36363636363636
29, -1.36363636363636
30, -1.36363636363636
65, -1.36363636363636
68, -1.36363636363636
69, -1.36363636363636
70, -1.36363636363636
79, -1.36363636363636
114, -1.36363636363636
114, -1.36363636363636
116, -1.36363636363636
150, -1.36363636363636
152, -1.36363636363636
152, -1.36363636363636
154, -1.36363636363636
189, -1.36363636363636
228, -1.36363636363636
228, -1.36363636363636
230, -1.36363636363636
232, -1.36363636363636
233, -1.36363636363636
234, -1.36363636363636
237, -1.36363636363636
270, -1.36363636363636
273, -1.36363636363636
273, -1.36363636363636
275, -1.36363636363636
310, -1.36363636363636
311, -1.36363636363636
312, -1.36363636363636
315, -1.36363636363636
349, -1.36363636363636
351, -1.36363636363636
352, -1.36363636363636
354, -1.36363636363636
355, -1.36363636363636
392, -1.36363636363636
403, -1.36363636363636
414, -1.36363636363636
430, -1.36363636363636
430, -1.36363636363636
431, -1.36363636363636
433, -1.36363636363636
468, -1.36363636363636
469, -1.36363636363636
470, -1.36363636363636
473, -1.36363636363636
488, -1.36363636363636
488, -1.36363636363636
520, -1.36363636363636
521, -1.36363636363636
523, -1.36363636363636
531, -1.36363636363636
565, -1.36363636363636
566, -1.36363636363636
570, -1.36363636363636
579, -1.36363636363636
579, -1.36363636363636
588, -1.36363636363636
605, -1.36363636363636
617, -1.36363636363636
627, -1.36363636363636
628, -1.36363636363636
671, -1.36363636363636
676, -1.36363636363636
676, -1.36363636363636
678, -1.36363636363636
679, -1.36363636363636
713, -1.36363636363636
714, -1.36363636363636
715, -1.36363636363636
750, -1.36363636363636
752, -1.36363636363636
755, -1.36363636363636
755, -1.36363636363636
756, -1.36363636363636
773, -1.36363636363636
778, -1.36363636363636
811, -1.36363636363636
814, -1.36363636363636
815, -1.36363636363636
849, -1.36363636363636
851, -1.36363636363636
851, -1.36363636363636
853, -1.36363636363636
860, -1.36363636363636
869, -1.36363636363636
905, -1.36363636363636
906, -1.36363636363636
908, -1.36363636363636
917, -1.36363636363636
917, -1.36363636363636
951, -1.36363636363636
953, -1.36363636363636
954, -1.36363636363636
1026, -1.36363636363636
1029, -1.36363636363636
1029, -1.36363636363636
1030, -1.36363636363636
1032, -1.36363636363636
1033, -1.36363636363636
1035, -1.36363636363636
1037, -1.36363636363636
1072, -1.36363636363636
1072, -1.36363636363636
1074, -1.36363636363636
1075, -1.36363636363636
1077, -1.36363636363636
1110, -1.36363636363636
1112, -1.36363636363636
1114, -1.36363636363636
1148, -1.36363636363636
1148, -1.36363636363636
1150, -1.36363636363636
1151, -1.36363636363636
1161, -1.36363636363636
1201, -1.36363636363636
1213, -1.36363636363636
1224, -1.36363636363636
1229, -1.36363636363636
1230, -1.36363636363636
1233, -1.36363636363636
1268, -1.36363636363636
1268, -1.36363636363636
1271, -1.36363636363636
1273, -1.36363636363636
1274, -1.36363636363636
1309, -1.36363636363636
1310, -1.36363636363636
1313, -1.36363636363636
1319, -1.36363636363636
1319, -1.36363636363636
1354, -1.36363636363636
1355, -1.36363636363636
1357, -1.36363636363636
1393, -1.36363636363636
1426, -1.36363636363636
1426, -1.36363636363636
1430, -1.36363636363636
1432, -1.36363636363636
1432, -1.36363636363636
1434, -1.36363636363636
1435, -1.36363636363636
1471, -1.36363636363636
1471, -1.36363636363636
1474, -1.36363636363636
1475, -1.36363636363636
1510, -1.36363636363636
1511, -1.36363636363636
1512, -1.36363636363636
1514, -1.36363636363636
1549, -1.36363636363636
1550, -1.36363636363636
1553, -1.36363636363636
1554, -1.36363636363636
1586, -1.36363636363636
1588, -1.36363636363636
1589, -1.36363636363636
1607, -1.36363636363636
1618, -1.36363636363636
1627, -1.36363636363636
1629, -1.36363636363636
1629, -1.36363636363636
1637, -1.36363636363636
1670, -1.36363636363636
1671, -1.36363636363636
1673, -1.36363636363636
1713, -1.36363636363636
1713, -1.36363636363636
1715, -1.36363636363636
1716, -1.36363636363636
1718, -1.36363636363636
1751, -1.36363636363636
1753, -1.36363636363636
1755, -1.36363636363636
1757, -1.36363636363636
1798, -1.36363636363636
1809, -1.36363636363636
1820, -1.36363636363636
1826, -1.36363636363636
1828, -1.36363636363636
1830, -1.36363636363636
1832, -1.36363636363636
1839, -1.36363636363636
1874, -1.36363636363636
1874, -1.36363636363636
1877, -1.36363636363636
1879, -1.36363636363636
1913, -1.36363636363636
1914, -1.36363636363636
1915, -1.36363636363636
1941, -1.36363636363636
1953, -1.36363636363636
1953, -1.36363636363636
1955, -1.36363636363636
1958, -1.36363636363636
2000, -1.36363636363636
2012, -1.36363636363636
2023, -1.36363636363636
2029, -1.36363636363636
2030, -1.36363636363636
2032, -1.36363636363636
2032, -1.36363636363636
2039, -1.36363636363636
2073, -1.36363636363636
2074, -1.36363636363636
2075, -1.36363636363636
2110, -1.36363636363636
2115, -1.36363636363636
2115, -1.36363636363636
2118, -1.36363636363636
2119, -1.36363636363636
2153, -1.36363636363636
2154, -1.36363636363636
2155, -1.36363636363636
2192, -1.36363636363636
2203, -1.36363636363636
2214, -1.36363636363636
2230, -1.36363636363636
2230, -1.36363636363636
2231, -1.36363636363636
2233, -1.36363636363636
2234, -1.36363636363636
2241, -1.36363636363636
2250, -1.36363636363636
2258, -1.36363636363636
2292, -1.36363636363636
2293, -1.36363636363636
2295, -1.36363636363636
2297, -1.36363636363636
2329, -1.36363636363636
2332, -1.36363636363636
2365, -1.36363636363636
2365, -1.36363636363636
2368, -1.36363636363636
2369, -1.36363636363636
2370, -1.36363636363636
2405, -1.36363636363636
2417, -1.36363636363636
2426, -1.36363636363636
2428, -1.36363636363636
2430, -1.36363636363636
2439, -1.36363636363636
2448, -1.36363636363636
2448, -1.36363636363636
2458, -1.36363636363636
2491, -1.36363636363636
2494, -1.36363636363636
2494, -1.36363636363636
2529, -1.36363636363636
2532, -1.36363636363636
2532, -1.36363636363636
2534, -1.36363636363636
2535, -1.36363636363636
2569, -1.36363636363636
2570, -1.36363636363636
2571, -1.36363636363636
2580, -1.36363636363636
2597, -1.36363636363636
2608, -1.36363636363636
2619, -1.36363636363636
2625, -1.36363636363636
2626, -1.36363636363636
2670, -1.36363636363636
2671, -1.36363636363636
2671, -1.36363636363636
2675, -1.36363636363636
2709, -1.36363636363636
2712, -1.36363636363636
2712, -1.36363636363636
2714, -1.36363636363636
2749, -1.36363636363636
2751, -1.36363636363636
2751, -1.36363636363636
2753, -1.36363636363636
2759, -1.36363636363636
2799, -1.36363636363636
2810, -1.36363636363636
2822, -1.36363636363636
2829, -1.36363636363636
2830, -1.36363636363636
2831, -1.36363636363636
2841, -1.36363636363636
2849, -1.36363636363636
2883, -1.36363636363636
2884, -1.36363636363636
2885, -1.36363636363636
2886, -1.36363636363636
2920, -1.36363636363636
2922, -1.36363636363636
2922, -1.36363636363636
2925, -1.36363636363636
2959, -1.36363636363636
2960, -1.36363636363636
2960, -1.36363636363636
2963, -1.36363636363636
2965, -1.36363636363636
3002, -1.36363636363636
3013, -1.36363636363636
3028, -1.36363636363636
3029, -1.36363636363636
3030, -1.36363636363636
3031, -1.36363636363636
3041, -1.36363636363636
3075, -1.36363636363636
3076, -1.36363636363636
3078, -1.36363636363636
3079, -1.36363636363636
3113, -1.36363636363636
3114, -1.36363636363636
3116, -1.36363636363636
3150, -1.36363636363636
3152, -1.36363636363636
3152, -1.36363636363636
3154, -1.36363636363636
3156, -1.36363636363636
3193, -1.36363636363636
3204, -1.36363636363636
3215, -1.36363636363636
3229, -1.36363636363636
3231, -1.36363636363636
3231, -1.36363636363636
3233, -1.36363636363636
3238, -1.36363636363636
3248, -1.36363636363636
3281, -1.36363636363636
3283, -1.36363636363636
3286, -1.36363636363636
3319, -1.36363636363636
3321, -1.36363636363636
3321, -1.36363636363636
3323, -1.36363636363636
3331, -1.36363636363636
3364, -1.36363636363636
3365, -1.36363636363636
3368, -1.36363636363636
3418, -1.36363636363636
3424, -1.36363636363636
3425, -1.36363636363636
3426, -1.36363636363636
3428, -1.36363636363636
3429, -1.36363636363636
3431, -1.36363636363636
3466, -1.36363636363636
3469, -1.36363636363636
3470, -1.36363636363636
3479, -1.36363636363636
3480, -1.36363636363636
3488, -1.36363636363636
3521, -1.36363636363636
3523, -1.36363636363636
3525, -1.36363636363636
3559, -1.36363636363636
3560, -1.36363636363636
3560, -1.36363636363636
3563, -1.36363636363636
3570, -1.36363636363636
3609, -1.36363636363636
3620, -1.36363636363636
3628, -1.36363636363636
3629, -1.36363636363636
3629, -1.36363636363636
3632, -1.36363636363636
3642, -1.36363636363636
3650, -1.36363636363636
3684, -1.36363636363636
3685, -1.36363636363636
3688, -1.36363636363636
3721, -1.36363636363636
3724, -1.36363636363636
3726, -1.36363636363636
3726, -1.36363636363636
3728, -1.36363636363636
3761, -1.36363636363636
3763, -1.36363636363636
3764, -1.36363636363636
3765, -1.36363636363636
3800, -1.36363636363636
3812, -1.36363636363636
3823, -1.36363636363636
3828, -1.36363636363636
3829, -1.36363636363636
3836, -1.36363636363636
3838, -1.36363636363636
3870, -1.36363636363636
3871, -1.36363636363636
3873, -1.36363636363636
3881, -1.36363636363636
3915, -1.36363636363636
3916, -1.36363636363636
3918, -1.36363636363636
3953, -1.36363636363636
3953, -1.36363636363636
3955, -1.36363636363636
3958, -1.36363636363636
4003, -1.36363636363636
4030, -1.36363636363636
4030, -1.36363636363636
4031, -1.36363636363636
4034, -1.36363636363636
4035, -1.36363636363636
4039, -1.36363636363636
4041, -1.36363636363636
4043, -1.36363636363636
4076, -1.36363636363636
4078, -1.36363636363636
4079, -1.36363636363636
4088, -1.36363636363636
4088, -1.36363636363636
4098, -1.36363636363636
4131, -1.36363636363636
4133, -1.36363636363636
4134, -1.36363636363636
4140, -1.36363636363636
4174, -1.36363636363636
4176, -1.36363636363636
4178, -1.36363636363636
4226, -1.36363636363636
4230, -1.36363636363636
4230, -1.36363636363636
4234, -1.36363636363636
4235, -1.36363636363636
4235, -1.36363636363636
4276, -1.36363636363636
4276, -1.36363636363636
4278, -1.36363636363636
4279, -1.36363636363636
4280, -1.36363636363636
4314, -1.36363636363636
4315, -1.36363636363636
4316, -1.36363636363636
4318, -1.36363636363636
4351, -1.36363636363636
4354, -1.36363636363636
4355, -1.36363636363636
4361, -1.36363636363636
4397, -1.36363636363636
4408, -1.36363636363636
4419, -1.36363636363636
4429, -1.36363636363636
4433, -1.36363636363636
4433, -1.36363636363636
4435, -1.36363636363636
4437, -1.36363636363636
4470, -1.36363636363636
4473, -1.36363636363636
4474, -1.36363636363636
4509, -1.36363636363636
4512, -1.36363636363636
4512, -1.36363636363636
4514, -1.36363636363636
4515, -1.36363636363636
4549, -1.36363636363636
4550, -1.36363636363636
4551, -1.36363636363636
4627, -1.36363636363636
4627, -1.36363636363636
4629, -1.36363636363636
4630, -1.36363636363636
4631, -1.36363636363636
4633, -1.36363636363636
4635, -1.36363636363636
4636, -1.36363636363636
4671, -1.36363636363636
4674, -1.36363636363636
4674, -1.36363636363636
4676, -1.36363636363636
4678, -1.36363636363636
4712, -1.36363636363636
4714, -1.36363636363636
4715, -1.36363636363636
4750, -1.36363636363636
4753, -1.36363636363636
4753, -1.36363636363636
4755, -1.36363636363636
4757, -1.36363636363636
4801, -1.36363636363636
4813, -1.36363636363636
4824, -1.36363636363636
4830, -1.36363636363636
4831, -1.36363636363636
4833, -1.36363636363636
4868, -1.36363636363636
4871, -1.36363636363636
4871, -1.36363636363636
4874, -1.36363636363636
4875, -1.36363636363636
4910, -1.36363636363636
4911, -1.36363636363636
4914, -1.36363636363636
4916, -1.36363636363636
4951, -1.36363636363636
4951, -1.36363636363636
4953, -1.36363636363636
4954, -1.36363636363636
4993, -1.36363636363636
4993, -1.36363636363636
5004, -1.36363636363636
5015, -1.36363636363636
5025, -1.36363636363636
5026, -1.36363636363636
5029, -1.36363636363636
5030, -1.36363636363636
5066, -1.36363636363636
5066, -1.36363636363636
5070, -1.36363636363636
5078, -1.36363636363636
5078, -1.36363636363636
5088, -1.36363636363636
5121, -1.36363636363636
5123, -1.36363636363636
5126, -1.36363636363636
5126, -1.36363636363636
5160, -1.36363636363636
5164, -1.36363636363636
5164, -1.36363636363636
5168, -1.36363636363636
5218, -1.36363636363636
5224, -1.36363636363636
5226, -1.36363636363636
5228, -1.36363636363636
5231, -1.36363636363636
5238, -1.36363636363636
5271, -1.36363636363636
5273, -1.36363636363636
5273, -1.36363636363636
5276, -1.36363636363636
5310, -1.36363636363636
5312, -1.36363636363636
5312, -1.36363636363636
5314, -1.36363636363636
5349, -1.36363636363636
5350, -1.36363636363636
5350, -1.36363636363636
5353, -1.36363636363636
5425, -1.36363636363636
5428, -1.36363636363636
5428, -1.36363636363636
5430, -1.36363636363636
5431, -1.36363636363636
5434, -1.36363636363636
5435, -1.36363636363636
5436, -1.36363636363636
5472, -1.36363636363636
5474, -1.36363636363636
5474, -1.36363636363636
5476, -1.36363636363636
5479, -1.36363636363636
5513, -1.36363636363636
5514, -1.36363636363636
5515, -1.36363636363636
5550, -1.36363636363636
5550, -1.36363636363636
5551, -1.36363636363636
5553, -1.36363636363636
5561, -1.36363636363636
5600, -1.36363636363636
5611, -1.36363636363636
5623, -1.36363636363636
5631, -1.36363636363636
5631, -1.36363636363636
5633, -1.36363636363636
5634, -1.36363636363636
5640, -1.36363636363636
5674, -1.36363636363636
5676, -1.36363636363636
5677, -1.36363636363636
5716, -1.36363636363636
5716, -1.36363636363636
5718, -1.36363636363636
5719, -1.36363636363636
5720, -1.36363636363636
5754, -1.36363636363636
5755, -1.36363636363636
5756, -1.36363636363636
5803, -1.36363636363636
5829, -1.36363636363636
5829, -1.36363636363636
5831, -1.36363636363636
5833, -1.36363636363636
5834, -1.36363636363636
5835, -1.36363636363636
5836, -1.36363636363636
5873, -1.36363636363636
5875, -1.36363636363636
5875, -1.36363636363636
5878, -1.36363636363636
5879, -1.36363636363636
5913, -1.36363636363636
5914, -1.36363636363636
5915, -1.36363636363636
5951, -1.36363636363636
6021, -1.36363636363636
6021, -1.36363636363636
6024, -1.36363636363636
6028, -1.36363636363636
6034, -1.36363636363636
6035, -1.36363636363636
6036, -1.36363636363636
6039, -1.36363636363636
6041, -1.36363636363636
6043, -1.36363636363636
6044, -1.36363636363636
6044, -1.36363636363636
6050, -1.36363636363636
6084, -1.36363636363636
6086, -1.36363636363636
6089, -1.36363636363636
6123, -1.36363636363636
6123, -1.36363636363636
6125, -1.36363636363636
6126, -1.36363636363636
6128, -1.36363636363636
6161, -1.36363636363636
6163, -1.36363636363636
6166, -1.36363636363636
6208, -1.36363636363636
6225, -1.36363636363636
6225, -1.36363636363636
6228, -1.36363636363636
6229, -1.36363636363636
6230, -1.36363636363636
6233, -1.36363636363636
6268, -1.36363636363636
6268, -1.36363636363636
6270, -1.36363636363636
6271, -1.36363636363636
6280, -1.36363636363636
6314, -1.36363636363636
6315, -1.36363636363636
6316, -1.36363636363636
6318, -1.36363636363636
6351, -1.36363636363636
6353, -1.36363636363636
6354, -1.36363636363636
6359, -1.36363636363636
6399, -1.36363636363636
6410, -1.36363636363636
6421, -1.36363636363636
6429, -1.36363636363636
6432, -1.36363636363636
6432, -1.36363636363636
6436, -1.36363636363636
6436, -1.36363636363636
6471, -1.36363636363636
6473, -1.36363636363636
6474, -1.36363636363636
6509, -1.36363636363636
6511, -1.36363636363636
6511, -1.36363636363636
6515, -1.36363636363636
6515, -1.36363636363636
6548, -1.36363636363636
6549, -1.36363636363636
6550, -1.36363636363636
6559, -1.36363636363636
6602, -1.36363636363636
6613, -1.36363636363636
6624, -1.36363636363636
6629, -1.36363636363636
6629, -1.36363636363636
6630, -1.36363636363636
6631, -1.36363636363636
6668, -1.36363636363636
6668, -1.36363636363636
6671, -1.36363636363636
6673, -1.36363636363636
6678, -1.36363636363636
6713, -1.36363636363636
6713, -1.36363636363636
6714, -1.36363636363636
6750, -1.36363636363636
6753, -1.36363636363636
6753, -1.36363636363636
6755, -1.36363636363636
6756, -1.36363636363636
6793, -1.36363636363636
6815, -1.36363636363636
6825, -1.36363636363636
6826, -1.36363636363636
6829, -1.36363636363636
6830, -1.36363636363636
6831, -1.36363636363636
6866, -1.36363636363636
6868, -1.36363636363636
6869, -1.36363636363636
6870, -1.36363636363636
6879, -1.36363636363636
6888, -1.36363636363636
6921, -1.36363636363636
6923, -1.36363636363636
6924, -1.36363636363636
6933, -1.36363636363636
6941, -1.36363636363636
6975, -1.36363636363636
6978, -1.36363636363636
6979, -1.36363636363636
6979, -1.36363636363636
7024, -1.36363636363636
7025, -1.36363636363636
7026, -1.36363636363636
7028, -1.36363636363636
7029, -1.36363636363636
7065, -1.36363636363636
7066, -1.36363636363636
7068, -1.36363636363636
7069, -1.36363636363636
7104, -1.36363636363636
7105, -1.36363636363636
7106, -1.36363636363636
7108, -1.36363636363636
7150, -1.36363636363636
7156, -1.36363636363636
7156, -1.36363636363636
7158, -1.36363636363636
7159, -1.36363636363636
7198, -1.36363636363636
7209, -1.36363636363636
7220, -1.36363636363636
7228, -1.36363636363636
7229, -1.36363636363636
7229, -1.36363636363636
7231, -1.36363636363636
7265, -1.36363636363636
7268, -1.36363636363636
7269, -1.36363636363636
7270, -1.36363636363636
7313, -1.36363636363636
7314, -1.36363636363636
7315, -1.36363636363636
7317, -1.36363636363636
7317, -1.36363636363636
7353, -1.36363636363636
7354, -1.36363636363636
7355, -1.36363636363636
7428, -1.36363636363636
7430, -1.36363636363636
7430, -1.36363636363636
7431, -1.36363636363636
7433, -1.36363636363636
7434, -1.36363636363636
7436, -1.36363636363636
7438, -1.36363636363636
7473, -1.36363636363636
7474, -1.36363636363636
7475, -1.36363636363636
7476, -1.36363636363636
7511, -1.36363636363636
7511, -1.36363636363636
7513, -1.36363636363636
7515, -1.36363636363636
7549, -1.36363636363636
7549, -1.36363636363636
7550, -1.36363636363636
7551, -1.36363636363636
7561, -1.36363636363636
7603, -1.36363636363636
7614, -1.36363636363636
7625, -1.36363636363636
7629, -1.36363636363636
7630, -1.36363636363636
7633, -1.36363636363636
7668, -1.36363636363636
7668, -1.36363636363636
7670, -1.36363636363636
7673, -1.36363636363636
7674, -1.36363636363636
7709, -1.36363636363636
7711, -1.36363636363636
7711, -1.36363636363636
7720, -1.36363636363636
7720, -1.36363636363636
7729, -1.36363636363636
7763, -1.36363636363636
7764, -1.36363636363636
7766, -1.36363636363636
7805, -1.36363636363636
7826, -1.36363636363636
7828, -1.36363636363636
7830, -1.36363636363636
7832, -1.36363636363636
7832, -1.36363636363636
7834, -1.36363636363636
7835, -1.36363636363636
7869, -1.36363636363636
7870, -1.36363636363636
7871, -1.36363636363636
7880, -1.36363636363636
7914, -1.36363636363636
7915, -1.36363636363636
7916, -1.36363636363636
7927, -1.36363636363636
7927, -1.36363636363636
7936, -1.36363636363636
7970, -1.36363636363636
7971, -1.36363636363636
7973, -1.36363636363636
8019, -1.36363636363636
8025, -1.36363636363636
8028, -1.36363636363636
8029, -1.36363636363636
8029, -1.36363636363636
8033, -1.36363636363636
8038, -1.36363636363636
8073, -1.36363636363636
8074, -1.36363636363636
8075, -1.36363636363636
8078, -1.36363636363636
8111, -1.36363636363636
8113, -1.36363636363636
8114, -1.36363636363636
8123, -1.36363636363636
8156, -1.36363636363636
8158, -1.36363636363636
8159, -1.36363636363636
8227, -1.36363636363636
8227, -1.36363636363636
8229, -1.36363636363636
8230, -1.36363636363636
8231, -1.36363636363636
8233, -1.36363636363636
8235, -1.36363636363636
8236, -1.36363636363636
8238, -1.36363636363636
8271, -1.36363636363636
8272, -1.36363636363636
8274, -1.36363636363636
8283, -1.36363636363636
8316, -1.36363636363636
8318, -1.36363636363636
8320, -1.36363636363636
8329, -1.36363636363636
8339, -1.36363636363636
8339, -1.36363636363636
8373, -1.36363636363636
8374, -1.36363636363636
8375, -1.36363636363636
8381, -1.36363636363636
8401, -1.36363636363636
8424, -1.36363636363636
8427, -1.36363636363636
8429, -1.36363636363636
8430, -1.36363636363636
8440, -1.36363636363636
8474, -1.36363636363636
8475, -1.36363636363636
8476, -1.36363636363636
8511, -1.36363636363636
8516, -1.36363636363636
8517, -1.36363636363636
8519, -1.36363636363636
8520, -1.36363636363636
8555, -1.36363636363636
8556, -1.36363636363636
8558, -1.36363636363636
8626, -1.36363636363636
8626, -1.36363636363636
8629, -1.36363636363636
8630, -1.36363636363636
8631, -1.36363636363636
8633, -1.36363636363636
8634, -1.36363636363636
8635, -1.36363636363636
8670, -1.36363636363636
8674, -1.36363636363636
8675, -1.36363636363636
8676, -1.36363636363636
8711, -1.36363636363636
8711, -1.36363636363636
8713, -1.36363636363636
8714, -1.36363636363636
8749, -1.36363636363636
8749, -1.36363636363636
8753, -1.36363636363636
8754, -1.36363636363636
8756, -1.36363636363636
8795, -1.36363636363636
8818, -1.36363636363636
8824, -1.36363636363636
8826, -1.36363636363636
8826, -1.36363636363636
8829, -1.36363636363636
8865, -1.36363636363636
8865, -1.36363636363636
8868, -1.36363636363636
8869, -1.36363636363636
8870, -1.36363636363636
8912, -1.36363636363636
8914, -1.36363636363636
8918, -1.36363636363636
8918, -1.36363636363636
8950, -1.36363636363636
8952, -1.36363636363636
8952, -1.36363636363636
8955, -1.36363636363636
8998, -1.36363636363636
9026, -1.36363636363636
9026, -1.36363636363636
9029, -1.36363636363636
9030, -1.36363636363636
9030, -1.36363636363636
9034, -1.36363636363636
9035, -1.36363636363636
9036, -1.36363636363636
9070, -1.36363636363636
9071, -1.36363636363636
9073, -1.36363636363636
9081, -1.36363636363636
9115, -1.36363636363636
9116, -1.36363636363636
9118, -1.36363636363636
9128, -1.36363636363636
9128, -1.36363636363636
9138, -1.36363636363636
9148, -1.36363636363636
9184, -1.36363636363636
9185, -1.36363636363636
9186, -1.36363636363636
9188, -1.36363636363636
9229, -1.36363636363636
9230, -1.36363636363636
9231, -1.36363636363636
9238, -1.36363636363636
9271, -1.36363636363636
9273, -1.36363636363636
9274, -1.36363636363636
9275, -1.36363636363636
9310, -1.36363636363636
9316, -1.36363636363636
9316, -1.36363636363636
9319, -1.36363636363636
9320, -1.36363636363636
9330, -1.36363636363636
9339, -1.36363636363636
9371, -1.36363636363636
9372, -1.36363636363636
9374, -1.36363636363636
9379, -1.36363636363636
9414, -1.36363636363636
9425, -1.36363636363636
9429, -1.36363636363636
9430, -1.36363636363636
9431, -1.36363636363636
9441, -1.36363636363636
9450, -1.36363636363636
9485, -1.36363636363636
9486, -1.36363636363636
9488, -1.36363636363636
9489, -1.36363636363636
9524, -1.36363636363636
9525, -1.36363636363636
9530, -1.36363636363636
9542, -1.36363636363636
9542, -1.36363636363636
9545, -1.36363636363636
9581, -1.36363636363636
9582, -1.36363636363636
9586, -1.36363636363636
9587, -1.36363636363636
9616, -1.36363636363636
9631, -1.36363636363636
9633, -1.36363636363636
9634, -1.36363636363636
9643, -1.36363636363636
9650, -1.36363636363636
9659, -1.36363636363636
9668, -1.36363636363636
9689, -1.36363636363636
9689, -1.36363636363636
9699, -1.36363636363636
9732, -1.36363636363636
9734, -1.36363636363636
9735, -1.36363636363636
9744, -1.36363636363636
9750, -1.36363636363636
9768, -1.36363636363636
9768, -1.36363636363636
9808, -1.36363636363636
9819, -1.36363636363636
9823, -1.36363636363636
9824, -1.36363636363636
9825, -1.36363636363636
9834, -1.36363636363636
9848, -1.36363636363636
9858, -1.36363636363636
9893, -1.36363636363636
9895, -1.36363636363636
9895, -1.36363636363636
9898, -1.36363636363636
9900, -1.36363636363636
9934, -1.36363636363636
9936, -1.36363636363636
9937, -1.36363636363636
9973, -1.36363636363636
9974, -1.36363636363636
9974, -1.36363636363636
9976, -1.36363636363636
9979, -1.36363636363636
10021, -1.36363636363636
10049, -1.36363636363636
10050, -1.36363636363636
10052, -1.36363636363636
10071, -1.36363636363636
10071, -1.36363636363636
10073, -1.36363636363636
10074, -1.36363636363636
10075, -1.36363636363636
10110, -1.36363636363636
10110, -1.36363636363636
10114, -1.36363636363636
10115, -1.36363636363636
10148, -1.36363636363636
10150, -1.36363636363636
10150, -1.36363636363636
10153, -1.36363636363636
10188, -1.36363636363636
10189, -1.36363636363636
10202, -1.36363636363636
10229, -1.36363636363636
10229, -1.36363636363636
10231, -1.36363636363636
10233, -1.36363636363636
10234, -1.36363636363636
10248, -1.36363636363636
10283, -1.36363636363636
10285, -1.36363636363636
10288, -1.36363636363636
10289, -1.36363636363636
10329, -1.36363636363636
10331, -1.36363636363636
10331, -1.36363636363636
10335, -1.36363636363636
10336, -1.36363636363636
10346, -1.36363636363636
10356, -1.36363636363636
10366, -1.36363636363636
10408, -1.36363636363636
10408, -1.36363636363636
10410, -1.36363636363636
10413, -1.36363636363636
10421, -1.36363636363636
10421, -1.36363636363636
10424, -1.36363636363636
10460, -1.36363636363636
10463, -1.36363636363636
10464, -1.36363636363636
10470, -1.36363636363636
10477, -1.36363636363636
10511, -1.36363636363636
10513, -1.36363636363636
10514, -1.36363636363636
10515, -1.36363636363636
10550, -1.36363636363636
10550, -1.36363636363636
10553, -1.36363636363636
10625, -1.36363636363636
10628, -1.36363636363636
10628, -1.36363636363636
10631, -1.36363636363636
10633, -1.36363636363636
10634, -1.36363636363636
10635, -1.36363636363636
10636, -1.36363636363636
10638, -1.36363636363636
10671, -1.36363636363636
10673, -1.36363636363636
10674, -1.36363636363636
10680, -1.36363636363636
10690, -1.36363636363636
10723, -1.36363636363636
10724, -1.36363636363636
10727, -1.36363636363636
10727, -1.36363636363636
10761, -1.36363636363636
10762, -1.36363636363636
10764, -1.36363636363636
10771, -1.36363636363636
10809, -1.36363636363636
10820, -1.36363636363636
10826, -1.36363636363636
10828, -1.36363636363636
10828, -1.36363636363636
10830, -1.36363636363636
10840, -1.36363636363636
10874, -1.36363636363636
10875, -1.36363636363636
10876, -1.36363636363636
10912, -1.36363636363636
10915, -1.36363636363636
10916, -1.36363636363636
10918, -1.36363636363636
10919, -1.36363636363636
10953, -1.36363636363636
10954, -1.36363636363636
10955, -1.36363636363636
11028, -1.36363636363636
11031, -1.36363636363636
11031, -1.36363636363636
11033, -1.36363636363636
11034, -1.36363636363636
11036, -1.36363636363636
11038, -1.36363636363636
11039, -1.36363636363636
11074, -1.36363636363636
11075, -1.36363636363636
11076, -1.36363636363636
11078, -1.36363636363636
11078, -1.36363636363636
11088, -1.36363636363636
11121, -1.36363636363636
11123, -1.36363636363636
11126, -1.36363636363636
11160, -1.36363636363636
11161, -1.36363636363636
11161, -1.36363636363636
11164, -1.36363636363636
11169, -1.36363636363636
11214, -1.36363636363636
11225, -1.36363636363636
11230, -1.36363636363636
11231, -1.36363636363636
11233, -1.36363636363636
11268, -1.36363636363636
11272, -1.36363636363636
11272, -1.36363636363636
11275, -1.36363636363636
11276, -1.36363636363636
11312, -1.36363636363636
11312, -1.36363636363636
11314, -1.36363636363636
11315, -1.36363636363636
11318, -1.36363636363636
11351, -1.36363636363636
11353, -1.36363636363636
11354, -1.36363636363636
11394, -1.36363636363636
11394, -1.36363636363636
11405, -1.36363636363636
11416, -1.36363636363636
11426, -1.36363636363636
11428, -1.36363636363636
11430, -1.36363636363636
11431, -1.36363636363636
11441, -1.36363636363636
11448, -1.36363636363636
11456, -1.36363636363636
11490, -1.36363636363636
11491, -1.36363636363636
11493, -1.36363636363636
11501, -1.36363636363636
11535, -1.36363636363636
11538, -1.36363636363636
11539, -1.36363636363636
11548, -1.36363636363636
11582, -1.36363636363636
11583, -1.36363636363636
11585, -1.36363636363636
11588, -1.36363636363636
11589, -1.36363636363636
11597, -1.36363636363636
11619, -1.36363636363636
11625, -1.36363636363636
11626, -1.36363636363636
11661, -1.36363636363636
11662, -1.36363636363636
11664, -1.36363636363636
11670, -1.36363636363636
11679, -1.36363636363636
11713, -1.36363636363636
11713, -1.36363636363636
11714, -1.36363636363636
11749, -1.36363636363636
11750, -1.36363636363636
11750, -1.36363636363636
11753, -1.36363636363636
11826, -1.36363636363636
11829, -1.36363636363636
11829, -1.36363636363636
11831, -1.36363636363636
11833, -1.36363636363636
11835, -1.36363636363636
11836, -1.36363636363636
11837, 1.63049853372434
11872, -1.36363636363636
11874, -1.36363636363636
11875, -1.36363636363636
11876, -1.36363636363636
11910, -1.36363636363636
11914, -1.36363636363636
11916, -1.36363636363636
11917, -1.36363636363636
11953, -1.36363636363636
11953, -1.36363636363636
11955, -1.36363636363636
11956, -1.36363636363636
11959, -1.36363636363636
12001, -1.36363636363636
12013, -1.36363636363636
12024, -1.36363636363636
12030, -1.36363636363636
12031, -1.36363636363636
12032, -1.36363636363636
12034, -1.36363636363636
12040, -1.36363636363636
12074, -1.36363636363636
12075, -1.36363636363636
12076, -1.36363636363636
12111, -1.36363636363636
12113, -1.36363636363636
12113, -1.36363636363636
12116, -1.36363636363636
12117, -1.36363636363636
12150, -1.36363636363636
12151, -1.36363636363636
12152, -1.36363636363636
12187, -1.36363636363636
12192, -1.36363636363636
12192, -1.36363636363636
12204, -1.36363636363636
12215, -1.36363636363636
12226, -1.36363636363636
12231, -1.36363636363636
12233, -1.36363636363636
12269, -1.36363636363636
12270, -1.36363636363636
12274, -1.36363636363636
12274, -1.36363636363636
12276, -1.36363636363636
12310, -1.36363636363636
12311, -1.36363636363636
12312, -1.36363636363636
12347, -1.36363636363636
12352, -1.36363636363636
12353, -1.36363636363636
12355, -1.36363636363636
12356, -1.36363636363636
12395, -1.36363636363636
12418, -1.36363636363636
12424, -1.36363636363636
12426, -1.36363636363636
12427, -1.36363636363636
12429, -1.36363636363636
12466, -1.36363636363636
12466, -1.36363636363636
12467, -1.36363636363636
12469, -1.36363636363636
12470, -1.36363636363636
12512, -1.36363636363636
12514, -1.36363636363636
12515, -1.36363636363636
12516, -1.36363636363636
12551, -1.36363636363636
12551, -1.36363636363636
12553, -1.36363636363636
12555, -1.36363636363636
12625, -1.36363636363636
12625, -1.36363636363636
12628, -1.36363636363636
12629, -1.36363636363636
12630, -1.36363636363636
12631, -1.36363636363636
12634, -1.36363636363636
12635, -1.36363636363636
12671, -1.36363636363636
12671, -1.36363636363636
12674, -1.36363636363636
12675, -1.36363636363636
12680, -1.36363636363636
12715, -1.36363636363636
12716, -1.36363636363636
12717, -1.36363636363636
12719, -1.36363636363636
12755, -1.36363636363636
12757, -1.36363636363636
12759, -1.36363636363636
12828, -1.36363636363636
12828, -1.36363636363636
12830, -1.36363636363636
12831, -1.36363636363636
12834, -1.36363636363636
12837, -1.36363636363636
12837, -1.36363636363636
12840, -1.36363636363636
12874, -1.36363636363636
12874, -1.36363636363636
12876, -1.36363636363636
12877, -1.36363636363636
12888, -1.36363636363636
12888, -1.36363636363636
12896, -1.36363636363636
12930, -1.36363636363636
12931, -1.36363636363636
12933, -1.36363636363636
12941, -1.36363636363636
12975, -1.36363636363636
12978, -1.36363636363636
12979, -1.36363636363636
13029, -1.36363636363636
13031, -1.36363636363636
13034, 1.63049853372434
13035, 1.63049853372434
13039, 1.63049853372434
13039, 1.63049853372434
13043, 1.63049853372434
13076, 1.63343108504399
13078, 1.63343108504399
13078, 1.63049853372434
13080, 1.63049853372434
13097, 1.63343108504399
13097, 1.63049853372434
13132, 1.63049853372434
13135, 1.63343108504399
13136, 1.63049853372434
13170, 1.63049853372434
13174, 1.63049853372434
13174, 1.63049853372434
13177, 1.63343108504399
13216, 1.63049853372434
13225, 1.63343108504399
13226, 1.63049853372434
13228, 1.63049853372434
13230, 1.63049853372434
13231, 1.63049853372434
13241, 1.63049853372434
13275, 1.63049853372434
13276, 1.63049853372434
13277, 1.63049853372434
13313, 1.63049853372434
13313, 1.63343108504399
13315, 1.63049853372434
13316, 1.63049853372434
13318, 1.63049853372434
13351, 1.63343108504399
13354, 1.63049853372434
13355, 1.63049853372434
13396, 1.63049853372434
13426, 1.63343108504399
13426, 1.63049853372434
13428, 1.63049853372434
13429, 1.63049853372434
13430, 1.63049853372434
13432, 1.63343108504399
13434, 1.63049853372434
13469, 1.63343108504399
13470, 1.63049853372434
13471, 1.63049853372434
13472, 1.63049853372434
13481, 1.63049853372434
13515, 1.63049853372434
13516, 1.63049853372434
13517, 1.63049853372434
13552, 1.63049853372434
13556, 1.63049853372434
13556, 1.63049853372434
13559, 1.63049853372434
13560, 1.63049853372434
13599, 1.63049853372434
13610, 1.63049853372434
13621, 1.63049853372434
13630, 1.63049853372434
13632, 1.63049853372434
13635, 1.63049853372434
13641, 1.63049853372434
13641, 1.63049853372434
13649, 1.63049853372434
13682, 1.63049853372434
13684, 1.63049853372434
13686, 1.63049853372434
13720, 1.63049853372434
13721, 1.63049853372434
13721, 1.63049853372434
13725, 1.63049853372434
13726, 1.63049853372434
13759, 1.63049853372434
13760, 1.63049853372434
13770, 1.63049853372434
13778, 1.63049853372434
13786, 1.63049853372434
13828, 1.63049853372434
13828, 1.63049853372434
13830, 1.63049853372434
13831, 1.63049853372434
13832, 1.63049853372434
13867, 1.63049853372434
13871, 1.63343108504399
13874, 1.63049853372434
13876, 1.63049853372434
13876, 1.63049853372434
13910, 1.63343108504399
13911, 1.63049853372434
13912, 1.63049853372434
13947, 1.63049853372434
13948, 1.63049853372434
13950, 1.63049853372434
13951, 1.63049853372434
13986, 1.63049853372434
13987, 1.63049853372434
13989, 1.63049853372434
13991, 1.63049853372434
14004, 1.63049853372434
14015, 1.63049853372434
14026, 1.63049853372434
14036, 1.63049853372434
14036, 1.63343108504399
14071, 1.63049853372434
14096, 1.63049853372434
14099, 1.63049853372434
14115, 1.63049853372434
14119, 1.63049853372434
14119, 1.63049853372434
14121, 1.63049853372434
14123, 1.63049853372434
14130, 1.63343108504399
14164, 1.63049853372434
14165, 1.63343108504399
14167, 1.63049853372434
14224, 1.63049853372434
14226, 1.63049853372434
14229, 1.63049853372434
14230, 1.63049853372434
14232, 1.63049853372434
14232, 1.63049853372434
14234, 1.63049853372434
14245, 1.63049853372434
14280, 1.63049853372434
14282, 1.63049853372434
14282, 1.63049853372434
14285, 1.63049853372434
14322, 1.63049853372434
14324, 1.63049853372434
14324, 1.63049853372434
14328, 1.63049853372434
14363, 1.63049853372434
14367, 1.63049853372434
14367, 1.63049853372434
14369, 1.63049853372434
14405, 1.63049853372434
14405, 1.63049853372434
14408, 1.63049853372434
14413, 1.63049853372434
14417, 1.63049853372434
14417, 1.63049853372434
14426, 1.63049853372434
14464, 1.63049853372434
14465, 1.63049853372434
14469, 1.63049853372434
14470, 1.63049853372434
14512, 1.63049853372434
14512, 1.63049853372434
14513, 1.63049853372434
14515, 1.63049853372434
14516, 1.63049853372434
14551, 1.63049853372434
14552, 1.63049853372434
14554, 1.63049853372434
14628, 1.63049853372434
14628, 1.63049853372434
14630, 1.63049853372434
14631, 1.63049853372434
14632, 1.63049853372434
14634, 1.63049853372434
14636, 1.63049853372434
14638, 1.63049853372434
14672, 1.63049853372434
14674, 1.63049853372434
14674, 1.63049853372434
14676, 1.63049853372434
14677, 1.63049853372434
14711, 1.63049853372434
14712, 1.63049853372434
14715, 1.63049853372434
14749, 1.63049853372434
14750, 1.63049853372434
14751, 1.63049853372434
14752, 1.63049853372434
14760, 1.63049853372434
14803, 1.63049853372434
14814, 1.63049853372434
14825, 1.63049853372434
14831, 1.63049853372434
14832, 1.63049853372434
14834, 1.63049853372434
14834, 1.63049853372434
14839, 1.63049853372434
14850, 1.62756598240469
14857, 1.63049853372434
14867, 1.63049853372434
14878, 1.63049853372434
14887, 1.63049853372434
14932, 1.63049853372434
14934, 1.63049853372434
14934, 1.63049853372434
14936, 1.63049853372434
14937, 1.63049853372434
14975, 1.63049853372434
14977, 1.63049853372434
14979, 1.63049853372434
15023, 1.63049853372434
15025, 1.63049853372434
15025, 1.63049853372434
15026, 1.63049853372434
15027, 1.63049853372434
15031, 1.63049853372434
15047, 1.63049853372434
15048, 1.63049853372434
15057, 1.63049853372434
15067, 1.63049853372434
15104, 1.63343108504399
15105, 1.63343108504399
15106, 1.63049853372434
15112, 1.63049853372434
15127, 1.63049853372434
15135, 1.63049853372434
15170, 1.63049853372434
15170, 1.63049853372434
15171, 1.63049853372434
15172, 1.63049853372434
15219, 1.63049853372434
15222, 1.63049853372434
15225, 1.63049853372434
15225, 1.63049853372434
15227, 1.63049853372434
15228, 1.63049853372434
15237, 1.63049853372434
15272, 1.63049853372434
15274, 1.63049853372434
15275, 1.63049853372434
15279, 1.63049853372434
15314, 1.63049853372434
15315, 1.63049853372434
15316, 1.63049853372434
15351, 1.63049853372434
15353, 1.63343108504399
15353, 1.63343108504399
15357, 1.63049853372434
15369, 1.63049853372434
15375, 1.63049853372434
15421, 1.63049853372434
15425, 1.63049853372434
15426, 1.63049853372434
15428, 1.63049853372434
15428, 1.63049853372434
15430, 1.63049853372434
15447, 1.63049853372434
15481, 1.63049853372434
15482, 1.63049853372434
15485, 1.63049853372434
15486, 1.63049853372434
15520, 1.63049853372434
15522, 1.63049853372434
15522, 1.63049853372434
15527, 1.63049853372434
15538, 1.63049853372434
15549, 1.63049853372434
15549, 1.63049853372434
15560, 1.63049853372434
15612, 1.63049853372434
15629, 1.63049853372434
15630, 1.63049853372434
15633, 1.63049853372434
15634, 1.63049853372434
15635, 1.63049853372434
15637, 1.63049853372434
15671, 1.63049853372434
15673, 1.63049853372434
15673, 1.63049853372434
15675, 1.63049853372434
15711, 1.63049853372434
15717, 1.63049853372434
15717, 1.63049853372434
15720, 1.63049853372434
15721, 1.63343108504399
15730, 1.63343108504399
15740, 1.63049853372434
15747, 1.63049853372434
15757, 1.63049853372434
15766, 1.63049853372434
15804, 1.63049853372434
15815, 1.63049853372434
15826, 1.63343108504399
15829, 1.63049853372434
15830, 1.63049853372434
15831, 1.63049853372434
15841, 1.63049853372434
15875, 1.63049853372434
15876, 1.63049853372434
15877, 1.63049853372434
15879, 1.63049853372434
15914, 1.63049853372434
15915, 1.63049853372434
15916, 1.63049853372434
15954, 1.63049853372434
15956, 1.63049853372434
15956, 1.63049853372434
15959, 1.63049853372434
15960, 1.63049853372434
16024, 1.63049853372434
16025, 1.63049853372434
16026, 1.63049853372434
16029, 1.63049853372434
16032, 1.63049853372434
16032, 1.62756598240469
16034, 1.63049853372434
16040, 1.63343108504399
16074, 1.63343108504399
16076, 1.63049853372434
16077, 1.63049853372434
16114, 1.63049853372434
16116, 1.63049853372434
16116, 1.63049853372434
16119, 1.63049853372434
16121, 1.63049853372434
16155, 1.63049853372434
16156, 1.63049853372434
16157, 1.63049853372434
16197, 1.63049853372434
16209, 1.63049853372434
16220, 1.63049853372434
16227, 1.63049853372434
16227, 1.63049853372434
16229, 1.63049853372434
16230, 1.63049853372434
16231, 1.63343108504399
16270, 1.63049853372434
16271, 1.63049853372434
16272, 1.63049853372434
16279, 1.63049853372434
16279, 1.63049853372434
16288, 1.63049853372434
16321, 1.63049853372434
16329, 1.63049853372434
16329, 1.63049853372434
16362, 1.63049853372434
16364, 1.63049853372434
16364, 1.63049853372434
16366, 1.63049853372434
16370, 1.63049853372434
16411, 1.63049853372434
16423, 1.63049853372434
16427, 1.63049853372434
16429, 1.63049853372434
16430, 1.63343108504399
16442, 1.63049853372434
16442, 1.63049853372434
16449, 1.63049853372434
16481, 1.63049853372434
16482, 1.63049853372434
16484, 1.63049853372434
16485, 1.63049853372434
16520, 1.63049853372434
16521, 1.63049853372434
16522, 1.63049853372434
16530, 1.63049853372434
16564, 1.63049853372434
16565, 1.63343108504399
16573, 1.63049853372434
16573, 1.63049853372434
16576, 1.63049853372434
16586, 1.63049853372434
16614, 1.63049853372434
16629, 1.63049853372434
16630, 1.63049853372434
16631, 1.63049853372434
16646, 1.63049853372434
16654, 1.63049853372434
16688, 1.63049853372434
16688, 1.63049853372434
16691, 1.63049853372434
16693, 1.63049853372434
16726, 1.63049853372434
16729, 1.63049853372434
16731, 1.63049853372434
16741, 1.63049853372434
16744, 1.63049853372434
16780, 1.63049853372434
16781, 1.63049853372434
16786, 1.63049853372434
16788, 1.63049853372434
16788, 1.63049853372434
16832, 1.63343108504399
16834, 1.63049853372434
16835, 1.63049853372434
16836, 1.63049853372434
16871, 1.63343108504399
16872, 1.63049853372434
16876, 1.63049853372434
16877, 1.63049853372434
16912, 1.63049853372434
16914, 1.63049853372434
16915, 1.63049853372434
16916, 1.63343108504399
16951, 1.63049853372434
16954, 1.63049853372434
16956, 1.63049853372434
16957, 1.63049853372434
16996, 1.63049853372434
17007, 1.63049853372434
17019, 1.63049853372434
17026, 1.63049853372434
17027, 1.63343108504399
17034, 1.63049853372434
17036, 1.63049853372434
17036, 1.63049853372434
17039, 1.63343108504399
17072, 1.63049853372434
17074, 1.63343108504399
17075, 1.63049853372434
17080, 1.63049853372434
17114, 1.63049853372434
17115, 1.63343108504399
17116, 1.63049853372434
17152, 1.63049853372434
17152, 1.63049853372434
17154, 1.63049853372434
17157, 1.63049853372434
17158, 1.63049853372434
17199, 1.63049853372434
17210, 1.63049853372434
17221, 1.63049853372434
17229, 1.63049853372434
17229, 1.63049853372434
17231, 1.63049853372434
17232, 1.63049853372434
17266, 1.63049853372434
17268, 1.63049853372434
17270, 1.63049853372434
17271, 1.63049853372434
17280, 1.63049853372434
17315, 1.63049853372434
17316, 1.63049853372434
17317, 1.63049853372434
17318, 1.63049853372434
17352, 1.63049853372434
17355, 1.63049853372434
17356, 1.63049853372434
17367, 1.63049853372434
17376, 1.63049853372434
17385, 1.63049853372434
17385, 1.63049853372434
17413, 1.63049853372434
17430, 1.63343108504399
17431, 1.63049853372434
17432, 1.63343108504399
17472, 1.63049853372434
17475, 1.63049853372434
17475, 1.63049853372434
17477, 1.63049853372434
17479, 1.63049853372434
17514, 1.63049853372434
17516, 1.63049853372434
17517, 1.63049853372434
17552, 1.63049853372434
17554, 1.63049853372434
17555, 1.63343108504399
17557, 1.63049853372434
17557, 1.63049853372434
17592, 1.63343108504399
17604, 1.63049853372434
17615, 1.63343108504399
17630, 1.63049853372434
17631, 1.63049853372434
17632, 1.63049853372434
17640, 1.63049853372434
17674, 1.63049853372434
17674, 1.63049853372434
17676, 1.63049853372434
17677, 1.63049853372434
17687, 1.63049853372434
17721, 1.63343108504399
17724, 1.63049853372434
17724, 1.63049853372434
17725, 1.63049853372434
17726, 1.63049853372434
17760, 1.63343108504399
17761, 1.63049853372434
17764, 1.63049853372434
17765, 1.63049853372434
17822, 1.63343108504399
17824, 1.63049853372434
17825, 1.63049853372434
17826, 1.63049853372434
17827, 1.63343108504399
17829, 1.63343108504399
17841, 1.63049853372434
17847, 1.63049853372434
17857, 1.63049853372434
17867, 1.63049853372434
17904, 1.63049853372434
17905, 1.63049853372434
17906, 1.63049853372434
17907, 1.63049853372434
17915, 1.63049853372434
17925, 1.63049853372434
17960, 1.63049853372434
17961, 1.63049853372434
17962, 1.63049853372434
17971, 1.63049853372434
17981, 1.63049853372434
17998, 1.63049853372434
18008, 1.63049853372434
18008, 1.63049853372434
18016, 1.63049853372434
18026, 1.63049853372434
18062, 1.63049853372434
18064, 1.62756598240469
18065, 1.63049853372434
18067, 1.63049853372434
18087, 1.53372434017595
18087, 1.26099706744868
18096, 1.43108504398827
18130, 1.24046920821114
18131, 1.49560117302053
18132, 1.36656891495601
18150, 1.63049853372434
18151, 1.63049853372434
18186, 1.63049853372434
18226, 1.63049853372434
18226, 1.58651026392962
18229, 1.17008797653959
18230, 1.63049853372434
18231, 1.63049853372434
18232, 1.63049853372434
18234, 1.63049853372434
18270, 1.63049853372434
18272, 1.63049853372434
18272, 1.63049853372434
18275, 1.63049853372434
18277, 1.63049853372434
18287, 1.62756598240469
18297, 1.50733137829912
18307, 1.27272727272727
18329, 1.58064516129032
18329, 1.0791788856305
18339, 1.63049853372434
18372, 1.5307917888563
18374, 1.55425219941349
18375, 1.33431085043988
18384, 1.54545454545455
18391, 1.28445747800586
18432, 1.63049853372434
18432, 1.61876832844575
18434, 1.63049853372434
18435, 1.63049853372434
18436, 1.63049853372434
18472, 1.63049853372434
18474, 1.63049853372434
18475, 1.52199413489736
18510, 1.55718475073314
18512, 1.50146627565982
18512, 1.63049853372434
18514, 1.62463343108504
18517, 1.19061583577713
18551, 1.05278592375367
18552, 1.56891495601173
18554, 1.09970674486804
18625, 1.50733137829912
18632, 1.15542521994135
18632, 0.926686217008797
18634, -0.0175953079178887
18635, 0.574780058651026
18636, 0.636363636363636
18637, 0.994134897360704
18639, 1.0733137829912
18676, 1.26392961876833
18677, 1.21700879765396
18679, 1.37536656891496
18679, 0.985337243401759
18681, 1.24046920821114
18690, 1.26686217008798
18700, 1.56011730205279
18734, 1.24633431085044
18736, 1.44574780058651
18737, 1.49266862170088
18747, 1.63049853372434
18783, 1.63049853372434
18783, 1.63049853372434
18785, 1.63049853372434
18807, 1.63049853372434
18825, 1.63049853372434
18827, 1.54838709677419
18829, 0.973607038123167
18830, 1.21994134897361
18867, 0.788856304985337
18867, 0.838709677419355
18869, 0.554252199413489
18870, 0.785923753665689
18871, 0.718475073313783
18911, 0.932551319648093
18912, 1.0791788856305
18915, 1.44574780058651
18916, 1.30791788856305
18952, 1.43695014662757
18952, 0.888563049853372
18954, 1.1466275659824
18957, 0.879765395894428
18999, 1.21114369501466
19010, 0.953079178885631
19021, 0.991202346041055
19027, 0.718475073313783
19032, 0.841642228739003
19032, 0.958944281524927
19036, 0.93841642228739
19037, 0.944281524926686
19039, 1.11436950146628
19074, 0.92375366568915
19075, 1.04105571847507
19076, 0.659824046920821
19077, 0.642228739002932
19115, 0.671554252199413
19116, 0.709677419354839
19117, 0.574780058651026
19119, 0.378299120234604
19137, 0.495601173020528
19137, 0.665689149560117
19171, 0.536656891495601
19172, 0.671554252199413
19175, 0.472140762463343
19177, 0.448680351906158
19220, 0.313782991202346
19222, 0.498533724340176
19228, 0.410557184750733
19230, 0.202346041055718
19237, 0.252199413489736
19272, 0.703812316715543
19274, 0.747800586510264
19274, 0.703812316715543
19276, 0.633431085043988
19311, 0.375366568914956
19313, 0.457478005865102
19313, 0.469208211143695
19317, 0.439882697947214
19354, 0.894428152492669
19355, 0.888563049853372
19355, 0.296187683284457
19357, -0.557184750733138
19368, -0.32258064516129
19368, -0.0146627565982405
19376, 0.12316715542522
19415, -0.137829912023461
19425, 0.290322580645161
19426, 0.404692082111437
19429, 0.521994134897361
19430, 0.436950146627566
19466, 0.334310850439882
19467, 0.313782991202346
19469, 0.604105571847507
19477, 0.557184750733138
19487, 0.486803519061583
19496, 0.636363636363636
19530, 0.718475073313783
19531, 0.439882697947214
19532, 0.794721407624633
19535, 0.93841642228739
19548, 0.868035190615836
19560, 0.829912023460411
19560, 1.05278592375367
19620, 1.04692082111437
19620, 0.935483870967742
19624, 0.604105571847507
19625, 0.563049853372434
19628, 0.548387096774193
19629, 1.01759530791789
19629, 1.06451612903226
19664, 1.12903225806452
19665, 1.19354838709677
19668, 1.05571847507331
19668, 0.979472140762463
19707, 1.35190615835777
19707, 1.18181818181818
19711, 1.158357771261
19711, 1.40469208211144
19723, 1.35483870967742
19758, 1.3049853372434
19758, 1.56891495601173
19758, 1.43108504398827
19800, 1.60410557184751
19827, 1.62756598240469
19827, 1.59237536656891
19831, 1.17595307917889
19834, 0.958944281524927
19835, 0.958944281524927
19836, 1.04985337243402
19837, 1.16715542521994
19872, 1.43695014662757
19875, 1.41642228739003
19875, 1.53958944281525
19878, 1.29618768328446
19880, 1.17888563049853
19912, 1.20234604105572
19914, 1.10850439882698
19915, 1.0058651026393
19950, 0.909090909090909
19952, 1.0058651026393
19952, 0.835777126099707
19955, 0.914956011730205
19957, 0.604105571847507
20000, 0.744868035190616
20011, 0.744868035190616
20022, 0.595307917888563
20030, 0.81524926686217
20031, 0.217008797653959
20032, -0.0234604105571848
20043, 0.225806451612903
20043, 0.407624633431085
20050, 0.319648093841642
20084, 0.319648093841642
20085, 0.395894428152493
20087, 0.589442815249266
20121, 0.401759530791789
20122, 0.395894428152493
20122, 0.173020527859237
20126, -0.454545454545455
20127, -0.545454545454546
20160, 0.178885630498534
20161, 0.478005865102639
20167, 0.618768328445747
20202, 0.624633431085044
20229, 0.56891495601173
20229, 0.483870967741936
20231, 0.589442815249266
20232, 0.196480938416422
20233, 0.381231671554252
20235, 0.266862170087976
20270, 0.252199413489736
20270, 0.612903225806451
20272, 0.718475073313783
20274, 0.686217008797654
20280, 0.744868035190616
20291, 0.695014662756598
20324, 0.87683284457478
20325, 0.958944281524927
20326, 0.797653958944282
20329, 0.601173020527859
20362, 0.63049853372434
20364, 0.472140762463343
20365, 0.334310850439882
20366, 0.419354838709677
20405, 0.237536656891496
20416, -0.00879765395894436
20430, 0.328445747800586
20431, 0.175953079178886
20432, 0.258064516129032
20435, 0.067448680351906
20470, -0.143695014662757
20470, -0.258064516129032
20472, -0.155425219941349
20474, 0.00293255131964805
20509, -0.346041055718475
20510, -0.296187683284457
20510, -0.475073313782991
20517, -0.624633431085044
20517, -0.354838709677419
20529, -0.413489736070381
20561, -0.319648093841642
20562, -0.00293255131964825
20566, -0.225806451612903
20607, -0.137829912023461
20625, -0.258064516129032
20626, -0.381231671554252
20629, -0.55425219941349
20630, -0.733137829912023
20633, -0.560117302052786
20633, -0.976539589442815
20648, -1.00879765395894
20648, -0.782991202346041
20656, -0.765395894428153
20689, -0.469208211143695
20690, -0.354838709677419
20691, -0.381231671554252
20725, -0.351906158357771
20726, -0.334310850439883
20730, -0.422287390029326
20764, -0.448680351906158
20768, -0.296187683284457
20768, -0.0058651026392963
20770, -0.0762463343108505
20779, 0.0645161290322579
20815, -0.0733137829912023
20815, 0.032258064516129
20819, -0.0439882697947214
20821, -0.269794721407625
20832, -0.102639296187683
20833, 0.0234604105571846
20869, 0.0615835777126099
20869, -0.0733137829912023
20871, 0.18475073313783
20872, 0.126099706744868
20910, 0.252199413489736
20910, 0.442815249266862
20915, 0.466275659824047
20916, -0.55425219941349
20917, -1.05865102639296
20952, -0.979472140762463
20954, -0.521994134897361
20955, -0.483870967741936
20993, -0.43108504398827
20993, -0.510263929618768
20995, -0.604105571847507
21001, -0.744868035190616
21012, -0.86217008797654
21015, -1.36363636363636
21016, -1.36363636363636
21049, -1.36363636363636
21051, -1.36363636363636
21085, -1.36363636363636
21085, -1.36363636363636
21087, -1.36363636363636
21089, -1.36363636363636
21090, -1.36363636363636
21124, -1.36363636363636
21125, -1.36363636363636
21127, -1.36363636363636
21161, -1.36363636363636
21162, -1.36363636363636
21164, -1.36363636363636
21165, -1.36363636363636
21166, -1.36363636363636
21204, -1.36363636363636
21215, -1.36363636363636
21228, -1.36363636363636
21230, -1.36363636363636
21232, -1.36363636363636
21232, -1.36363636363636
21235, -1.36363636363636
21269, -1.36363636363636
21270, -1.36363636363636
21271, -1.36363636363636
21310, -1.36363636363636
21312, -1.36363636363636
21312, -1.36363636363636
21315, -1.36363636363636
21316, -1.36363636363636
21350, -1.36363636363636
21352, -1.36363636363636
21354, -1.36363636363636
21424, -1.36363636363636
21426, -1.36363636363636
21426, -1.36363636363636
21427, -1.36363636363636
21431, -1.36363636363636
21432, -1.36363636363636
21434, -1.36363636363636
21435, -1.36363636363636
21470, -1.36363636363636
21470, -1.36363636363636
21472, -1.36363636363636
21474, -1.36363636363636
21479, -1.36363636363636
21512, -1.36363636363636
21513, -1.36363636363636
21515, -1.36363636363636
21550, -1.36363636363636
21550, -1.36363636363636
21551, -1.36363636363636
21552, -1.36363636363636
21560, -1.36363636363636
21597, -1.36363636363636
21609, -1.36363636363636
21620, -1.36363636363636
21625, -1.36363636363636
21626, -1.36363636363636
21627, -1.36363636363636
21629, -1.36363636363636
21663, -1.36363636363636
21665, -1.36363636363636
21667, -1.36363636363636
21669, -1.36363636363636
21703, -1.36363636363636
21705, -1.36363636363636
21707, -1.36363636363636
21717, -1.36363636363636
21717, -1.36363636363636
21727, -1.36363636363636
21761, -1.36363636363636
21762, -1.36363636363636
21765, -1.36363636363636
21800, -1.36363636363636
21827, -1.36363636363636
21830, -1.36363636363636
21831, -1.36363636363636
21832, -1.36363636363636
21837, -1.36363636363636
21837, -1.36363636363636
21872, -1.36363636363636
21873, -1.36363636363636
21873, -1.36363636363636
21875, -1.36363636363636
21910, -1.36363636363636
21911, -1.36363636363636
21911, -1.36363636363636
21915, -1.36363636363636
21949, -1.36363636363636
21949, -1.36363636363636
21951, -1.36363636363636
21952, -1.36363636363636
21960, -1.36363636363636
22002, -1.36363636363636
22014, -1.36363636363636
22025, -1.36363636363636
22030, -1.36363636363636
22031, -1.36363636363636
22033, -1.36363636363636
22038, -1.36363636363636
22072, -1.36363636363636
22073, -1.36363636363636
22076, -1.36363636363636
22077, -1.36363636363636
22111, -1.36363636363636
22112, -1.36363636363636
22117, -1.15542521994135
22119, -0.803519061583578
22151, -1.36363636363636
22179, -0.434017595307918
22181, -1.12023460410557
22227, -0.149560117302053
22227, -0.299120234604106
22230, -0.92375366568915
22231, -0.953079178885631
22232, -0.237536656891496
22234, -0.155425219941349
22235, 0.398826979472141
22236, 0.302052785923753
22237, 0.521994134897361
22275, 0.13782991202346
22275, 1.02346041055718
22277, 0.463343108504399
22279, 1.41055718475073
22280, 1.43108504398827
22314, 1.24340175953079
22315, 0.721407624633431
22316, 1.54545454545455
22351, 0.926686217008797
22354, 1.63049853372434
22354, 1.01466275659824
22356, 1.42521994134897
22357, 1.43988269794721
22396, 1.63049853372434
22407, 1.63049853372434
22419, 1.63049853372434
22427, 1.63049853372434
22429, 1.63049853372434
22429, 1.63049853372434
22432, 1.63343108504399
22437, 1.63049853372434
22471, 1.63049853372434
22472, 1.63049853372434
22473, 1.63049853372434
22511, 1.63049853372434
22516, 1.63049853372434
22516, 1.63343108504399
22516, 1.63049853372434
22517, 1.63049853372434
22551, 1.63049853372434
22552, 1.63049853372434
22554, 1.63049853372434
22626, 1.63049853372434
22629, 1.26392961876833
22629, 0.557184750733138
22631, 1.63049853372434
22632, 1.158357771261
22635, 1.62756598240469
22636, 1.63049853372434
22637, 1.63049853372434
22672, 1.63049853372434
22673, 1.63049853372434
22675, 1.63049853372434
22676, 1.63049853372434
22677, 1.63049853372434
22713, 1.63049853372434
22715, 1.63049853372434
22716, 1.63049853372434
22751, 1.63049853372434
22751, 1.63049853372434
22753, 1.63049853372434
22755, 1.63049853372434
22756, 1.63049853372434
22801, 1.63049853372434
22812, 1.63049853372434
22824, 1.63049853372434
22830, 1.63049853372434
22831, 1.63343108504399
22832, 1.63049853372434
22867, 1.63049853372434
22868, 1.63343108504399
22871, 1.63049853372434
22872, 1.63049853372434
22874, 1.63049853372434
22909, 1.63049853372434
22910, 1.63049853372434
22912, 1.63343108504399
22919, 1.63343108504399
22919, 1.63049853372434
22954, 1.63049853372434
22955, 1.63049853372434
22956, 1.63049853372434
22992, 1.63343108504399
23025, 1.63049853372434
23025, 1.63049853372434
23030, 1.63049853372434
23031, 1.63049853372434
23031, 1.63343108504399
23034, 1.63049853372434
23035, 1.63049853372434
23070, 1.63049853372434
23074, 1.63049853372434
23074, 1.63049853372434
23077, 1.63049853372434
23111, 1.63049853372434
23112, 1.63049853372434
23112, 1.63049853372434
23115, 1.63049853372434
23150, 1.63343108504399
23152, 1.63049853372434
23154, 1.63049853372434
23155, 1.63049853372434
23195, 1.63049853372434
23226, 1.63049853372434
23226, 1.63049853372434
23229, 1.63049853372434
23232, 1.63049853372434
23234, 1.63049853372434
23235, 1.63049853372434
23235, 1.63049853372434
23238, 1.62756598240469
23272, 1.63049853372434
23274, 1.63049853372434
23276, 1.63049853372434
23310, 1.63049853372434
23311, 1.63049853372434
23312, 1.63049853372434
23314, 1.63049853372434
23347, 1.63049853372434
23349, 1.63049853372434
23351, 1.63049853372434
23352, 1.63049853372434
23425, 1.63049853372434
23427, 1.63049853372434
23427, 1.63049853372434
23430, 1.63049853372434
23431, 1.63049853372434
23434, 1.63049853372434
23435, 1.63049853372434
23436, 1.63049853372434
23472, 1.63049853372434
23472, 1.63049853372434
23473, 1.63049853372434
23475, 1.63049853372434
23476, 1.63049853372434
23510, 1.63049853372434
23512, 1.63049853372434
23513, 1.63049853372434
23549, 1.63049853372434
23549, 1.63343108504399
23551, 1.63049853372434
23552, 1.63049853372434
23560, 1.63049853372434
23605, 1.63049853372434
23606, 1.63049853372434
23607, 1.63049853372434
23610, 1.63049853372434
23624, 1.63049853372434
23624, 1.63049853372434
23626, 1.63049853372434
23662, 1.63049853372434
23664, 1.63049853372434
23665, 1.63049853372434
23671, 1.63049853372434
23685, 1.63049853372434
23697, 1.63049853372434
23697, 1.63343108504399
23707, 1.63049853372434
23742, 1.63049853372434
23744, 1.63049853372434
23745, 1.63049853372434
23752, 1.63049853372434
23766, 1.63049853372434
23775, 1.63049853372434
23822, 1.63049853372434
23822, 1.63049853372434
23823, 1.63049853372434
23825, 1.63049853372434
23828, 1.63049853372434
23830, 1.62756598240469
23873, 1.63049853372434
23876, 1.63049853372434
23877, 1.63049853372434
23879, 1.63049853372434
23879, 1.63049853372434
23887, 1.63049853372434
23922, 1.63049853372434
23923, 1.63049853372434
23926, 1.63049853372434
23963, 1.63049853372434
23965, 1.63049853372434
23967, 1.63049853372434
23967, 1.63049853372434
23970, 1.63049853372434
23980, 1.63049853372434
23994, 1.63049853372434
24025, 1.63049853372434
24026, 1.63049853372434
24027, 1.63049853372434
24037, 1.63049853372434
24047, 1.56891495601173
24047, 1.53958944281525
24056, 1.43108504398827
24091, 1.44574780058651
24094, 1.25806451612903
24094, 1.63049853372434
24132, 1.63049853372434
24133, 1.63049853372434
24133, 1.63049853372434
24136, 1.62756598240469
24137, 1.24926686217009
24147, 1.51906158357771
24167, 1.6099706744868
24177, 1.53958944281525
24177, 1.24926686217009
24219, 0.774193548387097
24225, 0.252199413489736
24226, 1.30205278592375
24227, 1.06451612903226
24229, 0.961876832844574
24264, 1.16715542521994
24266, 1.3841642228739
24267, 0.882697947214076
24303, 1.39589442815249
24304, 1.46041055718475
24305, 1.47214076246334
24306, 1.18768328445748
24307, 1.3108504398827
24316, 1.25806451612903
24350, 1.30791788856305
24351, 0.847507331378299
24352, 1.3841642228739
24360, 1.11730205278592
24370, 1.44574780058651
24410, 1.20821114369501
24421, 1.18768328445748
24425, 0.917888563049853
24426, 1.09970674486804
24427, 0.381231671554252
24437, 0.498533724340176
24472, 0.378299120234604
24474, 0.782991202346041
24474, 0.0850439882697945
24476, 0.36950146627566
24514, 0.152492668621701
24514, 0.390029325513196
24516, 0.0733137829912023
24517, 0.689149560117302
24518, 0.671554252199413
24552, 0.829912023460411
24553, 0.196480938416422
24555, 0.736070381231671
24596, 0.32258064516129
24597, 0.695014662756598
24598, 0.653958944281525
24603, 1.00879765395894
24606, 0.774193548387097
24640, 1.14076246334311
24642, 0.712609970674487
24642, 0.985337243401759
24648, 0.730205278592375
24655, 0.759530791788856
24689, 0.475073313782991
24691, 0.774193548387097
24691, 0.489736070381232
24694, 0.665689149560117
24695, 0.290322580645161
24730, 0.533724340175953
24733, 0.00293255131964805
24733, 0.436950146627566
24739, -0.290322580645161
24772, 0.0938416422287388
24774, -0.0293255131964809
24775, 0.129032258064516
24810, 0.0205278592375366
24811, 0.196480938416422
24814, -0.237536656891496
24814, 0.0381231671554251
24817, -0.521994134897361
24852, 0.269794721407625
24853, 0.0997067448680349
24855, 0.12316715542522
24856, 0.0205278592375366
24890, 0.126099706744868
24892, 0.164222873900293
24899, 0.589442815249266
24899, 0.390029325513196
24907, 0.835777126099707
24942, 0.357771260997067
24944, 0.539589442815249
24945, 0.263929618768328
24950, 0.483870967741936
25024, 0.651026392961877
25024, 1.24926686217009
25026, 0.821114369501466
25027, 0.304985337243402
25029, -0.140762463343109
25031, -0.310850439882698
25032, -0.234604105571848
25033, 0.604105571847507
25070, 0.313782991202346
25072, 0.700879765395894
25072, 0.281524926686217
25076, 0.489736070381232
25077, 0.425219941348974
25110, 0.489736070381232
25111, 0.483870967741936
25112, 1.0733137829912
25147, 0.642228739002932
25150, 1.08797653958944
25150, 0.841642228739003
25152, 1.06451612903226
25159, 0.985337243401759
25167, 1.3108504398827
25209, 1.36070381231672
25220, 1.21700879765396
25227, 1.03812316715543
25228, 1.27272727272727
25228, 0.964809384164223
25231, 1.26979472140762
25241, 0.73900293255132
25250, 0.906158357771261
25283, 0.604105571847507
25285, 0.914956011730205
25287, 0.545454545454545
25321, 0.736070381231671
25323, 0.624633431085044
25325, 0.709677419354839
25325, 0.607038123167155
25327, 0.882697947214076
25361, 0.727272727272728
25362, 0.979472140762463
25365, 0.284457478005865
25365, 0.700879765395894
25422, 0.372434017595308
25426, 0.510263929618768
25428, 0.516129032258064
25428, 0.794721407624633
25430, 0.404692082111437
25431, 0.539589442815249
25448, 0.390029325513196
25456, 0.715542521994135
25466, 0.363636363636364
25477, 0.624633431085044
25486, 0.436950146627566
25496, 0.589442815249266
25497, 0.0645161290322579
25507, 0.536656891495601
25519, 0.454545454545455
25561, 0.750733137829912
25561, 0.744868035190616
25563, 0.595307917888563
25565, 0.219941348973607
25566, 0.595307917888563
25621, 0.557184750733138
25622, 0.49266862170088
25625, 0.595307917888563
25628, 0.665689149560117
25630, 0.49266862170088
25636, 0.706744868035191
25646, 0.510263929618768
25655, 0.765395894428152
25665, 0.771260997067449
25666, 0.850439882697947
25687, 0.542521994134897
25687, 0.841642228739003
25697, 0.686217008797654
25731, 0.759530791788856
25732, 0.709677419354839
25733, 0.870967741935484
25741, 0.870967741935484
25749, 0.985337243401759
25823, 1.03519061583578
25826, 0.894428152492669
25826, 1.24633431085044
25830, 1.46041055718475
25831, 1.29912023460411
25832, 0.81524926686217
25834, 0.401759530791789
25835, 1.25219941348974
25871, 1.46920821114369
25876, 1.60117302052786
25876, 1.63049853372434
25879, 1.55425219941349
25880, 1.55425219941349
25890, 1.62463343108504
25899, 1.40175953079179
25932, 1.34310850439883
25935, 1.04105571847507
25937, 1.55131964809384
25947, 1.52199413489736
25957, 1.16715542521994
25967, 1.48680351906158
25967, 1.60117302052786
25978, 1.5307917888563
26025, 1.63049853372434
26028, 1.63049853372434
26028, 1.62756598240469
26030, 1.63049853372434
26033, 1.62756598240469
26038, 1.20821114369501
26049, 1.09970674486804
26083, 1.29618768328446
26085, 1.24633431085044
26090, 1.17888563049853
26090, 1.33431085043988
26097, 1.20527859237537
26107, 1.11143695014663
26117, 1.01173020527859
26126, 1.29912023460411
26161, 1.26392961876833
26162, 1.47800586510264
26165, 1.57478005865103
26237, 1.36070381231672
26237, 1.03812316715543
26239, 1.47800586510264
26264, 1.27272727272727
26265, 1.07038123167155
26266, 0.58357771260997
26275, 0.504398826979472
26282, 0.486803519061583
26282, 0.782991202346041
26284, 0.64516129032258
26285, 0.548387096774193
26286, 0.516129032258064
26287, 0.489736070381232
26322, 0.32258064516129
26326, 0.648093841642228
26329, 0.627565982404692
26364, 0.601173020527859
26364, 0.533724340175953
26366, 0.457478005865102
26367, 0.551319648093842
26370, 0.557184750733138
26420, 0.624633431085044
26421, 0.577712609970674
26424, 0.19941348973607
26427, 0.228739002932551
26429, 0.302052785923753
26465, 0.0997067448680349
26466, 0.272727272727273
26467, 0.173020527859237
26468, -0.161290322580645
26471, -0.105571847507331
26510, -0.214076246334311
26512, 0.140762463343108
26512, 0.0557184750733136
26514, 0.0733137829912023
26518, -0.0469208211143696
26553, 0.193548387096774
26555, 0.304985337243402
26556, 0.170087976539589
26628, 0.18475073313783
26629, 0.070381231671554
26631, -0.0997067448680351
26632, -0.102639296187683
26633, -0.627565982404692
26635, -0.187683284457478
26636, 0.516129032258064
26637, 0.624633431085044
26675, 0.313782991202346
26675, 0.665689149560117
26677, 0.428152492668622
26678, 0.428152492668622
26713, 0.155425219941349
26713, 0.208211143695015
26715, 0.0439882697947214
26716, 0.178885630498534
26718, 0.243401759530792
26754, 0.419354838709677
26755, 0.155425219941349
26756, 0.19941348973607
26795, 0.293255131964809
26824, 0.498533724340176
26824, 0.557184750733138
26826, 0.413489736070381
26832, 0.381231671554252
26833, 0.677419354838709
26833, 0.410557184750733
26837, 0.278592375366569
26837, -0.093841642228739
26847, -0.00879765395894436
26881, -0.126099706744868
26882, -0.0850439882697947
26885, -0.228739002932551
26918, -0.0557184750733138
26921, -0.237536656891496
26923, -0.202346041055719
26925, -0.442815249266862
26925, -0.334310850439883
26936, -0.521994134897361
26971, -0.592375366568915
26974, -0.478005865102639
26975, -0.228739002932551
27020, -0.178885630498534
27027, -0.17008797653959
27028, -0.510263929618768
27030, -0.0293255131964809
27034, -0.316715542521994
27034, -0.340175953079179
27070, -0.225806451612903
27072, -0.340175953079179
27072, -0.422287390029326
27075, -0.090909090909091
27076, -0.0615835777126101
27112, -0.0850439882697947
27112, -0.258064516129032
27113, 0.173020527859237
27148, 0.337243401759531
27151, 0.287390029325513
27151, 0
27153, 0.0205278592375366
27155, 0.0410557184750731
27188, 0.269794721407625
27211, 0.360703812316716
27227, 0.49266862170088
27230, 0.181818181818182
27232, 0.36950146627566
27233, 0.302052785923753
27238, 0.351906158357771
27248, 0.175953079178886
27260, 0.114369501466276
27260, -0.0821114369501466
27293, 0.0909090909090908
27296, 0.0909090909090908
27297, 0.398826979472141
27298, -0.0058651026392963
27307, -0.117302052785924
27345, -0.149560117302053
27346, 0.178885630498534
27350, 0.117302052785924
27351, 0.117302052785924
27368, -0.266862170087976
27368, -0.0293255131964809
27375, -0.164222873900293
27421, -0.0410557184750733
27422, 0.0439882697947214
27423, -0.0703812316715542
27425, -0.809384164222874
27430, -0.521994134897361
27451, 0.114369501466276
27451, -0.0557184750733138
27455, -0.0498533724340177
27490, 0.346041055718475
27491, 0.604105571847507
27492, 0.659824046920821
27502, 0.788856304985337
27510, 0.961876832844574
27520, 0.932551319648093
27530, 0.829912023460411
27537, 0.888563049853372
27547, 0.964809384164223
27582, 0.897360703812316
27585, 0.906158357771261
27586, 1.00293255131965
27587, 1.16715542521994
27605, 1.08211143695015
27616, 0.979472140762463
27626, 0.771260997067449
27627, 0.633431085043988
27661, 0.281524926686217
27663, 0.19941348973607
27665, 0.181818181818182
27671, -0.00879765395894436
27711, -0.0234604105571848
27713, -0.0557184750733138
27713, 0.0527859237536655
27715, -0.296187683284457
27716, -0.266862170087976
27750, -0.269794721407625
27751, -0.0557184750733138
27755, -0.0469208211143696
27822, 0.287390029325513
27822, 0.275659824046921
27825, 0.466275659824047
27826, 0.395894428152493
27827, 0.469208211143695
27829, 0.0909090909090908
27830, 0.231671554252199
27834, 0.551319648093842
27846, 0.627565982404692
27846, 0.208211143695015
27857, 0.302052785923753
27892, 0.149560117302053
27894, 0.155425219941349
27895, 0.211143695014663
27896, 0.237536656891496
27932, 0.146627565982405
27936, 0.240469208211144
27936, 0.346041055718475
27947, 0.469208211143695
27984, 0.436950146627566
27984, 0.425219941348974
27986, 0.32258064516129
27987, 0.381231671554252
27999, 0.187683284457478
28010, 0.240469208211144
28021, 0.178885630498534
28026, 0.290322580645161
28027, 0.290322580645161
28062, 0.436950146627566
28064, 0.126099706744868
28065, 0.302052785923753
28075, 0.258064516129032
28088, 0.472140762463343
28088, 0.032258064516129
28095, -0.0410557184750733
28129, -0.234604105571848
28130, -0.164222873900293
28131, -0.621700879765396
28165, -0.310850439882698
28166, -0.472140762463343
28171, -0.243401759530792
28177, -0.50733137829912
28177, -0.258064516129032
28186, -0.351906158357771
28212, -0.0615835777126101
28230, -0.0997067448680351
28231, 0.0234604105571846
28232, -0.304985337243402
28269, -0.809384164222874
28272, -0.868035190615836
28273, -0.0703812316715542
28275, -0.0469208211143696
28311, 0.563049853372434
28312, 0.146627565982405
28318, 0.304985337243402
28318, -0.0410557184750733
28321, 0.158357771260997
28356, 0
28357, 0.278592375366569
28358, 0.208211143695015
28366, 0.357771260997067
28376, 0.0381231671554251
28387, 0.296187683284457
28415, 0.263929618768328
28432, 0.806451612903226
28433, 0.818181818181818
28435, 0.873900293255132
28436, 0.718475073313783
28473, 0.914956011730205
28476, 0.577712609970674
28477, 0.724340175953079
28479, 0.49266862170088
28487, 0.448680351906158
28521, 0.0762463343108503
28522, 0.0117302052785922
28523, -0.533724340175953
28525, -0.375366568914956
28558, -0.689149560117302
28560, -0.548387096774194
28565, -0.847507331378299
28566, -0.6158357771261
28567, -0.618768328445748
28625, -0.0674486803519062
28626, -0.219941348973607
28627, 0.0205278592375366
28628, -0.0498533724340177
28632, 0.489736070381232
28633, -0.0498533724340177
28643, 0.0410557184750731
28651, -0.0234604105571848
28658, 0.269794721407625
28669, 0.181818181818182
28705, 0.668621700879765
28706, 0.422287390029325
28707, 0.489736070381232
28711, 0.070381231671554
