Time;EMG;EDA;LUX;ECG;ACC;BATT;Digit0;Digit1;Digit2;Digit3
34008, -1.36363636363636, 1
34009, -1.36363636363636, 1
34009, -1.36363636363636, 1
34010, -1.36363636363636, 1
34010, -1.36363636363636, 1
34013, -1.36363636363636, 1
34014, -1.36363636363636, 1
34014, -1.36363636363636, 1
34015, -1.36363636363636, 1
34015, -1.36363636363636, 1
34015, -1.36363636363636, 1
34016, -1.36363636363636, 1
34016, -1.36363636363636, 1
34017, -1.36363636363636, 1
34017, -1.36363636363636, 1
34017, -1.36363636363636, 1
34018, -1.36363636363636, 1
34018, -1.36363636363636, 1
34018, -1.36363636363636, 1
34019, -1.36363636363636, 1
34019, -1.36363636363636, 1
34051, -1.36363636363636, 1
34051, -1.36363636363636, 1
34052, -1.36363636363636, 1
34052, -1.36363636363636, 1
34053, -1.36363636363636, 1
34053, -1.36363636363636, 1
34053, -1.36363636363636, 1
34054, -1.36363636363636, 1
34054, -1.36363636363636, 1
34055, -1.36363636363636, 1
34055, -1.36363636363636, 1
34055, -1.36363636363636, 1
34056, -1.36363636363636, 1
34056, -1.36363636363636, 1
34057, -1.36363636363636, 1
34057, -1.36363636363636, 1
34058, -1.36363636363636, 1
34059, -1.36363636363636, 1
34059, -1.36363636363636, 1
34059, -1.36363636363636, 1
34060, -1.36363636363636, 1
34060, -1.36363636363636, 1
34061, -1.36363636363636, 1
34061, -1.36363636363636, 1
34061, -1.36363636363636, 1
34062, -1.36363636363636, 1
34062, -1.36363636363636, 1
34063, -1.36363636363636, 1
34063, -1.36363636363636, 1
34063, -1.36363636363636, 1
34064, -1.36363636363636, 1
34064, -1.36363636363636, 1
34065, -1.36363636363636, 1
34065, -1.36363636363636, 1
34065, -1.36363636363636, 1
34066, -1.36363636363636, 1
34066, -1.36363636363636, 1
34066, -1.36363636363636, 1
34067, -1.36363636363636, 1
34067, -1.36363636363636, 1
34068, -1.36363636363636, 1
34068, -1.36363636363636, 1
34068, -1.36363636363636, 1
34069, -1.36363636363636, 1
34069, -1.36363636363636, 1
34070, -1.36363636363636, 1
34070, -1.36363636363636, 1
34070, -1.36363636363636, 1
34074, -1.36363636363636, 1
34075, -1.36363636363636, 1
34075, -1.36363636363636, 1
34076, -1.36363636363636, 1
34076, -1.36363636363636, 1
34076, -1.36363636363636, 1
34077, -1.36363636363636, 1
34077, -1.36363636363636, 1
34083, -1.36363636363636, 1
34083, -1.36363636363636, 1
34084, -1.36363636363636, 1
34084, -1.36363636363636, 1
34085, -1.36363636363636, 1
34085, -1.36363636363636, 1
34085, -1.36363636363636, 1
34086, -1.36363636363636, 1
34096, -1.36363636363636, 1
34096, -1.36363636363636, 1
34097, -1.36363636363636, 1
34097, -1.36363636363636, 1
34098, -1.36363636363636, 1
34098, -1.36363636363636, 1
34098, -1.36363636363636, 1
34099, -1.36363636363636, 1
34099, -1.36363636363636, 1
34100, -1.36363636363636, 1
34100, -1.36363636363636, 1
34100, -1.36363636363636, 1
34101, -1.36363636363636, 1
34101, -1.36363636363636, 1
34102, -1.36363636363636, 1
34102, -1.36363636363636, 1
34108, -1.36363636363636, 1
34108, -1.36363636363636, 1
34108, -1.36363636363636, 1
34109, -1.36363636363636, 1
34109, -1.36363636363636, 1
34110, -1.36363636363636, 1
34110, -1.36363636363636, 1
34110, -1.36363636363636, 1
34111, -1.36363636363636, 1
34111, -1.36363636363636, 1
34112, -1.36363636363636, 1
34112, -1.36363636363636, 1
34112, -1.36363636363636, 1
34113, -1.36363636363636, 1
34113, -1.36363636363636, 1
34114, -1.36363636363636, 1
34153, -1.36363636363636, 1
34154, -1.36363636363636, 1
34154, -1.36363636363636, 1
34155, -1.36363636363636, 1
34155, -1.36363636363636, 1
34155, -1.36363636363636, 1
34156, -1.36363636363636, 1
34156, -1.36363636363636, 1
34157, -1.36363636363636, 1
34157, -1.36363636363636, 1
34157, -1.36363636363636, 1
34158, -1.36363636363636, 1
34158, -1.36363636363636, 1
34159, -1.36363636363636, 1
34159, -1.36363636363636, 1
34159, -1.36363636363636, 1
34160, -1.36363636363636, 1
34161, -1.36363636363636, 1
34161, -1.36363636363636, 1
34161, -1.36363636363636, 1
34162, -1.36363636363636, 1
34162, -1.36363636363636, 1
34163, -1.36363636363636, 1
34163, -1.36363636363636, 1
34163, -1.36363636363636, 1
34164, -1.36363636363636, 1
34164, -1.36363636363636, 1
34165, -1.36363636363636, 1
34165, -1.36363636363636, 1
34165, -1.36363636363636, 1
34166, -1.36363636363636, 1
34166, -1.36363636363636, 1
34167, -1.36363636363636, 1
34167, -1.36363636363636, 1
34167, -1.36363636363636, 1
34168, -1.36363636363636, 1
34168, -1.36363636363636, 1
34169, -1.36363636363636, 1
34169, -1.36363636363636, 1
34170, -1.36363636363636, 1
34173, -1.36363636363636, 1
34173, -1.36363636363636, 1
34173, -1.36363636363636, 1
34174, -1.36363636363636, 1
34174, -1.36363636363636, 1
34175, -1.36363636363636, 1
34175, -1.36363636363636, 1
34175, -1.36363636363636, 1
34176, -1.36363636363636, 1
34176, -1.36363636363636, 1
34177, -1.36363636363636, 1
34177, -1.36363636363636, 1
34177, -1.36363636363636, 1
34178, -1.36363636363636, 1
34178, -1.36363636363636, 1
34179, -1.36363636363636, 1
34179, -1.36363636363636, 1
34179, -1.36363636363636, 1
34180, -1.36363636363636, 1
34180, -1.36363636363636, 1
34181, -1.36363636363636, 1
34181, -1.36363636363636, 1
34181, -1.36363636363636, 1
34182, -1.36363636363636, 1
34186, -1.36363636363636, 1
34186, -1.36363636363636, 1
34187, -1.36363636363636, 1
34187, -1.36363636363636, 1
34188, -1.36363636363636, 1
34188, -1.36363636363636, 1
34188, -1.36363636363636, 1
34189, -1.36363636363636, 1
34195, -1.36363636363636, 1
34196, -1.36363636363636, 1
34196, -1.36363636363636, 1
34197, -1.36363636363636, 1
34197, -1.36363636363636, 1
34198, -1.36363636363636, 1
34198, -1.36363636363636, 1
34199, -1.36363636363636, 1
34200, -1.36363636363636, 1
34200, -1.36363636363636, 1
34200, -1.36363636363636, 1
34201, -1.36363636363636, 1
34201, -1.36363636363636, 1
34202, -1.36363636363636, 1
34202, -1.36363636363636, 1
34202, -1.36363636363636, 1
34203, -1.36363636363636, 1
34209, -1.36363636363636, 1
34209, -1.36363636363636, 1
34210, -1.36363636363636, 1
34210, -1.36363636363636, 1
34211, -1.36363636363636, 1
34211, -1.36363636363636, 1
34211, -1.36363636363636, 1
34219, -1.36363636363636, 1
34219, -1.36363636363636, 1
34220, -1.36363636363636, 1
34220, -1.36363636363636, 1
34221, -1.36363636363636, 1
34221, -1.36363636363636, 1
34221, -1.36363636363636, 1
34222, -1.36363636363636, 1
34229, -1.36363636363636, 1
34229, -1.36363636363636, 1
34230, -1.36363636363636, 1
34230, -1.36363636363636, 1
34231, -1.36363636363636, 1
34231, -1.36363636363636, 1
34231, -1.36363636363636, 1
34232, -1.36363636363636, 1
34232, -1.36363636363636, 1
34233, -1.36363636363636, 1
34233, -1.36363636363636, 1
34233, -1.36363636363636, 1
34234, -1.36363636363636, 1
34234, -1.36363636363636, 1
34234, -1.36363636363636, 1
34235, -1.36363636363636, 1
34273, -1.36363636363636, 1
34274, -1.36363636363636, 1
34274, -1.36363636363636, 1
34274, -1.36363636363636, 1
34275, -1.36363636363636, 1
34275, -1.36363636363636, 1
34276, -1.36363636363636, 1
34276, -1.36363636363636, 1
34276, -1.36363636363636, 1
34277, -1.36363636363636, 1
34277, -1.36363636363636, 1
34277, -1.36363636363636, 1
34278, -1.36363636363636, 1
34278, -1.36363636363636, 1
34279, -1.36363636363636, 1
34279, -1.36363636363636, 1
34280, -1.36363636363636, 1
34280, -1.36363636363636, 1
34280, -1.36363636363636, 1
34281, -1.36363636363636, 1
34281, -1.36363636363636, 1
34282, -1.36363636363636, 1
34282, -1.36363636363636, 1
34282, -1.36363636363636, 1
34285, -1.36363636363636, 1
34285, -1.36363636363636, 1
34285, -1.36363636363636, 1
34286, -1.36363636363636, 1
34286, -1.36363636363636, 1
34287, -1.36363636363636, 1
34287, -1.36363636363636, 1
34287, -1.36363636363636, 1
34288, -1.36363636363636, 1
34288, -1.36363636363636, 1
34289, -1.36363636363636, 1
34289, -1.36363636363636, 1
34289, -1.36363636363636, 1
34290, -1.36363636363636, 1
34290, -1.36363636363636, 1
34291, -1.36363636363636, 1
34291, -1.36363636363636, 1
34291, -1.36363636363636, 1
34292, -1.36363636363636, 1
34292, -1.36363636363636, 1
34292, -1.36363636363636, 1
34293, -1.36363636363636, 1
34293, -1.36363636363636, 1
34294, -1.36363636363636, 1
34294, -1.36363636363636, 1
34298, -1.36363636363636, 1
34298, -1.36363636363636, 1
34299, -1.36363636363636, 1
34299, -1.36363636363636, 1
34300, -1.36363636363636, 1
34300, -1.36363636363636, 1
34301, -1.36363636363636, 1
34301, -1.36363636363636, 1
34301, -1.36363636363636, 1
34302, -1.36363636363636, 1
34302, -1.36363636363636, 1
34303, -1.36363636363636, 1
34303, -1.36363636363636, 1
34303, -1.36363636363636, 1
34304, -1.36363636363636, 1
34308, -1.36363636363636, 1
34308, -1.36363636363636, 1
34308, -1.36363636363636, 1
34309, -1.36363636363636, 1
34309, -1.36363636363636, 1
34310, -1.36363636363636, 1
34310, -1.36363636363636, 1
34310, -1.36363636363636, 1
34354, -1.36363636363636, 1
34354, -1.36363636363636, 1
34355, -1.36363636363636, 1
34355, -1.36363636363636, 1
34355, -1.36363636363636, 1
34356, -1.36363636363636, 1
34356, -1.36363636363636, 1
34357, -1.36363636363636, 1
34357, -1.36363636363636, 1
34358, -1.36363636363636, 1
34358, -1.36363636363636, 1
34358, -1.36363636363636, 1
34359, -1.36363636363636, 1
34359, -1.36363636363636, 1
34359, -1.36363636363636, 1
34360, -1.36363636363636, 1
34360, -1.36363636363636, 1
34363, -1.36363636363636, 1
34364, -1.36363636363636, 1
34364, -1.36363636363636, 1
34364, -1.36363636363636, 1
34365, -1.36363636363636, 1
34365, -1.36363636363636, 1
34365, -1.36363636363636, 1
34366, -1.36363636363636, 1
34366, -1.36363636363636, 1
34367, -1.36363636363636, 1
34367, -1.36363636363636, 1
34367, -1.36363636363636, 1
34368, -1.36363636363636, 1
34368, -1.36363636363636, 1
34369, -1.36363636363636, 1
34369, -1.36363636363636, 1
34369, -1.36363636363636, 1
34370, -1.36363636363636, 1
34370, -1.36363636363636, 1
34370, -1.36363636363636, 1
34371, -1.36363636363636, 1
34371, -1.36363636363636, 1
34372, -1.36363636363636, 1
34373, -1.36363636363636, 1
34373, -1.36363636363636, 1
34373, -1.36363636363636, 1
34374, -1.36363636363636, 1
34374, -1.36363636363636, 1
34375, -1.36363636363636, 1
34375, -1.36363636363636, 1
34375, -1.36363636363636, 1
34376, -1.36363636363636, 1
34376, -1.36363636363636, 1
34377, -1.36363636363636, 1
34377, -1.36363636363636, 1
34377, -1.36363636363636, 1
34378, -1.36363636363636, 1
34378, -1.36363636363636, 1
34379, -1.36363636363636, 1
34379, -1.36363636363636, 1
34379, -1.36363636363636, 1
34380, -1.36363636363636, 1
34380, -1.36363636363636, 1
34381, -1.36363636363636, 1
34381, -1.36363636363636, 1
34381, -1.36363636363636, 1
34382, -1.36363636363636, 1
34382, -1.36363636363636, 1
34383, -1.36363636363636, 1
34383, -1.36363636363636, 1
34383, -1.36363636363636, 1
34384, -1.36363636363636, 1
34384, -1.36363636363636, 1
34385, -1.36363636363636, 1
34385, -1.36363636363636, 1
34387, -1.36363636363636, 1
34388, -1.36363636363636, 1
34388, -1.36363636363636, 1
34388, -1.36363636363636, 1
34389, -1.36363636363636, 1
34389, -1.36363636363636, 1
34390, -1.36363636363636, 1
34390, -1.36363636363636, 1
34395, -1.36363636363636, 1
34396, -1.36363636363636, 1
34396, -1.36363636363636, 1
34397, -1.36363636363636, 1
34397, -1.36363636363636, 1
34398, -1.36363636363636, 1
34398, -1.36363636363636, 1
34398, -1.36363636363636, 1
34400, -1.36363636363636, 1
34400, -1.36363636363636, 1
34400, -1.36363636363636, 1
34401, -1.36363636363636, 1
34401, -1.36363636363636, 1
34402, -1.36363636363636, 1
34402, -1.36363636363636, 1
34402, -1.36363636363636, 1
34403, -1.36363636363636, 1
34434, -1.36363636363636, 1
34435, -1.36363636363636, 1
34435, -1.36363636363636, 1
34435, -1.36363636363636, 1
34436, -1.36363636363636, 1
34436, -1.36363636363636, 1
34437, -1.36363636363636, 1
34437, -1.36363636363636, 1
34437, -1.36363636363636, 1
34438, -1.36363636363636, 1
34438, -1.36363636363636, 1
34439, -1.36363636363636, 1
34439, -1.36363636363636, 1
34439, -1.36363636363636, 1
34440, -1.36363636363636, 1
34442, -1.36363636363636, 1
34442, -1.36363636363636, 1
34443, -1.36363636363636, 1
34443, -1.36363636363636, 1
34444, -1.36363636363636, 1
34444, -1.36363636363636, 1
34444, -1.36363636363636, 1
34445, -1.36363636363636, 1
34445, -1.36363636363636, 1
34445, -1.36363636363636, 1
34446, -1.36363636363636, 1
34446, -1.36363636363636, 1
34447, -1.36363636363636, 1
34447, -1.36363636363636, 1
34447, -1.36363636363636, 1
34448, -1.36363636363636, 1
34448, -1.36363636363636, 1
34449, -1.36363636363636, 1
34449, -1.36363636363636, 1
34449, -1.36363636363636, 1
34450, -1.36363636363636, 1
34450, -1.36363636363636, 1
34450, -1.36363636363636, 1
34451, -1.36363636363636, 1
34454, -1.36363636363636, 1
34454, -1.36363636363636, 1
34455, -1.36363636363636, 1
34455, -1.36363636363636, 1
34455, -1.36363636363636, 1
34456, -1.36363636363636, 1
34456, -1.36363636363636, 1
34456, -1.36363636363636, 1
34457, -1.36363636363636, 1
34457, -1.36363636363636, 1
34458, -1.36363636363636, 1
34458, -1.36363636363636, 1
34458, -1.36363636363636, 1
34459, -1.36363636363636, 1
34459, -1.36363636363636, 1
34460, -1.36363636363636, 1
34493, -1.36363636363636, 1
34494, -1.36363636363636, 1
34494, -1.36363636363636, 1
34495, -1.36363636363636, 1
34495, -1.36363636363636, 1
34495, -1.36363636363636, 1
34496, -1.36363636363636, 1
34496, -1.36363636363636, 1
34498, -1.36363636363636, 1
34498, -1.36363636363636, 1
34498, -1.36363636363636, 1
34499, -1.36363636363636, 1
34499, -1.36363636363636, 1
34500, -1.36363636363636, 1
34500, -1.36363636363636, 1
34500, -1.36363636363636, 1
34501, -1.36363636363636, 1
34501, -1.36363636363636, 1
34502, -1.36363636363636, 1
34502, -1.36363636363636, 1
34502, -1.36363636363636, 1
34503, -1.36363636363636, 1
34503, -1.36363636363636, 1
34504, -1.36363636363636, 1
34504, -1.36363636363636, 1
34504, -1.36363636363636, 1
34505, -1.36363636363636, 1
34505, -1.36363636363636, 1
34505, -1.36363636363636, 1
34506, -1.36363636363636, 1
34506, -1.36363636363636, 1
34507, -1.36363636363636, 1
34509, -1.36363636363636, 1
34509, -1.36363636363636, 1
34510, -1.36363636363636, 1
34510, -1.36363636363636, 1
34510, -1.36363636363636, 1
34511, -1.36363636363636, 1
34511, -1.36363636363636, 1
34512, -1.36363636363636, 1
34512, -1.36363636363636, 1
34513, -1.36363636363636, 1
34513, -1.36363636363636, 1
34514, -1.36363636363636, 1
34514, -1.36363636363636, 1
34514, -1.36363636363636, 1
34515, -1.36363636363636, 1
34515, -1.36363636363636, 1
34515, -1.36363636363636, 1
34516, -1.36363636363636, 1
34516, -1.36363636363636, 1
34517, -1.36363636363636, 1
34517, -1.36363636363636, 1
34517, -1.36363636363636, 1
34518, -1.36363636363636, 1
34518, -1.36363636363636, 1
34557, -1.36363636363636, 1
34557, -1.36363636363636, 1
34558, -1.36363636363636, 1
34558, -1.36363636363636, 1
34559, -1.36363636363636, 1
34559, -1.36363636363636, 1
34559, -1.36363636363636, 1
34560, -1.36363636363636, 1
34560, -1.36363636363636, 1
34560, -1.36363636363636, 1
34561, -1.36363636363636, 1
34561, -1.36363636363636, 1
34562, -1.36363636363636, 1
34562, -1.36363636363636, 1
34563, -1.36363636363636, 1
34563, -1.36363636363636, 1
34565, -1.36363636363636, 1
34566, -1.36363636363636, 1
34566, -1.36363636363636, 1
34566, -1.36363636363636, 1
34567, -1.36363636363636, 1
34567, -1.36363636363636, 1
34568, -1.36363636363636, 1
34568, -1.36363636363636, 1
34568, -1.36363636363636, 1
34569, -1.36363636363636, 1
34569, -1.36363636363636, 1
34570, -1.36363636363636, 1
34570, -1.36363636363636, 1
34570, -1.36363636363636, 1
34571, -1.36363636363636, 1
34571, -1.36363636363636, 1
34572, -1.36363636363636, 1
34572, -1.36363636363636, 1
34572, -1.36363636363636, 1
34573, -1.36363636363636, 1
34573, -1.36363636363636, 1
34574, -1.36363636363636, 1
34574, -1.36363636363636, 1
34574, -1.36363636363636, 1
34578, -1.36363636363636, 1
34578, -1.36363636363636, 1
34578, -1.36363636363636, 1
34579, -1.36363636363636, 1
34579, -1.36363636363636, 1
34580, -1.36363636363636, 1
34580, -1.36363636363636, 1
34580, -1.36363636363636, 1
34581, -1.36363636363636, 1
34581, -1.36363636363636, 1
34582, -1.36363636363636, 1
34582, -1.36363636363636, 1
34582, -1.36363636363636, 1
34583, -1.36363636363636, 1
34583, -1.36363636363636, 1
34584, -1.36363636363636, 1
34584, -1.36363636363636, 1
34584, -1.36363636363636, 1
34585, -1.36363636363636, 1
34585, -1.36363636363636, 1
34586, -1.36363636363636, 1
34586, -1.36363636363636, 1
34586, -1.36363636363636, 1
34587, -1.36363636363636, 1
34589, -1.36363636363636, 1
34589, -1.36363636363636, 1
34590, -1.36363636363636, 1
34590, -1.36363636363636, 1
34590, -1.36363636363636, 1
34591, -1.36363636363636, 1
34591, -1.36363636363636, 1
34592, -1.36363636363636, 1
34592, -1.36363636363636, 1
34592, -1.36363636363636, 1
34593, -1.36363636363636, 1
34593, -1.36363636363636, 1
34594, -1.36363636363636, 1
34594, -1.36363636363636, 1
34594, -1.36363636363636, 1
34595, -1.36363636363636, 1
34602, -1.36363636363636, 1
34603, -1.36363636363636, 1
34603, -1.36363636363636, 1
34603, -1.36363636363636, 1
34604, -1.36363636363636, 1
34604, -1.36363636363636, 1
34605, -1.36363636363636, 1
34605, -1.36363636363636, 1
34612, -1.36363636363636, 1
34612, -1.36363636363636, 1
34613, -1.36363636363636, 1
34613, -1.36363636363636, 1
34613, -1.36363636363636, 1
34614, -1.36363636363636, 1
34614, -1.36363636363636, 1
34615, -1.36363636363636, 1
34615, -1.36363636363636, 1
34615, -1.36363636363636, 1
34616, -1.36363636363636, 1
34616, -1.36363636363636, 1
34617, -1.36363636363636, 1
34617, -1.36363636363636, 1
34617, -1.36363636363636, 1
34618, -1.36363636363636, 1
34626, -1.36363636363636, 1
34626, -1.36363636363636, 1
34627, -1.36363636363636, 1
34627, -1.36363636363636, 1
34627, -1.36363636363636, 1
34628, -1.36363636363636, 1
34628, -1.36363636363636, 1
34629, -1.36363636363636, 1
34635, -1.36363636363636, 1
34635, -1.36363636363636, 1
34636, -1.36363636363636, 1
34636, -1.36363636363636, 1
34637, -1.36363636363636, 1
34637, -1.36363636363636, 1
34637, -1.36363636363636, 1
34638, -1.36363636363636, 1
34645, -1.36363636363636, 1
34645, -1.36363636363636, 1
34645, -1.36363636363636, 1
34646, -1.36363636363636, 1
34646, -1.36363636363636, 1
34647, -1.36363636363636, 1
34647, -1.36363636363636, 1
34647, -1.36363636363636, 1
34648, -1.36363636363636, 1
34648, -1.36363636363636, 1
34649, -1.36363636363636, 1
34649, -1.36363636363636, 1
34649, -1.36363636363636, 1
34650, -1.36363636363636, 1
34650, -1.36363636363636, 1
34651, -1.36363636363636, 1
34659, -1.36363636363636, 1
34659, -1.36363636363636, 1
34660, -1.36363636363636, 1
34660, -1.36363636363636, 1
34661, -1.36363636363636, 1
34661, -1.36363636363636, 1
34661, -1.36363636363636, 1
34662, -1.36363636363636, 1
34667, -1.36363636363636, 1
34668, -1.36363636363636, 1
34668, -1.36363636363636, 1
34669, -1.36363636363636, 1
34669, -1.36363636363636, 1
34669, -1.36363636363636, 1
34670, -1.36363636363636, 1
34670, -1.36363636363636, 1
34673, -1.36363636363636, 1
34673, -1.36363636363636, 1
34673, -1.36363636363636, 1
34674, -1.36363636363636, 1
34674, -1.36363636363636, 1
34675, -1.36363636363636, 1
34675, -1.36363636363636, 1
34675, -1.36363636363636, 1
34682, -1.36363636363636, 1
34683, -1.36363636363636, 1
34683, -1.36363636363636, 1
34683, -1.36363636363636, 1
34684, -1.36363636363636, 1
34684, -1.36363636363636, 1
34685, -1.36363636363636, 1
34685, -1.36363636363636, 1
34686, -1.36363636363636, 1
34692, -1.36363636363636, 1
34692, -1.36363636363636, 1
34693, -1.36363636363636, 1
34693, -1.36363636363636, 1
34694, -1.36363636363636, 1
34694, -1.36363636363636, 1
34694, -1.36363636363636, 1
34700, -1.36363636363636, 1
34701, -1.36363636363636, 1
34701, -1.36363636363636, 1
34701, -1.36363636363636, 1
34702, -1.36363636363636, 1
34702, -1.36363636363636, 1
34703, -1.36363636363636, 1
34703, -1.36363636363636, 1
34705, -1.36363636363636, 1
34705, -1.36363636363636, 1
34706, -1.36363636363636, 1
34706, -1.36363636363636, 1
34706, -1.36363636363636, 1
34707, -1.36363636363636, 1
34707, -1.36363636363636, 1
34708, -1.36363636363636, 1
34715, -1.36363636363636, 1
34715, -1.36363636363636, 1
34715, -1.36363636363636, 1
34716, -1.36363636363636, 1
34716, -1.36363636363636, 1
34717, -1.36363636363636, 1
34717, -1.36363636363636, 1
34717, -1.36363636363636, 1
34759, -1.36363636363636, 1
34759, -1.36363636363636, 1
34760, -1.36363636363636, 1
34760, -1.36363636363636, 1
34761, -1.36363636363636, 1
34761, -1.36363636363636, 1
34761, -1.36363636363636, 1
34762, -1.36363636363636, 1
34762, -1.36363636363636, 1
34762, -1.36363636363636, 1
34763, -1.36363636363636, 1
34763, -1.36363636363636, 1
34764, -1.36363636363636, 1
34764, -1.36363636363636, 1
34764, -1.36363636363636, 1
34765, -1.36363636363636, 1
34768, -1.36363636363636, 1
34768, -1.36363636363636, 1
34769, -1.36363636363636, 1
34769, -1.36363636363636, 1
34769, -1.36363636363636, 1
34770, -1.36363636363636, 1
34770, -1.36363636363636, 1
34770, -1.36363636363636, 1
34771, -1.36363636363636, 1
34771, -1.36363636363636, 1
34772, -1.36363636363636, 1
34772, -1.36363636363636, 1
34772, -1.36363636363636, 1
34773, -1.36363636363636, 1
34773, -1.36363636363636, 1
34774, -1.36363636363636, 1
34774, -1.36363636363636, 1
34774, -1.36363636363636, 1
34775, -1.36363636363636, 1
34775, -1.36363636363636, 1
34776, -1.36363636363636, 1
34776, -1.36363636363636, 1
34776, -1.36363636363636, 1
34777, -1.36363636363636, 1
34780, -1.36363636363636, 1
34780, -1.36363636363636, 1
34780, -1.36363636363636, 1
34781, -1.36363636363636, 1
34781, -1.36363636363636, 1
34782, -1.36363636363636, 1
34782, -1.36363636363636, 1
34782, -1.36363636363636, 1
34783, -1.36363636363636, 1
34783, -1.36363636363636, 1
34784, -1.36363636363636, 1
34784, -1.36363636363636, 1
34785, -1.36363636363636, 1
34785, -1.36363636363636, 1
34785, -1.36363636363636, 1
34786, -1.36363636363636, 1
34786, -1.36363636363636, 1
34787, -1.36363636363636, 1
34787, -1.36363636363636, 1
34787, -1.36363636363636, 1
34788, -1.36363636363636, 1
34788, -1.36363636363636, 1
34789, -1.36363636363636, 1
34789, -1.36363636363636, 1
34791, -1.36363636363636, 1
34791, -1.36363636363636, 1
34792, -1.36363636363636, 1
34792, -1.36363636363636, 1
34792, -1.36363636363636, 1
34793, -1.36363636363636, 1
34793, -1.36363636363636, 1
34794, -1.36363636363636, 1
34794, -1.36363636363636, 1
34794, -1.36363636363636, 1
34795, -1.36363636363636, 1
34795, -1.36363636363636, 1
34796, -1.36363636363636, 1
34796, -1.36363636363636, 1
34796, -1.36363636363636, 1
34797, -1.36363636363636, 1
34803, -1.36363636363636, 1
34804, -1.36363636363636, 1
34804, -1.36363636363636, 1
34805, -1.36363636363636, 1
34805, -1.36363636363636, 1
34805, -1.36363636363636, 1
34806, -1.36363636363636, 1
34806, -1.36363636363636, 1
34807, -1.36363636363636, 1
34807, -1.36363636363636, 1
34807, -1.36363636363636, 1
34808, -1.36363636363636, 1
34808, -1.36363636363636, 1
34809, -1.36363636363636, 1
34809, -1.36363636363636, 1
34809, -1.36363636363636, 1
34818, -1.36363636363636, 1
34818, -1.36363636363636, 1
34818, -1.36363636363636, 1
34819, -1.36363636363636, 1
34819, -1.36363636363636, 1
34820, -1.36363636363636, 1
34820, -1.36363636363636, 1
34820, -1.36363636363636, 1
34827, -1.36363636363636, 1
34828, -1.36363636363636, 1
34828, -1.36363636363636, 1
34829, -1.36363636363636, 1
34829, -1.36363636363636, 1
34830, -1.36363636363636, 1
34830, -1.36363636363636, 1
34830, -1.36363636363636, 1
34835, -1.36363636363636, 1
34836, -1.36363636363636, 1
34836, -1.36363636363636, 1
34836, -1.36363636363636, 1
34837, -1.36363636363636, 1
34837, -1.36363636363636, 1
34837, -1.36363636363636, 1
34838, -1.36363636363636, 1
34840, -1.36363636363636, 1
34840, -1.36363636363636, 1
34840, -1.36363636363636, 1
34841, -1.36363636363636, 1
34841, -1.36363636363636, 1
34842, -1.36363636363636, 1
34842, -1.36363636363636, 1
34842, -1.36363636363636, 1
34843, -1.36363636363636, 1
34880, -1.36363636363636, 1
34881, -1.36363636363636, 1
34881, -1.36363636363636, 1
34881, -1.36363636363636, 1
34882, -1.36363636363636, 1
34882, -1.36363636363636, 1
34883, -1.36363636363636, 1
34883, -1.36363636363636, 1
34883, -1.36363636363636, 1
34884, -1.36363636363636, 1
34884, -1.36363636363636, 1
34885, -1.36363636363636, 1
34885, -1.36363636363636, 1
34885, -1.36363636363636, 1
34886, -1.36363636363636, 1
34886, -1.36363636363636, 1
34887, -1.36363636363636, 1
34887, -1.36363636363636, 1
34887, -1.36363636363636, 1
34888, -1.36363636363636, 1
34888, -1.36363636363636, 1
34888, -1.36363636363636, 1
34889, -1.36363636363636, 1
34892, -1.36363636363636, 1
34892, -1.36363636363636, 1
34893, -1.36363636363636, 1
34893, -1.36363636363636, 1
34893, -1.36363636363636, 1
34894, -1.36363636363636, 1
34894, -1.36363636363636, 1
34895, -1.36363636363636, 1
34895, -1.36363636363636, 1
34895, -1.36363636363636, 1
34896, -1.36363636363636, 1
34896, -1.36363636363636, 1
34897, -1.36363636363636, 1
34897, -1.36363636363636, 1
34897, -1.36363636363636, 1
34898, -1.36363636363636, 1
34898, -1.36363636363636, 1
34899, -1.36363636363636, 1
34899, -1.36363636363636, 1
34899, -1.36363636363636, 1
34900, -1.36363636363636, 1
34900, -1.36363636363636, 1
34901, -1.36363636363636, 1
34901, -1.36363636363636, 1
34903, -1.36363636363636, 1
34903, -1.36363636363636, 1
34903, -1.36363636363636, 1
34904, -1.36363636363636, 1
34904, -1.36363636363636, 1
34905, -1.36363636363636, 1
34905, -1.36363636363636, 1
34905, -1.36363636363636, 1
34906, -1.36363636363636, 1
34906, -1.36363636363636, 1
34907, -1.36363636363636, 1
34907, -1.36363636363636, 1
34907, -1.36363636363636, 1
34908, -1.36363636363636, 1
34908, -1.36363636363636, 1
34909, -1.36363636363636, 1
34915, -1.36363636363636, 1
34916, -1.36363636363636, 1
34916, -1.36363636363636, 1
34916, -1.36363636363636, 1
34917, -1.36363636363636, 1
34917, -1.36363636363636, 1
34918, -1.36363636363636, 1
34918, -1.36363636363636, 1
34962, -1.36363636363636, 1
34963, -1.36363636363636, 1
34963, -1.36363636363636, 1
34963, -1.36363636363636, 1
34964, -1.36363636363636, 1
34964, -1.36363636363636, 1
34965, -1.36363636363636, 1
34965, -1.36363636363636, 1
34965, -1.36363636363636, 1
34966, -1.36363636363636, 1
34966, -1.36363636363636, 1
34967, -1.36363636363636, 1
34967, -1.36363636363636, 1
34968, -1.36363636363636, 1
34968, -1.36363636363636, 1
34968, -1.36363636363636, 1
34971, -1.36363636363636, 1
34971, -1.36363636363636, 1
34972, -1.36363636363636, 1
34972, -1.36363636363636, 1
34972, -1.36363636363636, 1
34973, -1.36363636363636, 1
34973, -1.36363636363636, 1
34973, -1.36363636363636, 1
34974, -1.36363636363636, 1
34974, -1.36363636363636, 1
34975, -1.36363636363636, 1
34975, -1.36363636363636, 1
34975, -1.36363636363636, 1
34976, -1.36363636363636, 1
34976, -1.36363636363636, 1
34977, -1.36363636363636, 1
34977, -1.36363636363636, 1
34977, -1.36363636363636, 1
34978, -1.36363636363636, 1
34978, -1.36363636363636, 1
34979, -1.36363636363636, 1
34979, -1.36363636363636, 1
34979, -1.36363636363636, 1
34980, -1.36363636363636, 1
34982, -1.36363636363636, 1
34983, -1.36363636363636, 1
34983, -1.36363636363636, 1
34983, -1.36363636363636, 1
34984, -1.36363636363636, 1
34984, -1.36363636363636, 1
34985, -1.36363636363636, 1
34985, -1.36363636363636, 1
34985, -1.36363636363636, 1
34986, -1.36363636363636, 1
34986, -1.36363636363636, 1
34987, -1.36363636363636, 1
34987, -1.36363636363636, 1
34987, -1.36363636363636, 1
34988, -1.36363636363636, 1
34988, -1.36363636363636, 1
34988, -1.36363636363636, 1
34989, -1.36363636363636, 1
34989, -1.36363636363636, 1
34990, -1.36363636363636, 1
34990, -1.36363636363636, 1
34990, -1.36363636363636, 1
34991, -1.36363636363636, 1
34991, -1.36363636363636, 1
34993, -1.36363636363636, 1
34993, -1.36363636363636, 1
34993, -1.36363636363636, 1
34994, -1.36363636363636, 1
34994, -1.36363636363636, 1
34995, -1.36363636363636, 1
34995, -1.36363636363636, 1
34995, -1.36363636363636, 1
34996, -1.36363636363636, 1
34996, -1.36363636363636, 1
34997, -1.36363636363636, 1
34997, -1.36363636363636, 1
34997, -1.36363636363636, 1
34998, -1.36363636363636, 1
34998, -1.36363636363636, 1
34999, -1.36363636363636, 1
35005, -1.36363636363636, 1
35005, -1.36363636363636, 1
35006, -1.36363636363636, 1
35006, -1.36363636363636, 1
35007, -1.36363636363636, 1
35007, -1.36363636363636, 1
35007, -1.36363636363636, 1
35008, -1.36363636363636, 1
35008, -1.36363636363636, 1
35008, -1.36363636363636, 1
35009, -1.36363636363636, 1
35009, -1.36363636363636, 1
35010, -1.36363636363636, 1
35010, -1.36363636363636, 1
35010, -1.36363636363636, 1
35011, -1.36363636363636, 1
35018, -1.36363636363636, 1
35018, -1.36363636363636, 1
35019, -1.36363636363636, 1
35019, -1.36363636363636, 1
35019, -1.36363636363636, 1
35020, -1.36363636363636, 1
35020, -1.36363636363636, 1
35021, -1.36363636363636, 1
35029, -1.36363636363636, 1
35029, -1.36363636363636, 1
35029, -1.36363636363636, 1
35030, -1.36363636363636, 1
35030, -1.36363636363636, 1
35031, -1.36363636363636, 1
35031, -1.36363636363636, 1
35031, -1.36363636363636, 1
35032, -1.36363636363636, 1
35032, -1.36363636363636, 1
35032, -1.36363636363636, 1
35033, -1.36363636363636, 1
35033, -1.36363636363636, 1
35034, -1.36363636363636, 1
35034, -1.36363636363636, 1
35034, -1.36363636363636, 1
35042, -1.36363636363636, 1
35043, -1.36363636363636, 1
35043, -1.36363636363636, 1
35043, -1.36363636363636, 1
35044, -1.36363636363636, 1
35044, -1.36363636363636, 1
35045, -1.36363636363636, 1
35045, -1.36363636363636, 1
35045, -1.36363636363636, 1
35051, -1.36363636363636, 1
35052, -1.36363636363636, 1
35052, -1.36363636363636, 1
35053, -1.36363636363636, 1
35053, -1.36363636363636, 1
35053, -1.36363636363636, 1
35054, -1.36363636363636, 1
35055, -1.36363636363636, 1
35056, -1.36363636363636, 1
35056, -1.36363636363636, 1
35056, -1.36363636363636, 1
35057, -1.36363636363636, 1
35057, -1.36363636363636, 1
35058, -1.36363636363636, 1
35058, -1.36363636363636, 1
35066, -1.36363636363636, 1
35066, -1.36363636363636, 1
35067, -1.36363636363636, 1
35067, -1.36363636363636, 1
35067, -1.36363636363636, 1
35068, -1.36363636363636, 1
35068, -1.36363636363636, 1
35069, -1.36363636363636, 1
35074, -1.36363636363636, 1
35074, -1.36363636363636, 1
35075, -1.36363636363636, 1
35075, -1.36363636363636, 1
35075, -1.36363636363636, 1
35076, -1.36363636363636, 1
35076, -1.36363636363636, 1
35077, -1.36363636363636, 1
35084, -1.36363636363636, 1
35084, -1.36363636363636, 1
35085, -1.36363636363636, 1
35085, -1.36363636363636, 1
35085, -1.36363636363636, 1
35086, -1.36363636363636, 1
35086, -1.36363636363636, 1
35087, -1.36363636363636, 1
35089, -1.36363636363636, 1
35089, -1.36363636363636, 1
35090, -1.36363636363636, 1
35090, -1.36363636363636, 1
35090, -1.36363636363636, 1
35091, -1.36363636363636, 1
35091, -1.36363636363636, 1
35091, -1.36363636363636, 1
35092, -1.36363636363636, 1
35098, -1.36363636363636, 1
35098, -1.36363636363636, 1
35098, -1.36363636363636, 1
35099, -1.36363636363636, 1
35099, -1.36363636363636, 1
35100, -1.36363636363636, 1
35100, -1.36363636363636, 1
35109, -1.36363636363636, 1
35109, -1.36363636363636, 1
35110, -1.36363636363636, 1
35110, -1.36363636363636, 1
35111, -1.36363636363636, 1
35111, -1.36363636363636, 1
35111, -1.36363636363636, 1
35112, -1.36363636363636, 1
35115, -1.36363636363636, 1
35116, -1.36363636363636, 1
35116, -1.36363636363636, 1
35117, -1.36363636363636, 1
35117, -1.36363636363636, 1
35117, -1.36363636363636, 1
35118, -1.36363636363636, 1
35118, -1.36363636363636, 1
35162, -1.36363636363636, 1
35163, -1.36363636363636, 1
35163, -1.36363636363636, 1
35164, -1.36363636363636, 1
35164, -1.36363636363636, 1
35164, -1.36363636363636, 1
35165, -1.36363636363636, 1
35165, -1.36363636363636, 1
35166, -1.36363636363636, 1
35166, -1.36363636363636, 1
35166, -1.36363636363636, 1
35167, -1.36363636363636, 1
35167, -1.36363636363636, 1
35168, -1.36363636363636, 1
35168, -1.36363636363636, 1
35168, -1.36363636363636, 1
35169, -1.36363636363636, 1
35169, -1.36363636363636, 1
35169, -1.36363636363636, 1
35170, -1.36363636363636, 1
35170, -1.36363636363636, 1
35171, -1.36363636363636, 1
35171, -1.36363636363636, 1
35171, -1.36363636363636, 1
35175, -1.36363636363636, 1
35175, -1.36363636363636, 1
35175, -1.36363636363636, 1
35176, -1.36363636363636, 1
35176, -1.36363636363636, 1
35177, -1.36363636363636, 1
35177, -1.36363636363636, 1
35177, -1.36363636363636, 1
35178, -1.36363636363636, 1
35178, -1.36363636363636, 1
35179, -1.36363636363636, 1
35179, -1.36363636363636, 1
35179, -1.36363636363636, 1
35180, -1.36363636363636, 1
35180, -1.36363636363636, 1
35181, -1.36363636363636, 1
35181, -1.36363636363636, 1
35181, -1.36363636363636, 1
35182, -1.36363636363636, 1
35187, -1.36363636363636, 1
35188, -1.36363636363636, 1
35188, -1.36363636363636, 1
35189, -1.36363636363636, 1
35189, -1.36363636363636, 1
35189, -1.36363636363636, 1
35190, -1.36363636363636, 1
35190, -1.36363636363636, 1
35191, -1.36363636363636, 1
35191, -1.36363636363636, 1
35191, -1.36363636363636, 1
35192, -1.36363636363636, 1
35192, -1.36363636363636, 1
35193, -1.36363636363636, 1
35193, -1.36363636363636, 1
35193, -1.36363636363636, 1
35194, -1.36363636363636, 1
35194, -1.36363636363636, 1
35194, -1.36363636363636, 1
35195, -1.36363636363636, 1
35195, -1.36363636363636, 1
35196, -1.36363636363636, 1
35196, -1.36363636363636, 1
35197, -1.36363636363636, 1
35197, -1.36363636363636, 1
35197, -1.36363636363636, 1
35198, -1.36363636363636, 1
35198, -1.36363636363636, 1
35199, -1.36363636363636, 1
35199, -1.36363636363636, 1
35199, -1.36363636363636, 1
35200, -1.36363636363636, 1
35200, -1.36363636363636, 1
35201, -1.36363636363636, 1
35201, -1.36363636363636, 1
35201, -1.36363636363636, 1
35202, -1.36363636363636, 1
35202, -1.36363636363636, 1
35203, -1.36363636363636, 1
35203, -1.36363636363636, 1
35203, -1.36363636363636, 1
35204, -1.36363636363636, 1
35204, -1.36363636363636, 1
35205, -1.36363636363636, 1
35205, -1.36363636363636, 1
35205, -1.36363636363636, 1
35234, -1.36363636363636, 1
35234, -1.36363636363636, 1
35235, -1.36363636363636, 1
35235, -1.36363636363636, 1
35236, -1.36363636363636, 1
35236, -1.36363636363636, 1
35236, -1.36363636363636, 1
35241, -1.36363636363636, 1
35241, -1.36363636363636, 1
35242, -1.36363636363636, 1
35242, -1.36363636363636, 1
35242, -1.36363636363636, 1
35243, -1.36363636363636, 1
35243, -1.36363636363636, 1
35244, -1.36363636363636, 1
35244, -1.36363636363636, 1
35244, -1.36363636363636, 1
35245, -1.36363636363636, 1
35245, -1.36363636363636, 1
35245, -1.36363636363636, 1
35246, -1.36363636363636, 1
35246, -1.36363636363636, 1
35247, -1.36363636363636, 1
35247, -1.36363636363636, 1
35247, -1.36363636363636, 1
35248, -1.36363636363636, 1
35248, -1.36363636363636, 1
35249, -1.36363636363636, 1
35249, -1.36363636363636, 1
35249, -1.36363636363636, 1
35250, -1.36363636363636, 1
35252, -1.36363636363636, 1
35252, -1.36363636363636, 1
35252, -1.36363636363636, 1
35253, -1.36363636363636, 1
35253, -1.36363636363636, 1
35254, -1.36363636363636, 1
35254, -1.36363636363636, 1
35254, -1.36363636363636, 1
35255, -1.36363636363636, 1
35255, -1.36363636363636, 1
35256, -1.36363636363636, 1
35256, -1.36363636363636, 1
35256, -1.36363636363636, 1
35257, -1.36363636363636, 1
35257, -1.36363636363636, 1
35258, -1.36363636363636, 1
35258, -1.36363636363636, 1
35259, -1.36363636363636, 1
35259, -1.36363636363636, 1
35259, -1.36363636363636, 1
35260, -1.36363636363636, 1
35260, -1.36363636363636, 1
35261, -1.36363636363636, 1
35261, -1.36363636363636, 1
35266, -1.36363636363636, 1
35267, -1.36363636363636, 1
35267, -1.36363636363636, 1
35268, -1.36363636363636, 1
35268, -1.36363636363636, 1
35268, -1.36363636363636, 1
35269, -1.36363636363636, 1
35269, -1.36363636363636, 1
35276, -1.36363636363636, 1
35276, -1.36363636363636, 1
35277, -1.36363636363636, 1
35277, -1.36363636363636, 1
35277, -1.36363636363636, 1
35278, -1.36363636363636, 1
35278, -1.36363636363636, 1
35279, -1.36363636363636, 1
35286, -1.36363636363636, 1
35286, -1.36363636363636, 1
35287, -1.36363636363636, 1
35287, -1.36363636363636, 1
35288, -1.36363636363636, 1
35288, -1.36363636363636, 1
35288, -1.36363636363636, 1
35289, -1.36363636363636, 1
35289, -1.36363636363636, 1
35290, -1.36363636363636, 1
35290, -1.36363636363636, 1
35290, -1.36363636363636, 1
35291, -1.36363636363636, 1
35291, -1.36363636363636, 1
35292, -1.36363636363636, 1
35292, -1.36363636363636, 1
35299, -1.36363636363636, 1
35299, -1.36363636363636, 1
35300, -1.36363636363636, 1
35300, -1.36363636363636, 1
35300, -1.36363636363636, 1
35301, -1.36363636363636, 1
35301, -1.36363636363636, 1
35302, -1.36363636363636, 1
35309, -1.36363636363636, 1
35309, -1.36363636363636, 1
35310, -1.36363636363636, 1
35310, -1.36363636363636, 1
35310, -1.36363636363636, 1
35311, -1.36363636363636, 1
35311, -1.36363636363636, 1
35312, -1.36363636363636, 1
35312, -1.36363636363636, 1
35312, -1.36363636363636, 1
35313, -1.36363636363636, 1
35313, -1.36363636363636, 1
35314, -1.36363636363636, 1
35314, -1.36363636363636, 1
35314, -1.36363636363636, 1
35315, -1.36363636363636, 1
35356, -1.36363636363636, 1
35357, -1.36363636363636, 1
35357, -1.36363636363636, 1
35358, -1.36363636363636, 1
35358, -1.36363636363636, 1
35358, -1.36363636363636, 1
35359, -1.36363636363636, 1
35359, -1.36363636363636, 1
35359, -1.36363636363636, 1
35360, -1.36363636363636, 1
35360, -1.36363636363636, 1
35361, -1.36363636363636, 1
35361, -1.36363636363636, 1
35361, -1.36363636363636, 1
35362, -1.36363636363636, 1
35362, -1.36363636363636, 1
35363, -1.36363636363636, 1
35363, -1.36363636363636, 1
35363, -1.36363636363636, 1
35364, -1.36363636363636, 1
35364, -1.36363636363636, 1
35365, -1.36363636363636, 1
35365, -1.36363636363636, 1
35365, -1.36363636363636, 1
35366, -1.36363636363636, 1
35366, -1.36363636363636, 1
35367, -1.36363636363636, 1
35367, -1.36363636363636, 1
35367, -1.36363636363636, 1
35368, -1.36363636363636, 1
35368, -1.36363636363636, 1
35369, -1.36363636363636, 1
35369, -1.36363636363636, 1
35369, -1.36363636363636, 1
35370, -1.36363636363636, 1
35370, -1.36363636363636, 1
35371, -1.36363636363636, 1
35371, -1.36363636363636, 1
35371, -1.36363636363636, 1
35372, -1.36363636363636, 1
35372, -1.36363636363636, 1
35372, -1.36363636363636, 1
35373, -1.36363636363636, 1
35373, -1.36363636363636, 1
35374, -1.36363636363636, 1
35374, -1.36363636363636, 1
35374, -1.36363636363636, 1
35375, -1.36363636363636, 1
35375, -1.36363636363636, 1
35376, -1.36363636363636, 1
35376, -1.36363636363636, 1
35376, -1.36363636363636, 1
35377, -1.36363636363636, 1
35377, -1.36363636363636, 1
35378, -1.36363636363636, 1
35378, -1.36363636363636, 1
35378, -1.36363636363636, 1
35379, -1.36363636363636, 1
35379, -1.36363636363636, 1
35380, -1.36363636363636, 1
35380, -1.36363636363636, 1
35381, -1.36363636363636, 1
35381, -1.36363636363636, 1
35382, -1.36363636363636, 1
35412, -1.36363636363636, 1
35413, -1.36363636363636, 1
35413, -1.36363636363636, 1
35414, -1.36363636363636, 1
35414, -1.36363636363636, 1
35414, -1.36363636363636, 1
35415, -1.36363636363636, 1
35415, -1.36363636363636, 1
35416, -1.36363636363636, 1
35416, -1.36363636363636, 1
35416, -1.36363636363636, 1
35417, -1.36363636363636, 1
35417, -1.36363636363636, 1
35418, -1.36363636363636, 1
35418, -1.36363636363636, 1
35418, -1.36363636363636, 1
35420, -1.36363636363636, 1
35420, -1.36363636363636, 1
35420, -1.36363636363636, 1
35421, -1.36363636363636, 1
35421, -1.36363636363636, 1
35421, -1.36363636363636, 1
35422, -1.36363636363636, 1
35422, -1.36363636363636, 1
35423, -1.36363636363636, 1
35423, -1.36363636363636, 1
35423, -1.36363636363636, 1
35424, -1.36363636363636, 1
35424, -1.36363636363636, 1
35425, -1.36363636363636, 1
35425, -1.36363636363636, 1
35425, -1.36363636363636, 1
35426, -1.36363636363636, 1
35426, -1.36363636363636, 1
35427, -1.36363636363636, 1
35427, -1.36363636363636, 1
35427, -1.36363636363636, 1
35428, -1.36363636363636, 1
35428, -1.36363636363636, 1
35428, -1.36363636363636, 1
35429, -1.36363636363636, 1
35429, -1.36363636363636, 1
35430, -1.36363636363636, 1
35430, -1.36363636363636, 1
35430, -1.36363636363636, 1
35431, -1.36363636363636, 1
35431, -1.36363636363636, 1
35432, -1.36363636363636, 1
35433, -1.36363636363636, 1
35433, -1.36363636363636, 1
35433, -1.36363636363636, 1
35434, -1.36363636363636, 1
35434, -1.36363636363636, 1
35435, -1.36363636363636, 1
35435, -1.36363636363636, 1
35435, -1.36363636363636, 1
35468, -1.36363636363636, 1
35469, -1.36363636363636, 1
35469, -1.36363636363636, 1
35470, -1.36363636363636, 1
35470, -1.36363636363636, 1
35470, -1.36363636363636, 1
35471, -1.36363636363636, 1
35471, -1.36363636363636, 1
35472, -1.36363636363636, 1
35472, -1.36363636363636, 1
35472, -1.36363636363636, 1
35473, -1.36363636363636, 1
35473, -1.36363636363636, 1
35473, -1.36363636363636, 1
35474, -1.36363636363636, 1
35474, -1.36363636363636, 1
35475, -1.36363636363636, 1
35476, -1.36363636363636, 1
35476, -1.36363636363636, 1
35476, -1.36363636363636, 1
35477, -1.36363636363636, 1
35477, -1.36363636363636, 1
35478, -1.36363636363636, 1
35478, -1.36363636363636, 1
35503, -1.36363636363636, 1
35504, -1.36363636363636, 1
35504, -1.36363636363636, 1
35505, -1.36363636363636, 1
35505, -1.36363636363636, 1
35505, -1.36363636363636, 1
35506, -1.36363636363636, 1
35506, -1.36363636363636, 1
35536, -1.36363636363636, 1
35536, -1.36363636363636, 1
35537, -1.36363636363636, 1
35537, -1.36363636363636, 1
35537, -1.36363636363636, 1
35538, -1.36363636363636, 1
35538, -1.36363636363636, 1
35539, -1.36363636363636, 1
35539, -1.36363636363636, 1
35539, -1.36363636363636, 1
35540, -1.36363636363636, 1
35540, -1.36363636363636, 1
35541, -1.36363636363636, 1
35541, -1.36363636363636, 1
35541, -1.36363636363636, 1
35542, -1.36363636363636, 1
35545, -1.36363636363636, 1
35545, -1.36363636363636, 1
35546, -1.36363636363636, 1
35546, -1.36363636363636, 1
35546, -1.36363636363636, 1
35547, -1.36363636363636, 1
35547, -1.36363636363636, 1
35548, -1.36363636363636, 1
35559, -1.36363636363636, 1
35559, -1.36363636363636, 1
35560, -1.36363636363636, 1
35560, -1.36363636363636, 1
35561, -1.36363636363636, 1
35561, -1.36363636363636, 1
35561, -1.36363636363636, 1
35562, -1.36363636363636, 1
35562, -1.36363636363636, 1
35562, -1.36363636363636, 1
35563, -1.36363636363636, 1
35563, -1.36363636363636, 1
35564, -1.36363636363636, 1
35564, -1.36363636363636, 1
35564, -1.36363636363636, 1
35565, -1.36363636363636, 1
35566, -1.36363636363636, 1
35567, -1.36363636363636, 1
35567, -1.36363636363636, 1
35568, -1.36363636363636, 1
35568, -1.36363636363636, 1
35568, -1.36363636363636, 1
35569, -1.36363636363636, 1
35569, -1.36363636363636, 1
35570, -1.36363636363636, 1
35570, -1.36363636363636, 1
35570, -1.36363636363636, 1
35571, -1.36363636363636, 1
35571, -1.36363636363636, 1
35571, -1.36363636363636, 1
35572, -1.36363636363636, 1
35572, -1.36363636363636, 1
35573, -1.36363636363636, 1
35573, -1.36363636363636, 1
35574, -1.36363636363636, 1
35574, -1.36363636363636, 1
35574, -1.36363636363636, 1
35575, -1.36363636363636, 1
35575, -1.36363636363636, 1
35576, -1.36363636363636, 1
35576, -1.36363636363636, 1
35577, -1.36363636363636, 1
35577, -1.36363636363636, 1
35577, -1.36363636363636, 1
35578, -1.36363636363636, 1
35578, -1.36363636363636, 1
35579, -1.36363636363636, 1
35579, -1.36363636363636, 1
35580, -1.36363636363636, 1
35580, -1.36363636363636, 1
35580, -1.36363636363636, 1
35581, -1.36363636363636, 1
35581, -1.36363636363636, 1
35581, -1.36363636363636, 1
35582, -1.36363636363636, 1
35582, -1.36363636363636, 1
35583, -1.36363636363636, 1
35583, -1.36363636363636, 1
35583, -1.36363636363636, 1
35584, -1.36363636363636, 1
35584, -1.36363636363636, 1
35585, -1.36363636363636, 1
35585, -1.36363636363636, 1
35585, -1.36363636363636, 1
35586, -1.36363636363636, 1
35586, -1.36363636363636, 1
35587, -1.36363636363636, 1
35587, -1.36363636363636, 1
35587, -1.36363636363636, 1
35588, -1.36363636363636, 1
35588, -1.36363636363636, 1
35588, -1.36363636363636, 1
35589, -1.36363636363636, 1
35590, -1.36363636363636, 1
35590, -1.36363636363636, 1
35590, -1.36363636363636, 1
35591, -1.36363636363636, 1
35591, -1.36363636363636, 1
35592, -1.36363636363636, 1
35592, -1.36363636363636, 1
35593, -1.36363636363636, 1
35593, -1.36363636363636, 1
35593, -1.36363636363636, 1
35594, -1.36363636363636, 1
35594, -1.36363636363636, 1
35595, -1.36363636363636, 1
35595, -1.36363636363636, 1
35595, -1.36363636363636, 1
35596, -1.36363636363636, 1
35596, -1.36363636363636, 1
35597, -1.36363636363636, 1
35597, -1.36363636363636, 1
35597, -1.36363636363636, 1
35598, -1.36363636363636, 1
35598, -1.36363636363636, 1
35598, -1.36363636363636, 1
35599, -1.36363636363636, 1
35599, -1.36363636363636, 1
35600, -1.36363636363636, 1
35600, -1.36363636363636, 1
35600, -1.36363636363636, 1
35601, -1.36363636363636, 1
35601, -1.36363636363636, 1
35602, -1.36363636363636, 1
35602, -1.36363636363636, 1
35603, -1.36363636363636, 1
35603, -1.36363636363636, 1
35603, -1.36363636363636, 1
35604, -1.36363636363636, 1
35604, -1.36363636363636, 1
35605, -1.36363636363636, 1
35605, -1.36363636363636, 1
35605, -1.36363636363636, 1
35611, -1.36363636363636, 1
35612, -1.36363636363636, 1
35612, -1.36363636363636, 1
35613, -1.36363636363636, 1
35613, -1.36363636363636, 1
35613, -1.36363636363636, 1
35614, -1.36363636363636, 1
35615, -1.36363636363636, 1
35616, -1.36363636363636, 1
35616, -1.36363636363636, 1
35617, -1.36363636363636, 1
35617, -1.36363636363636, 1
35618, -1.36363636363636, 1
35618, -1.36363636363636, 1
35619, -1.36363636363636, 1
35626, -1.36363636363636, 1
35627, -1.36363636363636, 1
35627, -1.36363636363636, 1
35628, -1.36363636363636, 1
35628, -1.36363636363636, 1
35628, -1.36363636363636, 1
35629, -1.36363636363636, 1
35629, -1.36363636363636, 1
35635, -1.36363636363636, 1
35636, -1.36363636363636, 1
35636, -1.36363636363636, 1
35636, -1.36363636363636, 1
35637, -1.36363636363636, 1
35637, -1.36363636363636, 1
35638, -1.36363636363636, 1
35638, -1.36363636363636, 1
35640, -1.36363636363636, 1
35640, -1.36363636363636, 1
35640, -1.36363636363636, 1
35641, -1.36363636363636, 1
35641, -1.36363636363636, 1
35641, -1.36363636363636, 1
35642, -1.36363636363636, 1
35642, -1.36363636363636, 1
35643, -1.36363636363636, 1
35650, -1.36363636363636, 1
35651, -1.36363636363636, 1
35651, -1.36363636363636, 1
35651, -1.36363636363636, 1
35652, -1.36363636363636, 1
35652, -1.36363636363636, 1
35653, -1.36363636363636, 1
35658, -1.36363636363636, 1
35658, -1.36363636363636, 1
35658, -1.36363636363636, 1
35659, -1.36363636363636, 1
35659, -1.36363636363636, 1
35660, -1.36363636363636, 1
35660, -1.36363636363636, 1
35660, -1.36363636363636, 1
35667, -1.36363636363636, 1
