Time;EMG;EDA;LUX;ECG;ACC;BATT;Digit0;Digit1;Digit2;Digit3
3, 0.385714285714286, 0
4, 0.385714285714286, 0
5, 0.333333333333333, 0
6, 0.333333333333333, 0
7, 0.333333333333333, 0
7, 0.333333333333333, 0
8, 0.333333333333333, 0
9, 0.333333333333333, 0
10, 0.333333333333333, 0
11, 0.333333333333333, 0
12, 0.280952380952381, 0
13, 0.280952380952381, 0
14, 0.280952380952381, 0
15, 0.280952380952381, 0
15, 0.280952380952381, 0
16, 0.228571428571428, 0
17, 0.228571428571428, 0
18, 0.280952380952381, 0
19, 0.228571428571428, 0
20, 0.228571428571428, 0
21, 0.228571428571428, 0
22, 0.228571428571428, 0
23, 0.280952380952381, 0
23, 0.176190476190476, 0
24, 0.123809523809524, 0
25, 0.176190476190476, 0
26, 0.228571428571428, 0
27, 0.228571428571428, 0
28, 0.228571428571428, 0
29, 0.176190476190476, 0
30, 0.176190476190476, 0
31, 0.176190476190476, 0
32, 0.176190476190476, 0
32, -0.0333333333333334, 0
33, -0.976190476190476, 0
34, -1.5, 0
35, -1.3952380952381, 0
36, 1.48571428571429, 0
37, 0.961904761904762, 0
38, -0.190476190476191, 0
39, 0.123809523809524, 0
40, -0.0333333333333334, 0
40, -0.0333333333333334, 0
41, -0.0333333333333334, 0
42, -0.0857142857142859, 0
43, -0.138095238095238, 0
44, -0.190476190476191, 0
45, -0.242857142857143, 0
46, -0.295238095238095, 0
47, -0.4, 0
48, -0.452380952380953, 0
48, -0.557142857142857, 0
49, -0.661904761904762, 0
63, -0.819047619047619, 0
64, -0.976190476190476, 0
98, -1.08095238095238, 0
101, -1.18571428571429, 0
102, -1.23809523809524, 0
112, -1.18571428571429, 0
123, -1.02857142857143, 0
139, -0.661904761904762, 0
143, -0.295238095238095, 0
145, 0.0714285714285714, 0
178, 0.280952380952381, 0
181, 0.438095238095238, 0
192, 0.49047619047619, 0
203, 0.542857142857142, 0
221, 0.542857142857142, 0
223, 0.542857142857142, 0
224, 0.542857142857142, 0
233, 0.542857142857142, 0
243, 0.49047619047619, 0
277, 0.49047619047619, 0
279, 0.438095238095238, 0
280, 0.438095238095238, 0
281, 0.385714285714286, 0
282, 0.385714285714286, 0
316, 0.385714285714286, 0
318, 0.385714285714286, 0
320, 0.333333333333333, 0
356, 0.333333333333333, 0
357, 0.333333333333333, 0
358, 0.333333333333333, 0
359, 0.333333333333333, 0
366, 0.385714285714286, 0
375, 0.333333333333333, 0
406, 0.333333333333333, 0
407, 0.333333333333333, 0
419, 0.333333333333333, 0
420, 0.333333333333333, 0
427, 0.333333333333333, 0
436, 0.333333333333333, 0
471, 0.333333333333333, 0
472, 0.333333333333333, 0
473, 0.280952380952381, 0
476, 0.280952380952381, 0
511, 0.280952380952381, 0
512, 0.280952380952381, 0
513, 0.280952380952381, 0
514, 0.280952380952381, 0
523, 0.280952380952381, 0
557, 0.280952380952381, 0
558, 0.228571428571428, 0
559, 0.228571428571428, 0
617, 0.228571428571428, 0
622, 0.228571428571428, 0
623, 0.228571428571428, 0
624, 0.228571428571428, 0
626, 0.228571428571428, 0
627, 0.176190476190476, 0
628, 0.176190476190476, 0
662, 0.176190476190476, 0
664, 0.176190476190476, 0
667, 0.176190476190476, 0
668, 0.176190476190476, 0
675, 0.176190476190476, 0
685, 0.176190476190476, 0
718, 0.176190476190476, 0
719, 0.176190476190476, 0
721, 0.123809523809524, 0
757, 0.0714285714285714, 0
758, 0.123809523809524, 0
759, 0.176190476190476, 0
761, 0.176190476190476, 0
768, 0.176190476190476, 0
811, 0.176190476190476, 0
817, 0.176190476190476, 0
818, 0.123809523809524, 0
821, 0.123809523809524, 0
827, 0.123809523809524, 0
861, -0.4, 0
862, -1.5, 0
863, -1.5, 0
864, -0.871428571428572, 0
866, 1.8, 0
901, 0.0714285714285714, 0
907, -0.0333333333333334, 0
908, 0.0714285714285714, 0
917, -0.0333333333333334, 0
918, -0.0333333333333334, 0
921, -0.0857142857142859, 0
955, -0.0857142857142859, 0
956, -0.138095238095238, 0
957, -0.190476190476191, 0
965, -0.242857142857143, 0
1002, -0.347619047619048, 0
1013, -0.4, 0
1018, -0.504761904761905, 0
1019, -0.60952380952381, 0
1021, -0.714285714285714, 0
1030, -0.819047619047619, 0
1063, -0.976190476190476, 0
1066, -1.08095238095238, 0
1068, -1.18571428571429, 0
1069, -1.18571428571429, 0
1076, -1.13333333333333, 0
1087, -0.923809523809524, 0
1097, -0.60952380952381, 0
1107, -0.190476190476191, 0
1141, 0.123809523809524, 0
1143, 0.333333333333333, 0
1146, 0.438095238095238, 0
1155, 0.49047619047619, 0
1164, 0.542857142857142, 0
1175, 0.542857142857142, 0
1222, 0.542857142857142, 0
1223, 0.542857142857142, 0
1226, 0.49047619047619, 0
1232, 0.438095238095238, 0
1237, 0.438095238095238, 0
1238, 0.438095238095238, 0
1242, 0.385714285714286, 0
1243, 0.385714285714286, 0
1278, 0.333333333333333, 0
1280, 0.333333333333333, 0
1281, 0.333333333333333, 0
1317, 0.333333333333333, 0
1321, 0.333333333333333, 0
1322, 0.280952380952381, 0
1323, 0.280952380952381, 0
1360, 0.333333333333333, 0
1362, 0.280952380952381, 0
1363, 0.333333333333333, 0
1366, 0.280952380952381, 0
1373, 0.280952380952381, 0
1385, 0.280952380952381, 0
1418, 0.280952380952381, 0
1419, 0.280952380952381, 0
1421, 0.280952380952381, 0
1422, 0.280952380952381, 0
1425, 0.228571428571428, 0
1458, 0.228571428571428, 0
1461, 0.228571428571428, 0
1462, 0.228571428571428, 0
1496, 0.228571428571428, 0
1497, 0.228571428571428, 0
1502, 0.228571428571428, 0
1504, 0.228571428571428, 0
1513, 0.176190476190476, 0
1522, 0.176190476190476, 0
1556, 0.176190476190476, 0
1558, 0.176190476190476, 0
1561, 0.176190476190476, 0
1562, 0.123809523809524, 0
1616, 0.123809523809524, 0
1618, 0.123809523809524, 0
1620, 0.123809523809524, 0
1621, 0.123809523809524, 0
1623, 0.123809523809524, 0
1626, 0.123809523809524, 0
1661, 0.0714285714285714, 0
1663, 0.123809523809524, 0
1664, 0.0714285714285714, 0
1665, 0.0714285714285714, 0
1666, -0.0333333333333334, 0
1700, -0.0333333333333334, 0
1706, 0.0714285714285714, 0
1708, 0.0714285714285714, 0
1709, 0.0714285714285714, 0
1717, 0.0190476190476188, 0
1727, 0.0190476190476188, 0
1737, 0.0190476190476188, 0
1771, 0.0190476190476188, 0
1772, 0.0190476190476188, 0
1775, -0.190476190476191, 0
1776, -1.18571428571429, 0
1790, -1.5, 0
1801, -1.5, 0
1818, 0.752380952380952, 0
1820, 1.01428571428571, 0
1828, -0.452380952380953, 0
1837, -0.0333333333333334, 0
1853, -0.190476190476191, 0
1865, -0.242857142857143, 0
1866, -0.242857142857143, 0
1875, -0.295238095238095, 0
1891, -0.295238095238095, 0
1897, -0.347619047619048, 0
1931, -0.4, 0
1932, -0.504761904761905, 0
1935, -0.557142857142857, 0
1972, -0.661904761904762, 0
1973, -0.766666666666667, 0
1975, -0.871428571428572, 0
1976, -1.02857142857143, 0
1977, -1.18571428571429, 0
2003, -1.29047619047619, 0
2015, -1.3952380952381, 0
2020, -1.44761904761905, 0
2024, -1.44761904761905, 0
2064, -1.23809523809524, 0
2065, -0.976190476190476, 0
2066, -0.557142857142857, 0
2067, -0.190476190476191, 0
2068, 0.123809523809524, 0
2102, 0.228571428571428, 0
2104, 0.333333333333333, 0
2107, 0.385714285714286, 0
2141, 0.385714285714286, 0
2143, 0.385714285714286, 0
2144, 0.438095238095238, 0
2145, 0.333333333333333, 0
2146, 0.385714285714286, 0
2180, 0.333333333333333, 0
2206, 0.333333333333333, 0
2207, 0.280952380952381, 0
2221, 0.280952380952381, 0
2222, 0.228571428571428, 0
2223, 0.280952380952381, 0
2225, 0.228571428571428, 0
2226, 0.228571428571428, 0
2237, 0.228571428571428, 0
2243, 0.228571428571428, 0
2257, 0.228571428571428, 0
2264, 0.280952380952381, 0
2298, 0.228571428571428, 0
2299, 0.228571428571428, 0
2301, 0.228571428571428, 0
2307, 0.280952380952381, 0
2341, 0.228571428571428, 0
2345, 0.280952380952381, 0
2346, 0.228571428571428, 0
2347, 0.228571428571428, 0
2357, 0.228571428571428, 0
2416, 0.228571428571428, 0
2417, 0.228571428571428, 0
2418, 0.228571428571428, 0
2420, 0.228571428571428, 0
2424, 0.228571428571428, 0
2426, 0.228571428571428, 0
2461, 0.228571428571428, 0
2463, 0.228571428571428, 0
2468, 0.228571428571428, 0
2470, 0.176190476190476, 0
2471, 0.176190476190476, 0
2473, 0.176190476190476, 0
2512, 0.228571428571428, 0
2513, 0.176190476190476, 0
2514, 0.176190476190476, 0
2516, 0.176190476190476, 0
2526, 0.228571428571428, 0
2559, 0.176190476190476, 0
2561, 0.176190476190476, 0
2562, 0.0714285714285714, 0
2618, 0.123809523809524, 0
2619, 0.176190476190476, 0
2620, 0.228571428571428, 0
2621, 0.176190476190476, 0
2622, 0.176190476190476, 0
2627, 0.176190476190476, 0
2628, 0.176190476190476, 0
2663, 0.176190476190476, 0
2666, 0.123809523809524, 0
2667, -0.504761904761905, 0
2677, -1.5, 0
2685, -1.5, 0
2694, -0.0857142857142859, 0
2704, 1.8, 0
2738, 0.0714285714285714, 0
2739, 0.0190476190476188, 0
2742, 0.123809523809524, 0
2743, 0.0190476190476188, 0
2753, 0.0190476190476188, 0
2817, -0.0333333333333334, 0
2820, -0.0857142857142859, 0
2822, -0.0857142857142859, 0
2823, -0.138095238095238, 0
2824, -0.242857142857143, 0
2830, -0.242857142857143, 0
2831, -0.347619047619048, 0
2832, -0.452380952380953, 0
2833, -0.557142857142857, 0
2870, -0.661904761904762, 0
2873, -0.819047619047619, 0
2874, -0.923809523809524, 0
2876, -1.08095238095238, 0
2918, -1.13333333333333, 0
2919, -1.13333333333333, 0
2921, -1.02857142857143, 0
2922, -0.766666666666667, 0
2957, -0.347619047619048, 0
2959, 0.0190476190476188, 0
2960, 0.333333333333333, 0
2964, 0.542857142857142, 0
3020, 0.647619047619048, 0
3021, 0.647619047619048, 0
3022, 0.7, 0
3023, 0.7, 0
3024, 0.7, 0
3026, 0.7, 0
3027, 0.7, 0
3061, 0.647619047619048, 0
3065, 0.647619047619048, 0
3066, 0.595238095238095, 0
3067, 0.595238095238095, 0
3076, 0.542857142857142, 0
3111, 0.542857142857142, 0
3112, 0.542857142857142, 0
3113, 0.542857142857142, 0
3114, 0.542857142857142, 0
3157, 0.542857142857142, 0
3158, 0.542857142857142, 0
3159, 0.542857142857142, 0
3160, 0.49047619047619, 0
3168, 0.542857142857142, 0
3178, 0.542857142857142, 0
3196, 0.542857142857142, 0
3207, 0.49047619047619, 0
3223, 0.49047619047619, 0
3226, 0.49047619047619, 0
3227, 0.542857142857142, 0
3235, 0.49047619047619, 0
3271, 0.49047619047619, 0
3272, 0.49047619047619, 0
3273, 0.49047619047619, 0
3274, 0.49047619047619, 0
3311, 0.49047619047619, 0
3312, 0.438095238095238, 0
3314, 0.49047619047619, 0
3315, 0.438095238095238, 0
3325, 0.438095238095238, 0
3358, 0.438095238095238, 0
3359, 0.438095238095238, 0
3361, 0.385714285714286, 0
3410, 0.438095238095238, 0
3416, 0.385714285714286, 0
3417, 0.438095238095238, 0
3419, 0.385714285714286, 0
3420, 0.385714285714286, 0
3421, 0.385714285714286, 0
3426, 0.385714285714286, 0
3459, 0.333333333333333, 0
3462, 0.385714285714286, 0
3463, 0.385714285714286, 0
3497, 0.385714285714286, 0
3498, 0.385714285714286, 0
3499, 0.385714285714286, 0
3506, 0.280952380952381, 0
3507, 0.228571428571428, 0
3541, 0.333333333333333, 0
3547, 0.333333333333333, 0
3548, 0.333333333333333, 0
3549, 0.385714285714286, 0
3564, 0.333333333333333, 0
3617, 0.333333333333333, 0
3618, 0.333333333333333, 0
3619, 0.333333333333333, 0
3621, 0.333333333333333, 0
3623, -0.0857142857142859, 0
3626, -1.23809523809524, 0
3628, -1.5, 0
3637, -0.976190476190476, 0
3671, 1.8, 0
3672, 0.438095238095238, 0
3673, 0.0714285714285714, 0
3674, 0.280952380952381, 0
3710, 0.123809523809524, 0
3711, 0.176190476190476, 0
3712, 0.123809523809524, 0
3713, 0.0714285714285714, 0
3752, 0.0190476190476188, 0
3753, -0.0333333333333334, 0
3777, -0.0333333333333334, 0
3778, -0.138095238095238, 0
3815, -0.190476190476191, 0
3822, -0.295238095238095, 0
3823, -0.4, 0
3824, -0.557142857142857, 0
3828, -0.661904761904762, 0
3830, -0.819047619047619, 0
3831, -0.923809523809524, 0
3833, -1.02857142857143, 0
3869, -1.02857142857143, 0
3871, -0.976190476190476, 0
3874, -0.766666666666667, 0
3876, -0.452380952380953, 0
3911, -0.0857142857142859, 0
3912, 0.228571428571428, 0
3913, 0.49047619047619, 0
3914, 0.595238095238095, 0
3956, 0.647619047619048, 0
3958, 0.647619047619048, 0
3960, 0.7, 0
3961, 0.647619047619048, 0
3963, 0.647619047619048, 0
4006, 0.647619047619048, 0
4017, 0.647619047619048, 0
4021, 0.595238095238095, 0
4023, 0.595238095238095, 0
4024, 0.542857142857142, 0
4059, 0.542857142857142, 0
4061, 0.49047619047619, 0
4062, 0.49047619047619, 0
4063, 0.49047619047619, 0
4098, 0.49047619047619, 0
4099, 0.438095238095238, 0
4101, 0.49047619047619, 0
4102, 0.438095238095238, 0
4136, 0.49047619047619, 0
4137, 0.438095238095238, 0
4138, 0.438095238095238, 0
4139, 0.438095238095238, 0
4143, 0.438095238095238, 0
4177, 0.438095238095238, 0
4179, 0.438095238095238, 0
4182, 0.438095238095238, 0
4197, 0.438095238095238, 0
4224, 0.438095238095238, 0
4225, 0.438095238095238, 0
4226, 0.385714285714286, 0
4227, 0.438095238095238, 0
4236, 0.385714285714286, 0
4271, 0.385714285714286, 0
4272, 0.385714285714286, 0
4273, 0.385714285714286, 0
4274, 0.333333333333333, 0
4309, 0.385714285714286, 0
4312, 0.333333333333333, 0
4313, 0.333333333333333, 0
4314, 0.333333333333333, 0
4351, 0.333333333333333, 0
4352, 0.333333333333333, 0
4353, 0.333333333333333, 0
4354, 0.333333333333333, 0
4400, 0.333333333333333, 0
4411, 0.280952380952381, 0
4417, 0.333333333333333, 0
4418, 0.280952380952381, 0
4421, 0.333333333333333, 0
4427, 0.280952380952381, 0
4429, 0.280952380952381, 0
4436, 0.228571428571428, 0
4469, 0.176190476190476, 0
4471, 0.176190476190476, 0
4472, 0.228571428571428, 0
4477, 0.228571428571428, 0
4517, 0.280952380952381, 0
4519, 0.228571428571428, 0
4520, 0.280952380952381, 0
4521, 0.228571428571428, 0
4522, 0.228571428571428, 0
4556, 0.228571428571428, 0
4557, 0.280952380952381, 0
4559, 0.0190476190476188, 0
4602, -1.02857142857143, 0
4618, -1.5, 0
4621, -1.5, 0
4623, 1.17142857142857, 0
4623, 1.06666666666667, 0
4624, -0.190476190476191, 0
4627, 0.228571428571428, 0
4661, 0.0714285714285714, 0
4663, 0.0714285714285714, 0
4664, 0.0190476190476188, 0
4698, -0.0333333333333334, 0
4701, -0.0333333333333334, 0
4702, -0.0857142857142859, 0
4703, -0.190476190476191, 0
4706, -0.190476190476191, 0
4739, -0.295238095238095, 0
4741, -0.4, 0
4742, -0.504761904761905, 0
4777, -0.60952380952381, 0
4778, -0.766666666666667, 0
4779, -0.871428571428572, 0
4781, -1.02857142857143, 0
4793, -1.08095238095238, 0
4805, -1.18571428571429, 0
4816, -1.13333333333333, 0
4821, -0.976190476190476, 0
4827, -0.661904761904762, 0
4836, -0.242857142857143, 0
4871, 0.123809523809524, 0
4872, 0.333333333333333, 0
4874, 0.542857142857142, 0
4876, 0.542857142857142, 0
4911, 0.595238095238095, 0
4912, 0.647619047619048, 0
4913, 0.647619047619048, 0
4924, 0.595238095238095, 0
4933, 0.647619047619048, 0
4934, 0.595238095238095, 0
4968, 0.595238095238095, 0
4969, 0.542857142857142, 0
4973, 0.542857142857142, 0
4985, 0.49047619047619, 0
5017, 0.542857142857142, 0
5023, 0.438095238095238, 0
5025, 0.49047619047619, 0
5026, 0.438095238095238, 0
5026, 0.438095238095238, 0
5059, 0.438095238095238, 0
5062, 0.438095238095238, 0
5063, 0.438095238095238, 0
5097, 0.438095238095238, 0
5099, 0.438095238095238, 0
5101, 0.438095238095238, 0
5102, 0.385714285714286, 0
5103, 0.438095238095238, 0
5137, 0.438095238095238, 0
5139, 0.438095238095238, 0
5146, 0.385714285714286, 0
5153, 0.438095238095238, 0
5163, 0.385714285714286, 0
5217, 0.385714285714286, 0
5220, 0.385714285714286, 0
5224, 0.385714285714286, 0
5225, 0.333333333333333, 0
5227, 0.385714285714286, 0
5228, 0.333333333333333, 0
5236, 0.385714285714286, 0
5247, 0.333333333333333, 0
5259, 0.333333333333333, 0
5262, 0.333333333333333, 0
5297, 0.333333333333333, 0
5298, 0.280952380952381, 0
5302, 0.333333333333333, 0
5303, 0.280952380952381, 0
5337, 0.333333333333333, 0
5341, 0.280952380952381, 0
5343, 0.280952380952381, 0
5344, 0.280952380952381, 0
5378, 0.333333333333333, 0
5390, 0.280952380952381, 0
5401, 0.280952380952381, 0
5412, 0.228571428571428, 0
5417, 0.176190476190476, 0
5419, 0.228571428571428, 0
5420, 0.280952380952381, 0
5421, 0.280952380952381, 0
5456, 0.280952380952381, 0
5457, 0.228571428571428, 0
5462, 0.280952380952381, 0
5464, 0.228571428571428, 0
5473, 0.228571428571428, 0
5474, 0.228571428571428, 0
5484, -0.347619047619048, 0
5519, -1.5, 0
5521, -1.5, 0
5522, -0.452380952380953, 0
5561, 1.8, 0
5563, 0.280952380952381, 0
5564, 0.0714285714285714, 0
5565, 0.123809523809524, 0
5566, 0.0190476190476188, 0
5603, 0.0190476190476188, 0
5615, 0.0190476190476188, 0
5619, -0.0857142857142859, 0
5624, -0.0857142857142859, 0
5625, -0.190476190476191, 0
5626, -0.190476190476191, 0
5634, -0.295238095238095, 0
5669, -0.347619047619048, 0
5671, -0.504761904761905, 0
5673, -0.557142857142857, 0
5674, -0.714285714285714, 0
5711, -0.819047619047619, 0
5713, -1.02857142857143, 0
5714, -1.08095238095238, 0
5715, -1.18571428571429, 0
5750, -1.18571428571429, 0
5752, -1.13333333333333, 0
5753, -0.871428571428572, 0
5758, -0.504761904761905, 0
5806, -0.0857142857142859, 0
5821, 0.228571428571428, 0
5823, 0.438095238095238, 0
5824, 0.542857142857142, 0
5824, 0.595238095238095, 0
5826, 0.595238095238095, 0
5827, 0.647619047619048, 0
5861, 0.595238095238095, 0
5864, 0.595238095238095, 0
5866, 0.542857142857142, 0
5898, 0.542857142857142, 0
5899, 0.542857142857142, 0
5901, 0.542857142857142, 0
5902, 0.49047619047619, 0
5903, 0.49047619047619, 0
5937, 0.438095238095238, 0
5943, 0.438095238095238, 0
5944, 0.438095238095238, 0
5977, 0.438095238095238, 0
5978, 0.438095238095238, 0
5979, 0.438095238095238, 0
5981, 0.438095238095238, 0
5986, 0.438095238095238, 0
5997, 0.385714285714286, 0
6018, 0.438095238095238, 0
6019, 0.438095238095238, 0
6058, 0.438095238095238, 0
6059, 0.385714285714286, 0
6060, 0.438095238095238, 0
6062, 0.385714285714286, 0
6063, 0.438095238095238, 0
6097, 0.385714285714286, 0
6098, 0.385714285714286, 0
6099, 0.385714285714286, 0
6104, 0.385714285714286, 0
6116, 0.333333333333333, 0
6126, 0.333333333333333, 0
6159, 0.333333333333333, 0
6162, 0.333333333333333, 0
6163, 0.333333333333333, 0
6199, 0.333333333333333, 0
6218, 0.280952380952381, 0
6219, 0.333333333333333, 0
6226, 0.280952380952381, 0
6227, 0.280952380952381, 0
6228, 0.280952380952381, 0
6229, 0.280952380952381, 0
6237, 0.228571428571428, 0
6277, 0.228571428571428, 0
6281, 0.228571428571428, 0
6283, 0.228571428571428, 0
6284, 0.228571428571428, 0
6318, 0.280952380952381, 0
6319, 0.228571428571428, 0
6320, 0.123809523809524, 0
6322, 0.123809523809524, 0
6357, 0.176190476190476, 0
6361, 0.228571428571428, 0
6362, 0.228571428571428, 0
6363, 0.176190476190476, 0
6373, 0.228571428571428, 0
6418, 0.176190476190476, 0
6419, 0.228571428571428, 0
6421, 0.176190476190476, 0
6423, -0.242857142857143, 0
6424, -1.34285714285714, 0
6461, -1.5, 0
6463, -0.766666666666667, 0
6464, 1.8, 0
6466, 0.280952380952381, 0
6466, -0.0333333333333334, 0
6501, 0.123809523809524, 0
6503, -0.0333333333333334, 0
6506, -0.0333333333333334, 0
6539, -0.0333333333333334, 0
6541, -0.0857142857142859, 0
6542, -0.138095238095238, 0
6544, -0.190476190476191, 0
6553, -0.242857142857143, 0
6554, -0.347619047619048, 0
6604, -0.4, 0
6619, -0.504761904761905, 0
6622, -0.557142857142857, 0
6624, -0.714285714285714, 0
6626, -0.819047619047619, 0
6628, -0.976190476190476, 0
6629, -1.08095238095238, 0
6635, -1.18571428571429, 0
6652, -1.18571428571429, 0
6686, -1.13333333333333, 0
6687, -0.923809523809524, 0
6688, -0.557142857142857, 0
6689, -0.190476190476191, 0
6698, 0.123809523809524, 0
6731, 0.385714285714286, 0
6732, 0.49047619047619, 0
6734, 0.542857142857142, 0
6744, 0.542857142857142, 0
6746, 0.595238095238095, 0
6778, 0.542857142857142, 0
6780, 0.542857142857142, 0
6781, 0.542857142857142, 0
6796, 0.542857142857142, 0
6807, 0.49047619047619, 0
6818, 0.49047619047619, 0
6823, 0.438095238095238, 0
6829, 0.438095238095238, 0
6838, 0.385714285714286, 0
6874, 0.438095238095238, 0
6877, 0.385714285714286, 0
6878, 0.385714285714286, 0
6879, 0.333333333333333, 0
6895, 0.385714285714286, 0
6896, 0.333333333333333, 0
6904, 0.385714285714286, 0
6938, 0.333333333333333, 0
6939, 0.385714285714286, 0
6941, 0.333333333333333, 0
6974, 0.385714285714286, 0
6976, 0.333333333333333, 0
6979, 0.385714285714286, 0
7019, 0.333333333333333, 0
7020, 0.333333333333333, 0
7021, 0.333333333333333, 0
7023, 0.333333333333333, 0
7026, 0.333333333333333, 0
7032, 0.333333333333333, 0
7066, 0.280952380952381, 0
7068, 0.333333333333333, 0
7071, 0.280952380952381, 0
7072, 0.333333333333333, 0
7073, 0.280952380952381, 0
7109, 0.280952380952381, 0
7111, 0.280952380952381, 0
7113, 0.280952380952381, 0
7116, 0.228571428571428, 0
7151, 0.228571428571428, 0
7153, 0.228571428571428, 0
7158, 0.228571428571428, 0
7159, 0.228571428571428, 0
7163, 0.228571428571428, 0
7201, 0.176190476190476, 0
7212, 0.228571428571428, 0
7217, 0.176190476190476, 0
7221, 0.228571428571428, 0
7223, 0.176190476190476, 0
7257, 0.176190476190476, 0
7259, 0.176190476190476, 0
7260, 0.176190476190476, 0
7262, 0.176190476190476, 0
7263, 0.176190476190476, 0
7298, 0.123809523809524, 0
7306, 0.0714285714285714, 0
7307, 0.123809523809524, 0
7318, 0.176190476190476, 0
7319, 0.176190476190476, 0
7327, 0.176190476190476, 0
7361, 0.176190476190476, 0
7362, 0.176190476190476, 0
7363, 0.123809523809524, 0
7366, 0.176190476190476, 0
7392, 0.123809523809524, 0
7393, -0.138095238095238, 0
7403, -1.23809523809524, 0
7415, -1.5, 0
7421, -1.5, 0
7423, 1.43333333333333, 0
7457, 0.647619047619048, 0
7459, -0.190476190476191, 0
7464, 0.123809523809524, 0
7498, -0.0333333333333334, 0
7499, -0.0333333333333334, 0
7502, -0.0333333333333334, 0
7503, -0.0857142857142859, 0
7507, -0.138095238095238, 0
7541, -0.190476190476191, 0
7543, -0.242857142857143, 0
7544, -0.295238095238095, 0
7578, -0.347619047619048, 0
7622, -0.452380952380953, 0
7626, -0.557142857142857, 0
7627, -0.661904761904762, 0
7629, -0.819047619047619, 0
7631, -0.976190476190476, 0
7633, -1.08095238095238, 0
7635, -1.18571428571429, 0
7636, -1.18571428571429, 0
7669, -1.18571428571429, 0
7672, -0.976190476190476, 0
7676, -0.714285714285714, 0
7677, -0.295238095238095, 0
7678, 0.0190476190476188, 0
7716, 0.280952380952381, 0
7721, 0.438095238095238, 0
7722, 0.542857142857142, 0
7723, 0.542857142857142, 0
7728, 0.542857142857142, 0
7734, 0.542857142857142, 0
7769, 0.542857142857142, 0
7772, 0.49047619047619, 0
7778, 0.542857142857142, 0
7852, 0.438095238095238, 0
7854, 0.438095238095238, 0
7856, 0.438095238095238, 0
7857, 0.438095238095238, 0
7864, 0.385714285714286, 0
7867, 0.385714285714286, 0
7871, 0.385714285714286, 0
7876, 0.385714285714286, 0
7879, 0.333333333333333, 0
7884, 0.385714285714286, 0
7885, 0.333333333333333, 0
7894, 0.385714285714286, 0
7896, 0.333333333333333, 0
7931, 0.333333333333333, 0
7932, 0.333333333333333, 0
7937, 0.333333333333333, 0
7946, 0.333333333333333, 0
7947, 0.333333333333333, 0
7953, 0.333333333333333, 0
8011, 0.333333333333333, 0
8014, 0.333333333333333, 0
8017, 0.333333333333333, 0
8019, 0.280952380952381, 0
8026, 0.333333333333333, 0
8028, 0.280952380952381, 0
8029, 0.280952380952381, 0
8030, 0.280952380952381, 0
8064, 0.280952380952381, 0
8067, 0.280952380952381, 0
8071, 0.280952380952381, 0
8076, 0.228571428571428, 0
8111, 0.280952380952381, 0
8113, 0.228571428571428, 0
8114, 0.228571428571428, 0
8119, 0.228571428571428, 0
8126, 0.228571428571428, 0
8137, 0.228571428571428, 0
8172, 0.228571428571428, 0
8174, 0.228571428571428, 0
8177, 0.228571428571428, 0
8179, 0.176190476190476, 0
8223, 0.228571428571428, 0
8227, 0.176190476190476, 0
8228, 0.176190476190476, 0
8229, 0.176190476190476, 0
8234, 0.228571428571428, 0
8236, 0.228571428571428, 0
8257, 0.176190476190476, 0
8266, 0.0714285714285714, 0
8267, 0.123809523809524, 0
8272, 0.176190476190476, 0
8306, 0.228571428571428, 0
8307, 0.176190476190476, 0
8308, 0.176190476190476, 0
8342, 0.176190476190476, 0
8344, 0.176190476190476, 0
8346, 0.176190476190476, 0
8347, 0.123809523809524, 0
8357, -0.60952380952381, 0
8366, -1.5, 0
8377, -1.5, 0
8387, -0.190476190476191, 0
8422, 1.74761904761905, 0
8426, -0.0857142857142859, 0
8427, 0.0190476190476188, 0
8463, 0.0714285714285714, 0
8464, -0.0333333333333334, 0
8466, -0.0333333333333334, 0
8467, -0.0857142857142859, 0
8468, -0.0857142857142859, 0
8502, -0.190476190476191, 0
8503, -0.190476190476191, 0
8509, -0.295238095238095, 0
8513, -0.347619047619048, 0
8524, -0.452380952380953, 0
8525, -0.557142857142857, 0
8559, -0.661904761904762, 0
8561, -0.766666666666667, 0
8562, -0.923809523809524, 0
8564, -1.02857142857143, 0
8573, -1.18571428571429, 0
8591, -1.23809523809524, 0
8594, -1.29047619047619, 0
8608, -1.13333333333333, 0
8644, -0.923809523809524, 0
8645, -0.504761904761905, 0
8647, -0.138095238095238, 0
8655, 0.176190476190476, 0
8692, 0.385714285714286, 0
8693, 0.542857142857142, 0
8694, 0.542857142857142, 0
8696, 0.542857142857142, 0
8696, 0.542857142857142, 0
8703, 0.595238095238095, 0
8738, 0.542857142857142, 0
8741, 0.542857142857142, 0
8745, 0.49047619047619, 0
8753, 0.49047619047619, 0
8809, 0.438095238095238, 0
8818, 0.438095238095238, 0
8819, 0.385714285714286, 0
8821, 0.438095238095238, 0
8824, 0.385714285714286, 0
8827, 0.385714285714286, 0
8828, 0.385714285714286, 0
8841, 0.333333333333333, 0
8847, 0.333333333333333, 0
8851, 0.385714285714286, 0
8885, 0.333333333333333, 0
8886, 0.333333333333333, 0
8888, 0.385714285714286, 0
8893, 0.385714285714286, 0
8929, 0.333333333333333, 0
8931, 0.385714285714286, 0
8932, 0.333333333333333, 0
8937, 0.333333333333333, 0
8948, 0.280952380952381, 0
8949, 0.333333333333333, 0
8953, 0.333333333333333, 0
9001, 0.333333333333333, 0
9002, 0.280952380952381, 0
9012, 0.333333333333333, 0
9017, 0.280952380952381, 0
9018, 0.280952380952381, 0
9019, 0.280952380952381, 0
9028, 0.280952380952381, 0
9037, 0.228571428571428, 0
9052, 0.280952380952381, 0
9086, 0.228571428571428, 0
9087, 0.228571428571428, 0
9088, 0.228571428571428, 0
9089, 0.228571428571428, 0
9097, 0.176190476190476, 0
9107, 0.228571428571428, 0
9142, 0.176190476190476, 0
9144, 0.228571428571428, 0
9146, 0.176190476190476, 0
9180, 0.176190476190476, 0
9181, 0.176190476190476, 0
9192, 0.176190476190476, 0
9203, 0.228571428571428, 0
9221, 0.176190476190476, 0
9222, 0.0714285714285714, 0
9223, 0.123809523809524, 0
9224, 0.176190476190476, 0
9225, 0.176190476190476, 0
9236, 0.176190476190476, 0
9244, 0.176190476190476, 0
9279, 0.176190476190476, 0
9281, 0.176190476190476, 0
9282, 0.123809523809524, 0
9318, 0.123809523809524, 0
9319, -0.60952380952381, 0
9320, -1.5, 0
9324, -1.5, 0
9332, 0.123809523809524, 0
9367, 1.64285714285714, 0
9368, -0.0857142857142859, 0
9369, 0.0190476190476188, 0
9379, 0.0190476190476188, 0
9380, -0.0857142857142859, 0
9394, -0.0333333333333334, 0
9417, -0.138095238095238, 0
9420, -0.138095238095238, 0
9422, -0.190476190476191, 0
9423, -0.242857142857143, 0
9458, -0.295238095238095, 0
9469, -0.347619047619048, 0
9470, -0.452380952380953, 0
9471, -0.557142857142857, 0
9472, -0.661904761904762, 0
9506, -0.766666666666667, 0
9507, -0.923809523809524, 0
9512, -1.02857142857143, 0
9513, -1.18571428571429, 0
9554, -1.18571428571429, 0
9559, -1.23809523809524, 0
9559, -1.13333333333333, 0
9560, -0.871428571428572, 0
9609, -0.504761904761905, 0
9618, -0.138095238095238, 0
9620, 0.176190476190476, 0
9623, 0.333333333333333, 0
9629, 0.49047619047619, 0
9630, 0.49047619047619, 0
9630, 0.542857142857142, 0
9635, 0.542857142857142, 0
9668, 0.542857142857142, 0
9668, 0.49047619047619, 0
9671, 0.49047619047619, 0
9679, 0.49047619047619, 0
9695, 0.438095238095238, 0
9705, 0.385714285714286, 0
9738, 0.438095238095238, 0
9738, 0.385714285714286, 0
9740, 0.385714285714286, 0
9742, 0.333333333333333, 0
9743, 0.385714285714286, 0
9780, 0.333333333333333, 0
9789, 0.333333333333333, 0
9819, 0.333333333333333, 0
9820, 0.333333333333333, 0
9821, 0.333333333333333, 0
9821, 0.333333333333333, 0
9825, 0.333333333333333, 0
9826, 0.333333333333333, 0
9861, 0.333333333333333, 0
9864, 0.333333333333333, 0
9865, 0.333333333333333, 0
9900, 0.333333333333333, 0
9900, 0.333333333333333, 0
9901, 0.333333333333333, 0
9904, 0.280952380952381, 0
9905, 0.333333333333333, 0
9937, 0.280952380952381, 0
9944, 0.280952380952381, 0
9945, 0.280952380952381, 0
9946, 0.280952380952381, 0
9955, 0.280952380952381, 0
9991, 0.280952380952381, 0
10014, 0.228571428571428, 0
10019, 0.280952380952381, 0
10021, 0.228571428571428, 0
10023, 0.228571428571428, 0
10028, 0.228571428571428, 0
