0, 26063, 0, 0, 0
0, 25760, 0, 0, 0
0, 25559, 0, 0, 0
0, 25458, 0, 0, 0
0, 25452, 0, 0, 0
0, 25532, 0, 0, 0
0, 25682, 0, 0, 0
0, 25884, 0, 0, 0
0, 26123, 0, 0, 0
0, 26386, 0, 0, 0
0, 26661, 0, 0, 0
0, 26938, 0, 0, 0
0, 27207, 0, 0, 0
0, 27456, 0, 0, 0
0, 27676, 0, 0, 0
0, 27858, 0, 0, 0
0, 27998, 0, 0, 0
0, 28089, 0, 0, 0
0, 28128, 0, 0, 0
0, 28110, 0, 0, 0
0, 28036, 0, 0, 0
0, 27910, 0, 0, 0
0, 27754, 0, 0, 0
0, 27633, 0, 0, 0
0, 27737, 0, 0, 0
0, 28431, 0, 0, 0
0, 30111, 0, 0, 0
0, 32951, 0, 0, 0
0, 36767, 0, 0, 0
0, 41065, 1, 0, 0
0, 45178, 0, 0, 0
0, 48468, 0, 0, 0
0, 50570, 0, 0, 0
0, 51476, 0, 0, 0
0, 51396, 0, 0, 0
0, 50573, 0, 0, 0
0, 49217, 0, 0, 0
0, 47502, 0, 1, 0
0, 45587, 0, 0, 0
0, 43620, 0, 0, 0
0, 41721, 0, 0, 0
0, 39969, 0, 0, 0
0, 38397, 0, 0, 0
0, 37001, 0, 0, 0
0, 35770, 0, 0, 0
0, 34714, 0, 0, 0
0, 33879, 0, 0, 0
0, 33325, 0, 0, 0
0, 33096, 0, 0, 0
0, 33182, 0, 0, 0
0, 33512, 0, 0, 0
0, 33970, 0, 0, 0
0, 34435, 0, 0, 0
0, 34799, 0, 0, 0
0, 34991, 0, 0, 0
0, 34976, 0, 0, 0
0, 34743, 0, 0, 0
0, 34306, 0, 0, 0
0, 33696, 0, 0, 0
0, 32951, 0, 0, 0
0, 32114, 0, 0, 0
0, 31229, 0, 0, 0
0, 30334, 0, 0, 0
0, 29463, 0, 0, 0
0, 28645, 0, 0, 0
0, 27901, 0, 0, 0
0, 27247, 0, 0, 0
0, 26692, 0, 0, 0
0, 26241, 0, 0, 0
0, 25894, 0, 0, 0
0, 25652, 0, 0, 0
0, 25511, 0, 0, 0
0, 25469, 0, 0, 0
0, 25518, 0, 0, 0
0, 25644, 0, 0, 0
0, 25826, 0, 0, 0
0, 26050, 0, 0, 0
0, 26300, 0, 0, 0
0, 26564, 0, 0, 0
0, 26830, 0, 0, 0
0, 27088, 0, 0, 0
0, 27323, 0, 0, 0
0, 27525, 0, 0, 0
0, 27683, 0, 0, 0
0, 27794, 0, 0, 0
0, 27858, 0, 0, 0
0, 27874, 0, 0, 0
0, 27841, 0, 0, 0
0, 27758, 0, 0, 0
0, 27629, 0, 0, 0
0, 27464, 0, 0, 0
0, 27303, 0, 0, 0
0, 27265, 0, 0, 0
0, 27635, 0, 0, 0
0, 28802, 0, 0, 0
0, 31057, 0, 0, 0
0, 34387, 0, 0, 0
0, 38440, 0, 0, 0
0, 42631, 1, 0, 0
0, 46303, 0, 0, 0
0, 48954, 0, 0, 0
0, 50409, 0, 0, 0
0, 50789, 0, 0, 0
0, 50322, 0, 0, 0
0, 49225, 0, 0, 0
0, 47687, 0, 0, 0
0, 45877, 0, 1, 0
0, 43954, 0, 0, 0
0, 42054, 0, 0, 0
0, 40278, 0, 0, 0
0, 38674, 0, 0, 0
0, 37242, 0, 0, 0
0, 35958, 0, 0, 0
0, 34822, 0, 0, 0
0, 33870, 0, 0, 0
0, 33162, 0, 0, 0
0, 32759, 0, 0, 0
0, 32684, 0, 0, 0
0, 32890, 0, 0, 0
0, 33282, 0, 0, 0
0, 33738, 0, 0, 0
0, 34140, 0, 0, 0
0, 34401, 0, 0, 0
0, 34471, 0, 0, 0
0, 34327, 0, 0, 0
0, 33975, 0, 0, 0
0, 33440, 0, 0, 0
0, 32754, 0, 0, 0
0, 31954, 0, 0, 0
0, 31079, 0, 0, 0
0, 30172, 0, 0, 0
0, 29271, 0, 0, 0
0, 28413, 0, 0, 0
0, 27628, 0, 0, 0
0, 26937, 0, 0, 0
0, 26348, 0, 0, 0
0, 25866, 0, 0, 0
0, 25492, 0, 0, 0
0, 25228, 0, 0, 0
0, 25068, 0, 0, 0
0, 25012, 0, 0, 0
0, 25051, 0, 0, 0
0, 25172, 0, 0, 0
0, 25358, 0, 0, 0
0, 25592, 0, 0, 0
0, 25857, 0, 0, 0
0, 26131, 0, 0, 0
0, 26402, 0, 0, 0
0, 26660, 0, 0, 0
0, 26898, 0, 0, 0
0, 27107, 0, 0, 0
0, 27283, 0, 0, 0
0, 27420, 0, 0, 0
0, 27517, 0, 0, 0
0, 27575, 0, 0, 0
0, 27594, 0, 0, 0
0, 27574, 0, 0, 0
0, 27519, 0, 0, 0
0, 27427, 0, 0, 0
0, 27302, 0, 0, 0
0, 27155, 0, 0, 0
0, 27024, 0, 0, 0
0, 27013, 0, 0, 0
0, 27383, 0, 0, 0
0, 28516, 0, 0, 0
0, 30708, 0, 0, 0
0, 33964, 0, 0, 0
0, 37953, 0, 0, 0
0, 42110, 1, 0, 0
0, 45784, 0, 0, 0
0, 48463, 0, 0, 0
0, 49957, 0, 0, 0
0, 50377, 0, 0, 0
0, 49950, 0, 0, 0
0, 48893, 0, 0, 0
0, 47387, 0, 0, 0
0, 45601, 0, 1, 0
0, 43689, 0, 0, 0
0, 41783, 0, 0, 0
0, 39981, 0, 0, 0
0, 38329, 0, 0, 0
0, 36838, 0, 0, 0
0, 35499, 0, 0, 0
0, 34329, 0, 0, 0
0, 33382, 0, 0, 0
0, 32736, 0, 0, 0
0, 32446, 0, 0, 0
0, 32518, 0, 0, 0
0, 32886, 0, 0, 0
0, 33429, 0, 0, 0
0, 34005, 0, 0, 0
0, 34493, 0, 0, 0
0, 34809, 0, 0, 0
0, 34910, 0, 0, 0
0, 34784, 0, 0, 0
0, 34445, 0, 0, 0
0, 33925, 0, 0, 0
0, 33263, 0, 0, 0
0, 32505, 0, 0, 0
0, 31689, 0, 0, 0
0, 30854, 0, 0, 0
0, 30034, 0, 0, 0
0, 29256, 0, 0, 0
0, 28543, 0, 0, 0
0, 27910, 0, 0, 0
0, 27367, 0, 0, 0
0, 26916, 0, 0, 0
0, 26565, 0, 0, 0
0, 26315, 0, 0, 0
0, 26162, 0, 0, 0
0, 26099, 0, 0, 0
0, 26120, 0, 0, 0
0, 26214, 0, 0, 0
0, 26367, 0, 0, 0
0, 26562, 0, 0, 0
0, 26786, 0, 0, 0
0, 27024, 0, 0, 0
0, 27256, 0, 0, 0
0, 27468, 0, 0, 0
0, 27651, 0, 0, 0
0, 27804, 0, 0, 0
0, 27922, 0, 0, 0
0, 27999, 0, 0, 0
0, 28030, 0, 0, 0
0, 28010, 0, 0, 0
0, 27936, 0, 0, 0
0, 27809, 0, 0, 0
0, 27647, 0, 0, 0
0, 27498, 0, 0, 0
0, 27495, 0, 0, 0
0, 27914, 0, 0, 0
0, 29105, 0, 0, 0
0, 31288, 0, 0, 0
0, 34391, 0, 0, 0
0, 38054, 0, 0, 0
0, 41725, 0, 0, 0
0, 44824, 0, 0, 0
0, 46951, 0, 0, 0
0, 48000, 0, 0, 0
0, 48105, 0, 0, 0
0, 47477, 0, 0, 0
0, 46311, 0, 0, 0
0, 44775, 0, 0, 0
0, 43024, 0, 1, 0
0, 41201, 0, 0, 0
0, 39422, 0, 0, 0
0, 37756, 0, 0, 0
0, 36232, 0, 0, 0
0, 34854, 0, 0, 0
0, 33626, 0, 0, 0
0, 32589, 0, 0, 0
0, 31816, 0, 0, 0
0, 31383, 0, 0, 0
0, 31328, 0, 0, 0
0, 31624, 0, 0, 0
0, 32174, 0, 0, 0
0, 32837, 0, 0, 0
0, 33474, 0, 0, 0
0, 33976, 0, 0, 0
0, 34275, 0, 0, 0
0, 34342, 0, 0, 0
0, 34177, 0, 0, 0
0, 33802, 0, 0, 0
0, 33251, 0, 0, 0
0, 32563, 0, 0, 0
0, 31784, 0, 0, 0
0, 30956, 0, 0, 0
0, 30118, 0, 0, 0
0, 29308, 0, 0, 0
0, 28557, 0, 0, 0
0, 27887, 0, 0, 0
0, 27309, 0, 0, 0
0, 26829, 0, 0, 0
0, 26445, 0, 0, 0
0, 26158, 0, 0, 0
0, 25964, 0, 0, 0
0, 25861, 0, 0, 0
0, 25844, 0, 0, 0
0, 25908, 0, 0, 0
0, 26043, 0, 0, 0
0, 26235, 0, 0, 0
0, 26469, 0, 0, 0
0, 26728, 0, 0, 0
0, 26994, 0, 0, 0
0, 27258, 0, 0, 0
0, 27504, 0, 0, 0
0, 27724, 0, 0, 0
0, 27910, 0, 0, 0
0, 28059, 0, 0, 0
0, 28162, 0, 0, 0
0, 28222, 0, 0, 0
0, 28241, 0, 0, 0
0, 28219, 0, 0, 0
0, 28156, 0, 0, 0
0, 28051, 0, 0, 0
0, 27908, 0, 0, 0
0, 27746, 0, 0, 0
0, 27627, 0, 0, 0
0, 27737, 0, 0, 0
0, 28426, 0, 0, 0
0, 30065, 0, 0, 0
0, 32808, 0, 0, 0
0, 36466, 0, 0, 0
0, 40562, 1, 0, 0
0, 44459, 0, 0, 0
0, 47559, 0, 0, 0
0, 49522, 0, 0, 0
0, 50347, 0, 0, 0
0, 50243, 0, 0, 0
0, 49442, 0, 0, 0
0, 48142, 0, 0, 0
0, 46513, 0, 1, 0
0, 44716, 0, 0, 0
0, 42888, 0, 0, 0
0, 41146, 0, 0, 0
0, 39565, 0, 0, 0
0, 38166, 0, 0, 0
0, 36929, 0, 0, 0
0, 35829, 0, 0, 0
0, 34871, 0, 0, 0
0, 34091, 0, 0, 0
0, 33544, 0, 0, 0
0, 33279, 0, 0, 0
0, 33301, 0, 0, 0
0, 33551, 0, 0, 0
0, 33927, 0, 0, 0
0, 34318, 0, 0, 0
0, 34629, 0, 0, 0
0, 34792, 0, 0, 0
0, 34769, 0, 0, 0
0, 34554, 0, 0, 0
0, 34158, 0, 0, 0
0, 33604, 0, 0, 0
0, 32922, 0, 0, 0
0, 32149, 0, 0, 0
0, 31319, 0, 0, 0
0, 30471, 0, 0, 0
0, 29638, 0, 0, 0
0, 28855, 0, 0, 0
0, 28145, 0, 0, 0
0, 27522, 0, 0, 0
0, 26991, 0, 0, 0
0, 26555, 0, 0, 0
0, 26218, 0, 0, 0
0, 25979, 0, 0, 0
0, 25840, 0, 0, 0
0, 25798, 0, 0, 0
0, 25844, 0, 0, 0
0, 25967, 0, 0, 0
0, 26148, 0, 0, 0
0, 26367, 0, 0, 0
0, 26604, 0, 0, 0
0, 26844, 0, 0, 0
0, 27074, 0, 0, 0
0, 27283, 0, 0, 0
0, 27466, 0, 0, 0
0, 27622, 0, 0, 0
0, 27745, 0, 0, 0
0, 27832, 0, 0, 0
0, 27884, 0, 0, 0
0, 27903, 0, 0, 0
0, 27894, 0, 0, 0
0, 27861, 0, 0, 0
0, 27803, 0, 0, 0
0, 27719, 0, 0, 0
0, 27610, 0, 0, 0
0, 27474, 0, 0, 0
0, 27318, 0, 0, 0
0, 27158, 0, 0, 0
0, 27057, 0, 0, 0
0, 27191, 0, 0, 0
0, 27901, 0, 0, 0
0, 29565, 0, 0, 0
0, 32355, 0, 0, 0
0, 36095, 0, 0, 0
0, 40309, 1, 0, 0
0, 44350, 0, 0, 0
0, 47601, 0, 0, 0
0, 49693, 0, 0, 0
0, 50606, 0, 0, 0
0, 50544, 0, 0, 0
0, 49754, 0, 0, 0
0, 48440, 0, 0, 0
0, 46782, 0, 1, 0
0, 44944, 0, 0, 0
0, 43073, 0, 0, 0
0, 41284, 0, 0, 0
0, 39655, 0, 0, 0
0, 38212, 0, 0, 0
0, 36943, 0, 0, 0
0, 35820, 0, 0, 0
0, 34840, 0, 0, 0
0, 34036, 0, 0, 0
0, 33459, 0, 0, 0
0, 33161, 0, 0, 0
0, 33159, 0, 0, 0
0, 33407, 0, 0, 0
0, 33810, 0, 0, 0
0, 34260, 0, 0, 0
0, 34661, 0, 0, 0
0, 34931, 0, 0, 0
0, 35027, 0, 0, 0
0, 34939, 0, 0, 0
0, 34682, 0, 0, 0
0, 34279, 0, 0, 0
0, 33763, 0, 0, 0
0, 33168, 0, 0, 0
0, 32519, 0, 0, 0
0, 31822, 0, 0, 0
0, 31084, 0, 0, 0
0, 30309, 0, 0, 0
0, 29497, 0, 0, 0
0, 28647, 0, 0, 0
0, 27769, 0, 0, 0
0, 26895, 0, 0, 0
0, 26060, 0, 0, 0
0, 25308, 0, 0, 0
0, 24679, 0, 0, 0
0, 24208, 0, 0, 0
0, 23908, 0, 0, 0
0, 23773, 0, 0, 0
0, 23780, 0, 0, 0
0, 23905, 0, 0, 0
0, 24124, 0, 0, 0
0, 24416, 0, 0, 0
0, 24763, 0, 0, 0
0, 25141, 0, 0, 0
0, 25520, 0, 0, 0
0, 25876, 0, 0, 0
0, 26185, 0, 0, 0
0, 26440, 0, 0, 0
0, 26650, 0, 0, 0
0, 26832, 0, 0, 0
0, 26996, 0, 0, 0
0, 27144, 0, 0, 0
0, 27264, 0, 0, 0
0, 27346, 0, 0, 0
0, 27376, 0, 0, 0
0, 27339, 0, 0, 0
0, 27233, 0, 0, 0
0, 27077, 0, 0, 0
0, 26927, 0, 0, 0
0, 26942, 0, 0, 0
0, 27454, 0, 0, 0
0, 28864, 0, 0, 0
0, 31397, 0, 0, 0
0, 34941, 0, 0, 0
0, 39077, 0, 0, 0
0, 43194, 1, 0, 0
0, 46659, 0, 0, 0
0, 49046, 0, 0, 0
0, 50265, 0, 0, 0
0, 50475, 0, 0, 0
0, 49897, 0, 0, 0
0, 48735, 0, 0, 0
0, 47172, 0, 0, 0
0, 45380, 0, 1, 0
0, 43507, 0, 0, 0
0, 41677, 0, 0, 0
0, 39971, 0, 0, 0
0, 38420, 0, 0, 0
0, 37024, 0, 0, 0
0, 35778, 0, 0, 0
0, 34695, 0, 0, 0
0, 33815, 0, 0, 0
0, 33198, 0, 0, 0
0, 32887, 0, 0, 0
0, 32888, 0, 0, 0
0, 33143, 0, 0, 0
0, 33555, 0, 0, 0
0, 34012, 0, 0, 0
0, 34417, 0, 0, 0
0, 34692, 0, 0, 0
0, 34789, 0, 0, 0
0, 34688, 0, 0, 0
0, 34393, 0, 0, 0
0, 33924, 0, 0, 0
0, 33313, 0, 0, 0
0, 32600, 0, 0, 0
0, 31823, 0, 0, 0
0, 31011, 0, 0, 0
0, 30189, 0, 0, 0
0, 29376, 0, 0, 0
0, 28591, 0, 0, 0
0, 27853, 0, 0, 0
0, 27188, 0, 0, 0
0, 26619, 0, 0, 0
0, 26164, 0, 0, 0
0, 25831, 0, 0, 0
0, 25617, 0, 0, 0
0, 25512, 0, 0, 0
0, 25507, 0, 0, 0
0, 25592, 0, 0, 0
0, 25755, 0, 0, 0
0, 25983, 0, 0, 0
0, 26261, 0, 0, 0
0, 26570, 0, 0, 0
0, 26893, 0, 0, 0
0, 27209, 0, 0, 0
0, 27500, 0, 0, 0
0, 27757, 0, 0, 0
0, 27965, 0, 0, 0
0, 28113, 0, 0, 0
0, 28197, 0, 0, 0
0, 28216, 0, 0, 0
0, 28171, 0, 0, 0
0, 28073, 0, 0, 0
0, 27928, 0, 0, 0
0, 27754, 0, 0, 0
0, 27605, 0, 0, 0
0, 27648, 0, 0, 0
0, 28203, 0, 0, 0
0, 29633, 0, 0, 0
0, 32121, 0, 0, 0
0, 35522, 0, 0, 0
0, 39403, 0, 0, 0
0, 43162, 1, 0, 0
0, 46209, 0, 0, 0
0, 48184, 0, 0, 0
0, 49048, 0, 0, 0
0, 48978, 0, 0, 0
0, 48188, 0, 0, 0
0, 46872, 0, 0, 0
0, 45198, 0, 1, 0
0, 43319, 0, 0, 0
0, 41368, 0, 0, 0
0, 39453, 0, 0, 0
0, 37643, 0, 0, 0
0, 35966, 0, 0, 0
0, 34436, 0, 0, 0
0, 33081, 0, 0, 0
0, 31959, 0, 0, 0
0, 31151, 0, 0, 0
0, 30738, 0, 0, 0
0, 30753, 0, 0, 0
0, 31156, 0, 0, 0
0, 31828, 0, 0, 0
0, 32609, 0, 0, 0
0, 33346, 0, 0, 0
0, 33922, 0, 0, 0
0, 34266, 0, 0, 0
0, 34353, 0, 0, 0
0, 34193, 0, 0, 0
0, 33815, 0, 0, 0
0, 33256, 0, 0, 0
0, 32564, 0, 0, 0
0, 31787, 0, 0, 0
0, 30972, 0, 0, 0
0, 30159, 0, 0, 0
0, 29382, 0, 0, 0
0, 28669, 0, 0, 0
0, 28035, 0, 0, 0
0, 27486, 0, 0, 0
0, 27012, 0, 0, 0
0, 26593, 0, 0, 0
0, 26206, 0, 0, 0
0, 25839, 0, 0, 0
0, 25497, 0, 0, 0
0, 25199, 0, 0, 0
0, 24974, 0, 0, 0
0, 24847, 0, 0, 0
0, 24826, 0, 0, 0
0, 24908, 0, 0, 0
0, 25080, 0, 0, 0
0, 25335, 0, 0, 0
0, 25663, 0, 0, 0
0, 26043, 0, 0, 0
0, 26449, 0, 0, 0
0, 26851, 0, 0, 0
0, 27214, 0, 0, 0
0, 27512, 0, 0, 0
0, 27731, 0, 0, 0
0, 27871, 0, 0, 0
0, 27935, 0, 0, 0
0, 27931, 0, 0, 0
0, 27866, 0, 0, 0
0, 27755, 0, 0, 0
0, 27620, 0, 0, 0
0, 27539, 0, 0, 0
0, 27722, 0, 0, 0
0, 28553, 0, 0, 0
0, 30434, 0, 0, 0
0, 33515, 0, 0, 0
0, 37565, 0, 0, 0
0, 42040, 1, 0, 0
0, 46239, 0, 0, 0
0, 49528, 0, 0, 0
0, 51562, 0, 0, 0
0, 52368, 0, 0, 0
0, 52189, 0, 0, 0
0, 51282, 0, 0, 0
0, 49852, 0, 0, 0
0, 48073, 0, 1, 0
0, 46108, 0, 0, 0
0, 44101, 0, 0, 0
0, 42161, 0, 0, 0
0, 40365, 0, 0, 0
0, 38739, 0, 0, 0
0, 37277, 0, 0, 0
0, 35968, 0, 0, 0
0, 34835, 0, 0, 0
0, 33933, 0, 0, 0
0, 33333, 0, 0, 0
0, 33081, 0, 0, 0
0, 33169, 0, 0, 0
0, 33523, 0, 0, 0
0, 34522, 0, 0, 0
0, 34924, 0, 0, 0
0, 35152, 0, 0, 0
0, 35168, 0, 0, 0
0, 34965, 0, 0, 0
0, 34558, 0, 0, 0
0, 33974, 0, 0, 0
0, 33248, 0, 0, 0
0, 32416, 0, 0, 0
0, 31516, 0, 0, 0
0, 30587, 0, 0, 0
0, 29665, 0, 0, 0
0, 28782, 0, 0, 0
0, 27965, 0, 0, 0
0, 27233, 0, 0, 0
0, 26601, 0, 0, 0
0, 26080, 0, 0, 0
0, 25678, 0, 0, 0
0, 25396, 0, 0, 0
0, 25229, 0, 0, 0
0, 25171, 0, 0, 0
0, 25208, 0, 0, 0
0, 25331, 0, 0, 0
0, 25526, 0, 0, 0
0, 25775, 0, 0, 0
0, 26061, 0, 0, 0
0, 26366, 0, 0, 0
0, 26673, 0, 0, 0
0, 26966, 0, 0, 0
0, 27230, 0, 0, 0
0, 27459, 0, 0, 0
0, 27646, 0, 0, 0
0, 27789, 0, 0, 0
0, 27886, 0, 0, 0
0, 27934, 0, 0, 0
0, 27928, 0, 0, 0
0, 27866, 0, 0, 0
0, 27751, 0, 0, 0
0, 27587, 0, 0, 0
0, 27396, 0, 0, 0
0, 27241, 0, 0, 0
0, 27297, 0, 0, 0
0, 27913, 0, 0, 0
0, 29500, 0, 0, 0
0, 32274, 0, 0, 0
0, 36075, 0, 0, 0
0, 40418, 1, 0, 0
0, 44629, 0, 0, 0
0, 48048, 0, 0, 0
0, 50265, 0, 0, 0
0, 51244, 0, 0, 0
0, 51198, 0, 0, 0
0, 50385, 0, 0, 0
0, 49017, 0, 0, 0
0, 47274, 0, 0, 0
0, 45321, 0, 1, 0
0, 43305, 0, 0, 0
0, 41353, 0, 0, 0
0, 39553, 0, 0, 0
0, 37941, 0, 0, 0
0, 36509, 0, 0, 0
0, 35244, 0, 0, 0
0, 34158, 0, 0, 0
0, 33290, 0, 0, 0
0, 32701, 0, 0, 0
0, 32441, 0, 0, 0
0, 32513, 0, 0, 0
0, 32851, 0, 0, 0
0, 33335, 0, 0, 0
0, 33835, 0, 0, 0
0, 34237, 0, 0, 0
0, 34468, 0, 0, 0
0, 34488, 0, 0, 0
0, 34292, 0, 0, 0
0, 33895, 0, 0, 0
0, 33333, 0, 0, 0
0, 32640, 0, 0, 0
0, 31854, 0, 0, 0
0, 31012, 0, 0, 0
0, 30145, 0, 0, 0
0, 29282, 0, 0, 0
0, 28451, 0, 0, 0
0, 27680, 0, 0, 0
0, 26992, 0, 0, 0
0, 26404, 0, 0, 0
0, 25924, 0, 0, 0
0, 25558, 0, 0, 0
0, 25305, 0, 0, 0
0, 25159, 0, 0, 0
0, 25118, 0, 0, 0
0, 25175, 0, 0, 0
0, 25315, 0, 0, 0
0, 25513, 0, 0, 0
0, 25742, 0, 0, 0
0, 25984, 0, 0, 0
0, 26222, 0, 0, 0
0, 26447, 0, 0, 0
0, 26657, 0, 0, 0
0, 26858, 0, 0, 0
0, 27047, 0, 0, 0
0, 27214, 0, 0, 0
0, 27350, 0, 0, 0
0, 27446, 0, 0, 0
0, 27497, 0, 0, 0
0, 27501, 0, 0, 0
0, 27465, 0, 0, 0
0, 27397, 0, 0, 0
0, 27299, 0, 0, 0
0, 27170, 0, 0, 0
0, 27003, 0, 0, 0
0, 26803, 0, 0, 0
0, 26589, 0, 0, 0
0, 26421, 0, 0, 0
0, 26481, 0, 0, 0
0, 27141, 0, 0, 0
0, 28832, 0, 0, 0
0, 31774, 0, 0, 0
0, 35793, 0, 0, 0
0, 40365, 1, 0, 0
0, 44773, 0, 0, 0
0, 48322, 0, 0, 0
0, 50589, 0, 0, 0
0, 51555, 0, 0, 0
0, 51474, 0, 0, 0
0, 50633, 0, 0, 0
0, 49250, 0, 0, 0
0, 47506, 0, 0, 0
0, 45556, 0, 1, 0
0, 43537, 0, 0, 0
0, 41565, 0, 0, 0
0, 39725, 0, 0, 0
0, 38055, 0, 0, 0
0, 36555, 0, 0, 0
0, 35222, 0, 0, 0
0, 34082, 0, 0, 0
0, 33188, 0, 0, 0
0, 32610, 0, 0, 0
0, 32395, 0, 0, 0
0, 32545, 0, 0, 0
0, 32988, 0, 0, 0
0, 33598, 0, 0, 0
0, 34232, 0, 0, 0
0, 34766, 0, 0, 0
0, 35111, 0, 0, 0
0, 35213, 0, 0, 0
0, 35058, 0, 0, 0
0, 34664, 0, 0, 0
0, 34064, 0, 0, 0
0, 33304, 0, 0, 0
0, 32433, 0, 0, 0
0, 31501, 0, 0, 0
0, 30548, 0, 0, 0
0, 29614, 0, 0, 0
0, 28730, 0, 0, 0
0, 27919, 0, 0, 0
0, 27199, 0, 0, 0
0, 26580, 0, 0, 0
0, 26072, 0, 0, 0
0, 25679, 0, 0, 0
0, 25403, 0, 0, 0
0, 25243, 0, 0, 0
0, 25194, 0, 0, 0
0, 25249, 0, 0, 0
0, 25392, 0, 0, 0
0, 25606, 0, 0, 0
0, 25870, 0, 0, 0
0, 26166, 0, 0, 0
0, 26474, 0, 0, 0
0, 26782, 0, 0, 0
0, 27078, 0, 0, 0
0, 27352, 0, 0, 0
0, 27600, 0, 0, 0
0, 27813, 0, 0, 0
0, 27987, 0, 0, 0
0, 28120, 0, 0, 0
0, 28210, 0, 0, 0
0, 28247, 0, 0, 0
0, 28227, 0, 0, 0
0, 28146, 0, 0, 0
0, 28007, 0, 0, 0
0, 27823, 0, 0, 0
0, 27642, 0, 0, 0
0, 27594, 0, 0, 0
0, 27972, 0, 0, 0
0, 29169, 0, 0, 0
0, 31460, 0, 0, 0
0, 34802, 0, 0, 0
0, 38807, 0, 0, 0
0, 42872, 1, 0, 0
0, 46344, 0, 0, 0
0, 48753, 0, 0, 0
0, 49968, 0, 0, 0
0, 50151, 0, 0, 0
0, 49551, 0, 0, 0
0, 48375, 0, 0, 0
0, 46787, 0, 0, 0
0, 44932, 0, 1, 0
0, 42939, 0, 0, 0
0, 40917, 0, 0, 0
0, 38947, 0, 0, 0
0, 37081, 0, 0, 0
0, 35351, 0, 0, 0
0, 33795, 0, 0, 0
0, 31505, 0, 0, 0
0, 30967, 0, 0, 0
0, 30912, 0, 0, 0
0, 31306, 0, 0, 0
0, 32033, 0, 0, 0
0, 32919, 0, 0, 0
0, 33787, 0, 0, 0
0, 34494, 0, 0, 0
0, 34950, 0, 0, 0
0, 35115, 0, 0, 0
0, 34990, 0, 0, 0
0, 34603, 0, 0, 0
0, 34001, 0, 0, 0
0, 33238, 0, 0, 0
0, 32371, 0, 0, 0
0, 31445, 0, 0, 0
0, 30500, 0, 0, 0
0, 29574, 0, 0, 0
0, 28695, 0, 0, 0
0, 27885, 0, 0, 0
0, 27160, 0, 0, 0
0, 26535, 0, 0, 0
0, 26019, 0, 0, 0
0, 25615, 0, 0, 0
0, 25325, 0, 0, 0
0, 25154, 0, 0, 0
0, 25100, 0, 0, 0
0, 25155, 0, 0, 0
0, 25307, 0, 0, 0
0, 25535, 0, 0, 0
0, 25819, 0, 0, 0
0, 26138, 0, 0, 0
0, 26475, 0, 0, 0
0, 26812, 0, 0, 0
0, 27137, 0, 0, 0
0, 27437, 0, 0, 0
0, 27697, 0, 0, 0
0, 27899, 0, 0, 0
0, 28032, 0, 0, 0
0, 28087, 0, 0, 0
0, 28064, 0, 0, 0
0, 27969, 0, 0, 0
0, 27824, 0, 0, 0
0, 27682, 0, 0, 0
0, 27692, 0, 0, 0
0, 28163, 0, 0, 0
0, 29502, 0, 0, 0
0, 31979, 0, 0, 0
0, 35520, 0, 0, 0
0, 39707, 0, 0, 0
0, 43906, 1, 0, 0
0, 47452, 0, 0, 0
0, 49876, 0, 0, 0
0, 51066, 0, 0, 0
0, 51199, 0, 0, 0
0, 50533, 0, 0, 0
0, 49282, 0, 0, 0
0, 47619, 0, 0, 0
0, 45701, 0, 1, 0
0, 43672, 0, 0, 0
0, 41660, 0, 0, 0
0, 39757, 0, 0, 0
0, 38013, 0, 0, 0
0, 36441, 0, 0, 0
0, 35037, 0, 0, 0
0, 33819, 0, 0, 0
0, 32845, 0, 0, 0
0, 32195, 0, 0, 0
0, 31933, 0, 0, 0
0, 32067, 0, 0, 0
0, 32529, 0, 0, 0
0, 33183, 0, 0, 0
0, 33869, 0, 0, 0
0, 34449, 0, 0, 0
0, 34833, 0, 0, 0
0, 34972, 0, 0, 0
0, 34857, 0, 0, 0
0, 34503, 0, 0, 0
0, 33944, 0, 0, 0
0, 33221, 0, 0, 0
0, 32376, 0, 0, 0
0, 31452, 0, 0, 0
0, 30495, 0, 0, 0
0, 29549, 0, 0, 0
0, 28650, 0, 0, 0
0, 27824, 0, 0, 0
0, 27093, 0, 0, 0
0, 26467, 0, 0, 0
0, 25953, 0, 0, 0
0, 25555, 0, 0, 0
0, 25276, 0, 0, 0
0, 25118, 0, 0, 0
0, 25070, 0, 0, 0
0, 25116, 0, 0, 0
0, 25234, 0, 0, 0
0, 25403, 0, 0, 0
0, 25605, 0, 0, 0
0, 25833, 0, 0, 0
0, 26086, 0, 0, 0
0, 26370, 0, 0, 0
0, 26681, 0, 0, 0
0, 27005, 0, 0, 0
0, 27319, 0, 0, 0
0, 27596, 0, 0, 0
0, 27808, 0, 0, 0
0, 27941, 0, 0, 0
0, 27991, 0, 0, 0
0, 27967, 0, 0, 0
0, 27882, 0, 0, 0
0, 27750, 0, 0, 0
0, 27592, 0, 0, 0
0, 27461, 0, 0, 0
0, 27513, 0, 0, 0
0, 28071, 0, 0, 0
0, 29543, 0, 0, 0
0, 32168, 0, 0, 0
0, 35834, 0, 0, 0
0, 40092, 1, 0, 0
0, 44296, 0, 0, 0
0, 47787, 0, 0, 0
0, 50127, 0, 0, 0
0, 51241, 0, 0, 0
0, 51322, 0, 0, 0
0, 50623, 0, 0, 0
0, 49358, 0, 0, 0
0, 47705, 0, 0, 0
0, 45828, 0, 1, 0
0, 43873, 0, 0, 0
0, 41970, 0, 0, 0
0, 40211, 0, 0, 0
0, 38635, 0, 0, 0
0, 37237, 0, 0, 0
0, 35994, 0, 0, 0
0, 34908, 0, 0, 0
0, 34012, 0, 0, 0
0, 33362, 0, 0, 0
0, 33014, 0, 0, 0
0, 32981, 0, 0, 0
0, 33212, 0, 0, 0
0, 33602, 0, 0, 0
0, 34026, 0, 0, 0
0, 34377, 0, 0, 0
0, 34579, 0, 0, 0
0, 34588, 0, 0, 0
0, 34390, 0, 0, 0
0, 33996, 0, 0, 0
0, 33426, 0, 0, 0
0, 32714, 0, 0, 0
0, 31891, 0, 0, 0
0, 31003, 0, 0, 0
0, 30090, 0, 0, 0
0, 29192, 0, 0, 0
0, 28337, 0, 0, 0
0, 27555, 0, 0, 0
0, 26863, 0, 0, 0
0, 26270, 0, 0, 0
0, 25783, 0, 0, 0
0, 25403, 0, 0, 0
0, 25130, 0, 0, 0
0, 24955, 0, 0, 0
0, 24877, 0, 0, 0
0, 24891, 0, 0, 0
0, 24991, 0, 0, 0
0, 25164, 0, 0, 0
0, 25393, 0, 0, 0
0, 25655, 0, 0, 0
0, 25929, 0, 0, 0
0, 26199, 0, 0, 0
0, 26455, 0, 0, 0
0, 26694, 0, 0, 0
0, 26908, 0, 0, 0
0, 27095, 0, 0, 0
0, 27244, 0, 0, 0
0, 27348, 0, 0, 0
0, 27403, 0, 0, 0
0, 27408, 0, 0, 0
0, 27368, 0, 0, 0
0, 27287, 0, 0, 0
0, 27170, 0, 0, 0
0, 27026, 0, 0, 0
0, 26868, 0, 0, 0
0, 26753, 0, 0, 0
0, 26849, 0, 0, 0
0, 27505, 0, 0, 0
0, 29129, 0, 0, 0
0, 31930, 0, 0, 0
0, 35751, 0, 0, 0
0, 40110, 1, 0, 0
0, 44338, 0, 0, 0
0, 47781, 0, 0, 0
0, 50034, 0, 0, 0
0, 51065, 0, 0, 0
0, 51080, 0, 0, 0
0, 50327, 0, 0, 0
0, 49012, 0, 0, 0
0, 47309, 0, 0, 0
0, 45377, 0, 1, 0
0, 43364, 0, 0, 0
0, 41402, 0, 0, 0
0, 39580, 0, 0, 0
0, 37939, 0, 0, 0
0, 36476, 0, 0, 0
0, 34075, 0, 0, 0
0, 33200, 0, 0, 0
0, 32624, 0, 0, 0
0, 32390, 0, 0, 0
0, 32490, 0, 0, 0
0, 32844, 0, 0, 0
0, 33325, 0, 0, 0
0, 33800, 0, 0, 0
0, 34165, 0, 0, 0
0, 34350, 0, 0, 0
0, 34326, 0, 0, 0
0, 34089, 0, 0, 0
0, 33650, 0, 0, 0
0, 33038, 0, 0, 0
0, 32289, 0, 0, 0
0, 31445, 0, 0, 0
0, 30548, 0, 0, 0
0, 29639, 0, 0, 0
0, 28754, 0, 0, 0
0, 27917, 0, 0, 0
0, 27152, 0, 0, 0
0, 26473, 0, 0, 0
0, 25895, 0, 0, 0
0, 25425, 0, 0, 0
0, 25070, 0, 0, 0
0, 24827, 0, 0, 0
0, 24691, 0, 0, 0
0, 24654, 0, 0, 0
0, 24709, 0, 0, 0
0, 24841, 0, 0, 0
0, 25034, 0, 0, 0
0, 25273, 0, 0, 0
0, 25537, 0, 0, 0
0, 25812, 0, 0, 0
0, 26086, 0, 0, 0
0, 26352, 0, 0, 0
0, 26600, 0, 0, 0
0, 26823, 0, 0, 0
0, 27019, 0, 0, 0
0, 27181, 0, 0, 0
0, 27304, 0, 0, 0
0, 27387, 0, 0, 0
0, 27430, 0, 0, 0
0, 27435, 0, 0, 0
0, 27405, 0, 0, 0
0, 27347, 0, 0, 0
0, 27269, 0, 0, 0
0, 27170, 0, 0, 0
0, 27049, 0, 0, 0
0, 26921, 0, 0, 0
0, 26828, 0, 0, 0
0, 26914, 0, 0, 0
0, 27507, 0, 0, 0
0, 29034, 0, 0, 0
0, 31758, 0, 0, 0
0, 35575, 0, 0, 0
0, 40017, 1, 0, 0
0, 44407, 0, 0, 0
0, 48054, 0, 0, 0
0, 50497, 0, 0, 0
0, 51660, 0, 0, 0
0, 51757, 0, 0, 0
0, 51062, 0, 0, 0
0, 49794, 0, 0, 0
0, 48121, 0, 0, 0
0, 46196, 0, 1, 0
0, 44163, 0, 0, 0
0, 42144, 0, 0, 0
0, 40224, 0, 0, 0
0, 38445, 0, 0, 0
0, 36812, 0, 0, 0
0, 35333, 0, 0, 0
0, 34055, 0, 0, 0
0, 33056, 0, 0, 0
0, 32425, 0, 0, 0
0, 32223, 0, 0, 0
0, 32439, 0, 0, 0
0, 32981, 0, 0, 0
0, 33693, 0, 0, 0
0, 34411, 0, 0, 0
0, 35001, 0, 0, 0
0, 35377, 0, 0, 0
0, 35496, 0, 0, 0
0, 35355, 0, 0, 0
0, 34975, 0, 0, 0
0, 34395, 0, 0, 0
0, 33666, 0, 0, 0
0, 32838, 0, 0, 0
0, 31958, 0, 0, 0
0, 31067, 0, 0, 0
0, 30203, 0, 0, 0
0, 29387, 0, 0, 0
0, 28636, 0, 0, 0
0, 27956, 0, 0, 0
0, 27346, 0, 0, 0
0, 26793, 0, 0, 0
0, 26295, 0, 0, 0
0, 25865, 0, 0, 0
0, 25533, 0, 0, 0
0, 25326, 0, 0, 0
0, 25255, 0, 0, 0
0, 25310, 0, 0, 0
0, 25459, 0, 0, 0
0, 25662, 0, 0, 0
0, 25883, 0, 0, 0
0, 26108, 0, 0, 0
0, 26341, 0, 0, 0
0, 26585, 0, 0, 0
0, 26835, 0, 0, 0
0, 27079, 0, 0, 0
0, 27299, 0, 0, 0
0, 27472, 0, 0, 0
0, 27578, 0, 0, 0
0, 27612, 0, 0, 0
0, 27572, 0, 0, 0
0, 27471, 0, 0, 0
0, 27333, 0, 0, 0
0, 27215, 0, 0, 0
0, 27276, 0, 0, 0
0, 27825, 0, 0, 0
0, 29234, 0, 0, 0
0, 31719, 0, 0, 0
0, 35181, 0, 0, 0
0, 39210, 0, 0, 0
0, 43199, 1, 0, 0
0, 46530, 0, 0, 0
0, 48786, 0, 0, 0
0, 49879, 0, 0, 0
0, 49968, 0, 0, 0
0, 49288, 0, 0, 0
0, 48041, 0, 0, 0
0, 46400, 0, 0, 0
0, 44510, 0, 1, 0
0, 42509, 0, 0, 0
0, 40517, 0, 0, 0
0, 38624, 0, 0, 0
0, 36884, 0, 0, 0
0, 35320, 0, 0, 0
0, 33944, 0, 0, 0
0, 32786, 0, 0, 0
0, 31907, 0, 0, 0
0, 31378, 0, 0, 0
0, 31248, 0, 0, 0
0, 31502, 0, 0, 0
0, 32055, 0, 0, 0
0, 32761, 0, 0, 0
0, 33467, 0, 0, 0
0, 34047, 0, 0, 0
0, 34414, 0, 0, 0
0, 34527, 0, 0, 0
0, 34386, 0, 0, 0
0, 34014, 0, 0, 0
0, 33446, 0, 0, 0
0, 32726, 0, 0, 0
0, 31904, 0, 0, 0
0, 31020, 0, 0, 0
0, 30112, 0, 0, 0
0, 29214, 0, 0, 0
0, 28354, 0, 0, 0
0, 27553, 0, 0, 0
0, 26827, 0, 0, 0
0, 26190, 0, 0, 0
0, 25656, 0, 0, 0
0, 25242, 0, 0, 0
0, 24956, 0, 0, 0
0, 24800, 0, 0, 0
0, 24767, 0, 0, 0
0, 24837, 0, 0, 0
0, 24984, 0, 0, 0
0, 25183, 0, 0, 0
0, 25419, 0, 0, 0
0, 25683, 0, 0, 0
0, 25967, 0, 0, 0
0, 26270, 0, 0, 0
0, 26593, 0, 0, 0
0, 26936, 0, 0, 0
0, 27291, 0, 0, 0
0, 27648, 0, 0, 0
0, 27990, 0, 0, 0
0, 28288, 0, 0, 0
0, 28514, 0, 0, 0
0, 28644, 0, 0, 0
0, 28673, 0, 0, 0
0, 28624, 0, 0, 0
0, 28568, 0, 0, 0
0, 28679, 0, 0, 0
0, 29285, 0, 0, 0
0, 30770, 0, 0, 0
0, 33341, 0, 0, 0
0, 36878, 0, 0, 0
0, 40958, 0, 0, 0
0, 44973, 1, 0, 0
0, 48307, 0, 0, 0
0, 50546, 0, 0, 0
0, 51604, 0, 0, 0
0, 51638, 0, 0, 0
0, 50875, 0, 0, 0
0, 49521, 0, 0, 0
0, 47760, 0, 1, 0
0, 45768, 0, 0, 0
0, 43716, 0, 0, 0
0, 41745, 0, 0, 0
0, 39953, 0, 0, 0
0, 38388, 0, 0, 0
0, 37037, 0, 0, 0
0, 35866, 0, 0, 0
0, 34857, 0, 0, 0
0, 34036, 0, 0, 0
0, 33453, 0, 0, 0
0, 33159, 0, 0, 0
0, 33166, 0, 0, 0
0, 33430, 0, 0, 0
0, 33843, 0, 0, 0
0, 34277, 0, 0, 0
0, 34621, 0, 0, 0
0, 34808, 0, 0, 0
0, 34809, 0, 0, 0
0, 34621, 0, 0, 0
0, 34267, 0, 0, 0
0, 33780, 0, 0, 0
0, 33187, 0, 0, 0
0, 32504, 0, 0, 0
0, 31750, 0, 0, 0
0, 30954, 0, 0, 0
0, 30159, 0, 0, 0
0, 29401, 0, 0, 0
0, 28709, 0, 0, 0
0, 28098, 0, 0, 0
0, 27565, 0, 0, 0
0, 27096, 0, 0, 0
0, 26685, 0, 0, 0
0, 26340, 0, 0, 0
0, 26082, 0, 0, 0
0, 25929, 0, 0, 0
0, 25883, 0, 0, 0
0, 25926, 0, 0, 0
0, 26034, 0, 0, 0
0, 26178, 0, 0, 0
0, 26339, 0, 0, 0
0, 26511, 0, 0, 0
0, 26703, 0, 0, 0
0, 26915, 0, 0, 0
0, 27140, 0, 0, 0
0, 27359, 0, 0, 0
0, 27546, 0, 0, 0
0, 27678, 0, 0, 0
0, 27740, 0, 0, 0
0, 27729, 0, 0, 0
0, 27649, 0, 0, 0
0, 27513, 0, 0, 0
0, 27341, 0, 0, 0
0, 27185, 0, 0, 0
0, 27170, 0, 0, 0
0, 27550, 0, 0, 0
0, 28666, 0, 0, 0
0, 30766, 0, 0, 0
0, 33836, 0, 0, 0
0, 37577, 0, 0, 0
0, 41482, 0, 0, 0
0, 44975, 0, 0, 0
0, 47602, 0, 0, 0
0, 49181, 0, 0, 0
0, 49774, 0, 0, 0
0, 49549, 0, 0, 0
0, 48691, 0, 0, 0
0, 47367, 0, 0, 0
0, 45738, 0, 1, 0
0, 43956, 0, 0, 0
0, 42160, 0, 0, 0
0, 40443, 0, 0, 0
0, 38852, 0, 0, 0
0, 37389, 0, 0, 0
0, 36039, 0, 0, 0
0, 34803, 0, 0, 0
0, 33718, 0, 0, 0
0, 32855, 0, 0, 0
0, 32283, 0, 0, 0
0, 32027, 0, 0, 0
0, 32059, 0, 0, 0
0, 32294, 0, 0, 0
0, 32619, 0, 0, 0
0, 32919, 0, 0, 0
0, 33110, 0, 0, 0
0, 33140, 0, 0, 0
0, 32989, 0, 0, 0
0, 32646, 0, 0, 0
0, 32119, 0, 0, 0
0, 31443, 0, 0, 0
0, 30680, 0, 0, 0
0, 29893, 0, 0, 0
0, 29139, 0, 0, 0
0, 28457, 0, 0, 0
0, 27859, 0, 0, 0
0, 27328, 0, 0, 0
0, 26848, 0, 0, 0
0, 26420, 0, 0, 0
0, 26059, 0, 0, 0
0, 25776, 0, 0, 0
0, 25579, 0, 0, 0
0, 25461, 0, 0, 0
0, 25415, 0, 0, 0
0, 25426, 0, 0, 0
0, 25491, 0, 0, 0
0, 25608, 0, 0, 0
0, 25774, 0, 0, 0
0, 25983, 0, 0, 0
0, 26223, 0, 0, 0
0, 26474, 0, 0, 0
0, 26708, 0, 0, 0
0, 26906, 0, 0, 0
0, 27061, 0, 0, 0
0, 27176, 0, 0, 0
0, 27253, 0, 0, 0
0, 27301, 0, 0, 0
0, 27319, 0, 0, 0
0, 27293, 0, 0, 0
0, 27213, 0, 0, 0
0, 27081, 0, 0, 0
0, 26924, 0, 0, 0
0, 26796, 0, 0, 0
0, 26852, 0, 0, 0
0, 27402, 0, 0, 0
0, 28806, 0, 0, 0
0, 31265, 0, 0, 0
0, 34677, 0, 0, 0
0, 38650, 0, 0, 0
0, 42600, 1, 0, 0
0, 45924, 0, 0, 0
0, 48216, 0, 0, 0
0, 49389, 0, 0, 0
0, 49592, 0, 0, 0
0, 49036, 0, 0, 0
0, 47915, 0, 0, 0
0, 46400, 0, 0, 0
0, 44638, 0, 1, 0
0, 42768, 0, 0, 0
0, 40910, 0, 0, 0
0, 39150, 0, 0, 0
0, 37528, 0, 0, 0
0, 36052, 0, 0, 0
0, 34733, 0, 0, 0
0, 33607, 0, 0, 0
0, 32736, 0, 0, 0
0, 32193, 0, 0, 0
0, 32022, 0, 0, 0
0, 32201, 0, 0, 0
0, 32643, 0, 0, 0
0, 33214, 0, 0, 0
0, 33784, 0, 0, 0
0, 34244, 0, 0, 0
0, 34528, 0, 0, 0
0, 34598, 0, 0, 0
0, 34449, 0, 0, 0
0, 34097, 0, 0, 0
0, 33569, 0, 0, 0
0, 32906, 0, 0, 0
0, 32155, 0, 0, 0
0, 31359, 0, 0, 0
0, 30552, 0, 0, 0
0, 29761, 0, 0, 0
0, 29007, 0, 0, 0
0, 28307, 0, 0, 0
0, 27669, 0, 0, 0
0, 27106, 0, 0, 0
0, 26631, 0, 0, 0
0, 26252, 0, 0, 0
0, 25968, 0, 0, 0
0, 25774, 0, 0, 0
0, 25663, 0, 0, 0
0, 25619, 0, 0, 0
0, 25625, 0, 0, 0
0, 25666, 0, 0, 0
0, 25734, 0, 0, 0
0, 25832, 0, 0, 0
0, 25964, 0, 0, 0
0, 26129, 0, 0, 0
0, 26324, 0, 0, 0
0, 26532, 0, 0, 0
0, 26732, 0, 0, 0
0, 26897, 0, 0, 0
0, 26997, 0, 0, 0
0, 27013, 0, 0, 0
0, 26941, 0, 0, 0
0, 26803, 0, 0, 0
0, 26679, 0, 0, 0
0, 26764, 0, 0, 0
0, 27390, 0, 0, 0
0, 28892, 0, 0, 0
0, 31405, 0, 0, 0
0, 34754, 0, 0, 0
0, 38509, 0, 0, 0
0, 42106, 0, 0, 0
0, 45022, 0, 0, 0
0, 46946, 0, 0, 0
0, 47848, 0, 0, 0
0, 47883, 0, 0, 0
0, 47254, 0, 0, 0
0, 46151, 0, 0, 0
0, 44739, 0, 1, 0
0, 43165, 0, 0, 0
0, 41538, 0, 0, 0
0, 39919, 0, 0, 0
0, 38327, 0, 0, 0
0, 36767, 0, 0, 0
0, 35264, 0, 0, 0
0, 33887, 0, 0, 0
0, 32744, 0, 0, 0
0, 31946, 0, 0, 0
0, 31566, 0, 0, 0
0, 31608, 0, 0, 0
0, 31987, 0, 0, 0
0, 32563, 0, 0, 0
0, 33182, 0, 0, 0
0, 33719, 0, 0, 0
0, 34093, 0, 0, 0
0, 34268, 0, 0, 0
0, 34234, 0, 0, 0
0, 34006, 0, 0, 0
0, 33612, 0, 0, 0
0, 33094, 0, 0, 0
0, 32492, 0, 0, 0
0, 31841, 0, 0, 0
0, 31172, 0, 0, 0
0, 30510, 0, 0, 0
0, 29872, 0, 0, 0
0, 29250, 0, 0, 0
0, 28617, 0, 0, 0
0, 27931, 0, 0, 0
0, 27165, 0, 0, 0
0, 26325, 0, 0, 0
0, 25459, 0, 0, 0
0, 24648, 0, 0, 0
0, 23978, 0, 0, 0
0, 23517, 0, 0, 0
0, 23297, 0, 0, 0
0, 23319, 0, 0, 0
0, 23573, 0, 0, 0
0, 24042, 0, 0, 0
0, 24688, 0, 0, 0
0, 25458, 0, 0, 0
0, 26272, 0, 0, 0
0, 27039, 0, 0, 0
0, 27674, 0, 0, 0
0, 28129, 0, 0, 0
0, 28402, 0, 0, 0
0, 28544, 0, 0, 0
0, 28684, 0, 0, 0
0, 29065, 0, 0, 0
0, 30006, 0, 0, 0
0, 31761, 0, 0, 0
0, 34375, 0, 0, 0
0, 37625, 0, 0, 0
0, 41076, 0, 0, 0
0, 44217, 0, 0, 0
0, 46621, 0, 0, 0
0, 48083, 0, 0, 0
0, 48630, 0, 0, 0
0, 48410, 0, 0, 0
0, 47589, 0, 0, 0
0, 46315, 0, 0, 0
0, 44730, 0, 1, 0
0, 42972, 0, 0, 0
0, 41164, 0, 0, 0
0, 39385, 0, 0, 0
0, 37668, 0, 0, 0
0, 36027, 0, 0, 0
0, 34483, 0, 0, 0
0, 33098, 0, 0, 0
0, 31977, 0, 0, 0
0, 31242, 0, 0, 0
0, 30974, 0, 0, 0
0, 31167, 0, 0, 0
0, 31722, 0, 0, 0
0, 32482, 0, 0, 0
0, 33274, 0, 0, 0
0, 33951, 0, 0, 0
0, 34421, 0, 0, 0
0, 34644, 0, 0, 0
0, 34621, 0, 0, 0
0, 34381, 0, 0, 0
0, 33968, 0, 0, 0
0, 33425, 0, 0, 0
0, 32782, 0, 0, 0
0, 32070, 0, 0, 0
0, 31308, 0, 0, 0
0, 30511, 0, 0, 0
0, 29695, 0, 0, 0
0, 28872, 0, 0, 0
0, 28056, 0, 0, 0
0, 27267, 0, 0, 0
0, 26534, 0, 0, 0
0, 25895, 0, 0, 0
0, 25393, 0, 0, 0
0, 25064, 0, 0, 0
0, 24916, 0, 0, 0
0, 24938, 0, 0, 0
0, 25098, 0, 0, 0
0, 25360, 0, 0, 0
0, 25683, 0, 0, 0
0, 26033, 0, 0, 0
0, 26388, 0, 0, 0
0, 26725, 0, 0, 0
0, 27013, 0, 0, 0
0, 27233, 0, 0, 0
0, 27384, 0, 0, 0
0, 27496, 0, 0, 0
0, 27677, 0, 0, 0
0, 28170, 0, 0, 0
0, 29287, 0, 0, 0
0, 31248, 0, 0, 0
0, 34035, 0, 0, 0
0, 37366, 0, 0, 0
0, 40765, 0, 0, 0
0, 43711, 0, 0, 0
0, 45814, 0, 0, 0
0, 46937, 0, 0, 0
0, 47165, 0, 0, 0
0, 46673, 0, 0, 0
0, 45641, 0, 0, 0
0, 44224, 0, 0, 0
0, 42558, 0, 1, 0
0, 40765, 0, 0, 0
0, 38943, 0, 0, 0
0, 37150, 0, 0, 0
0, 35418, 0, 0, 0
0, 33773, 0, 0, 0
0, 32271, 0, 0, 0
0, 31004, 0, 0, 0
0, 30091, 0, 0, 0
0, 29635, 0, 0, 0
0, 29672, 0, 0, 0
0, 30146, 0, 0, 0
0, 30922, 0, 0, 0
0, 31827, 0, 0, 0
0, 32694, 0, 0, 0
0, 33393, 0, 0, 0
0, 33848, 0, 0, 0
0, 34027, 0, 0, 0
0, 33927, 0, 0, 0
0, 33580, 0, 0, 0
0, 33030, 0, 0, 0
0, 32330, 0, 0, 0
0, 31531, 0, 0, 0
0, 30679, 0, 0, 0
0, 29814, 0, 0, 0
0, 28969, 0, 0, 0
0, 28173, 0, 0, 0
0, 27452, 0, 0, 0
0, 26828, 0, 0, 0
0, 26307, 0, 0, 0
0, 25892, 0, 0, 0
0, 25579, 0, 0, 0
0, 25367, 0, 0, 0
0, 25250, 0, 0, 0
0, 25224, 0, 0, 0
0, 25285, 0, 0, 0
0, 25425, 0, 0, 0
0, 25638, 0, 0, 0
0, 25909, 0, 0, 0
0, 26225, 0, 0, 0
0, 26562, 0, 0, 0
0, 26893, 0, 0, 0
0, 27191, 0, 0, 0
0, 27430, 0, 0, 0
0, 27592, 0, 0, 0
0, 27674, 0, 0, 0
0, 27694, 0, 0, 0
0, 27716, 0, 0, 0
0, 27924, 0, 0, 0
0, 28651, 0, 0, 0
0, 30241, 0, 0, 0
0, 32826, 0, 0, 0
0, 36209, 0, 0, 0
0, 39925, 0, 0, 0
0, 43377, 0, 0, 0
0, 46028, 0, 0, 0
0, 47592, 0, 0, 0
0, 48112, 0, 0, 0
0, 47813, 0, 0, 0
0, 46930, 0, 0, 0
0, 45645, 0, 0, 0
0, 44107, 0, 1, 0
0, 42448, 0, 0, 0
0, 40778, 0, 0, 0
0, 39185, 0, 0, 0
0, 37721, 0, 0, 0
0, 36404, 0, 0, 0
0, 35215, 0, 0, 0
0, 34142, 0, 0, 0
0, 33201, 0, 0, 0
0, 32441, 0, 0, 0
0, 31924, 0, 0, 0
0, 31696, 0, 0, 0
0, 31757, 0, 0, 0
0, 32054, 0, 0, 0
0, 32490, 0, 0, 0
0, 32954, 0, 0, 0
0, 33347, 0, 0, 0
0, 33595, 0, 0, 0
0, 33649, 0, 0, 0
0, 33492, 0, 0, 0
0, 33139, 0, 0, 0
0, 32619, 0, 0, 0
0, 31976, 0, 0, 0
0, 31250, 0, 0, 0
0, 30481, 0, 0, 0
0, 29702, 0, 0, 0
0, 28948, 0, 0, 0
0, 28239, 0, 0, 0
0, 27595, 0, 0, 0
0, 27031, 0, 0, 0
0, 26560, 0, 0, 0
0, 26188, 0, 0, 0
0, 25920, 0, 0, 0
0, 25760, 0, 0, 0
0, 25700, 0, 0, 0
0, 25726, 0, 0, 0
0, 25823, 0, 0, 0
0, 25978, 0, 0, 0
0, 26177, 0, 0, 0
0, 26408, 0, 0, 0
0, 26657, 0, 0, 0
0, 26911, 0, 0, 0
0, 27158, 0, 0, 0
0, 27389, 0, 0, 0
0, 27597, 0, 0, 0
0, 27781, 0, 0, 0
0, 27937, 0, 0, 0
0, 28063, 0, 0, 0
0, 28156, 0, 0, 0
0, 28212, 0, 0, 0
0, 28221, 0, 0, 0
0, 28178, 0, 0, 0
0, 28084, 0, 0, 0
0, 27950, 0, 0, 0
0, 27822, 0, 0, 0
0, 27841, 0, 0, 0
0, 28311, 0, 0, 0
0, 29604, 0, 0, 0
0, 31923, 0, 0, 0
0, 35135, 0, 0, 0
0, 38798, 0, 0, 0
0, 42305, 0, 0, 0
0, 45070, 0, 0, 0
0, 46740, 0, 0, 0
0, 47317, 0, 0, 0
0, 47049, 0, 0, 0
0, 46217, 0, 0, 0
0, 45026, 0, 0, 0
0, 43627, 0, 1, 0
0, 42142, 0, 0, 0
0, 40679, 0, 0, 0
0, 39321, 0, 0, 0
0, 38118, 0, 0, 0
0, 37082, 0, 0, 0
0, 36187, 0, 0, 0
0, 35393, 0, 0, 0
0, 34671, 0, 0, 0
0, 34027, 0, 0, 0
0, 33496, 0, 0, 0
0, 33121, 0, 0, 0
0, 32930, 0, 0, 0
0, 32922, 0, 0, 0
0, 33056, 0, 0, 0
0, 33265, 0, 0, 0
0, 33476, 0, 0, 0
0, 33629, 0, 0, 0
0, 33676, 0, 0, 0
0, 33586, 0, 0, 0
0, 33349, 0, 0, 0
0, 32981, 0, 0, 0
0, 32507, 0, 0, 0
0, 31957, 0, 0, 0
0, 31364, 0, 0, 0
0, 30755, 0, 0, 0
0, 30146, 0, 0, 0
0, 29549, 0, 0, 0
0, 28983, 0, 0, 0
0, 28460, 0, 0, 0
0, 27994, 0, 0, 0
0, 27598, 0, 0, 0
0, 27284, 0, 0, 0
0, 27052, 0, 0, 0
0, 26901, 0, 0, 0
0, 26828, 0, 0, 0
0, 26832, 0, 0, 0
0, 26905, 0, 0, 0
0, 27036, 0, 0, 0
0, 27212, 0, 0, 0
0, 27418, 0, 0, 0
0, 27638, 0, 0, 0
0, 27858, 0, 0, 0
0, 28073, 0, 0, 0
0, 28281, 0, 0, 0
0, 28480, 0, 0, 0
0, 28667, 0, 0, 0
0, 28836, 0, 0, 0
0, 28979, 0, 0, 0
0, 29084, 0, 0, 0
0, 29144, 0, 0, 0
0, 29161, 0, 0, 0
0, 29145, 0, 0, 0
0, 29106, 0, 0, 0
0, 29052, 0, 0, 0
0, 28979, 0, 0, 0
0, 28878, 0, 0, 0
0, 28739, 0, 0, 0
0, 28559, 0, 0, 0
0, 28362, 0, 0, 0
0, 28228, 0, 0, 0
0, 28346, 0, 0, 0
0, 29047, 0, 0, 0
0, 30655, 0, 0, 0
0, 33250, 0, 0, 0
0, 36570, 0, 0, 0
0, 40100, 0, 0, 0
0, 43228, 0, 0, 0
0, 45439, 0, 0, 0
0, 46512, 0, 0, 0
0, 46566, 0, 0, 0
0, 45889, 0, 0, 0
0, 44746, 0, 0, 0
0, 43326, 0, 0, 0
0, 41772, 0, 1, 0
0, 40211, 0, 0, 0
0, 38753, 0, 0, 0
0, 37487, 0, 0, 0
0, 36462, 0, 0, 0
0, 35671, 0, 0, 0
0, 35061, 0, 0, 0
0, 34560, 0, 0, 0
0, 34119, 0, 0, 0
0, 33728, 0, 0, 0
0, 33409, 0, 0, 0
0, 33196, 0, 0, 0
0, 33117, 0, 0, 0
0, 33167, 0, 0, 0
0, 33314, 0, 0, 0
0, 33507, 0, 0, 0
0, 33696, 0, 0, 0
0, 33841, 0, 0, 0
0, 33908, 0, 0, 0
0, 33874, 0, 0, 0
0, 33733, 0, 0, 0
0, 33478, 0, 0, 0
0, 33115, 0, 0, 0
0, 32655, 0, 0, 0
0, 32123, 0, 0, 0
0, 31549, 0, 0, 0
0, 30973, 0, 0, 0
0, 30433, 0, 0, 0
0, 29957, 0, 0, 0
0, 29562, 0, 0, 0
0, 29258, 0, 0, 0
0, 29042, 0, 0, 0
0, 28903, 0, 0, 0
0, 28826, 0, 0, 0
0, 28793, 0, 0, 0
0, 28783, 0, 0, 0
0, 28785, 0, 0, 0
0, 28797, 0, 0, 0
0, 28829, 0, 0, 0
0, 28893, 0, 0, 0
0, 29004, 0, 0, 0
0, 29167, 0, 0, 0
0, 29373, 0, 0, 0
0, 29589, 0, 0, 0
0, 29781, 0, 0, 0
0, 29914, 0, 0, 0
0, 29964, 0, 0, 0
0, 29918, 0, 0, 0
0, 29787, 0, 0, 0
0, 29586, 0, 0, 0
0, 29338, 0, 0, 0
0, 29070, 0, 0, 0
0, 28811, 0, 0, 0
0, 28597, 0, 0, 0
0, 28456, 0, 0, 0
0, 28412, 0, 0, 0
0, 28472, 0, 0, 0
0, 28629, 0, 0, 0
0, 28870, 0, 0, 0
0, 29209, 0, 0, 0
0, 29746, 0, 0, 0
0, 30672, 0, 0, 0
0, 32157, 0, 0, 0
0, 34203, 0, 0, 0
0, 36601, 0, 0, 0
0, 38996, 0, 0, 0
0, 40984, 0, 0, 0
0, 42261, 0, 0, 0
0, 42735, 0, 0, 0
0, 42531, 0, 0, 0
0, 41849, 0, 0, 0
0, 40872, 0, 0, 0
0, 39732, 0, 1, 0
0, 38531, 0, 0, 0
0, 37346, 0, 0, 0
0, 36245, 0, 0, 0
0, 35279, 0, 0, 0
0, 34462, 0, 0, 0
0, 33777, 0, 0, 0
0, 33204, 0, 0, 0
0, 32742, 0, 0, 0
0, 32414, 0, 0, 0
0, 32249, 0, 0, 0
0, 32268, 0, 0, 0
0, 32459, 0, 0, 0
0, 32766, 0, 0, 0
0, 33108, 0, 0, 0
0, 33410, 0, 0, 0
0, 33620, 0, 0, 0
0, 33713, 0, 0, 0
0, 33686, 0, 0, 0
0, 33546, 0, 0, 0
0, 33311, 0, 0, 0
0, 33002, 0, 0, 0
0, 32638, 0, 0, 0
0, 32241, 0, 0, 0
0, 31829, 0, 0, 0
0, 31412, 0, 0, 0
0, 30992, 0, 0, 0
0, 30558, 0, 0, 0
0, 30104, 0, 0, 0
0, 29630, 0, 0, 0
0, 29151, 0, 0, 0
0, 28698, 0, 0, 0
0, 28312, 0, 0, 0
0, 28030, 0, 0, 0
0, 27866, 0, 0, 0
0, 27817, 0, 0, 0
0, 27867, 0, 0, 0
0, 27991, 0, 0, 0
0, 28167, 0, 0, 0
0, 28384, 0, 0, 0
0, 28639, 0, 0, 0
0, 28923, 0, 0, 0
0, 29219, 0, 0, 0
0, 29502, 0, 0, 0
0, 29746, 0, 0, 0
0, 29929, 0, 0, 0
0, 30040, 0, 0, 0
0, 30076, 0, 0, 0
0, 30044, 0, 0, 0
0, 29949, 0, 0, 0
0, 29798, 0, 0, 0
0, 29626, 0, 0, 0
0, 29537, 0, 0, 0
0, 29700, 0, 0, 0
0, 30327, 0, 0, 0
0, 31572, 0, 0, 0
0, 33420, 0, 0, 0
0, 35658, 0, 0, 0
0, 37934, 0, 0, 0
0, 39866, 0, 0, 0
0, 41171, 0, 0, 0
0, 41744, 0, 0, 0
0, 41646, 0, 0, 0
0, 41023, 0, 0, 0
0, 40031, 0, 0, 0
0, 38806, 0, 0, 0
0, 37466, 0, 1, 0
0, 36117, 0, 0, 0
0, 34860, 0, 0, 0
0, 33774, 0, 0, 0
0, 32889, 0, 0, 0
0, 32192, 0, 0, 0
0, 31648, 0, 0, 0
0, 31231, 0, 0, 0
0, 30936, 0, 0, 0
0, 30777, 0, 0, 0
0, 30772, 0, 0, 0
0, 30927, 0, 0, 0
0, 31222, 0, 0, 0
0, 31606, 0, 0, 0
0, 32018, 0, 0, 0
0, 32407, 0, 0, 0
0, 32732, 0, 0, 0
0, 32965, 0, 0, 0
0, 33084, 0, 0, 0
0, 33084, 0, 0, 0
0, 32977, 0, 0, 0
0, 32782, 0, 0, 0
0, 32511, 0, 0, 0
0, 32179, 0, 0, 0
0, 31807, 0, 0, 0
0, 31409, 0, 0, 0
0, 31005, 0, 0, 0
0, 30611, 0, 0, 0
0, 30236, 0, 0, 0
0, 29884, 0, 0, 0
0, 29557, 0, 0, 0
0, 29262, 0, 0, 0
0, 29010, 0, 0, 0
0, 28815, 0, 0, 0
0, 28688, 0, 0, 0
0, 28626, 0, 0, 0
0, 28621, 0, 0, 0
0, 28662, 0, 0, 0
0, 28742, 0, 0, 0
0, 28856, 0, 0, 0
0, 29001, 0, 0, 0
0, 29170, 0, 0, 0
0, 29356, 0, 0, 0
0, 29547, 0, 0, 0
0, 29723, 0, 0, 0
0, 29866, 0, 0, 0
0, 29963, 0, 0, 0
0, 30010, 0, 0, 0
0, 30005, 0, 0, 0
0, 29975, 0, 0, 0
0, 29998, 0, 0, 0
0, 30238, 0, 0, 0
0, 30905, 0, 0, 0
0, 32160, 0, 0, 0
0, 34000, 0, 0, 0
0, 36228, 0, 0, 0
0, 38501, 0, 0, 0
0, 40439, 0, 0, 0
0, 41751, 0, 0, 0
0, 42334, 0, 0, 0
0, 42252, 0, 0, 0
0, 41653, 0, 0, 0
0, 40688, 0, 0, 0
0, 39495, 0, 1, 0
0, 38193, 0, 0, 0
0, 36892, 0, 0, 0
0, 35689, 0, 0, 0
0, 34655, 0, 0, 0
0, 33818, 0, 0, 0
0, 33160, 0, 0, 0
0, 32633, 0, 0, 0
0, 32196, 0, 0, 0
0, 31834, 0, 0, 0
0, 31560, 0, 0, 0
0, 31406, 0, 0, 0
0, 31405, 0, 0, 0
0, 31568, 0, 0, 0
0, 31866, 0, 0, 0
0, 32248, 0, 0, 0
0, 32656, 0, 0, 0
0, 33036, 0, 0, 0
0, 33346, 0, 0, 0
0, 33551, 0, 0, 0
0, 33629, 0, 0, 0
0, 33573, 0, 0, 0
0, 33385, 0, 0, 0
0, 33080, 0, 0, 0
0, 32682, 0, 0, 0
0, 32224, 0, 0, 0
0, 31738, 0, 0, 0
0, 31255, 0, 0, 0
0, 30798, 0, 0, 0
0, 30382, 0, 0, 0
0, 30011, 0, 0, 0
0, 29691, 0, 0, 0
0, 29423, 0, 0, 0
0, 29203, 0, 0, 0
0, 29034, 0, 0, 0
0, 28917, 0, 0, 0
0, 28848, 0, 0, 0
0, 28827, 0, 0, 0
0, 28849, 0, 0, 0
0, 28912, 0, 0, 0
0, 29013, 0, 0, 0
0, 29140, 0, 0, 0
0, 29284, 0, 0, 0
0, 29437, 0, 0, 0
0, 29596, 0, 0, 0
0, 29750, 0, 0, 0
0, 29890, 0, 0, 0
0, 30008, 0, 0, 0
0, 30092, 0, 0, 0
0, 30139, 0, 0, 0
0, 30163, 0, 0, 0
0, 30237, 0, 0, 0
0, 30514, 0, 0, 0
0, 31205, 0, 0, 0
0, 32467, 0, 0, 0
0, 34295, 0, 0, 0
0, 36487, 0, 0, 0
0, 38699, 0, 0, 0
0, 40557, 0, 0, 0
0, 41779, 0, 0, 0
0, 42277, 0, 0, 0
0, 42129, 0, 0, 0
0, 41500, 0, 0, 0
0, 40544, 0, 0, 0
0, 39391, 0, 1, 0
0, 38148, 0, 0, 0
0, 36910, 0, 0, 0
0, 35757, 0, 0, 0
0, 34749, 0, 0, 0
0, 33912, 0, 0, 0
0, 33234, 0, 0, 0
0, 32679, 0, 0, 0
0, 32210, 0, 0, 0
0, 31819, 0, 0, 0
0, 31527, 0, 0, 0
0, 31369, 0, 0, 0
0, 31378, 0, 0, 0
0, 31558, 0, 0, 0
0, 31881, 0, 0, 0
0, 32286, 0, 0, 0
0, 32707, 0, 0, 0
0, 33089, 0, 0, 0
0, 33393, 0, 0, 0
0, 33591, 0, 0, 0
0, 33669, 0, 0, 0
0, 33626, 0, 0, 0
0, 33472, 0, 0, 0
0, 33222, 0, 0, 0
0, 32896, 0, 0, 0
0, 32515, 0, 0, 0
0, 32103, 0, 0, 0
0, 31680, 0, 0, 0
0, 31261, 0, 0, 0
0, 30860, 0, 0, 0
0, 30487, 0, 0, 0
0, 30147, 0, 0, 0
0, 29848, 0, 0, 0
0, 29592, 0, 0, 0
0, 29381, 0, 0, 0
0, 29217, 0, 0, 0
0, 29101, 0, 0, 0
0, 29035, 0, 0, 0
0, 29020, 0, 0, 0
0, 29054, 0, 0, 0
0, 29130, 0, 0, 0
0, 29241, 0, 0, 0
0, 29374, 0, 0, 0
0, 29519, 0, 0, 0
0, 29669, 0, 0, 0
0, 29818, 0, 0, 0
0, 29960, 0, 0, 0
0, 30089, 0, 0, 0
0, 30200, 0, 0, 0
0, 30286, 0, 0, 0
0, 30362, 0, 0, 0
0, 30497, 0, 0, 0
0, 30848, 0, 0, 0
0, 31616, 0, 0, 0
0, 32940, 0, 0, 0
0, 34785, 0, 0, 0
0, 36926, 0, 0, 0
0, 39015, 0, 0, 0
0, 40699, 0, 0, 0
0, 41741, 0, 0, 0
0, 42091, 0, 0, 0
0, 41858, 0, 0, 0
0, 41202, 0, 0, 0
0, 40259, 0, 0, 0
0, 39133, 0, 1, 0
0, 37909, 0, 0, 0
0, 36667, 0, 0, 0
0, 35483, 0, 0, 0
0, 34418, 0, 0, 0
0, 33504, 0, 0, 0
0, 32738, 0, 0, 0
0, 32097, 0, 0, 0
0, 31563, 0, 0, 0
0, 31141, 0, 0, 0
0, 30862, 0, 0, 0
0, 30772, 0, 0, 0
0, 30894, 0, 0, 0
0, 31219, 0, 0, 0
0, 31693, 0, 0, 0
0, 32239, 0, 0, 0
0, 32776, 0, 0, 0
0, 33241, 0, 0, 0
0, 33590, 0, 0, 0
0, 33804, 0, 0, 0
0, 33879, 0, 0, 0
0, 33825, 0, 0, 0
0, 33660, 0, 0, 0
0, 33408, 0, 0, 0
0, 33091, 0, 0, 0
0, 32728, 0, 0, 0
0, 32333, 0, 0, 0
0, 31921, 0, 0, 0
0, 31512, 0, 0, 0
0, 31121, 0, 0, 0
0, 30758, 0, 0, 0
0, 30426, 0, 0, 0
0, 30122, 0, 0, 0
0, 29844, 0, 0, 0
0, 29591, 0, 0, 0
0, 29370, 0, 0, 0
0, 29193, 0, 0, 0
0, 29073, 0, 0, 0
0, 29015, 0, 0, 0
0, 29012, 0, 0, 0
0, 29056, 0, 0, 0
0, 29135, 0, 0, 0
0, 29235, 0, 0, 0
0, 29341, 0, 0, 0
0, 29447, 0, 0, 0
0, 29544, 0, 0, 0
0, 29622, 0, 0, 0
0, 29677, 0, 0, 0
0, 29738, 0, 0, 0
0, 29896, 0, 0, 0
0, 30349, 0, 0, 0
0, 31331, 0, 0, 0
0, 32957, 0, 0, 0
0, 35124, 0, 0, 0
0, 37534, 0, 0, 0
0, 39788, 0, 0, 0
0, 41509, 0, 0, 0
0, 42480, 0, 0, 0
0, 42702, 0, 0, 0
0, 42329, 0, 0, 0
0, 41537, 0, 0, 0
0, 40473, 0, 0, 0
0, 39260, 0, 1, 0
0, 38009, 0, 0, 0
0, 36820, 0, 0, 0
0, 35768, 0, 0, 0
0, 34874, 0, 0, 0
0, 34115, 0, 0, 0
0, 33449, 0, 0, 0
0, 32836, 0, 0, 0
0, 32257, 0, 0, 0
0, 31736, 0, 0, 0
0, 31330, 0, 0, 0
0, 31095, 0, 0, 0
0, 31054, 0, 0, 0
0, 31196, 0, 0, 0
0, 31491, 0, 0, 0
0, 31884, 0, 0, 0
0, 32318, 0, 0, 0
0, 32734, 0, 0, 0
0, 33090, 0, 0, 0
0, 33352, 0, 0, 0
0, 33498, 0, 0, 0
0, 33527, 0, 0, 0
0, 33461, 0, 0, 0
0, 33320, 0, 0, 0
0, 33116, 0, 0, 0
0, 32861, 0, 0, 0
0, 32559, 0, 0, 0
0, 32214, 0, 0, 0
0, 31834, 0, 0, 0
0, 31438, 0, 0, 0
0, 31045, 0, 0, 0
0, 30670, 0, 0, 0
0, 30321, 0, 0, 0
0, 30011, 0, 0, 0
0, 29745, 0, 0, 0
0, 29531, 0, 0, 0
0, 29373, 0, 0, 0
0, 29276, 0, 0, 0
0, 29235, 0, 0, 0
0, 29240, 0, 0, 0
0, 29279, 0, 0, 0
0, 29344, 0, 0, 0
0, 29428, 0, 0, 0
0, 29528, 0, 0, 0
0, 29638, 0, 0, 0
0, 29751, 0, 0, 0
0, 29861, 0, 0, 0
0, 29993, 0, 0, 0
0, 30243, 0, 0, 0
0, 30810, 0, 0, 0
0, 31900, 0, 0, 0
0, 33585, 0, 0, 0
0, 35727, 0, 0, 0
0, 38025, 0, 0, 0
0, 40098, 0, 0, 0
0, 41609, 0, 0, 0
0, 42396, 0, 0, 0
0, 42506, 0, 0, 0
0, 42100, 0, 0, 0
0, 41333, 0, 0, 0
0, 40330, 0, 0, 0
0, 39188, 0, 1, 0
0, 37984, 0, 0, 0
0, 36785, 0, 0, 0
0, 35645, 0, 0, 0
0, 34598, 0, 0, 0
0, 33657, 0, 0, 0
0, 32816, 0, 0, 0
0, 32072, 0, 0, 0
0, 31444, 0, 0, 0
0, 30974, 0, 0, 0
0, 30710, 0, 0, 0
0, 30687, 0, 0, 0
0, 30907, 0, 0, 0
0, 31329, 0, 0, 0
0, 31873, 0, 0, 0
0, 32446, 0, 0, 0
0, 32972, 0, 0, 0
0, 33398, 0, 0, 0
0, 33696, 0, 0, 0
0, 33854, 0, 0, 0
0, 33882, 0, 0, 0
0, 33795, 0, 0, 0
0, 33612, 0, 0, 0
0, 33356, 0, 0, 0
0, 33051, 0, 0, 0
0, 32715, 0, 0, 0
0, 32363, 0, 0, 0
0, 32005, 0, 0, 0
0, 31649, 0, 0, 0
0, 31296, 0, 0, 0
0, 30951, 0, 0, 0
0, 30624, 0, 0, 0
0, 30324, 0, 0, 0
0, 30058, 0, 0, 0
0, 29833, 0, 0, 0
0, 29652, 0, 0, 0
0, 29514, 0, 0, 0
0, 29415, 0, 0, 0
0, 29349, 0, 0, 0
0, 29320, 0, 0, 0
0, 29328, 0, 0, 0
0, 29369, 0, 0, 0
0, 29437, 0, 0, 0
0, 29525, 0, 0, 0
0, 29620, 0, 0, 0
0, 29715, 0, 0, 0
0, 29826, 0, 0, 0
0, 30026, 0, 0, 0
0, 30489, 0, 0, 0
0, 31434, 0, 0, 0
0, 32964, 0, 0, 0
0, 34988, 0, 0, 0
0, 37233, 0, 0, 0
0, 39332, 0, 0, 0
0, 40936, 0, 0, 0
0, 41839, 0, 0, 0
0, 42052, 0, 0, 0
0, 41733, 0, 0, 0
0, 41047, 0, 0, 0
0, 40117, 0, 0, 0
0, 39039, 0, 1, 0
0, 37884, 0, 0, 0
0, 36715, 0, 0, 0
0, 35585, 0, 0, 0
0, 34533, 0, 0, 0
0, 33575, 0, 0, 0
0, 32712, 0, 0, 0
0, 31945, 0, 0, 0
0, 31292, 0, 0, 0
0, 30798, 0, 0, 0
0, 30514, 0, 0, 0
0, 30474, 0, 0, 0
0, 30683, 0, 0, 0
0, 31104, 0, 0, 0
0, 31664, 0, 0, 0
0, 32273, 0, 0, 0
0, 32846, 0, 0, 0
0, 33320, 0, 0, 0
0, 33654, 0, 0, 0
0, 33836, 0, 0, 0
0, 33875, 0, 0, 0
0, 33797, 0, 0, 0
0, 33628, 0, 0, 0
0, 33390, 0, 0, 0
0, 33104, 0, 0, 0
0, 32785, 0, 0, 0
0, 32445, 0, 0, 0
0, 32096, 0, 0, 0
0, 31747, 0, 0, 0
0, 31403, 0, 0, 0
0, 31073, 0, 0, 0
0, 30763, 0, 0, 0
0, 30480, 0, 0, 0
0, 30231, 0, 0, 0
0, 30019, 0, 0, 0
0, 29844, 0, 0, 0
0, 29702, 0, 0, 0
0, 29592, 0, 0, 0
0, 29511, 0, 0, 0
0, 29460, 0, 0, 0
0, 29435, 0, 0, 0
0, 29438, 0, 0, 0
0, 29463, 0, 0, 0
0, 29506, 0, 0, 0
0, 29559, 0, 0, 0
0, 29632, 0, 0, 0
0, 29785, 0, 0, 0
0, 30177, 0, 0, 0
0, 31021, 0, 0, 0
0, 32440, 0, 0, 0
0, 34362, 0, 0, 0
0, 36538, 0, 0, 0
0, 38616, 0, 0, 0
0, 40246, 0, 0, 0
0, 41205, 0, 0, 0
0, 41485, 0, 0, 0
0, 41234, 0, 0, 0
0, 40617, 0, 0, 0
0, 39759, 0, 0, 0
0, 38745, 0, 1, 0
0, 37645, 0, 0, 0
0, 36507, 0, 0, 0
0, 35374, 0, 0, 0
0, 34281, 0, 0, 0
0, 33254, 0, 0, 0
0, 32308, 0, 0, 0
0, 31465, 0, 0, 0
0, 30761, 0, 0, 0
0, 30250, 0, 0, 0
0, 29984, 0, 0, 0
0, 29994, 0, 0, 0
0, 30275, 0, 0, 0
0, 30779, 0, 0, 0
0, 31418, 0, 0, 0
0, 32096, 0, 0, 0
0, 32723, 0, 0, 0
0, 33235, 0, 0, 0
0, 33594, 0, 0, 0
0, 33791, 0, 0, 0
0, 33834, 0, 0, 0
0, 33751, 0, 0, 0
0, 33574, 0, 0, 0
0, 33331, 0, 0, 0
0, 33049, 0, 0, 0
0, 32746, 0, 0, 0
0, 32433, 0, 0, 0
0, 32115, 0, 0, 0
0, 31795, 0, 0, 0
0, 31482, 0, 0, 0
0, 31181, 0, 0, 0
0, 30901, 0, 0, 0
0, 30647, 0, 0, 0
0, 30425, 0, 0, 0
0, 30234, 0, 0, 0
0, 30072, 0, 0, 0
0, 29936, 0, 0, 0
0, 29830, 0, 0, 0
0, 29757, 0, 0, 0
0, 29718, 0, 0, 0
0, 29710, 0, 0, 0
0, 29731, 0, 0, 0
0, 29774, 0, 0, 0
0, 29835, 0, 0, 0
0, 29935, 0, 0, 0
0, 30163, 0, 0, 0
0, 30694, 0, 0, 0
0, 31701, 0, 0, 0
0, 33225, 0, 0, 0
0, 35132, 0, 0, 0
0, 37150, 0, 0, 0
0, 38945, 0, 0, 0
0, 40227, 0, 0, 0
0, 40869, 0, 0, 0
0, 40928, 0, 0, 0
0, 40548, 0, 0, 0
0, 39861, 0, 0, 0
0, 38973, 0, 0, 0
0, 37956, 0, 1, 0
0, 36865, 0, 0, 0
0, 35746, 0, 0, 0
0, 34633, 0, 0, 0
0, 33550, 0, 0, 0
0, 32518, 0, 0, 0
0, 31563, 0, 0, 0
0, 30726, 0, 0, 0
0, 30076, 0, 0, 0
0, 29680, 0, 0, 0
0, 29592, 0, 0, 0
0, 29824, 0, 0, 0
0, 30339, 0, 0, 0
0, 31045, 0, 0, 0
0, 31826, 0, 0, 0
0, 32569, 0, 0, 0
0, 33189, 0, 0, 0
0, 33636, 0, 0, 0
0, 33897, 0, 0, 0
0, 33985, 0, 0, 0
0, 33929, 0, 0, 0
0, 33762, 0, 0, 0
0, 33515, 0, 0, 0
0, 33212, 0, 0, 0
0, 32874, 0, 0, 0
0, 32524, 0, 0, 0
0, 32174, 0, 0, 0
0, 31835, 0, 0, 0
0, 31509, 0, 0, 0
0, 31201, 0, 0, 0
0, 30911, 0, 0, 0
0, 30641, 0, 0, 0
0, 30394, 0, 0, 0
0, 30174, 0, 0, 0
0, 29985, 0, 0, 0
0, 29832, 0, 0, 0
0, 29717, 0, 0, 0
0, 29642, 0, 0, 0
0, 29610, 0, 0, 0
0, 29614, 0, 0, 0
0, 29642, 0, 0, 0
0, 29681, 0, 0, 0
0, 29757, 0, 0, 0
0, 29974, 0, 0, 0
0, 30534, 0, 0, 0
0, 31624, 0, 0, 0
0, 33281, 0, 0, 0
0, 35348, 0, 0, 0
0, 37523, 0, 0, 0
0, 39444, 0, 0, 0
0, 40808, 0, 0, 0
0, 41494, 0, 0, 0
0, 41566, 0, 0, 0
0, 41176, 0, 0, 0
0, 40464, 0, 0, 0
0, 39542, 0, 0, 0
0, 38492, 0, 1, 0
0, 37381, 0, 0, 0
0, 36255, 0, 0, 0
0, 35148, 0, 0, 0
0, 34080, 0, 0, 0
0, 33066, 0, 0, 0
0, 32126, 0, 0, 0
0, 31304, 0, 0, 0
0, 30658, 0, 0, 0
0, 30133, 0, 0, 0
0, 30316, 0, 0, 0
0, 30766, 0, 0, 0
0, 31397, 0, 0, 0
0, 32104, 0, 0, 0
0, 32782, 0, 0, 0
0, 33349, 0, 0, 0
0, 33753, 0, 0, 0
0, 33976, 0, 0, 0
0, 34030, 0, 0, 0
0, 33944, 0, 0, 0
0, 33748, 0, 0, 0
0, 33476, 0, 0, 0
0, 33154, 0, 0, 0
0, 32807, 0, 0, 0
0, 32448, 0, 0, 0
0, 32087, 0, 0, 0
0, 31730, 0, 0, 0
0, 31385, 0, 0, 0
0, 31055, 0, 0, 0
0, 30749, 0, 0, 0
0, 30475, 0, 0, 0
0, 30234, 0, 0, 0
0, 30028, 0, 0, 0
0, 29860, 0, 0, 0
0, 29727, 0, 0, 0
0, 29629, 0, 0, 0
0, 29566, 0, 0, 0
0, 29536, 0, 0, 0
0, 29532, 0, 0, 0
0, 29548, 0, 0, 0
0, 29581, 0, 0, 0
0, 29654, 0, 0, 0
0, 29874, 0, 0, 0
0, 30436, 0, 0, 0
0, 31530, 0, 0, 0
0, 33196, 0, 0, 0
0, 35287, 0, 0, 0
0, 37509, 0, 0, 0
0, 39504, 0, 0, 0
0, 40961, 0, 0, 0
0, 41742, 0, 0, 0
0, 41901, 0, 0, 0
0, 41583, 0, 0, 0
0, 40922, 0, 0, 0
0, 40032, 0, 0, 0
0, 39005, 0, 1, 0
0, 37914, 0, 0, 0
0, 36812, 0, 0, 0
0, 35734, 0, 0, 0
0, 34705, 0, 0, 0
0, 33736, 0, 0, 0
0, 32844, 0, 0, 0
0, 32058, 0, 0, 0
0, 31426, 0, 0, 0
0, 31001, 0, 0, 0
0, 30828, 0, 0, 0
0, 30921, 0, 0, 0
0, 31259, 0, 0, 0
0, 31772, 0, 0, 0
0, 32367, 0, 0, 0
0, 32950, 0, 0, 0
0, 33440, 0, 0, 0
0, 33784, 0, 0, 0
0, 33961, 0, 0, 0
0, 33978, 0, 0, 0
0, 33859, 0, 0, 0
0, 33635, 0, 0, 0
0, 33336, 0, 0, 0
0, 32989, 0, 0, 0
0, 32618, 0, 0, 0
0, 32238, 0, 0, 0
0, 31861, 0, 0, 0
0, 31496, 0, 0, 0
0, 31143, 0, 0, 0
0, 30809, 0, 0, 0
0, 30497, 0, 0, 0
0, 30212, 0, 0, 0
0, 29960, 0, 0, 0
0, 29749, 0, 0, 0
0, 29580, 0, 0, 0
0, 29453, 0, 0, 0
0, 29362, 0, 0, 0
0, 29304, 0, 0, 0
0, 29271, 0, 0, 0
0, 29259, 0, 0, 0
0, 29267, 0, 0, 0
0, 29298, 0, 0, 0
0, 29364, 0, 0, 0
0, 29512, 0, 0, 0
0, 29870, 0, 0, 0
0, 30615, 0, 0, 0
0, 31870, 0, 0, 0
0, 33616, 0, 0, 0
0, 35681, 0, 0, 0
0, 37783, 0, 0, 0
0, 39600, 0, 0, 0
0, 40887, 0, 0, 0
0, 41553, 0, 0, 0
0, 41654, 0, 0, 0
0, 41301, 0, 0, 0
0, 40613, 0, 0, 0
0, 39697, 0, 0, 0
0, 38641, 0, 1, 0
0, 37524, 0, 0, 0
0, 36402, 0, 0, 0
0, 35315, 0, 0, 0
0, 34285, 0, 0, 0
0, 33336, 0, 0, 0
0, 32486, 0, 0, 0
0, 31766, 0, 0, 0
0, 31215, 0, 0, 0
0, 30881, 0, 0, 0
0, 30795, 0, 0, 0
0, 30956, 0, 0, 0
0, 31321, 0, 0, 0
0, 31819, 0, 0, 0
0, 32360, 0, 0, 0
0, 32853, 0, 0, 0
0, 33238, 0, 0, 0
0, 33479, 0, 0, 0
0, 33565, 0, 0, 0
0, 33506, 0, 0, 0
0, 33329, 0, 0, 0
0, 33061, 0, 0, 0
0, 32733, 0, 0, 0
0, 32368, 0, 0, 0
0, 31990, 0, 0, 0
0, 31610, 0, 0, 0
0, 31240, 0, 0, 0
0, 30884, 0, 0, 0
0, 30548, 0, 0, 0
0, 30234, 0, 0, 0
0, 29948, 0, 0, 0
0, 29694, 0, 0, 0
0, 29475, 0, 0, 0
0, 29294, 0, 0, 0
0, 29155, 0, 0, 0
0, 29057, 0, 0, 0
0, 29001, 0, 0, 0
0, 28984, 0, 0, 0
0, 29006, 0, 0, 0
0, 29058, 0, 0, 0
0, 29132, 0, 0, 0
0, 29219, 0, 0, 0
0, 29330, 0, 0, 0
0, 29531, 0, 0, 0
0, 29962, 0, 0, 0
0, 30787, 0, 0, 0
0, 32089, 0, 0, 0
0, 33815, 0, 0, 0
0, 35774, 0, 0, 0
0, 37685, 0, 0, 0
0, 39262, 0, 0, 0
0, 40321, 0, 0, 0
0, 40815, 0, 0, 0
0, 40810, 0, 0, 0
0, 40407, 0, 0, 0
0, 39715, 0, 0, 0
0, 38832, 0, 1, 0
0, 37840, 0, 0, 0
0, 36812, 0, 0, 0
0, 35798, 0, 0, 0
0, 34830, 0, 0, 0
0, 33918, 0, 0, 0
0, 33079, 0, 0, 0
0, 32336, 0, 0, 0
0, 31727, 0, 0, 0
0, 31299, 0, 0, 0
0, 31095, 0, 0, 0
0, 31135, 0, 0, 0
0, 31392, 0, 0, 0
0, 31802, 0, 0, 0
0, 32283, 0, 0, 0
0, 32751, 0, 0, 0
0, 33138, 0, 0, 0
0, 33401, 0, 0, 0
0, 33524, 0, 0, 0
0, 33509, 0, 0, 0
0, 33371, 0, 0, 0
0, 33139, 0, 0, 0
0, 32837, 0, 0, 0
0, 32488, 0, 0, 0
0, 32112, 0, 0, 0
0, 31726, 0, 0, 0
0, 31338, 0, 0, 0
0, 30961, 0, 0, 0
0, 30604, 0, 0, 0
0, 30272, 0, 0, 0
0, 29974, 0, 0, 0
0, 29712, 0, 0, 0
0, 29491, 0, 0, 0
0, 29314, 0, 0, 0
0, 29187, 0, 0, 0
0, 29106, 0, 0, 0
0, 29068, 0, 0, 0
0, 29067, 0, 0, 0
0, 29098, 0, 0, 0
0, 29150, 0, 0, 0
0, 29217, 0, 0, 0
0, 29294, 0, 0, 0
0, 29379, 0, 0, 0
0, 29488, 0, 0, 0
0, 29691, 0, 0, 0
0, 30127, 0, 0, 0
0, 30939, 0, 0, 0
0, 32192, 0, 0, 0
0, 33831, 0, 0, 0
0, 35682, 0, 0, 0
0, 37484, 0, 0, 0
0, 38976, 0, 0, 0
0, 39987, 0, 0, 0
0, 40470, 0, 0, 0
0, 40469, 0, 0, 0
0, 40077, 0, 0, 0
0, 39397, 0, 0, 0
0, 38528, 0, 1, 0
0, 37559, 0, 0, 0
0, 36561, 0, 0, 0
0, 35581, 0, 0, 0
0, 34647, 0, 0, 0
0, 33771, 0, 0, 0
0, 32970, 0, 0, 0
0, 32274, 0, 0, 0
0, 31726, 0, 0, 0
0, 31377, 0, 0, 0
0, 31266, 0, 0, 0
0, 31390, 0, 0, 0
0, 31710, 0, 0, 0
0, 32150, 0, 0, 0
0, 32619, 0, 0, 0
0, 33040, 0, 0, 0
0, 33360, 0, 0, 0
0, 33548, 0, 0, 0
0, 33603, 0, 0, 0
0, 33533, 0, 0, 0
0, 33352, 0, 0, 0
0, 33084, 0, 0, 0
0, 32755, 0, 0, 0
0, 32389, 0, 0, 0
0, 32008, 0, 0, 0
0, 31630, 0, 0, 0
0, 31264, 0, 0, 0
0, 30918, 0, 0, 0
0, 30596, 0, 0, 0
0, 30304, 0, 0, 0
0, 30042, 0, 0, 0
0, 29808, 0, 0, 0
0, 29601, 0, 0, 0
0, 29419, 0, 0, 0
0, 29261, 0, 0, 0
0, 29133, 0, 0, 0
0, 29040, 0, 0, 0
0, 28983, 0, 0, 0
0, 28958, 0, 0, 0
0, 28958, 0, 0, 0
0, 28978, 0, 0, 0
0, 29015, 0, 0, 0
0, 29077, 0, 0, 0
0, 29211, 0, 0, 0
0, 29531, 0, 0, 0
0, 30191, 0, 0, 0
0, 31305, 0, 0, 0
0, 32876, 0, 0, 0
0, 34776, 0, 0, 0
0, 36767, 0, 0, 0
0, 38557, 0, 0, 0
0, 39911, 0, 0, 0
0, 40716, 0, 0, 0
0, 40979, 0, 0, 0
0, 40772, 0, 0, 0
0, 40200, 0, 0, 0
0, 39373, 0, 0, 0
0, 38397, 0, 1, 0
0, 37360, 0, 0, 0
0, 36329, 0, 0, 0
0, 35345, 0, 0, 0
0, 34425, 0, 0, 0
0, 33578, 0, 0, 0
0, 32820, 0, 0, 0
0, 32183, 0, 0, 0
0, 31718, 0, 0, 0
0, 31462, 0, 0, 0
0, 31430, 0, 0, 0
0, 31600, 0, 0, 0
0, 31918, 0, 0, 0
0, 32307, 0, 0, 0
0, 32695, 0, 0, 0
0, 33019, 0, 0, 0
0, 33243, 0, 0, 0
0, 33343, 0, 0, 0
0, 33311, 0, 0, 0
0, 33155, 0, 0, 0
0, 32896, 0, 0, 0
0, 32557, 0, 0, 0
0, 32166, 0, 0, 0
0, 31748, 0, 0, 0
0, 31329, 0, 0, 0
0, 30922, 0, 0, 0
0, 30540, 0, 0, 0
0, 30186, 0, 0, 0
0, 29865, 0, 0, 0
0, 29576, 0, 0, 0
0, 29322, 0, 0, 0
0, 29106, 0, 0, 0
0, 28937, 0, 0, 0
0, 28817, 0, 0, 0
0, 28749, 0, 0, 0
0, 28726, 0, 0, 0
0, 28744, 0, 0, 0
0, 28793, 0, 0, 0
0, 28867, 0, 0, 0
0, 28952, 0, 0, 0
0, 29042, 0, 0, 0
0, 29124, 0, 0, 0
0, 29193, 0, 0, 0
0, 29246, 0, 0, 0
0, 29294, 0, 0, 0
0, 29385, 0, 0, 0
0, 29637, 0, 0, 0
0, 30212, 0, 0, 0
0, 31244, 0, 0, 0
0, 32762, 0, 0, 0
0, 34660, 0, 0, 0
0, 36710, 0, 0, 0
0, 38622, 0, 0, 0
0, 40139, 0, 0, 0
0, 41119, 0, 0, 0
0, 41541, 0, 0, 0
0, 41465, 0, 0, 0
0, 40990, 0, 0, 0
0, 40227, 0, 0, 0
0, 39284, 0, 1, 0
0, 38259, 0, 0, 0
0, 37233, 0, 0, 0
0, 36255, 0, 0, 0
0, 35356, 0, 0, 0
0, 34543, 0, 0, 0
0, 33820, 0, 0, 0
0, 33200, 0, 0, 0
0, 32710, 0, 0, 0
0, 32380, 0, 0, 0
0, 32231, 0, 0, 0
0, 32266, 0, 0, 0
0, 32453, 0, 0, 0
0, 32732, 0, 0, 0
0, 33036, 0, 0, 0
0, 33305, 0, 0, 0
0, 33491, 0, 0, 0
0, 33564, 0, 0, 0
0, 33510, 0, 0, 0
0, 33338, 0, 0, 0
0, 33062, 0, 0, 0
0, 32702, 0, 0, 0
0, 32283, 0, 0, 0
0, 31833, 0, 0, 0
0, 31375, 0, 0, 0
0, 30924, 0, 0, 0
0, 30495, 0, 0, 0
0, 30096, 0, 0, 0
0, 29734, 0, 0, 0
0, 29410, 0, 0, 0
0, 29132, 0, 0, 0
0, 28902, 0, 0, 0
0, 28721, 0, 0, 0
0, 28587, 0, 0, 0
0, 28501, 0, 0, 0
0, 28457, 0, 0, 0
0, 28451, 0, 0, 0
0, 28476, 0, 0, 0
0, 28530, 0, 0, 0
0, 28607, 0, 0, 0
0, 28705, 0, 0, 0
0, 28816, 0, 0, 0
0, 28933, 0, 0, 0
0, 29041, 0, 0, 0
0, 29128, 0, 0, 0
0, 29186, 0, 0, 0
0, 29211, 0, 0, 0
0, 29204, 0, 0, 0
0, 29177, 0, 0, 0
0, 29166, 0, 0, 0
0, 29261, 0, 0, 0
0, 29621, 0, 0, 0
0, 30423, 0, 0, 0
0, 31757, 0, 0, 0
0, 33578, 0, 0, 0
0, 35701, 0, 0, 0
0, 37838, 0, 0, 0
0, 39678, 0, 0, 0
0, 41007, 0, 0, 0
0, 41751, 0, 0, 0
0, 41941, 0, 0, 0
0, 41668, 0, 0, 0
0, 41049, 0, 0, 0
0, 40199, 0, 0, 0
0, 39225, 0, 1, 0
0, 38214, 0, 0, 0
0, 37237, 0, 0, 0
0, 36331, 0, 0, 0
0, 35511, 0, 0, 0
0, 34771, 0, 0, 0
0, 34117, 0, 0, 0
0, 33563, 0, 0, 0
0, 33134, 0, 0, 0
0, 32857, 0, 0, 0
0, 32749, 0, 0, 0
0, 32796, 0, 0, 0
0, 32952, 0, 0, 0
0, 33160, 0, 0, 0
0, 33362, 0, 0, 0
0, 33509, 0, 0, 0
0, 33566, 0, 0, 0
0, 33512, 0, 0, 0
0, 33346, 0, 0, 0
0, 33077, 0, 0, 0
0, 32720, 0, 0, 0
0, 32301, 0, 0, 0
0, 31844, 0, 0, 0
0, 31372, 0, 0, 0
0, 30904, 0, 0, 0
0, 30455, 0, 0, 0
0, 30037, 0, 0, 0
0, 29659, 0, 0, 0
0, 29323, 0, 0, 0
0, 29032, 0, 0, 0
0, 28788, 0, 0, 0
0, 28591, 0, 0, 0
0, 28443, 0, 0, 0
0, 28341, 0, 0, 0
0, 28282, 0, 0, 0
0, 28264, 0, 0, 0
0, 28280, 0, 0, 0
0, 28327, 0, 0, 0
0, 28398, 0, 0, 0
0, 28490, 0, 0, 0
0, 28594, 0, 0, 0
0, 28699, 0, 0, 0
0, 28799, 0, 0, 0
0, 28888, 0, 0, 0
0, 28962, 0, 0, 0
0, 29020, 0, 0, 0
0, 29061, 0, 0, 0
0, 29085, 0, 0, 0
0, 29093, 0, 0, 0
0, 29086, 0, 0, 0
0, 29063, 0, 0, 0
0, 29026, 0, 0, 0
0, 28981, 0, 0, 0
0, 28940, 0, 0, 0
0, 28944, 0, 0, 0
0, 29104, 0, 0, 0
0, 29599, 0, 0, 0
0, 30590, 0, 0, 0
0, 32136, 0, 0, 0
0, 34153, 0, 0, 0
0, 36417, 0, 0, 0
0, 38618, 0, 0, 0
0, 40455, 0, 0, 0
0, 41738, 0, 0, 0
0, 42417, 0, 0, 0
0, 42537, 0, 0, 0
0, 42194, 0, 0, 0
0, 41502, 0, 0, 0
0, 40581, 0, 1, 0
0, 39543, 0, 0, 0
0, 38480, 0, 0, 0
0, 37458, 0, 0, 0
0, 36508, 0, 0, 0
0, 35643, 0, 0, 0
0, 34865, 0, 0, 0
0, 34183, 0, 0, 0
0, 33626, 0, 0, 0
0, 33231, 0, 0, 0
0, 33029, 0, 0, 0
0, 33026, 0, 0, 0
0, 33190, 0, 0, 0
0, 33462, 0, 0, 0
0, 33770, 0, 0, 0
0, 34047, 0, 0, 0
0, 34241, 0, 0, 0
0, 34322, 0, 0, 0
0, 34277, 0, 0, 0
0, 34109, 0, 0, 0
0, 33832, 0, 0, 0
0, 33469, 0, 0, 0
0, 33043, 0, 0, 0
0, 32578, 0, 0, 0
0, 32096, 0, 0, 0
0, 31615, 0, 0, 0
0, 31146, 0, 0, 0
0, 30701, 0, 0, 0
0, 30287, 0, 0, 0
0, 29912, 0, 0, 0
0, 29583, 0, 0, 0
0, 29308, 0, 0, 0
0, 29089, 0, 0, 0
0, 28928, 0, 0, 0
0, 28822, 0, 0, 0
0, 28767, 0, 0, 0
0, 28757, 0, 0, 0
0, 28787, 0, 0, 0
0, 28854, 0, 0, 0
0, 28946, 0, 0, 0
0, 29053, 0, 0, 0
0, 29164, 0, 0, 0
0, 29272, 0, 0, 0
0, 29373, 0, 0, 0
0, 29463, 0, 0, 0
0, 29539, 0, 0, 0
0, 29599, 0, 0, 0
0, 29631, 0, 0, 0
0, 29625, 0, 0, 0
0, 29572, 0, 0, 0
0, 29476, 0, 0, 0
0, 29361, 0, 0, 0
0, 29312, 0, 0, 0
0, 29494, 0, 0, 0
0, 30104, 0, 0, 0
0, 31271, 0, 0, 0
0, 32984, 0, 0, 0
0, 35086, 0, 0, 0
0, 37291, 0, 0, 0
0, 39279, 0, 0, 0
0, 40799, 0, 0, 0
0, 41741, 0, 0, 0
0, 42111, 0, 0, 0
0, 41984, 0, 0, 0
0, 41464, 0, 0, 0
0, 40664, 0, 0, 0
0, 39693, 0, 1, 0
0, 38650, 0, 0, 0
0, 37613, 0, 0, 0
0, 36633, 0, 0, 0
0, 35725, 0, 0, 0
0, 34889, 0, 0, 0
0, 34130, 0, 0, 0
0, 33472, 0, 0, 0
0, 32954, 0, 0, 0
0, 32622, 0, 0, 0
0, 32501, 0, 0, 0
0, 32582, 0, 0, 0
0, 32806, 0, 0, 0
0, 33104, 0, 0, 0
0, 33402, 0, 0, 0
0, 33639, 0, 0, 0
0, 33776, 0, 0, 0
0, 33793, 0, 0, 0
0, 33683, 0, 0, 0
0, 33450, 0, 0, 0
0, 33113, 0, 0, 0
0, 32697, 0, 0, 0
0, 32228, 0, 0, 0
0, 31732, 0, 0, 0
0, 31239, 0, 0, 0
0, 30767, 0, 0, 0
0, 30325, 0, 0, 0
0, 29923, 0, 0, 0
0, 29562, 0, 0, 0
0, 29241, 0, 0, 0
0, 28959, 0, 0, 0
0, 28716, 0, 0, 0
0, 28516, 0, 0, 0
0, 28365, 0, 0, 0
0, 28267, 0, 0, 0
0, 28225, 0, 0, 0
0, 28239, 0, 0, 0
0, 28302, 0, 0, 0
0, 28402, 0, 0, 0
0, 28528, 0, 0, 0
0, 28662, 0, 0, 0
0, 28791, 0, 0, 0
0, 28907, 0, 0, 0
0, 29006, 0, 0, 0
0, 29089, 0, 0, 0
0, 29154, 0, 0, 0
0, 29204, 0, 0, 0
0, 29240, 0, 0, 0
0, 29264, 0, 0, 0
0, 29278, 0, 0, 0
0, 29281, 0, 0, 0
0, 29273, 0, 0, 0
0, 29246, 0, 0, 0
0, 29191, 0, 0, 0
0, 29104, 0, 0, 0
0, 28998, 0, 0, 0
0, 28933, 0, 0, 0
0, 29059, 0, 0, 0
0, 29601, 0, 0, 0
0, 30756, 0, 0, 0
0, 32581, 0, 0, 0
0, 34952, 0, 0, 0
0, 37583, 0, 0, 0
0, 40104, 0, 0, 0
0, 42175, 0, 0, 0
0, 43601, 0, 0, 0
0, 44350, 0, 0, 0
0, 44493, 0, 0, 0
0, 44138, 0, 0, 0
0, 43408, 0, 0, 0
0, 42434, 0, 0, 0
0, 41331, 0, 1, 0
0, 40201, 0, 0, 0
0, 39123, 0, 0, 0
0, 38137, 0, 0, 0
0, 37249, 0, 0, 0
0, 36449, 0, 0, 0
0, 35730, 0, 0, 0
0, 35102, 0, 0, 0
0, 34588, 0, 0, 0
0, 34221, 0, 0, 0
0, 34021, 0, 0, 0
0, 33978, 0, 0, 0
0, 34050, 0, 0, 0
0, 34183, 0, 0, 0
0, 34321, 0, 0, 0
0, 34417, 0, 0, 0
0, 34440, 0, 0, 0
0, 34372, 0, 0, 0
0, 34204, 0, 0, 0
0, 33935, 0, 0, 0
0, 33573, 0, 0, 0
0, 33131, 0, 0, 0
0, 32624, 0, 0, 0
0, 32070, 0, 0, 0
0, 31493, 0, 0, 0
0, 30914, 0, 0, 0
0, 30353, 0, 0, 0
0, 29829, 0, 0, 0
0, 29359, 0, 0, 0
0, 28955, 0, 0, 0
0, 28624, 0, 0, 0
0, 28367, 0, 0, 0
0, 28185, 0, 0, 0
0, 28073, 0, 0, 0
0, 28029, 0, 0, 0
0, 28044, 0, 0, 0
0, 28102, 0, 0, 0
0, 28182, 0, 0, 0
0, 28265, 0, 0, 0
0, 28342, 0, 0, 0
0, 28409, 0, 0, 0
0, 28471, 0, 0, 0
0, 28532, 0, 0, 0
0, 28594, 0, 0, 0
0, 28653, 0, 0, 0
0, 28704, 0, 0, 0
0, 28751, 0, 0, 0
0, 28796, 0, 0, 0
0, 28837, 0, 0, 0
0, 28871, 0, 0, 0
0, 28891, 0, 0, 0
0, 28894, 0, 0, 0
0, 28871, 0, 0, 0
0, 28822, 0, 0, 0
0, 28751, 0, 0, 0
0, 28660, 0, 0, 0
0, 28561, 0, 0, 0
0, 28479, 0, 0, 0
0, 28498, 0, 0, 0
0, 28790, 0, 0, 0
0, 29572, 0, 0, 0
0, 30990, 0, 0, 0
0, 33041, 0, 0, 0
0, 35551, 0, 0, 0
0, 38205, 0, 0, 0
0, 40637, 0, 0, 0
0, 42548, 0, 0, 0
0, 43794, 0, 0, 0
0, 44375, 0, 0, 0
0, 44365, 0, 0, 0
0, 43876, 0, 0, 0
0, 43037, 0, 0, 0
0, 41978, 0, 1, 0
0, 40819, 0, 0, 0
0, 39660, 0, 0, 0
0, 38564, 0, 0, 0
0, 37563, 0, 0, 0
0, 36651, 0, 0, 0
0, 35816, 0, 0, 0
0, 35056, 0, 0, 0
0, 34394, 0, 0, 0
0, 33875, 0, 0, 0
0, 33547, 0, 0, 0
0, 33430, 0, 0, 0
0, 33501, 0, 0, 0
0, 33690, 0, 0, 0
0, 33909, 0, 0, 0
0, 34077, 0, 0, 0
0, 34138, 0, 0, 0
0, 34074, 0, 0, 0
0, 33895, 0, 0, 0
0, 33627, 0, 0, 0
0, 33295, 0, 0, 0
0, 32921, 0, 0, 0
0, 32516, 0, 0, 0
0, 32076, 0, 0, 0
0, 31602, 0, 0, 0
0, 31103, 0, 0, 0
0, 30591, 0, 0, 0
0, 30077, 0, 0, 0
0, 29582, 0, 0, 0
0, 29127, 0, 0, 0
0, 28722, 0, 0, 0
0, 28366, 0, 0, 0
0, 28060, 0, 0, 0
0, 27798, 0, 0, 0
0, 27585, 0, 0, 0
0, 27433, 0, 0, 0
0, 27356, 0, 0, 0
0, 27353, 0, 0, 0
0, 27415, 0, 0, 0
0, 27527, 0, 0, 0
0, 27671, 0, 0, 0
0, 27839, 0, 0, 0
0, 28032, 0, 0, 0
0, 28249, 0, 0, 0
0, 28476, 0, 0, 0
0, 28696, 0, 0, 0
0, 28886, 0, 0, 0
0, 29031, 0, 0, 0
0, 29129, 0, 0, 0
0, 29184, 0, 0, 0
0, 29202, 0, 0, 0
0, 29185, 0, 0, 0
0, 29139, 0, 0, 0
0, 29066, 0, 0, 0
0, 28972, 0, 0, 0
0, 28861, 0, 0, 0
0, 28738, 0, 0, 0
0, 28611, 0, 0, 0
0, 28521, 0, 0, 0
0, 28585, 0, 0, 0
0, 29017, 0, 0, 0
0, 30029, 0, 0, 0
0, 31722, 0, 0, 0
0, 34008, 0, 0, 0
0, 36633, 0, 0, 0
0, 39225, 0, 0, 0
0, 41423, 0, 0, 0
0, 42992, 0, 0, 0
0, 43870, 0, 0, 0
0, 44117, 0, 0, 0
0, 43836, 0, 0, 0
0, 43146, 0, 0, 0
0, 42171, 0, 0, 0
0, 41025, 0, 1, 0
0, 39810, 0, 0, 0
0, 38605, 0, 0, 0
0, 37459, 0, 0, 0
0, 36390, 0, 0, 0
0, 35407, 0, 0, 0
0, 34523, 0, 0, 0
0, 33774, 0, 0, 0
0, 33206, 0, 0, 0
0, 32868, 0, 0, 0
0, 32785, 0, 0, 0
0, 32939, 0, 0, 0
0, 33268, 0, 0, 0
0, 33687, 0, 0, 0
0, 34105, 0, 0, 0
0, 34445, 0, 0, 0
0, 34650, 0, 0, 0
0, 34689, 0, 0, 0
0, 34561, 0, 0, 0
0, 34282, 0, 0, 0
0, 33884, 0, 0, 0
0, 33408, 0, 0, 0
0, 32890, 0, 0, 0
0, 32360, 0, 0, 0
0, 31840, 0, 0, 0
0, 31342, 0, 0, 0
0, 30873, 0, 0, 0
0, 30436, 0, 0, 0
0, 30037, 0, 0, 0
0, 29682, 0, 0, 0
0, 29378, 0, 0, 0
0, 29128, 0, 0, 0
0, 28936, 0, 0, 0
0, 28798, 0, 0, 0
0, 28709, 0, 0, 0
0, 28665, 0, 0, 0
0, 28663, 0, 0, 0
0, 28703, 0, 0, 0
0, 28779, 0, 0, 0
0, 28884, 0, 0, 0
0, 29009, 0, 0, 0
0, 29138, 0, 0, 0
0, 29254, 0, 0, 0
0, 29348, 0, 0, 0
0, 29414, 0, 0, 0
0, 29448, 0, 0, 0
0, 29451, 0, 0, 0
0, 29430, 0, 0, 0
0, 29393, 0, 0, 0
0, 29339, 0, 0, 0
0, 29265, 0, 0, 0
0, 29162, 0, 0, 0
0, 29024, 0, 0, 0
0, 28886, 0, 0, 0
0, 28874, 0, 0, 0
0, 29214, 0, 0, 0
0, 30145, 0, 0, 0
0, 31780, 0, 0, 0
0, 34036, 0, 0, 0
0, 36651, 0, 0, 0
0, 39253, 0, 0, 0
0, 41467, 0, 0, 0
0, 43051, 0, 0, 0
0, 43944, 0, 0, 0
0, 44206, 0, 0, 0
0, 43942, 0, 0, 0
0, 43278, 0, 0, 0
0, 42336, 0, 0, 0
0, 41231, 0, 1, 0
0, 40061, 0, 0, 0
0, 38905, 0, 0, 0
0, 37819, 0, 0, 0
0, 36828, 0, 0, 0
0, 35934, 0, 0, 0
0, 35136, 0, 0, 0
0, 34442, 0, 0, 0
0, 33868, 0, 0, 0
0, 33446, 0, 0, 0
0, 33201, 0, 0, 0
0, 33137, 0, 0, 0
0, 33227, 0, 0, 0
0, 33417, 0, 0, 0
0, 33644, 0, 0, 0
0, 33850, 0, 0, 0
0, 33988, 0, 0, 0
0, 34028, 0, 0, 0
0, 33953, 0, 0, 0
0, 33765, 0, 0, 0
0, 33472, 0, 0, 0
0, 33087, 0, 0, 0
0, 32629, 0, 0, 0
0, 32117, 0, 0, 0
0, 31567, 0, 0, 0
0, 30995, 0, 0, 0
0, 30425, 0, 0, 0
0, 29875, 0, 0, 0
0, 29363, 0, 0, 0
0, 28904, 0, 0, 0
0, 28503, 0, 0, 0
0, 28166, 0, 0, 0
0, 27895, 0, 0, 0
0, 27699, 0, 0, 0
0, 27583, 0, 0, 0
0, 27551, 0, 0, 0
0, 27598, 0, 0, 0
0, 27710, 0, 0, 0
0, 27867, 0, 0, 0
0, 28048, 0, 0, 0
0, 28234, 0, 0, 0
0, 28409, 0, 0, 0
0, 28557, 0, 0, 0
0, 28670, 0, 0, 0
0, 28746, 0, 0, 0
0, 28791, 0, 0, 0
0, 28818, 0, 0, 0
0, 28837, 0, 0, 0
0, 28855, 0, 0, 0
0, 28873, 0, 0, 0
0, 28888, 0, 0, 0
0, 28894, 0, 0, 0
0, 28883, 0, 0, 0
0, 28850, 0, 0, 0
0, 28789, 0, 0, 0
0, 28703, 0, 0, 0
0, 28601, 0, 0, 0
0, 28510, 0, 0, 0
0, 28499, 0, 0, 0
0, 28733, 0, 0, 0
0, 29453, 0, 0, 0
0, 30861, 0, 0, 0
0, 32997, 0, 0, 0
0, 35703, 0, 0, 0
0, 38650, 0, 0, 0
0, 41427, 0, 0, 0
0, 43671, 0, 0, 0
0, 45179, 0, 0, 0
0, 45937, 0, 0, 0
0, 46037, 0, 0, 0
0, 45598, 0, 0, 0
0, 44750, 0, 0, 0
0, 43628, 0, 1, 0
0, 42357, 0, 0, 0
0, 41047, 0, 0, 0
0, 39779, 0, 0, 0
0, 38604, 0, 0, 0
0, 37536, 0, 0, 0
0, 36570, 0, 0, 0
0, 35699, 0, 0, 0
0, 34937, 0, 0, 0
0, 34317, 0, 0, 0
0, 33883, 0, 0, 0
0, 33666, 0, 0, 0
0, 33666, 0, 0, 0
0, 33842, 0, 0, 0
0, 34121, 0, 0, 0
0, 34422, 0, 0, 0
0, 34670, 0, 0, 0
0, 34807, 0, 0, 0
0, 34797, 0, 0, 0
0, 34630, 0, 0, 0
0, 34321, 0, 0, 0
0, 33892, 0, 0, 0
0, 33374, 0, 0, 0
0, 32800, 0, 0, 0
0, 32200, 0, 0, 0
0, 31594, 0, 0, 0
0, 31001, 0, 0, 0
0, 30431, 0, 0, 0
0, 29893, 0, 0, 0
0, 29392, 0, 0, 0
0, 28934, 0, 0, 0
0, 28523, 0, 0, 0
0, 28168, 0, 0, 0
0, 27873, 0, 0, 0
0, 27644, 0, 0, 0
0, 27486, 0, 0, 0
0, 27400, 0, 0, 0
0, 27383, 0, 0, 0
0, 27428, 0, 0, 0
0, 27524, 0, 0, 0
0, 27651, 0, 0, 0
0, 27789, 0, 0, 0
0, 27927, 0, 0, 0
0, 28049, 0, 0, 0
0, 28150, 0, 0, 0
0, 28228, 0, 0, 0
0, 28288, 0, 0, 0
0, 28330, 0, 0, 0
0, 28357, 0, 0, 0
0, 28371, 0, 0, 0
0, 28381, 0, 0, 0
0, 28386, 0, 0, 0
0, 28390, 0, 0, 0
0, 28393, 0, 0, 0
0, 28393, 0, 0, 0
0, 28387, 0, 0, 0
0, 28372, 0, 0, 0
0, 28344, 0, 0, 0
0, 28302, 0, 0, 0
0, 28246, 0, 0, 0
0, 28186, 0, 0, 0
0, 28172, 0, 0, 0
0, 28342, 0, 0, 0
0, 28930, 0, 0, 0
0, 30174, 0, 0, 0
0, 32163, 0, 0, 0
0, 34777, 0, 0, 0
0, 37713, 0, 0, 0
0, 40563, 0, 0, 0
0, 42933, 0, 0, 0
0, 44588, 0, 0, 0
0, 45486, 0, 0, 0
0, 45714, 0, 0, 0
0, 45392, 0, 0, 0
0, 44650, 0, 0, 0
0, 43613, 0, 0, 0
0, 42405, 0, 1, 0
0, 41130, 0, 0, 0
0, 39875, 0, 0, 0
0, 38693, 0, 0, 0
0, 37609, 0, 0, 0
0, 36622, 0, 0, 0
0, 35735, 0, 0, 0
0, 34957, 0, 0, 0
0, 34321, 0, 0, 0
0, 33866, 0, 0, 0
0, 33628, 0, 0, 0
0, 33606, 0, 0, 0
0, 33760, 0, 0, 0
0, 34019, 0, 0, 0
0, 34307, 0, 0, 0
0, 34552, 0, 0, 0
0, 34705, 0, 0, 0
0, 34733, 0, 0, 0
0, 34625, 0, 0, 0
0, 34381, 0, 0, 0
0, 34013, 0, 0, 0
0, 33546, 0, 0, 0
0, 33008, 0, 0, 0
0, 32429, 0, 0, 0
0, 31836, 0, 0, 0
0, 31248, 0, 0, 0
0, 30682, 0, 0, 0
0, 30148, 0, 0, 0
0, 29652, 0, 0, 0
0, 29205, 0, 0, 0
0, 28819, 0, 0, 0
0, 28506, 0, 0, 0
0, 28271, 0, 0, 0
0, 28119, 0, 0, 0
0, 28048, 0, 0, 0
0, 28046, 0, 0, 0
0, 28100, 0, 0, 0
0, 28196, 0, 0, 0
0, 28322, 0, 0, 0
0, 28462, 0, 0, 0
0, 28601, 0, 0, 0
0, 28731, 0, 0, 0
0, 28847, 0, 0, 0
0, 28947, 0, 0, 0
0, 29025, 0, 0, 0
0, 29087, 0, 0, 0
0, 29131, 0, 0, 0
0, 29154, 0, 0, 0
0, 29152, 0, 0, 0
0, 29128, 0, 0, 0
0, 29081, 0, 0, 0
0, 29010, 0, 0, 0
0, 28910, 0, 0, 0
0, 28787, 0, 0, 0
0, 28648, 0, 0, 0
0, 28511, 0, 0, 0
0, 28428, 0, 0, 0
0, 28543, 0, 0, 0
0, 29084, 0, 0, 0
0, 30263, 0, 0, 0
0, 32150, 0, 0, 0
0, 34622, 0, 0, 0
0, 37385, 0, 0, 0
0, 40044, 0, 0, 0
0, 42229, 0, 0, 0
0, 43728, 0, 0, 0
0, 44504, 0, 0, 0
0, 44637, 0, 0, 0
0, 44238, 0, 0, 0
0, 43433, 0, 0, 0
0, 42348, 0, 0, 0
0, 41106, 0, 1, 0
0, 39812, 0, 0, 0
0, 38549, 0, 0, 0
0, 37369, 0, 0, 0
0, 36293, 0, 0, 0
0, 35321, 0, 0, 0
0, 34461, 0, 0, 0
0, 33743, 0, 0, 0
0, 33209, 0, 0, 0
0, 32893, 0, 0, 0
0, 32816, 0, 0, 0
0, 32958, 0, 0, 0
0, 33256, 0, 0, 0
0, 33624, 0, 0, 0
0, 33983, 0, 0, 0
0, 34261, 0, 0, 0
0, 34409, 0, 0, 0
0, 34400, 0, 0, 0
0, 34231, 0, 0, 0
0, 33916, 0, 0, 0
0, 33480, 0, 0, 0
0, 32958, 0, 0, 0
0, 32382, 0, 0, 0
0, 31778, 0, 0, 0
0, 31170, 0, 0, 0
0, 30577, 0, 0, 0
0, 30013, 0, 0, 0
0, 29491, 0, 0, 0
0, 29021, 0, 0, 0
0, 28606, 0, 0, 0
0, 28253, 0, 0, 0
0, 27969, 0, 0, 0
0, 27762, 0, 0, 0
0, 27633, 0, 0, 0
0, 27583, 0, 0, 0
0, 27602, 0, 0, 0
0, 27677, 0, 0, 0
0, 27793, 0, 0, 0
0, 27936, 0, 0, 0
0, 28093, 0, 0, 0
0, 28254, 0, 0, 0
0, 28409, 0, 0, 0
0, 28549, 0, 0, 0
0, 28672, 0, 0, 0
0, 28777, 0, 0, 0
0, 28862, 0, 0, 0
0, 28928, 0, 0, 0
0, 28969, 0, 0, 0
0, 28984, 0, 0, 0
0, 28975, 0, 0, 0
0, 28948, 0, 0, 0
0, 28907, 0, 0, 0
0, 28861, 0, 0, 0
0, 28809, 0, 0, 0
0, 28747, 0, 0, 0
0, 28668, 0, 0, 0
0, 28574, 0, 0, 0
0, 28495, 0, 0, 0
0, 28536, 0, 0, 0
0, 28919, 0, 0, 0
0, 29912, 0, 0, 0
0, 31677, 0, 0, 0
0, 34167, 0, 0, 0
0, 37126, 0, 0, 0
0, 40153, 0, 0, 0
0, 42812, 0, 0, 0
0, 44786, 0, 0, 0
0, 45970, 0, 0, 0
0, 46419, 0, 0, 0
0, 46252, 0, 0, 0
0, 45602, 0, 0, 0
0, 44603, 0, 0, 0
0, 43385, 0, 1, 0
0, 42060, 0, 0, 0
0, 40728, 0, 0, 0
0, 39464, 0, 0, 0
0, 38315, 0, 0, 0
0, 37289, 0, 0, 0
0, 36379, 0, 0, 0
0, 35582, 0, 0, 0
0, 34911, 0, 0, 0
0, 34393, 0, 0, 0
0, 34061, 0, 0, 0
0, 33933, 0, 0, 0
0, 33993, 0, 0, 0
0, 34183, 0, 0, 0
0, 34431, 0, 0, 0
0, 34665, 0, 0, 0
0, 34827, 0, 0, 0
0, 34879, 0, 0, 0
0, 34799, 0, 0, 0
0, 34582, 0, 0, 0
0, 34233, 0, 0, 0
0, 33771, 0, 0, 0
0, 33216, 0, 0, 0
0, 32600, 0, 0, 0
0, 31953, 0, 0, 0
0, 31304, 0, 0, 0
0, 30676, 0, 0, 0
0, 30086, 0, 0, 0
0, 29550, 0, 0, 0
0, 29075, 0, 0, 0
0, 28667, 0, 0, 0
0, 28328, 0, 0, 0
0, 28062, 0, 0, 0
0, 27869, 0, 0, 0
0, 27749, 0, 0, 0
0, 27700, 0, 0, 0
0, 27712, 0, 0, 0
0, 27778, 0, 0, 0
0, 27886, 0, 0, 0
0, 28020, 0, 0, 0
0, 28169, 0, 0, 0
0, 28318, 0, 0, 0
0, 28458, 0, 0, 0
0, 28578, 0, 0, 0
0, 28670, 0, 0, 0
0, 28728, 0, 0, 0
0, 28757, 0, 0, 0
0, 28763, 0, 0, 0
0, 28754, 0, 0, 0
0, 28736, 0, 0, 0
0, 28715, 0, 0, 0
0, 28687, 0, 0, 0
0, 28649, 0, 0, 0
0, 28600, 0, 0, 0
0, 28538, 0, 0, 0
0, 28465, 0, 0, 0
0, 28384, 0, 0, 0
0, 28295, 0, 0, 0
0, 28210, 0, 0, 0
0, 28176, 0, 0, 0
0, 28331, 0, 0, 0
0, 28906, 0, 0, 0
0, 30137, 0, 0, 0
0, 32116, 0, 0, 0
0, 34734, 0, 0, 0
0, 37694, 0, 0, 0
0, 40583, 0, 0, 0
0, 43001, 0, 0, 0
0, 44698, 0, 0, 0
0, 45623, 0, 0, 0
0, 45852, 0, 0, 0
0, 45506, 0, 0, 0
0, 44720, 0, 0, 0
0, 43630, 0, 0, 0
0, 42362, 0, 1, 0
0, 41031, 0, 0, 0
0, 39731, 0, 0, 0
0, 38529, 0, 0, 0
0, 37449, 0, 0, 0
0, 36485, 0, 0, 0
0, 35630, 0, 0, 0
0, 34884, 0, 0, 0
0, 34268, 0, 0, 0
0, 33817, 0, 0, 0
0, 33567, 0, 0, 0
0, 33523, 0, 0, 0
0, 33650, 0, 0, 0
0, 33882, 0, 0, 0
0, 34143, 0, 0, 0
0, 34366, 0, 0, 0
0, 34498, 0, 0, 0
0, 34507, 0, 0, 0
0, 34379, 0, 0, 0
0, 34113, 0, 0, 0
0, 33722, 0, 0, 0
0, 33228, 0, 0, 0
0, 32658, 0, 0, 0
0, 32044, 0, 0, 0
0, 31418, 0, 0, 0
0, 30799, 0, 0, 0
0, 30204, 0, 0, 0
0, 29645, 0, 0, 0
0, 29125, 0, 0, 0
0, 28647, 0, 0, 0
0, 28221, 0, 0, 0
0, 27860, 0, 0, 0
0, 27572, 0, 0, 0
0, 27362, 0, 0, 0
0, 27233, 0, 0, 0
