0, 38099, 0, 0, 0
0, 38934, 0, 0, 0
0, 39333, 0, 0, 0
0, 39339, 0, 0, 0
0, 39033, 0, 0, 0
0, 38520, 0, 0, 0
0, 37898, 0, 1, 0
0, 37249, 0, 0, 0
0, 36624, 0, 0, 0
0, 36045, 0, 0, 0
0, 35506, 0, 0, 0
0, 34995, 0, 0, 0
0, 34511, 0, 0, 0
0, 34074, 0, 0, 0
0, 33718, 0, 0, 0
0, 33477, 0, 0, 0
0, 33368, 0, 0, 0
0, 33380, 0, 0, 0
0, 33476, 0, 0, 0
0, 33604, 0, 0, 0
0, 33716, 0, 0, 0
0, 33773, 0, 0, 0
0, 33751, 0, 0, 0
0, 33639, 0, 0, 0
0, 33442, 0, 0, 0
0, 33173, 0, 0, 0
0, 32850, 0, 0, 0
0, 32498, 0, 0, 0
0, 32137, 0, 0, 0
0, 31786, 0, 0, 0
0, 31455, 0, 0, 0
0, 31155, 0, 0, 0
0, 30890, 0, 0, 0
0, 30658, 0, 0, 0
0, 30461, 0, 0, 0
0, 30297, 0, 0, 0
0, 30166, 0, 0, 0
0, 30063, 0, 0, 0
0, 29988, 0, 0, 0
0, 29939, 0, 0, 0
0, 29914, 0, 0, 0
0, 29906, 0, 0, 0
0, 29913, 0, 0, 0
0, 29932, 0, 0, 0
0, 29959, 0, 0, 0
0, 29989, 0, 0, 0
0, 30020, 0, 0, 0
0, 30047, 0, 0, 0
0, 30069, 0, 0, 0
0, 30085, 0, 0, 0
0, 30092, 0, 0, 0
0, 30089, 0, 0, 0
0, 30078, 0, 0, 0
0, 30056, 0, 0, 0
0, 30025, 0, 0, 0
0, 29985, 0, 0, 0
0, 29939, 0, 0, 0
0, 29891, 0, 0, 0
0, 29848, 0, 0, 0
0, 29829, 0, 0, 0
0, 29888, 0, 0, 0
0, 30118, 0, 0, 0
0, 30627, 0, 0, 0
0, 31486, 0, 0, 0
0, 32690, 0, 0, 0
0, 34138, 0, 0, 0
0, 35648, 1, 0, 0
0, 37012, 0, 0, 0
0, 38061, 0, 0, 0
0, 38709, 0, 0, 0
0, 38948, 0, 0, 0
0, 38835, 0, 0, 0
0, 38456, 0, 0, 0
0, 37907, 0, 0, 0
0, 37276, 0, 1, 0
0, 36633, 0, 0, 0
0, 36016, 0, 0, 0
0, 35438, 0, 0, 0
0, 34895, 0, 0, 0
0, 34388, 0, 0, 0
0, 33932, 0, 0, 0
0, 33559, 0, 0, 0
0, 33302, 0, 0, 0
0, 33185, 0, 0, 0
0, 33206, 0, 0, 0
0, 33332, 0, 0, 0
0, 33512, 0, 0, 0
0, 33693, 0, 0, 0
0, 33826, 0, 0, 0
0, 33881, 0, 0, 0
0, 33841, 0, 0, 0
0, 33704, 0, 0, 0
0, 33483, 0, 0, 0
0, 33199, 0, 0, 0
0, 32873, 0, 0, 0
0, 32530, 0, 0, 0
0, 32188, 0, 0, 0
0, 31865, 0, 0, 0
0, 31565, 0, 0, 0
0, 31291, 0, 0, 0
0, 31047, 0, 0, 0
0, 30836, 0, 0, 0
0, 30657, 0, 0, 0
0, 30510, 0, 0, 0
0, 30398, 0, 0, 0
0, 30318, 0, 0, 0
0, 30268, 0, 0, 0
0, 30244, 0, 0, 0
0, 30242, 0, 0, 0
0, 30259, 0, 0, 0
0, 30288, 0, 0, 0
0, 30326, 0, 0, 0
0, 30369, 0, 0, 0
0, 30412, 0, 0, 0
0, 30453, 0, 0, 0
0, 30491, 0, 0, 0
0, 30519, 0, 0, 0
0, 30537, 0, 0, 0
0, 30544, 0, 0, 0
0, 30537, 0, 0, 0
0, 30518, 0, 0, 0
0, 30490, 0, 0, 0
0, 30457, 0, 0, 0
0, 30426, 0, 0, 0
0, 30396, 0, 0, 0
0, 30367, 0, 0, 0
0, 30336, 0, 0, 0
0, 30307, 0, 0, 0
0, 30286, 0, 0, 0
0, 30290, 0, 0, 0
0, 30372, 0, 0, 0
0, 30625, 0, 0, 0
0, 31171, 0, 0, 0
0, 32101, 0, 0, 0
0, 33430, 0, 0, 0
0, 35067, 0, 0, 0
0, 36835, 1, 0, 0
0, 38510, 0, 0, 0
0, 39893, 0, 0, 0
0, 40867, 0, 0, 0
0, 41406, 0, 0, 0
0, 41543, 0, 0, 0
0, 41349, 0, 0, 0
0, 40914, 0, 0, 0
0, 40333, 0, 1, 0
0, 39691, 0, 0, 0
0, 39048, 0, 0, 0
0, 38433, 0, 0, 0
0, 37849, 0, 0, 0
0, 37283, 0, 0, 0
0, 36730, 0, 0, 0
0, 36199, 0, 0, 0
0, 35715, 0, 0, 0
0, 35315, 0, 0, 0
0, 35025, 0, 0, 0
0, 34845, 0, 0, 0
0, 34757, 0, 0, 0
0, 34722, 0, 0, 0
0, 34697, 0, 0, 0
0, 34644, 0, 0, 0
0, 34537, 0, 0, 0
0, 34361, 0, 0, 0
0, 34112, 0, 0, 0
0, 33799, 0, 0, 0
0, 33438, 0, 0, 0
0, 33048, 0, 0, 0
0, 32650, 0, 0, 0
0, 32263, 0, 0, 0
0, 31898, 0, 0, 0
0, 31563, 0, 0, 0
0, 31259, 0, 0, 0
0, 30988, 0, 0, 0
0, 30753, 0, 0, 0
0, 30553, 0, 0, 0
0, 30385, 0, 0, 0
0, 30244, 0, 0, 0
0, 30125, 0, 0, 0
0, 30020, 0, 0, 0
0, 29925, 0, 0, 0
0, 29842, 0, 0, 0
0, 29775, 0, 0, 0
0, 29727, 0, 0, 0
0, 29698, 0, 0, 0
0, 29687, 0, 0, 0
0, 29695, 0, 0, 0
0, 29714, 0, 0, 0
0, 29739, 0, 0, 0
0, 29767, 0, 0, 0
0, 29793, 0, 0, 0
0, 29812, 0, 0, 0
0, 29825, 0, 0, 0
0, 29834, 0, 0, 0
0, 29840, 0, 0, 0
0, 29840, 0, 0, 0
0, 29833, 0, 0, 0
0, 29813, 0, 0, 0
0, 29782, 0, 0, 0
0, 29740, 0, 0, 0
0, 29696, 0, 0, 0
0, 29674, 0, 0, 0
0, 29725, 0, 0, 0
0, 29942, 0, 0, 0
0, 30442, 0, 0, 0
0, 31313, 0, 0, 0
0, 32563, 0, 0, 0
0, 34100, 0, 0, 0
0, 35747, 1, 0, 0
0, 37283, 0, 0, 0
0, 38513, 0, 0, 0
0, 39323, 0, 0, 0
0, 39688, 0, 0, 0
0, 39653, 0, 0, 0
0, 39304, 0, 0, 0
0, 38743, 0, 0, 0
0, 38072, 0, 1, 0
0, 37376, 0, 0, 0
0, 36712, 0, 0, 0
0, 36102, 0, 0, 0
0, 35541, 0, 0, 0
0, 35013, 0, 0, 0
0, 34516, 0, 0, 0
0, 34060, 0, 0, 0
0, 33678, 0, 0, 0
0, 33402, 0, 0, 0
0, 33253, 0, 0, 0
0, 33226, 0, 0, 0
0, 33292, 0, 0, 0
0, 33406, 0, 0, 0
0, 33518, 0, 0, 0
0, 33584, 0, 0, 0
0, 33577, 0, 0, 0
0, 33480, 0, 0, 0
0, 33293, 0, 0, 0
0, 33031, 0, 0, 0
0, 32712, 0, 0, 0
0, 32357, 0, 0, 0
0, 31988, 0, 0, 0
0, 31624, 0, 0, 0
0, 31276, 0, 0, 0
0, 30957, 0, 0, 0
0, 30670, 0, 0, 0
0, 30417, 0, 0, 0
0, 30200, 0, 0, 0
0, 30018, 0, 0, 0
0, 29872, 0, 0, 0
0, 29760, 0, 0, 0
0, 29682, 0, 0, 0
0, 29633, 0, 0, 0
0, 29607, 0, 0, 0
0, 29600, 0, 0, 0
0, 29609, 0, 0, 0
0, 29627, 0, 0, 0
0, 29651, 0, 0, 0
0, 29680, 0, 0, 0
0, 29709, 0, 0, 0
0, 29737, 0, 0, 0
0, 29762, 0, 0, 0
0, 29784, 0, 0, 0
0, 29802, 0, 0, 0
0, 29815, 0, 0, 0
0, 29823, 0, 0, 0
0, 29824, 0, 0, 0
0, 29816, 0, 0, 0
0, 29797, 0, 0, 0
0, 29766, 0, 0, 0
0, 29726, 0, 0, 0
0, 29682, 0, 0, 0
0, 29640, 0, 0, 0
0, 29611, 0, 0, 0
0, 29629, 0, 0, 0
0, 29773, 0, 0, 0
0, 30159, 0, 0, 0
0, 30897, 0, 0, 0
0, 32032, 0, 0, 0
0, 33507, 0, 0, 0
0, 35166, 1, 0, 0
0, 36787, 0, 0, 0
0, 38151, 0, 0, 0
0, 39111, 0, 0, 0
0, 39617, 0, 0, 0
0, 39695, 0, 0, 0
0, 39424, 0, 0, 0
0, 38902, 0, 0, 0
0, 38234, 0, 1, 0
0, 37512, 0, 0, 0
0, 36803, 0, 0, 0
0, 36141, 0, 0, 0
0, 35532, 0, 0, 0
0, 34967, 0, 0, 0
0, 34447, 0, 0, 0
0, 33991, 0, 0, 0
0, 33630, 0, 0, 0
0, 33397, 0, 0, 0
0, 33308, 0, 0, 0
0, 33356, 0, 0, 0
0, 33499, 0, 0, 0
0, 33679, 0, 0, 0
0, 33840, 0, 0, 0
0, 33943, 0, 0, 0
0, 33954, 0, 0, 0
0, 33865, 0, 0, 0
0, 33681, 0, 0, 0
0, 33415, 0, 0, 0
0, 33089, 0, 0, 0
0, 32727, 0, 0, 0
0, 32350, 0, 0, 0
0, 31977, 0, 0, 0
0, 31623, 0, 0, 0
0, 31299, 0, 0, 0
0, 31011, 0, 0, 0
0, 30762, 0, 0, 0
0, 30551, 0, 0, 0
0, 30381, 0, 0, 0
0, 30248, 0, 0, 0
0, 30148, 0, 0, 0
0, 30077, 0, 0, 0
0, 30033, 0, 0, 0
0, 30012, 0, 0, 0
0, 30012, 0, 0, 0
0, 30030, 0, 0, 0
0, 30066, 0, 0, 0
0, 30115, 0, 0, 0
0, 30175, 0, 0, 0
0, 30242, 0, 0, 0
0, 30312, 0, 0, 0
0, 30378, 0, 0, 0
0, 30436, 0, 0, 0
0, 30479, 0, 0, 0
0, 30506, 0, 0, 0
0, 30513, 0, 0, 0
0, 30501, 0, 0, 0
0, 30472, 0, 0, 0
0, 30428, 0, 0, 0
0, 30373, 0, 0, 0
0, 30317, 0, 0, 0
0, 30277, 0, 0, 0
0, 30305, 0, 0, 0
0, 30499, 0, 0, 0
0, 30982, 0, 0, 0
0, 31849, 0, 0, 0
0, 33111, 0, 0, 0
0, 34681, 0, 0, 0
0, 36373, 1, 0, 0
0, 37957, 0, 0, 0
0, 39226, 0, 0, 0
0, 40059, 0, 0, 0
0, 40432, 0, 0, 0
0, 40391, 0, 0, 0
0, 40025, 0, 0, 0
0, 39441, 0, 0, 0
0, 38744, 0, 1, 0
0, 38017, 0, 0, 0
0, 37316, 0, 0, 0
0, 36662, 0, 0, 0
0, 36052, 0, 0, 0
0, 35478, 0, 0, 0
0, 34943, 0, 0, 0
0, 34470, 0, 0, 0
0, 34093, 0, 0, 0
0, 33843, 0, 0, 0
0, 33734, 0, 0, 0
0, 33751, 0, 0, 0
0, 33850, 0, 0, 0
0, 33977, 0, 0, 0
0, 34085, 0, 0, 0
0, 34132, 0, 0, 0
0, 34092, 0, 0, 0
0, 33955, 0, 0, 0
0, 33728, 0, 0, 0
0, 33424, 0, 0, 0
0, 33065, 0, 0, 0
0, 32678, 0, 0, 0
0, 32284, 0, 0, 0
0, 31903, 0, 0, 0
0, 31546, 0, 0, 0
0, 31222, 0, 0, 0
0, 30935, 0, 0, 0
0, 30685, 0, 0, 0
0, 30473, 0, 0, 0
0, 30299, 0, 0, 0
0, 30161, 0, 0, 0
0, 30057, 0, 0, 0
0, 29985, 0, 0, 0
0, 29940, 0, 0, 0
0, 29920, 0, 0, 0
0, 29920, 0, 0, 0
0, 29936, 0, 0, 0
0, 29961, 0, 0, 0
0, 29988, 0, 0, 0
0, 30015, 0, 0, 0
0, 30040, 0, 0, 0
0, 30060, 0, 0, 0
0, 30075, 0, 0, 0
0, 30083, 0, 0, 0
0, 30084, 0, 0, 0
0, 30079, 0, 0, 0
0, 30068, 0, 0, 0
0, 30054, 0, 0, 0
0, 30040, 0, 0, 0
0, 30027, 0, 0, 0
0, 30015, 0, 0, 0
0, 30004, 0, 0, 0
0, 29992, 0, 0, 0
0, 29981, 0, 0, 0
0, 29968, 0, 0, 0
0, 29953, 0, 0, 0
0, 29934, 0, 0, 0
0, 29916, 0, 0, 0
0, 29912, 0, 0, 0
0, 29967, 0, 0, 0
0, 30181, 0, 0, 0
0, 30693, 0, 0, 0
0, 31620, 0, 0, 0
0, 32996, 0, 0, 0
0, 34741, 1, 0, 0
0, 36666, 0, 0, 0
0, 38513, 0, 0, 0
0, 40044, 0, 0, 0
0, 41107, 0, 0, 0
0, 41658, 0, 0, 0
0, 41737, 0, 0, 0
0, 41433, 0, 0, 0
0, 40862, 0, 0, 0
0, 40142, 0, 1, 0
0, 39375, 0, 0, 0
0, 38631, 0, 0, 0
0, 37952, 0, 0, 0
0, 37338, 0, 0, 0
0, 36770, 0, 0, 0
0, 36231, 0, 0, 0
0, 35723, 0, 0, 0
0, 35269, 0, 0, 0
0, 34900, 0, 0, 0
0, 34648, 0, 0, 0
0, 34520, 0, 0, 0
0, 34498, 0, 0, 0
0, 34538, 0, 0, 0
0, 34589, 0, 0, 0
0, 34607, 0, 0, 0
0, 34558, 0, 0, 0
0, 34422, 0, 0, 0
0, 34195, 0, 0, 0
0, 33886, 0, 0, 0
0, 33515, 0, 0, 0
0, 33103, 0, 0, 0
0, 32670, 0, 0, 0
0, 32238, 0, 0, 0
0, 31823, 0, 0, 0
0, 31436, 0, 0, 0
0, 31086, 0, 0, 0
0, 30778, 0, 0, 0
0, 30512, 0, 0, 0
0, 30288, 0, 0, 0
0, 30105, 0, 0, 0
0, 29959, 0, 0, 0
0, 29847, 0, 0, 0
0, 29766, 0, 0, 0
0, 29714, 0, 0, 0
0, 29683, 0, 0, 0
0, 29671, 0, 0, 0
0, 29671, 0, 0, 0
0, 29681, 0, 0, 0
0, 29694, 0, 0, 0
0, 29707, 0, 0, 0
0, 29716, 0, 0, 0
0, 29722, 0, 0, 0
0, 29720, 0, 0, 0
0, 29711, 0, 0, 0
0, 29696, 0, 0, 0
0, 29679, 0, 0, 0
0, 29660, 0, 0, 0
0, 29641, 0, 0, 0
0, 29624, 0, 0, 0
0, 29608, 0, 0, 0
0, 29591, 0, 0, 0
0, 29571, 0, 0, 0
0, 29550, 0, 0, 0
0, 29530, 0, 0, 0
0, 29511, 0, 0, 0
0, 29492, 0, 0, 0
0, 29473, 0, 0, 0
0, 29455, 0, 0, 0
0, 29447, 0, 0, 0
0, 29486, 0, 0, 0
0, 29657, 0, 0, 0
0, 30091, 0, 0, 0
0, 30908, 0, 0, 0
0, 32159, 0, 0, 0
0, 33781, 0, 0, 0
0, 35608, 1, 0, 0
0, 37399, 0, 0, 0
0, 38913, 0, 0, 0
0, 39985, 0, 0, 0
0, 40558, 0, 0, 0
0, 40662, 0, 0, 0
0, 40383, 0, 0, 0
0, 39829, 0, 0, 0
0, 39115, 0, 1, 0
0, 38346, 0, 0, 0
0, 37593, 0, 0, 0
0, 36899, 0, 0, 0
0, 36269, 0, 0, 0
0, 35693, 0, 0, 0
0, 35155, 0, 0, 0
0, 34657, 0, 0, 0
0, 34225, 0, 0, 0
0, 33893, 0, 0, 0
0, 33690, 0, 0, 0
0, 33621, 0, 0, 0
0, 33662, 0, 0, 0
0, 33766, 0, 0, 0
0, 33882, 0, 0, 0
0, 33962, 0, 0, 0
0, 33969, 0, 0, 0
0, 33885, 0, 0, 0
0, 33704, 0, 0, 0
0, 33435, 0, 0, 0
0, 33097, 0, 0, 0
0, 32713, 0, 0, 0
0, 32309, 0, 0, 0
0, 31904, 0, 0, 0
0, 31516, 0, 0, 0
0, 31156, 0, 0, 0
0, 30830, 0, 0, 0
0, 30544, 0, 0, 0
0, 30302, 0, 0, 0
0, 30102, 0, 0, 0
0, 29943, 0, 0, 0
0, 29824, 0, 0, 0
0, 29738, 0, 0, 0
0, 29680, 0, 0, 0
0, 29646, 0, 0, 0
0, 29632, 0, 0, 0
0, 29637, 0, 0, 0
0, 29658, 0, 0, 0
0, 29688, 0, 0, 0
0, 29723, 0, 0, 0
0, 29759, 0, 0, 0
0, 29791, 0, 0, 0
0, 29815, 0, 0, 0
0, 29829, 0, 0, 0
0, 29835, 0, 0, 0
0, 29832, 0, 0, 0
0, 29822, 0, 0, 0
0, 29806, 0, 0, 0
0, 29789, 0, 0, 0
0, 29771, 0, 0, 0
0, 29754, 0, 0, 0
0, 29739, 0, 0, 0
0, 29722, 0, 0, 0
0, 29704, 0, 0, 0
0, 29683, 0, 0, 0
0, 29659, 0, 0, 0
0, 29635, 0, 0, 0
0, 29611, 0, 0, 0
0, 29589, 0, 0, 0
0, 29584, 0, 0, 0
0, 29633, 0, 0, 0
0, 29827, 0, 0, 0
0, 30296, 0, 0, 0
0, 31154, 0, 0, 0
0, 32432, 0, 0, 0
0, 34054, 0, 0, 0
0, 35833, 1, 0, 0
0, 37525, 0, 0, 0
0, 38900, 0, 0, 0
0, 39818, 0, 0, 0
0, 40241, 0, 0, 0
0, 40219, 0, 0, 0
0, 39842, 0, 0, 0
0, 39221, 0, 0, 0
0, 38463, 0, 1, 0
0, 37664, 0, 0, 0
0, 36890, 0, 0, 0
0, 36175, 0, 0, 0
0, 35527, 0, 0, 0
0, 34943, 0, 0, 0
0, 34428, 0, 0, 0
0, 34001, 0, 0, 0
0, 33690, 0, 0, 0
0, 33521, 0, 0, 0
0, 33502, 0, 0, 0
0, 33605, 0, 0, 0
0, 33785, 0, 0, 0
0, 33984, 0, 0, 0
0, 34153, 0, 0, 0
0, 34253, 0, 0, 0
0, 34259, 0, 0, 0
0, 34162, 0, 0, 0
0, 33965, 0, 0, 0
0, 33684, 0, 0, 0
0, 33341, 0, 0, 0
0, 32963, 0, 0, 0
0, 32575, 0, 0, 0
0, 32198, 0, 0, 0
0, 31847, 0, 0, 0
0, 31528, 0, 0, 0
0, 31248, 0, 0, 0
0, 31004, 0, 0, 0
0, 30795, 0, 0, 0
0, 30620, 0, 0, 0
0, 30479, 0, 0, 0
0, 30369, 0, 0, 0
0, 30293, 0, 0, 0
0, 30246, 0, 0, 0
0, 30224, 0, 0, 0
0, 30224, 0, 0, 0
0, 30239, 0, 0, 0
0, 30266, 0, 0, 0
0, 30298, 0, 0, 0
0, 30331, 0, 0, 0
0, 30360, 0, 0, 0
0, 30381, 0, 0, 0
0, 30394, 0, 0, 0
0, 30400, 0, 0, 0
0, 30398, 0, 0, 0
0, 30391, 0, 0, 0
0, 30380, 0, 0, 0
0, 30363, 0, 0, 0
0, 30344, 0, 0, 0
0, 30318, 0, 0, 0
0, 30290, 0, 0, 0
0, 30258, 0, 0, 0
0, 30225, 0, 0, 0
0, 30186, 0, 0, 0
0, 30147, 0, 0, 0
0, 30108, 0, 0, 0
0, 30070, 0, 0, 0
0, 30037, 0, 0, 0
0, 30022, 0, 0, 0
0, 30066, 0, 0, 0
0, 30260, 0, 0, 0
0, 30739, 0, 0, 0
0, 31620, 0, 0, 0
0, 32942, 0, 0, 0
0, 34625, 0, 0, 0
0, 36483, 1, 0, 0
0, 38263, 0, 0, 0
0, 39727, 0, 0, 0
0, 40728, 0, 0, 0
0, 41230, 0, 0, 0
0, 41273, 0, 0, 0
0, 40947, 0, 0, 0
0, 40365, 0, 0, 0
0, 39633, 0, 1, 0
0, 38845, 0, 0, 0
0, 38067, 0, 0, 0
0, 37339, 0, 0, 0
0, 36671, 0, 0, 0
0, 36056, 0, 0, 0
0, 35493, 0, 0, 0
0, 34993, 0, 0, 0
0, 34583, 0, 0, 0
0, 34291, 0, 0, 0
0, 34139, 0, 0, 0
0, 34123, 0, 0, 0
0, 34211, 0, 0, 0
0, 34353, 0, 0, 0
0, 34493, 0, 0, 0
0, 34583, 0, 0, 0
0, 34590, 0, 0, 0
0, 34500, 0, 0, 0
0, 34315, 0, 0, 0
0, 34045, 0, 0, 0
0, 33709, 0, 0, 0
0, 33327, 0, 0, 0
0, 32919, 0, 0, 0
0, 32504, 0, 0, 0
0, 32099, 0, 0, 0
0, 31715, 0, 0, 0
0, 31360, 0, 0, 0
0, 31042, 0, 0, 0
0, 30766, 0, 0, 0
0, 30536, 0, 0, 0
0, 30356, 0, 0, 0
0, 30227, 0, 0, 0
0, 30144, 0, 0, 0
0, 30104, 0, 0, 0
0, 30100, 0, 0, 0
0, 30122, 0, 0, 0
0, 30156, 0, 0, 0
0, 30195, 0, 0, 0
0, 30227, 0, 0, 0
0, 30248, 0, 0, 0
0, 30257, 0, 0, 0
0, 30260, 0, 0, 0
0, 30255, 0, 0, 0
0, 30243, 0, 0, 0
0, 30222, 0, 0, 0
0, 30195, 0, 0, 0
0, 30163, 0, 0, 0
0, 30131, 0, 0, 0
0, 30102, 0, 0, 0
0, 30081, 0, 0, 0
0, 30062, 0, 0, 0
0, 30042, 0, 0, 0
0, 30019, 0, 0, 0
0, 29989, 0, 0, 0
0, 29950, 0, 0, 0
0, 29904, 0, 0, 0
0, 29855, 0, 0, 0
0, 29811, 0, 0, 0
0, 29800, 0, 0, 0
0, 29892, 0, 0, 0
0, 30213, 0, 0, 0
0, 30904, 0, 0, 0
0, 32044, 0, 0, 0
0, 33606, 0, 0, 0
0, 35452, 1, 0, 0
0, 37353, 0, 0, 0
0, 39054, 0, 0, 0
0, 40353, 0, 0, 0
0, 41162, 0, 0, 0
0, 41483, 0, 0, 0
0, 41375, 0, 0, 0
0, 40934, 0, 0, 0
0, 40270, 0, 0, 0
0, 39486, 0, 1, 0
0, 38667, 0, 0, 0
0, 37872, 0, 0, 0
0, 37129, 0, 0, 0
0, 36442, 0, 0, 0
0, 35805, 0, 0, 0
0, 35220, 0, 0, 0
0, 34706, 0, 0, 0
0, 34297, 0, 0, 0
0, 34027, 0, 0, 0
0, 33910, 0, 0, 0
0, 33928, 0, 0, 0
0, 34039, 0, 0, 0
0, 34183, 0, 0, 0
0, 34304, 0, 0, 0
0, 34360, 0, 0, 0
0, 34327, 0, 0, 0
0, 34199, 0, 0, 0
0, 33981, 0, 0, 0
0, 33689, 0, 0, 0
0, 33345, 0, 0, 0
0, 32967, 0, 0, 0
0, 32569, 0, 0, 0
0, 32168, 0, 0, 0
0, 31775, 0, 0, 0
0, 31404, 0, 0, 0
0, 31064, 0, 0, 0
0, 30760, 0, 0, 0
0, 30497, 0, 0, 0
0, 30273, 0, 0, 0
0, 30086, 0, 0, 0
0, 29936, 0, 0, 0
0, 29821, 0, 0, 0
0, 29742, 0, 0, 0
0, 29696, 0, 0, 0
0, 29678, 0, 0, 0
0, 29679, 0, 0, 0
0, 29696, 0, 0, 0
0, 29723, 0, 0, 0
0, 29757, 0, 0, 0
0, 29792, 0, 0, 0
0, 29825, 0, 0, 0
0, 29856, 0, 0, 0
0, 29885, 0, 0, 0
0, 29911, 0, 0, 0
0, 29933, 0, 0, 0
0, 29953, 0, 0, 0
0, 29967, 0, 0, 0
0, 29973, 0, 0, 0
0, 29971, 0, 0, 0
0, 29959, 0, 0, 0
0, 29939, 0, 0, 0
0, 29908, 0, 0, 0
0, 29863, 0, 0, 0
0, 29805, 0, 0, 0
0, 29745, 0, 0, 0
0, 29702, 0, 0, 0
0, 29733, 0, 0, 0
0, 29947, 0, 0, 0
0, 30481, 0, 0, 0
0, 31442, 0, 0, 0
0, 32843, 0, 0, 0
0, 34587, 1, 0, 0
0, 36471, 0, 0, 0
0, 38240, 0, 0, 0
0, 39666, 0, 0, 0
0, 40611, 0, 0, 0
0, 41048, 0, 0, 0
0, 41024, 0, 0, 0
0, 40628, 0, 0, 0
0, 39974, 0, 0, 0
0, 39177, 0, 1, 0
0, 38333, 0, 0, 0
0, 37511, 0, 0, 0
0, 36747, 0, 0, 0
0, 36045, 0, 0, 0
0, 35403, 0, 0, 0
0, 34828, 0, 0, 0
0, 34342, 0, 0, 0
0, 33976, 0, 0, 0
0, 33762, 0, 0, 0
0, 33707, 0, 0, 0
0, 33787, 0, 0, 0
0, 33956, 0, 0, 0
0, 34151, 0, 0, 0
0, 34316, 0, 0, 0
0, 34404, 0, 0, 0
0, 34389, 0, 0, 0
0, 34261, 0, 0, 0
0, 34026, 0, 0, 0
0, 33704, 0, 0, 0
0, 32900, 0, 0, 0
0, 32468, 0, 0, 0
0, 32042, 0, 0, 0
0, 31637, 0, 0, 0
0, 31261, 0, 0, 0
0, 30920, 0, 0, 0
0, 30617, 0, 0, 0
0, 30353, 0, 0, 0
0, 30132, 0, 0, 0
0, 29953, 0, 0, 0
0, 29816, 0, 0, 0
0, 29718, 0, 0, 0
0, 29656, 0, 0, 0
0, 29623, 0, 0, 0
0, 29614, 0, 0, 0
0, 29626, 0, 0, 0
0, 29656, 0, 0, 0
0, 29701, 0, 0, 0
0, 29756, 0, 0, 0
0, 29812, 0, 0, 0
0, 29864, 0, 0, 0
0, 29905, 0, 0, 0
0, 29929, 0, 0, 0
0, 29929, 0, 0, 0
0, 29910, 0, 0, 0
0, 29872, 0, 0, 0
0, 29818, 0, 0, 0
0, 29751, 0, 0, 0
0, 29677, 0, 0, 0
0, 29604, 0, 0, 0
0, 29548, 0, 0, 0
0, 29564, 0, 0, 0
0, 29756, 0, 0, 0
0, 30254, 0, 0, 0
0, 31155, 0, 0, 0
0, 32472, 0, 0, 0
0, 34113, 0, 0, 0
0, 35885, 1, 0, 0
0, 37546, 0, 0, 0
0, 38882, 0, 0, 0
0, 39760, 0, 0, 0
0, 40149, 0, 0, 0
0, 40093, 0, 0, 0
0, 39681, 0, 0, 0
0, 39024, 0, 0, 0
0, 38233, 0, 1, 0
0, 37395, 0, 0, 0
0, 36570, 0, 0, 0
0, 35783, 0, 0, 0
0, 35050, 0, 0, 0
0, 34384, 0, 0, 0
0, 33814, 0, 0, 0
0, 33374, 0, 0, 0
0, 33099, 0, 0, 0
0, 33004, 0, 0, 0
0, 33073, 0, 0, 0
0, 33262, 0, 0, 0
0, 33507, 0, 0, 0
0, 33747, 0, 0, 0
0, 33929, 0, 0, 0
0, 34013, 0, 0, 0
0, 33984, 0, 0, 0
0, 33837, 0, 0, 0
0, 33585, 0, 0, 0
0, 33249, 0, 0, 0
0, 32859, 0, 0, 0
0, 32440, 0, 0, 0
0, 32019, 0, 0, 0
0, 31613, 0, 0, 0
0, 31237, 0, 0, 0
0, 30900, 0, 0, 0
0, 30607, 0, 0, 0
0, 30361, 0, 0, 0
0, 30158, 0, 0, 0
0, 29997, 0, 0, 0
0, 29873, 0, 0, 0
0, 29784, 0, 0, 0
0, 29725, 0, 0, 0
0, 29695, 0, 0, 0
0, 29692, 0, 0, 0
0, 29709, 0, 0, 0
0, 29743, 0, 0, 0
0, 29786, 0, 0, 0
0, 29836, 0, 0, 0
0, 29888, 0, 0, 0
0, 29941, 0, 0, 0
0, 29992, 0, 0, 0
0, 30037, 0, 0, 0
0, 30071, 0, 0, 0
0, 30092, 0, 0, 0
0, 30095, 0, 0, 0
0, 30081, 0, 0, 0
0, 30050, 0, 0, 0
0, 30003, 0, 0, 0
0, 29942, 0, 0, 0
0, 29871, 0, 0, 0
0, 29803, 0, 0, 0
0, 29770, 0, 0, 0
0, 29856, 0, 0, 0
0, 30190, 0, 0, 0
0, 30912, 0, 0, 0
0, 32098, 0, 0, 0
0, 33722, 0, 0, 0
0, 35636, 1, 0, 0
0, 37608, 0, 0, 0
0, 39378, 0, 0, 0
0, 40745, 0, 0, 0
0, 41610, 0, 0, 0
0, 41972, 0, 0, 0
0, 41889, 0, 0, 0
0, 41464, 0, 0, 0
0, 40811, 0, 0, 0
0, 40043, 0, 1, 0
0, 39247, 0, 0, 0
0, 38483, 0, 0, 0
0, 37770, 0, 0, 0
0, 37104, 0, 0, 0
0, 36475, 0, 0, 0
0, 35890, 0, 0, 0
0, 35367, 0, 0, 0
0, 34944, 0, 0, 0
0, 34653, 0, 0, 0
0, 34506, 0, 0, 0
0, 34481, 0, 0, 0
0, 34534, 0, 0, 0
0, 34610, 0, 0, 0
0, 34658, 0, 0, 0
0, 34635, 0, 0, 0
0, 34517, 0, 0, 0
0, 34295, 0, 0, 0
0, 33980, 0, 0, 0
0, 33590, 0, 0, 0
0, 33151, 0, 0, 0
0, 32685, 0, 0, 0
0, 32216, 0, 0, 0
0, 31763, 0, 0, 0
0, 31336, 0, 0, 0
0, 30946, 0, 0, 0
0, 30599, 0, 0, 0
0, 30297, 0, 0, 0
0, 30044, 0, 0, 0
0, 29835, 0, 0, 0
0, 29669, 0, 0, 0
0, 29543, 0, 0, 0
0, 29454, 0, 0, 0
0, 29395, 0, 0, 0
0, 29365, 0, 0, 0
0, 29354, 0, 0, 0
0, 29359, 0, 0, 0
0, 29370, 0, 0, 0
0, 29387, 0, 0, 0
0, 29403, 0, 0, 0
0, 29418, 0, 0, 0
0, 29430, 0, 0, 0
0, 29439, 0, 0, 0
0, 29443, 0, 0, 0
0, 29438, 0, 0, 0
0, 29423, 0, 0, 0
0, 29398, 0, 0, 0
0, 29361, 0, 0, 0
0, 29312, 0, 0, 0
0, 29253, 0, 0, 0
0, 29185, 0, 0, 0
0, 29113, 0, 0, 0
0, 29042, 0, 0, 0
0, 28988, 0, 0, 0
0, 28987, 0, 0, 0
0, 29126, 0, 0, 0
0, 29535, 0, 0, 0
0, 30342, 0, 0, 0
0, 31608, 0, 0, 0
0, 33287, 0, 0, 0
0, 35222, 1, 0, 0
0, 37172, 0, 0, 0
0, 38883, 0, 0, 0
0, 40165, 0, 0, 0
0, 40934, 0, 0, 0
0, 41199, 0, 0, 0
0, 41031, 0, 0, 0
0, 40542, 0, 0, 0
0, 39855, 0, 0, 0
0, 39083, 0, 1, 0
0, 38309, 0, 0, 0
0, 37580, 0, 0, 0
0, 36904, 0, 0, 0
0, 36267, 0, 0, 0
0, 35662, 0, 0, 0
0, 35094, 0, 0, 0
0, 34592, 0, 0, 0
0, 34194, 0, 0, 0
0, 33931, 0, 0, 0
0, 33809, 0, 0, 0
0, 33799, 0, 0, 0
0, 33852, 0, 0, 0
0, 33913, 0, 0, 0
0, 33934, 0, 0, 0
0, 33881, 0, 0, 0
0, 33736, 0, 0, 0
0, 33498, 0, 0, 0
0, 33176, 0, 0, 0
0, 32790, 0, 0, 0
0, 32362, 0, 0, 0
0, 31913, 0, 0, 0
0, 31465, 0, 0, 0
0, 31035, 0, 0, 0
0, 30634, 0, 0, 0
0, 30272, 0, 0, 0
0, 29952, 0, 0, 0
0, 29680, 0, 0, 0
0, 29455, 0, 0, 0
0, 29279, 0, 0, 0
0, 29146, 0, 0, 0
0, 29053, 0, 0, 0
0, 28992, 0, 0, 0
0, 28958, 0, 0, 0
0, 28946, 0, 0, 0
0, 28953, 0, 0, 0
0, 28973, 0, 0, 0
0, 29003, 0, 0, 0
0, 29038, 0, 0, 0
0, 29072, 0, 0, 0
0, 29104, 0, 0, 0
0, 29131, 0, 0, 0
0, 29154, 0, 0, 0
0, 29172, 0, 0, 0
0, 29184, 0, 0, 0
0, 29190, 0, 0, 0
0, 29189, 0, 0, 0
0, 29180, 0, 0, 0
0, 29161, 0, 0, 0
0, 29133, 0, 0, 0
0, 29096, 0, 0, 0
0, 29054, 0, 0, 0
0, 29008, 0, 0, 0
0, 28962, 0, 0, 0
0, 28923, 0, 0, 0
0, 28903, 0, 0, 0
0, 28939, 0, 0, 0
0, 29116, 0, 0, 0
0, 29563, 0, 0, 0
0, 30406, 0, 0, 0
0, 31700, 0, 0, 0
0, 33388, 0, 0, 0
0, 35302, 1, 0, 0
0, 37197, 0, 0, 0
0, 38820, 0, 0, 0
0, 39998, 0, 0, 0
0, 40661, 0, 0, 0
0, 40832, 0, 0, 0
0, 40593, 0, 0, 0
0, 40059, 0, 0, 0
0, 39346, 0, 0, 0
0, 38562, 0, 1, 0
0, 37786, 0, 0, 0
0, 37058, 0, 0, 0
0, 36382, 0, 0, 0
0, 35750, 0, 0, 0
0, 35161, 0, 0, 0
0, 34633, 0, 0, 0
0, 34198, 0, 0, 0
0, 33893, 0, 0, 0
0, 33740, 0, 0, 0
0, 33729, 0, 0, 0
0, 33816, 0, 0, 0
0, 33944, 0, 0, 0
0, 34057, 0, 0, 0
0, 34109, 0, 0, 0
0, 34068, 0, 0, 0
0, 33924, 0, 0, 0
0, 33683, 0, 0, 0
0, 33360, 0, 0, 0
0, 32978, 0, 0, 0
0, 32568, 0, 0, 0
0, 32154, 0, 0, 0
0, 31752, 0, 0, 0
0, 31377, 0, 0, 0
0, 31034, 0, 0, 0
0, 30726, 0, 0, 0
0, 30455, 0, 0, 0
0, 30223, 0, 0, 0
0, 30031, 0, 0, 0
0, 29877, 0, 0, 0
0, 29760, 0, 0, 0
0, 29676, 0, 0, 0
0, 29621, 0, 0, 0
0, 29593, 0, 0, 0
0, 29586, 0, 0, 0
0, 29599, 0, 0, 0
0, 29629, 0, 0, 0
0, 29670, 0, 0, 0
0, 29715, 0, 0, 0
0, 29758, 0, 0, 0
0, 29792, 0, 0, 0
0, 29810, 0, 0, 0
0, 29809, 0, 0, 0
0, 29788, 0, 0, 0
0, 29751, 0, 0, 0
0, 29700, 0, 0, 0
0, 29638, 0, 0, 0
0, 29569, 0, 0, 0
0, 29499, 0, 0, 0
0, 29428, 0, 0, 0
0, 29359, 0, 0, 0
0, 29296, 0, 0, 0
0, 29249, 0, 0, 0
0, 29236, 0, 0, 0
0, 29309, 0, 0, 0
0, 29571, 0, 0, 0
0, 30146, 0, 0, 0
0, 31125, 0, 0, 0
0, 32515, 0, 0, 0
0, 34215, 1, 0, 0
0, 36029, 0, 0, 0
0, 37715, 0, 0, 0
0, 39060, 0, 0, 0
0, 39944, 0, 0, 0
0, 40342, 0, 0, 0
0, 40308, 0, 0, 0
0, 39931, 0, 0, 0
0, 39323, 0, 0, 0
0, 38588, 0, 1, 0
0, 37811, 0, 0, 0
0, 37045, 0, 0, 0
0, 36308, 0, 0, 0
0, 35608, 0, 0, 0
0, 34950, 0, 0, 0
0, 34358, 0, 0, 0
0, 33868, 0, 0, 0
0, 33526, 0, 0, 0
0, 33362, 0, 0, 0
0, 33368, 0, 0, 0
0, 33503, 0, 0, 0
0, 33703, 0, 0, 0
0, 33900, 0, 0, 0
0, 34038, 0, 0, 0
0, 34080, 0, 0, 0
0, 34012, 0, 0, 0
0, 33836, 0, 0, 0
0, 33565, 0, 0, 0
0, 33218, 0, 0, 0
0, 32821, 0, 0, 0
0, 32398, 0, 0, 0
0, 31975, 0, 0, 0
0, 31571, 0, 0, 0
0, 31203, 0, 0, 0
0, 30878, 0, 0, 0
0, 30599, 0, 0, 0
0, 30365, 0, 0, 0
0, 30170, 0, 0, 0
0, 30011, 0, 0, 0
0, 29884, 0, 0, 0
0, 29791, 0, 0, 0
0, 29730, 0, 0, 0
0, 29701, 0, 0, 0
0, 29700, 0, 0, 0
0, 29722, 0, 0, 0
0, 29757, 0, 0, 0
0, 29801, 0, 0, 0
0, 29848, 0, 0, 0
0, 29892, 0, 0, 0
0, 29930, 0, 0, 0
0, 29959, 0, 0, 0
0, 29978, 0, 0, 0
0, 29984, 0, 0, 0
0, 29979, 0, 0, 0
0, 29968, 0, 0, 0
0, 29957, 0, 0, 0
0, 29945, 0, 0, 0
0, 29933, 0, 0, 0
0, 29922, 0, 0, 0
0, 29907, 0, 0, 0
0, 29887, 0, 0, 0
0, 29858, 0, 0, 0
0, 29817, 0, 0, 0
0, 29760, 0, 0, 0
0, 29685, 0, 0, 0
0, 29591, 0, 0, 0
0, 29488, 0, 0, 0
0, 29397, 0, 0, 0
0, 29372, 0, 0, 0
0, 29523, 0, 0, 0
0, 30005, 0, 0, 0
0, 30953, 0, 0, 0
0, 32418, 0, 0, 0
0, 34325, 1, 0, 0
0, 36477, 0, 0, 0
0, 38599, 0, 0, 0
0, 40417, 0, 0, 0
0, 41743, 0, 0, 0
0, 42507, 0, 0, 0
0, 42734, 0, 0, 0
0, 42510, 0, 0, 0
0, 41953, 0, 0, 0
0, 41193, 0, 0, 0
0, 40346, 0, 1, 0
0, 39500, 0, 0, 0
0, 38706, 0, 0, 0
0, 37977, 0, 0, 0
0, 37304, 0, 0, 0
0, 36676, 0, 0, 0
0, 36096, 0, 0, 0
0, 35588, 0, 0, 0
0, 35187, 0, 0, 0
0, 34920, 0, 0, 0
0, 34791, 0, 0, 0
0, 34775, 0, 0, 0
0, 34826, 0, 0, 0
0, 34894, 0, 0, 0
0, 34932, 0, 0, 0
0, 34907, 0, 0, 0
0, 34795, 0, 0, 0
0, 34586, 0, 0, 0
0, 34281, 0, 0, 0
0, 33896, 0, 0, 0
0, 33455, 0, 0, 0
0, 32985, 0, 0, 0
0, 32515, 0, 0, 0
0, 32070, 0, 0, 0
0, 31662, 0, 0, 0
0, 31295, 0, 0, 0
0, 30969, 0, 0, 0
0, 30682, 0, 0, 0
0, 30430, 0, 0, 0
0, 30209, 0, 0, 0
0, 30019, 0, 0, 0
0, 29860, 0, 0, 0
0, 29731, 0, 0, 0
0, 29628, 0, 0, 0
0, 29548, 0, 0, 0
0, 29493, 0, 0, 0
0, 29461, 0, 0, 0
0, 29451, 0, 0, 0
0, 29459, 0, 0, 0
0, 29483, 0, 0, 0
0, 29513, 0, 0, 0
0, 29543, 0, 0, 0
0, 29565, 0, 0, 0
0, 29575, 0, 0, 0
0, 29573, 0, 0, 0
0, 29559, 0, 0, 0
0, 29538, 0, 0, 0
0, 29513, 0, 0, 0
0, 29487, 0, 0, 0
0, 29462, 0, 0, 0
0, 29433, 0, 0, 0
0, 29400, 0, 0, 0
0, 29359, 0, 0, 0
0, 29306, 0, 0, 0
0, 29240, 0, 0, 0
0, 29166, 0, 0, 0
0, 29093, 0, 0, 0
0, 29034, 0, 0, 0
0, 29023, 0, 0, 0
0, 29134, 0, 0, 0
0, 29486, 0, 0, 0
0, 30206, 0, 0, 0
0, 31368, 0, 0, 0
0, 32948, 0, 0, 0
0, 34814, 1, 0, 0
0, 36737, 0, 0, 0
0, 38465, 0, 0, 0
0, 39798, 0, 0, 0
0, 40634, 0, 0, 0
0, 40970, 0, 0, 0
0, 40873, 0, 0, 0
0, 40446, 0, 0, 0
0, 39807, 0, 0, 0
0, 39065, 0, 1, 0
0, 38308, 0, 0, 0
0, 37591, 0, 0, 0
0, 36925, 0, 0, 0
0, 36300, 0, 0, 0
0, 35699, 0, 0, 0
0, 35119, 0, 0, 0
0, 34583, 0, 0, 0
0, 34131, 0, 0, 0
0, 33810, 0, 0, 0
0, 33649, 0, 0, 0
0, 33637, 0, 0, 0
0, 33735, 0, 0, 0
0, 33884, 0, 0, 0
0, 34021, 0, 0, 0
0, 34092, 0, 0, 0
0, 34062, 0, 0, 0
0, 33917, 0, 0, 0
0, 33662, 0, 0, 0
0, 33316, 0, 0, 0
0, 32906, 0, 0, 0
0, 32457, 0, 0, 0
0, 31997, 0, 0, 0
0, 31545, 0, 0, 0
0, 31120, 0, 0, 0
0, 30733, 0, 0, 0
0, 30393, 0, 0, 0
0, 30109, 0, 0, 0
0, 29882, 0, 0, 0
0, 29710, 0, 0, 0
0, 29585, 0, 0, 0
0, 29500, 0, 0, 0
0, 29442, 0, 0, 0
0, 29400, 0, 0, 0
0, 29366, 0, 0, 0
0, 29339, 0, 0, 0
0, 29319, 0, 0, 0
0, 29306, 0, 0, 0
0, 29307, 0, 0, 0
0, 29324, 0, 0, 0
0, 29353, 0, 0, 0
0, 29394, 0, 0, 0
0, 29440, 0, 0, 0
0, 29485, 0, 0, 0
0, 29521, 0, 0, 0
0, 29546, 0, 0, 0
0, 29557, 0, 0, 0
0, 29554, 0, 0, 0
0, 29542, 0, 0, 0
0, 29522, 0, 0, 0
0, 29493, 0, 0, 0
0, 29457, 0, 0, 0
0, 29416, 0, 0, 0
0, 29368, 0, 0, 0
0, 29320, 0, 0, 0
0, 29281, 0, 0, 0
0, 29289, 0, 0, 0
0, 29425, 0, 0, 0
0, 29821, 0, 0, 0
0, 30606, 0, 0, 0
0, 31844, 0, 0, 0
0, 33492, 0, 0, 0
0, 35387, 1, 0, 0
0, 37285, 0, 0, 0
0, 38932, 0, 0, 0
0, 40150, 0, 0, 0
0, 40861, 0, 0, 0
0, 41083, 0, 0, 0
0, 40891, 0, 0, 0
0, 40390, 0, 0, 0
0, 39690, 0, 0, 0
0, 38892, 0, 1, 0
0, 38076, 0, 0, 0
0, 37290, 0, 0, 0
0, 36546, 0, 0, 0
0, 35848, 0, 0, 0
0, 35203, 0, 0, 0
0, 34631, 0, 0, 0
0, 34169, 0, 0, 0
0, 33857, 0, 0, 0
0, 33714, 0, 0, 0
0, 33727, 0, 0, 0
0, 33853, 0, 0, 0
0, 34032, 0, 0, 0
0, 34207, 0, 0, 0
0, 34329, 0, 0, 0
0, 34365, 0, 0, 0
0, 34298, 0, 0, 0
0, 34125, 0, 0, 0
0, 33856, 0, 0, 0
0, 33508, 0, 0, 0
0, 33107, 0, 0, 0
0, 32679, 0, 0, 0
0, 32250, 0, 0, 0
0, 31836, 0, 0, 0
0, 31449, 0, 0, 0
0, 31096, 0, 0, 0
0, 30777, 0, 0, 0
0, 30493, 0, 0, 0
0, 30243, 0, 0, 0
0, 30034, 0, 0, 0
0, 29869, 0, 0, 0
0, 29752, 0, 0, 0
0, 29681, 0, 0, 0
0, 29653, 0, 0, 0
0, 29659, 0, 0, 0
0, 29689, 0, 0, 0
0, 29739, 0, 0, 0
0, 29804, 0, 0, 0
0, 29878, 0, 0, 0
0, 29957, 0, 0, 0
0, 30032, 0, 0, 0
0, 30101, 0, 0, 0
0, 30158, 0, 0, 0
0, 30204, 0, 0, 0
0, 30238, 0, 0, 0
0, 30258, 0, 0, 0
0, 30263, 0, 0, 0
0, 30253, 0, 0, 0
0, 30227, 0, 0, 0
0, 30189, 0, 0, 0
0, 30140, 0, 0, 0
0, 30084, 0, 0, 0
0, 30028, 0, 0, 0
0, 29985, 0, 0, 0
0, 30001, 0, 0, 0
0, 30171, 0, 0, 0
0, 30635, 0, 0, 0
0, 31516, 0, 0, 0
0, 32858, 0, 0, 0
0, 34592, 1, 0, 0
0, 36538, 0, 0, 0
0, 38444, 0, 0, 0
0, 40064, 0, 0, 0
0, 41232, 0, 0, 0
0, 41887, 0, 0, 0
0, 42059, 0, 0, 0
0, 41828, 0, 0, 0
0, 41302, 0, 0, 0
