0, 32770, 0, 1, 0
0, 32769, 0, 0, 0
0, 32769, 0, 0, 0
0, 32770, 0, 0, 0
0, 32769, 0, 0, 0
0, 32770, 0, 1, 0
0, 32770, 0, 0, 0
0, 32770, 0, 0, 0
0, 32770, 0, 0, 0
0, 32769, 0, 0, 0
0, 32767, 0, 0, 0
0, 32766, 0, 0, 0
0, 32764, 0, 0, 0
0, 32762, 0, 0, 0
0, 32760, 0, 0, 0
0, 32761, 0, 0, 0
0, 32763, 0, 0, 0
0, 32764, 0, 0, 0
0, 32765, 0, 0, 0
0, 32767, 0, 0, 0
0, 32766, 0, 0, 0
0, 32764, 0, 0, 0
0, 32762, 0, 0, 0
0, 32761, 0, 0, 0
0, 32761, 0, 0, 0
0, 32762, 0, 0, 0
0, 32763, 0, 0, 0
0, 32766, 0, 0, 0
0, 32767, 0, 0, 0
0, 32767, 0, 0, 0
0, 32766, 0, 0, 0
0, 32764, 0, 0, 0
0, 32762, 0, 0, 0
0, 32761, 0, 1, 0
0, 32760, 0, 0, 0
0, 32760, 0, 0, 0
0, 32764, 0, 0, 0
0, 32768, 0, 0, 0
0, 32772, 1, 0, 0
0, 32776, 0, 0, 0
0, 32777, 0, 0, 0
0, 32776, 0, 0, 0
0, 32772, 0, 0, 0
0, 32768, 0, 0, 0
0, 32765, 0, 0, 0
0, 32763, 0, 1, 0
0, 32763, 0, 0, 0
0, 32766, 0, 0, 0
0, 32769, 0, 0, 0
0, 32771, 0, 0, 0
0, 32773, 0, 0, 0
0, 32773, 0, 0, 0
0, 32771, 0, 0, 0
0, 32768, 0, 0, 0
0, 32766, 0, 0, 0
0, 32764, 0, 0, 0
0, 32766, 0, 0, 0
0, 32769, 0, 0, 0
0, 32773, 0, 0, 0
0, 32776, 0, 0, 0
0, 32778, 0, 0, 0
0, 32776, 0, 0, 0
0, 32773, 0, 0, 0
0, 32768, 0, 0, 0
0, 32765, 0, 1, 0
0, 32765, 0, 0, 0
0, 32769, 0, 0, 0
0, 32773, 0, 0, 0
0, 32775, 0, 0, 0
0, 32776, 0, 0, 0
0, 32776, 0, 0, 0
0, 32773, 0, 0, 0
0, 32771, 0, 0, 0
0, 32770, 0, 0, 0
0, 32769, 0, 0, 0
0, 32768, 0, 1, 0
0, 32767, 0, 0, 0
0, 32766, 0, 0, 0
0, 32766, 0, 0, 0
0, 32767, 0, 0, 0
0, 32768, 0, 0, 0
0, 32769, 0, 0, 0
0, 32770, 0, 0, 0
0, 32769, 0, 0, 0
0, 32766, 0, 0, 0
0, 32764, 0, 0, 0
0, 32763, 0, 0, 0
0, 32762, 0, 0, 0
0, 32762, 0, 0, 0
0, 32764, 0, 0, 0
0, 32764, 0, 0, 0
0, 32764, 0, 0, 0
0, 32763, 0, 0, 0
0, 32763, 0, 0, 0
0, 32763, 0, 0, 0
0, 32763, 0, 0, 0
0, 32762, 0, 0, 0
0, 32763, 0, 0, 0
0, 32764, 0, 0, 0
0, 32766, 0, 0, 0
0, 32768, 0, 0, 0
0, 32769, 0, 0, 0
0, 32769, 0, 0, 0
0, 32767, 0, 0, 0
0, 32765, 0, 0, 0
0, 32763, 0, 1, 0
0, 32762, 0, 0, 0
0, 32760, 0, 0, 0
0, 32759, 0, 0, 0
0, 32759, 0, 0, 0
0, 32761, 0, 0, 0
0, 32765, 0, 0, 0
0, 32771, 1, 0, 0
0, 32775, 0, 0, 0
0, 32777, 0, 0, 0
0, 32775, 0, 0, 0
0, 32771, 0, 0, 0
0, 32768, 0, 0, 0
0, 32767, 0, 0, 0
0, 32767, 0, 0, 0
0, 32768, 0, 0, 0
0, 32768, 0, 1, 0
0, 32768, 0, 0, 0
0, 32769, 0, 0, 0
0, 32770, 0, 0, 0
0, 32770, 0, 0, 0
0, 32770, 0, 0, 0
0, 32770, 0, 0, 0
0, 32769, 0, 0, 0
0, 32769, 0, 0, 0
0, 32770, 0, 0, 0
0, 32771, 0, 0, 0
0, 32772, 0, 0, 0
0, 32772, 0, 0, 0
0, 32772, 0, 0, 0
0, 32771, 0, 0, 0
0, 32769, 0, 1, 0
0, 32767, 0, 0, 0
0, 32764, 0, 0, 0
0, 32762, 0, 0, 0
0, 32761, 0, 0, 0
0, 32762, 0, 0, 0
0, 32765, 0, 0, 0
0, 32769, 0, 0, 0
0, 32772, 0, 0, 0
0, 32775, 0, 0, 0
0, 32775, 0, 0, 0
0, 32775, 0, 0, 0
0, 32773, 0, 0, 0
0, 32771, 0, 0, 0
0, 32770, 0, 0, 0
0, 32770, 0, 0, 0
0, 32771, 0, 0, 0
0, 32772, 0, 1, 0
0, 32772, 0, 0, 0
0, 32771, 0, 0, 0
0, 32770, 0, 0, 0
0, 32768, 0, 0, 0
0, 32767, 0, 0, 0
0, 32768, 0, 0, 0
0, 32769, 0, 0, 0
0, 32769, 0, 0, 0
0, 32770, 0, 0, 0
0, 32770, 0, 0, 0
0, 32767, 0, 0, 0
0, 32764, 0, 0, 0
0, 32761, 0, 0, 0
0, 32759, 0, 0, 0
0, 32759, 0, 0, 0
0, 32762, 0, 0, 0
0, 32766, 0, 0, 0
0, 32768, 0, 0, 0
0, 32768, 0, 0, 0
0, 32767, 0, 0, 0
0, 32766, 0, 0, 0
0, 32765, 0, 0, 0
0, 32765, 0, 0, 0
0, 32766, 0, 0, 0
0, 32767, 0, 0, 0
0, 32767, 0, 0, 0
0, 32767, 0, 0, 0
0, 32767, 0, 0, 0
0, 32768, 0, 0, 0
0, 32768, 0, 0, 0
0, 32767, 0, 0, 0
0, 32766, 0, 0, 0
0, 32766, 0, 0, 0
0, 32766, 0, 0, 0
0, 32766, 0, 0, 0
0, 32765, 0, 0, 0
0, 32763, 0, 0, 0
0, 32761, 0, 0, 0
0, 32761, 0, 0, 0
0, 32762, 0, 0, 0
0, 32765, 0, 0, 0
0, 32769, 0, 0, 0
0, 32773, 1, 0, 0
0, 32775, 0, 0, 0
0, 32777, 0, 0, 0
0, 32776, 0, 0, 0
0, 32775, 0, 0, 0
0, 32771, 0, 0, 0
0, 32768, 0, 0, 0
0, 32766, 0, 1, 0
0, 32767, 0, 0, 0
0, 32769, 0, 0, 0
0, 32772, 0, 0, 0
0, 32772, 0, 0, 0
0, 32769, 0, 0, 0
0, 32767, 0, 0, 0
0, 32765, 0, 0, 0
0, 32763, 0, 0, 0
0, 32763, 0, 0, 0
0, 32762, 0, 0, 0
0, 32762, 0, 0, 0
0, 32763, 0, 0, 0
0, 32765, 0, 0, 0
0, 32768, 0, 0, 0
0, 32770, 0, 0, 0
0, 32770, 0, 0, 0
0, 32769, 0, 0, 0
0, 32767, 0, 0, 0
0, 32765, 0, 0, 0
0, 32764, 0, 0, 0
0, 32763, 0, 0, 0
0, 32762, 0, 1, 0
0, 32763, 0, 0, 0
0, 32765, 0, 0, 0
0, 32768, 0, 0, 0
0, 32771, 0, 0, 0
0, 32774, 0, 0, 0
0, 32775, 0, 0, 0
0, 32775, 0, 0, 0
0, 32773, 0, 0, 0
0, 32771, 0, 0, 0
0, 32769, 0, 0, 0
0, 32768, 0, 0, 0
0, 32766, 0, 1, 0
0, 32765, 0, 0, 0
0, 32764, 0, 0, 0
0, 32764, 0, 0, 0
0, 32763, 0, 0, 0
0, 32763, 0, 0, 0
0, 32764, 0, 0, 0
0, 32766, 0, 0, 0
0, 32767, 0, 0, 0
0, 32769, 0, 0, 0
0, 32770, 0, 0, 0
0, 32770, 0, 0, 0
0, 32770, 0, 0, 0
0, 32770, 0, 0, 0
0, 32770, 0, 0, 0
0, 32771, 0, 0, 0
0, 32771, 0, 0, 0
0, 32770, 0, 0, 0
0, 32768, 0, 1, 0
0, 32766, 0, 0, 0
0, 32764, 0, 0, 0
0, 32763, 0, 0, 0
0, 32762, 0, 0, 0
0, 32762, 0, 0, 0
0, 32764, 0, 0, 0
0, 32767, 0, 0, 0
0, 32770, 0, 0, 0
0, 32772, 0, 0, 0
0, 32773, 0, 0, 0
0, 32771, 0, 0, 0
0, 32768, 0, 0, 0
0, 32765, 0, 0, 0
0, 32763, 0, 0, 0
0, 32762, 0, 1, 0
0, 32763, 0, 0, 0
0, 32764, 0, 0, 0
0, 32766, 0, 0, 0
0, 32768, 0, 0, 0
0, 32769, 0, 0, 0
0, 32769, 0, 0, 0
0, 32768, 0, 0, 0
0, 32766, 0, 0, 0
0, 32765, 0, 0, 0
0, 32765, 0, 0, 0
0, 32764, 0, 0, 0
0, 32766, 0, 0, 0
0, 32768, 0, 0, 0
0, 32769, 0, 0, 0
0, 32770, 0, 0, 0
0, 32771, 0, 0, 0
0, 32769, 0, 0, 0
0, 32767, 0, 0, 0
0, 32765, 0, 1, 0
0, 32763, 0, 0, 0
0, 32764, 0, 0, 0
0, 32765, 0, 0, 0
0, 32767, 0, 0, 0
0, 32769, 0, 0, 0
0, 32772, 0, 0, 0
0, 32774, 0, 0, 0
0, 32775, 0, 0, 0
0, 32776, 0, 0, 0
0, 32776, 0, 0, 0
0, 32776, 0, 0, 0
0, 32775, 0, 0, 0
0, 32776, 0, 0, 0
0, 32776, 0, 0, 0
0, 32776, 0, 1, 0
0, 32774, 0, 0, 0
0, 32774, 0, 0, 0
0, 32773, 0, 0, 0
0, 32773, 0, 0, 0
0, 32773, 0, 0, 0
0, 32772, 0, 0, 0
0, 32772, 0, 0, 0
0, 32770, 0, 0, 0
0, 32767, 0, 0, 0
0, 32765, 0, 0, 0
0, 32765, 0, 0, 0
0, 32765, 0, 0, 0
0, 32766, 0, 0, 0
0, 32766, 0, 0, 0
0, 32767, 0, 0, 0
0, 32766, 0, 0, 0
0, 32764, 0, 0, 0
0, 32763, 0, 0, 0
0, 32764, 0, 0, 0
0, 32763, 0, 0, 0
0, 32763, 0, 0, 0
0, 32763, 0, 0, 0
0, 32763, 0, 0, 0
0, 32763, 0, 0, 0
0, 32763, 0, 0, 0
0, 32764, 0, 0, 0
0, 32763, 0, 0, 0
0, 32762, 0, 0, 0
0, 32763, 0, 0, 0
0, 32765, 0, 0, 0
0, 32767, 0, 0, 0
0, 32770, 0, 0, 0
0, 32773, 0, 0, 0
0, 32776, 0, 0, 0
0, 32777, 0, 0, 0
0, 32774, 0, 0, 0
0, 32770, 0, 0, 0
0, 32767, 0, 1, 0
0, 32764, 0, 0, 0
0, 32763, 0, 0, 0
0, 32764, 0, 0, 0
0, 32767, 0, 0, 0
0, 32769, 0, 0, 0
0, 32770, 0, 0, 0
0, 32769, 0, 0, 0
0, 32768, 0, 0, 0
0, 32767, 0, 0, 0
0, 32767, 0, 0, 0
0, 32767, 0, 0, 0
0, 32767, 0, 0, 0
0, 32766, 0, 0, 0
0, 32765, 0, 0, 0
0, 32764, 0, 0, 0
0, 32764, 0, 0, 0
0, 32766, 0, 0, 0
0, 32767, 0, 0, 0
0, 32766, 0, 0, 0
0, 32763, 0, 0, 0
0, 32759, 0, 0, 0
0, 32755, 0, 0, 0
0, 32754, 0, 0, 0
0, 32757, 0, 0, 0
0, 32761, 0, 0, 0
0, 32765, 1, 0, 0
0, 32769, 0, 0, 0
0, 32771, 0, 0, 0
0, 32771, 0, 0, 0
0, 32770, 0, 0, 0
0, 32769, 0, 0, 0
0, 32768, 0, 0, 0
0, 32767, 0, 0, 0
0, 32767, 0, 0, 0
0, 32768, 0, 0, 0
0, 32770, 0, 1, 0
0, 32771, 0, 0, 0
0, 32771, 0, 0, 0
0, 32771, 0, 0, 0
0, 32770, 0, 0, 0
0, 32769, 0, 0, 0
0, 32769, 0, 0, 0
0, 32769, 0, 0, 0
0, 32769, 0, 0, 0
0, 32769, 0, 0, 0
0, 32769, 0, 0, 0
0, 32770, 0, 0, 0
0, 32772, 0, 0, 0
0, 32774, 0, 0, 0
0, 32776, 0, 0, 0
0, 32776, 0, 0, 0
0, 32774, 0, 0, 0
0, 32771, 0, 0, 0
0, 32768, 0, 1, 0
0, 32763, 0, 0, 0
0, 32760, 0, 0, 0
0, 32759, 0, 0, 0
0, 32761, 0, 0, 0
0, 32763, 0, 0, 0
0, 32766, 0, 0, 0
0, 32768, 0, 0, 0
0, 32769, 0, 0, 0
0, 32769, 0, 0, 0
0, 32767, 0, 0, 0
0, 32766, 0, 0, 0
0, 32766, 0, 0, 0
0, 32765, 0, 0, 0
0, 32764, 0, 0, 0
0, 32765, 0, 0, 0
0, 32768, 0, 0, 0
0, 32771, 0, 0, 0
0, 32774, 0, 0, 0
0, 32775, 0, 0, 0
0, 32774, 0, 0, 0
0, 32770, 0, 0, 0
0, 32767, 0, 1, 0
0, 32766, 0, 0, 0
0, 32767, 0, 0, 0
0, 32770, 0, 0, 0
0, 32772, 0, 0, 0
0, 32772, 0, 0, 0
0, 32770, 0, 0, 0
0, 32768, 0, 0, 0
0, 32766, 0, 0, 0
0, 32765, 0, 0, 0
0, 32765, 0, 0, 0
0, 32764, 0, 0, 0
0, 32762, 0, 0, 0
0, 32761, 0, 0, 0
0, 32763, 0, 0, 0
0, 32765, 0, 0, 0
0, 32769, 0, 0, 0
0, 32773, 1, 0, 0
0, 32774, 0, 0, 0
0, 32770, 0, 0, 0
0, 32764, 0, 0, 0
0, 32757, 0, 0, 0
0, 32755, 0, 0, 0
0, 32755, 0, 0, 0
0, 32758, 0, 0, 0
0, 32762, 0, 0, 0
0, 32767, 0, 0, 0
0, 32770, 0, 0, 0
0, 32773, 0, 0, 0
0, 32775, 0, 0, 0
0, 32776, 0, 0, 0
0, 32774, 0, 0, 0
0, 32772, 0, 0, 0
0, 32769, 0, 0, 0
0, 32767, 0, 0, 0
0, 32765, 0, 1, 0
0, 32764, 0, 0, 0
0, 32764, 0, 0, 0
0, 32765, 0, 0, 0
0, 32767, 0, 0, 0
0, 32770, 0, 0, 0
0, 32772, 0, 0, 0
0, 32773, 0, 0, 0
0, 32772, 0, 0, 0
0, 32770, 0, 0, 0
0, 32767, 0, 0, 0
0, 32765, 0, 0, 0
0, 32764, 0, 0, 0
0, 32764, 0, 1, 0
0, 32764, 0, 0, 0
0, 32765, 0, 0, 0
0, 32766, 0, 0, 0
0, 32766, 0, 0, 0
0, 32766, 0, 0, 0
0, 32766, 0, 0, 0
0, 32765, 0, 0, 0
0, 32764, 0, 0, 0
0, 32765, 0, 0, 0
0, 32769, 0, 0, 0
0, 32771, 0, 0, 0
0, 32773, 0, 0, 0
0, 32774, 0, 0, 0
0, 32774, 0, 0, 0
0, 32774, 0, 0, 0
0, 32774, 0, 0, 0
0, 32774, 0, 0, 0
0, 32776, 0, 0, 0
0, 32776, 0, 0, 0
0, 32774, 0, 1, 0
0, 32771, 0, 0, 0
0, 32770, 0, 0, 0
0, 32768, 0, 0, 0
0, 32766, 0, 0, 0
0, 32763, 0, 0, 0
0, 32760, 0, 0, 0
0, 32759, 0, 0, 0
0, 32758, 0, 0, 0
0, 32758, 0, 0, 0
0, 32759, 0, 0, 0
0, 32761, 0, 0, 0
0, 32761, 0, 0, 0
0, 32762, 0, 0, 0
0, 32763, 0, 0, 0
0, 32763, 0, 0, 0
0, 32764, 0, 0, 0
0, 32765, 0, 0, 0
0, 32765, 0, 0, 0
0, 32764, 0, 0, 0
0, 32763, 0, 0, 0
0, 32762, 0, 0, 0
0, 32761, 0, 0, 0
0, 32761, 0, 1, 0
0, 32763, 0, 0, 0
0, 32764, 0, 0, 0
0, 32765, 0, 0, 0
0, 32766, 0, 0, 0
0, 32767, 0, 0, 0
0, 32768, 0, 0, 0
0, 32769, 0, 0, 0
0, 32769, 0, 0, 0
0, 32769, 0, 0, 0
0, 32769, 0, 0, 0
0, 32769, 0, 0, 0
0, 32769, 0, 0, 0
0, 32769, 0, 1, 0
0, 32767, 0, 0, 0
0, 32764, 0, 0, 0
0, 32762, 0, 0, 0
0, 32761, 0, 0, 0
0, 32762, 0, 0, 0
0, 32765, 0, 0, 0
0, 32769, 0, 0, 0
0, 32771, 0, 0, 0
0, 32772, 0, 0, 0
0, 32771, 0, 0, 0
0, 32769, 0, 0, 0
0, 32767, 0, 0, 0
0, 32767, 0, 0, 0
0, 32769, 0, 0, 0
0, 32771, 0, 0, 0
0, 32773, 0, 0, 0
0, 32773, 0, 0, 0
0, 32771, 0, 0, 0
0, 32770, 0, 0, 0
0, 32770, 0, 0, 0
0, 32770, 0, 0, 0
0, 32770, 0, 0, 0
0, 32769, 0, 0, 0
0, 32767, 0, 0, 0
0, 32765, 0, 0, 0
0, 32764, 0, 0, 0
0, 32765, 0, 0, 0
0, 32769, 0, 0, 0
0, 32773, 0, 0, 0
0, 32775, 0, 0, 0
0, 32775, 0, 0, 0
0, 32773, 0, 0, 0
0, 32768, 0, 0, 0
0, 32766, 0, 0, 0
0, 32766, 0, 0, 0
0, 32767, 0, 0, 0
0, 32768, 0, 0, 0
0, 32768, 0, 0, 0
0, 32766, 0, 0, 0
0, 32765, 0, 0, 0
0, 32765, 0, 0, 0
0, 32767, 0, 0, 0
0, 32768, 0, 0, 0
0, 32768, 0, 0, 0
0, 32767, 0, 0, 0
0, 32765, 0, 0, 0
0, 32763, 0, 0, 0
0, 32763, 0, 0, 0
0, 32765, 0, 0, 0
0, 32767, 0, 0, 0
0, 32769, 0, 0, 0
0, 32771, 0, 0, 0
0, 32771, 0, 0, 0
0, 32770, 0, 0, 0
0, 32770, 0, 0, 0
0, 32770, 0, 0, 0
0, 32770, 0, 0, 0
0, 32769, 0, 0, 0
0, 32770, 0, 0, 0
0, 32771, 0, 1, 0
0, 32772, 0, 0, 0
0, 32773, 0, 0, 0
0, 32774, 0, 0, 0
0, 32773, 0, 0, 0
0, 32770, 0, 0, 0
0, 32767, 0, 0, 0
0, 32765, 0, 0, 0
0, 32765, 0, 0, 0
0, 32765, 0, 0, 0
0, 32766, 0, 0, 0
0, 32766, 0, 0, 0
0, 32766, 0, 0, 0
0, 32766, 0, 0, 0
0, 32766, 0, 0, 0
0, 32765, 0, 0, 0
0, 32764, 0, 0, 0
0, 32763, 0, 0, 0
0, 32762, 0, 0, 0
0, 32763, 0, 0, 0
0, 32768, 0, 0, 0
0, 32772, 1, 0, 0
0, 32774, 0, 0, 0
0, 32776, 0, 0, 0
0, 32775, 0, 0, 0
0, 32772, 0, 0, 0
0, 32768, 0, 0, 0
0, 32766, 0, 0, 0
0, 32765, 0, 1, 0
0, 32764, 0, 0, 0
0, 32763, 0, 0, 0
0, 32764, 0, 0, 0
0, 32765, 0, 0, 0
0, 32766, 0, 0, 0
0, 32768, 0, 0, 0
0, 32770, 0, 0, 0
0, 32770, 0, 0, 0
0, 32768, 0, 0, 0
0, 32766, 0, 0, 0
0, 32764, 0, 0, 0
0, 32762, 0, 0, 0
0, 32761, 0, 1, 0
0, 32762, 0, 0, 0
0, 32764, 0, 0, 0
0, 32765, 0, 0, 0
0, 32766, 0, 0, 0
0, 32767, 0, 0, 0
0, 32766, 0, 0, 0
0, 32765, 0, 0, 0
0, 32763, 0, 0, 0
0, 32762, 0, 0, 0
0, 32762, 0, 0, 0
0, 32764, 0, 0, 0
0, 32767, 0, 0, 0
0, 32770, 0, 0, 0
0, 32772, 0, 0, 0
0, 32772, 0, 0, 0
0, 32771, 0, 0, 0
0, 32769, 0, 0, 0
0, 32766, 0, 0, 0
0, 32762, 0, 1, 0
0, 32760, 0, 0, 0
0, 32762, 0, 0, 0
0, 32765, 0, 0, 0
0, 32769, 0, 0, 0
0, 32774, 1, 0, 0
0, 32776, 0, 0, 0
0, 32775, 0, 0, 0
0, 32773, 0, 0, 0
0, 32771, 0, 0, 0
0, 32768, 0, 0, 0
0, 32766, 0, 0, 0
0, 32766, 0, 0, 0
0, 32768, 0, 1, 0
0, 32771, 0, 0, 0
0, 32775, 0, 0, 0
0, 32778, 0, 0, 0
0, 32777, 0, 0, 0
0, 32775, 0, 0, 0
0, 32772, 0, 0, 0
0, 32769, 0, 0, 0
0, 32765, 0, 0, 0
0, 32763, 0, 0, 0
0, 32762, 0, 0, 0
0, 32761, 0, 0, 0
0, 32760, 0, 0, 0
0, 32760, 0, 0, 0
0, 32762, 0, 0, 0
0, 32763, 0, 0, 0
0, 32765, 0, 0, 0
0, 32767, 0, 0, 0
0, 32769, 0, 0, 0
0, 32770, 0, 0, 0
0, 32769, 0, 0, 0
0, 32766, 0, 0, 0
0, 32763, 0, 0, 0
0, 32761, 0, 0, 0
0, 32761, 0, 0, 0
0, 32762, 0, 1, 0
0, 32765, 0, 0, 0
0, 32767, 0, 0, 0
0, 32767, 0, 0, 0
0, 32766, 0, 0, 0
0, 32765, 0, 0, 0
0, 32765, 0, 0, 0
0, 32766, 0, 0, 0
0, 32767, 0, 0, 0
0, 32768, 0, 0, 0
0, 32769, 0, 0, 0
0, 32770, 0, 0, 0
0, 32770, 0, 0, 0
0, 32770, 0, 0, 0
0, 32770, 0, 0, 0
0, 32770, 0, 0, 0
0, 32769, 0, 0, 0
0, 32768, 0, 1, 0
0, 32770, 0, 0, 0
0, 32772, 0, 0, 0
0, 32775, 0, 0, 0
0, 32776, 0, 0, 0
0, 32777, 0, 0, 0
0, 32776, 0, 0, 0
0, 32775, 0, 0, 0
0, 32773, 0, 0, 0
0, 32771, 0, 0, 0
0, 32768, 0, 0, 0
0, 32765, 0, 0, 0
0, 32763, 0, 0, 0
0, 32764, 0, 0, 0
0, 32767, 0, 0, 0
0, 32771, 0, 0, 0
0, 32773, 0, 0, 0
0, 32773, 0, 0, 0
0, 32771, 0, 0, 0
0, 32767, 0, 0, 0
0, 32764, 0, 0, 0
0, 32763, 0, 0, 0
0, 32763, 0, 0, 0
0, 32763, 0, 0, 0
0, 32764, 0, 0, 0
0, 32766, 0, 0, 0
0, 32768, 0, 0, 0
0, 32770, 0, 0, 0
0, 32771, 0, 0, 0
0, 32772, 0, 0, 0
0, 32771, 0, 0, 0
0, 32769, 0, 0, 0
0, 32766, 0, 0, 0
0, 32764, 0, 0, 0
0, 32763, 0, 1, 0
0, 32764, 0, 0, 0
0, 32767, 0, 0, 0
0, 32771, 0, 0, 0
0, 32774, 0, 0, 0
0, 32776, 0, 0, 0
0, 32777, 0, 0, 0
0, 32777, 0, 0, 0
0, 32776, 0, 0, 0
0, 32775, 0, 0, 0
0, 32772, 0, 0, 0
0, 32770, 0, 0, 0
0, 32767, 0, 1, 0
0, 32766, 0, 0, 0
0, 32766, 0, 0, 0
0, 32768, 0, 0, 0
0, 32770, 0, 0, 0
0, 32771, 0, 0, 0
0, 32769, 0, 0, 0
0, 32766, 0, 0, 0
0, 32763, 0, 0, 0
0, 32761, 0, 0, 0
0, 32762, 0, 0, 0
0, 32767, 0, 0, 0
0, 32771, 1, 0, 0
0, 32772, 0, 0, 0
0, 32772, 0, 0, 0
0, 32770, 0, 0, 0
0, 32767, 0, 0, 0
0, 32764, 0, 0, 0
0, 32762, 0, 0, 0
0, 32762, 0, 0, 0
0, 32763, 0, 1, 0
0, 32763, 0, 0, 0
0, 32765, 0, 0, 0
0, 32768, 0, 0, 0
0, 32770, 0, 0, 0
0, 32772, 0, 0, 0
0, 32773, 0, 0, 0
0, 32771, 0, 0, 0
0, 32768, 0, 0, 0
0, 32765, 0, 0, 0
0, 32763, 0, 0, 0
0, 32765, 0, 0, 0
0, 32766, 0, 0, 0
0, 32768, 0, 0, 0
0, 32770, 0, 0, 0
0, 32772, 0, 0, 0
0, 32771, 0, 0, 0
0, 32771, 0, 0, 0
0, 32770, 0, 0, 0
0, 32768, 0, 0, 0
0, 32766, 0, 0, 0
0, 32765, 0, 1, 0
0, 32765, 0, 0, 0
0, 32766, 0, 0, 0
0, 32767, 0, 0, 0
0, 32766, 0, 0, 0
0, 32763, 0, 0, 0
0, 32761, 0, 0, 0
0, 32759, 0, 0, 0
0, 32758, 0, 0, 0
0, 32756, 0, 0, 0
0, 32756, 0, 0, 0
0, 32755, 0, 0, 0
0, 32754, 0, 0, 0
0, 32755, 0, 0, 0
0, 32758, 0, 0, 0
0, 32761, 0, 0, 0
0, 32766, 1, 0, 0
0, 32769, 0, 0, 0
0, 32771, 0, 0, 0
0, 32773, 0, 0, 0
0, 32773, 0, 0, 0
0, 32772, 0, 0, 0
0, 32770, 0, 0, 0
0, 32769, 0, 0, 0
0, 32769, 0, 0, 0
0, 32771, 0, 1, 0
0, 32774, 0, 0, 0
0, 32777, 0, 0, 0
0, 32776, 0, 0, 0
0, 32773, 0, 0, 0
0, 32768, 0, 0, 0
0, 32763, 0, 0, 0
0, 32759, 0, 0, 0
0, 32757, 0, 0, 0
0, 32759, 0, 0, 0
0, 32762, 0, 0, 0
0, 32766, 0, 0, 0
0, 32770, 1, 0, 0
0, 32773, 0, 0, 0
0, 32773, 0, 0, 0
0, 32772, 0, 0, 0
0, 32770, 0, 0, 0
0, 32769, 0, 0, 0
0, 32769, 0, 0, 0
0, 32769, 0, 0, 0
0, 32768, 0, 0, 0
0, 32768, 0, 1, 0
0, 32766, 0, 0, 0
0, 32765, 0, 0, 0
0, 32764, 0, 0, 0
0, 32764, 0, 0, 0
0, 32765, 0, 0, 0
0, 32766, 0, 0, 0
0, 32767, 0, 0, 0
0, 32770, 0, 0, 0
0, 32772, 0, 0, 0
0, 32772, 0, 0, 0
0, 32772, 0, 0, 0
0, 32771, 0, 0, 0
0, 32769, 0, 0, 0
0, 32768, 0, 0, 0
0, 32767, 0, 0, 0
0, 32766, 0, 1, 0
0, 32765, 0, 0, 0
0, 32764, 0, 0, 0
0, 32763, 0, 0, 0
0, 32763, 0, 0, 0
0, 32763, 0, 0, 0
0, 32765, 0, 0, 0
0, 32766, 0, 0, 0
0, 32768, 0, 0, 0
0, 32769, 0, 0, 0
0, 32770, 0, 0, 0
0, 32771, 0, 0, 0
0, 32771, 0, 0, 0
0, 32768, 0, 0, 0
0, 32767, 0, 0, 0
0, 32767, 0, 0, 0
0, 32767, 0, 0, 0
0, 32766, 0, 1, 0
0, 32766, 0, 0, 0
0, 32766, 0, 0, 0
0, 32765, 0, 0, 0
0, 32765, 0, 0, 0
0, 32766, 0, 0, 0
0, 32768, 0, 0, 0
0, 32769, 0, 0, 0
0, 32769, 0, 0, 0
0, 32768, 0, 0, 0
0, 32768, 0, 0, 0
0, 32767, 0, 0, 0
0, 32766, 0, 0, 0
0, 32766, 0, 0, 0
0, 32768, 0, 0, 0
0, 32769, 0, 0, 0
0, 32770, 0, 0, 0
0, 32770, 0, 0, 0
0, 32770, 0, 0, 0
0, 32768, 0, 0, 0
0, 32767, 0, 0, 0
0, 32766, 0, 0, 0
0, 32765, 0, 0, 0
0, 32766, 0, 0, 0
0, 32766, 0, 0, 0
0, 32767, 0, 0, 0
0, 32768, 0, 0, 0
0, 32769, 0, 0, 0
0, 32770, 0, 0, 0
0, 32772, 0, 0, 0
0, 32772, 0, 0, 0
0, 32773, 0, 0, 0
0, 32774, 0, 0, 0
0, 32774, 0, 0, 0
0, 32773, 0, 0, 0
0, 32772, 0, 0, 0
0, 32770, 0, 1, 0
0, 32769, 0, 0, 0
0, 32767, 0, 0, 0
0, 32765, 0, 0, 0
0, 32763, 0, 0, 0
0, 32761, 0, 0, 0
0, 32762, 0, 0, 0
0, 32764, 0, 0, 0
0, 32766, 0, 0, 0
0, 32768, 0, 0, 0
0, 32769, 0, 0, 0
0, 32768, 0, 0, 0
0, 32765, 0, 0, 0
0, 32762, 0, 0, 0
0, 32761, 0, 0, 0
0, 32762, 0, 0, 0
0, 32766, 0, 0, 0
0, 32769, 0, 0, 0
0, 32771, 0, 0, 0
0, 32769, 0, 0, 0
0, 32768, 0, 0, 0
0, 32767, 0, 0, 0
0, 32766, 0, 0, 0
0, 32766, 0, 0, 0
0, 32766, 0, 0, 0
0, 32765, 0, 1, 0
0, 32764, 0, 0, 0
0, 32763, 0, 0, 0
0, 32763, 0, 0, 0
0, 32765, 0, 0, 0
0, 32767, 0, 0, 0
0, 32769, 0, 0, 0
0, 32770, 0, 0, 0
0, 32771, 0, 0, 0
0, 32771, 0, 0, 0
0, 32772, 0, 0, 0
0, 32773, 0, 0, 0
0, 32774, 0, 0, 0
0, 32775, 0, 0, 0
0, 32775, 0, 0, 0
0, 32773, 0, 0, 0
0, 32769, 0, 1, 0
0, 32762, 0, 0, 0
0, 32757, 0, 0, 0
0, 32753, 0, 0, 0
0, 32753, 0, 0, 0
0, 32758, 0, 0, 0
0, 32765, 1, 0, 0
0, 32772, 0, 0, 0
0, 32777, 0, 0, 0
0, 32779, 0, 0, 0
0, 32777, 0, 0, 0
0, 32774, 0, 0, 0
0, 32770, 0, 0, 0
0, 32767, 0, 0, 0
0, 32764, 0, 0, 0
0, 32762, 0, 0, 0
0, 32761, 0, 1, 0
0, 32762, 0, 0, 0
0, 32764, 0, 0, 0
0, 32767, 0, 0, 0
0, 32769, 0, 0, 0
0, 32770, 0, 0, 0
0, 32768, 0, 0, 0
0, 32764, 0, 0, 0
0, 32760, 0, 0, 0
0, 32758, 0, 0, 0
0, 32759, 0, 0, 0
0, 32763, 0, 0, 0
0, 32768, 1, 0, 0
0, 32771, 0, 0, 0
0, 32770, 0, 0, 0
0, 32768, 0, 0, 0
0, 32765, 0, 0, 0
0, 32764, 0, 0, 0
0, 32765, 0, 0, 0
0, 32770, 0, 0, 0
0, 32773, 0, 0, 0
0, 32777, 0, 0, 0
0, 32780, 0, 0, 0
0, 32781, 0, 0, 0
0, 32777, 0, 0, 0
0, 32773, 0, 0, 0
0, 32768, 0, 1, 0
0, 32764, 0, 0, 0
0, 32762, 0, 0, 0
0, 32763, 0, 0, 0
0, 32765, 0, 0, 0
0, 32767, 0, 0, 0
0, 32768, 0, 0, 0
0, 32768, 0, 0, 0
0, 32767, 0, 0, 0
0, 32767, 0, 0, 0
0, 32768, 0, 0, 0
0, 32769, 0, 0, 0
0, 32769, 0, 0, 0
0, 32768, 0, 0, 0
0, 32766, 0, 0, 0
0, 32764, 0, 0, 0
0, 32762, 0, 1, 0
0, 32761, 0, 0, 0
0, 32763, 0, 0, 0
0, 32765, 0, 0, 0
0, 32767, 0, 0, 0
0, 32768, 0, 0, 0
0, 32768, 0, 0, 0
0, 32767, 0, 0, 0
0, 32765, 0, 0, 0
0, 32764, 0, 0, 0
0, 32765, 0, 0, 0
0, 32768, 0, 0, 0
0, 32772, 0, 0, 0
0, 32776, 1, 0, 0
0, 32777, 0, 0, 0
0, 32774, 0, 0, 0
0, 32770, 0, 0, 0
0, 32766, 0, 1, 0
0, 32762, 0, 0, 0
0, 32761, 0, 0, 0
0, 32762, 0, 0, 0
0, 32764, 0, 0, 0
0, 32764, 0, 0, 0
0, 32764, 0, 0, 0
0, 32765, 0, 0, 0
0, 32766, 0, 0, 0
0, 32767, 0, 0, 0
0, 32767, 0, 0, 0
0, 32768, 0, 0, 0
0, 32768, 0, 0, 0
0, 32768, 0, 0, 0
0, 32769, 0, 0, 0
0, 32772, 0, 0, 0
0, 32775, 0, 0, 0
0, 32777, 0, 0, 0
0, 32777, 0, 0, 0
0, 32776, 0, 0, 0
0, 32774, 0, 0, 0
0, 32770, 0, 1, 0
0, 32765, 0, 0, 0
0, 32762, 0, 0, 0
0, 32759, 0, 0, 0
0, 32756, 0, 0, 0
0, 32756, 0, 0, 0
0, 32758, 0, 0, 0
0, 32759, 0, 0, 0
0, 32761, 0, 0, 0
0, 32764, 0, 0, 0
0, 32766, 0, 0, 0
0, 32765, 0, 0, 0
0, 32764, 0, 0, 0
0, 32764, 0, 0, 0
0, 32764, 0, 0, 0
0, 32766, 0, 0, 0
0, 32770, 0, 0, 0
0, 32774, 1, 0, 0
0, 32776, 0, 0, 0
0, 32777, 0, 0, 0
0, 32774, 0, 0, 0
0, 32771, 0, 0, 0
0, 32770, 0, 1, 0
0, 32770, 0, 0, 0
0, 32771, 0, 0, 0
0, 32774, 0, 0, 0
0, 32776, 0, 0, 0
0, 32777, 0, 0, 0
0, 32778, 0, 0, 0
0, 32779, 0, 0, 0
0, 32777, 0, 0, 0
0, 32775, 0, 0, 0
0, 32773, 0, 0, 0
0, 32771, 0, 0, 0
0, 32767, 0, 0, 0
0, 32765, 0, 0, 0
0, 32765, 0, 0, 0
0, 32767, 0, 0, 0
0, 32768, 0, 0, 0
0, 32769, 0, 0, 0
0, 32770, 0, 0, 0
0, 32769, 0, 0, 0
0, 32769, 0, 0, 0
0, 32769, 0, 0, 0
0, 32768, 0, 0, 0
0, 32767, 0, 0, 0
0, 32766, 0, 0, 0
0, 32764, 0, 0, 0
0, 32762, 0, 0, 0
0, 32762, 0, 0, 0
0, 32762, 0, 0, 0
0, 32762, 0, 0, 0
0, 32763, 0, 0, 0
0, 32763, 0, 0, 0
0, 32763, 0, 0, 0
0, 32762, 0, 0, 0
0, 32763, 0, 0, 0
0, 32763, 0, 0, 0
0, 32765, 0, 0, 0
0, 32767, 0, 0, 0
0, 32770, 0, 0, 0
0, 32772, 0, 0, 0
0, 32772, 0, 0, 0
0, 32770, 0, 0, 0
0, 32768, 0, 0, 0
0, 32765, 0, 0, 0
0, 32762, 0, 1, 0
0, 32761, 0, 0, 0
0, 32761, 0, 0, 0
0, 32762, 0, 0, 0
0, 32763, 0, 0, 0
0, 32765, 0, 0, 0
0, 32766, 0, 0, 0
0, 32768, 0, 0, 0
0, 32770, 0, 0, 0
0, 32772, 0, 0, 0
0, 32772, 0, 0, 0
0, 32773, 0, 0, 0
0, 32773, 0, 0, 0
0, 32773, 0, 0, 0
0, 32773, 0, 0, 0
0, 32774, 0, 0, 0
0, 32774, 0, 0, 0
0, 32775, 0, 0, 0
0, 32775, 0, 1, 0
0, 32774, 0, 0, 0
0, 32772, 0, 0, 0
0, 32769, 0, 0, 0
0, 32766, 0, 0, 0
0, 32762, 0, 0, 0
0, 32759, 0, 0, 0
0, 32756, 0, 0, 0
0, 32755, 0, 0, 0
0, 32758, 0, 0, 0
0, 32762, 0, 0, 0
0, 32768, 1, 0, 0
0, 32773, 0, 0, 0
0, 32775, 0, 0, 0
0, 32775, 0, 0, 0
0, 32773, 0, 0, 0
0, 32771, 0, 0, 0
0, 32770, 0, 0, 0
0, 32771, 0, 0, 0
0, 32772, 0, 0, 0
0, 32772, 0, 0, 0
0, 32773, 0, 1, 0
0, 32773, 0, 0, 0
0, 32773, 0, 0, 0
0, 32772, 0, 0, 0
0, 32771, 0, 0, 0
0, 32770, 0, 0, 0
0, 32769, 0, 0, 0
0, 32768, 0, 0, 0
0, 32767, 0, 0, 0
0, 32767, 0, 0, 0
0, 32766, 0, 0, 0
0, 32766, 0, 0, 0
0, 32766, 0, 0, 0
0, 32767, 0, 0, 0
0, 32767, 0, 0, 0
0, 32766, 0, 0, 0
0, 32764, 0, 0, 0
0, 32761, 0, 0, 0
0, 32759, 0, 0, 0
0, 32760, 0, 0, 0
0, 32761, 0, 0, 0
0, 32763, 0, 0, 0
0, 32766, 0, 0, 0
0, 32768, 0, 0, 0
0, 32768, 0, 0, 0
0, 32768, 0, 0, 0
0, 32767, 0, 0, 0
0, 32766, 0, 0, 0
0, 32765, 0, 0, 0
0, 32764, 0, 0, 0
0, 32763, 0, 0, 0
0, 32763, 0, 1, 0
0, 32765, 0, 0, 0
0, 32767, 0, 0, 0
0, 32769, 0, 0, 0
0, 32771, 0, 0, 0
0, 32772, 0, 0, 0
0, 32771, 0, 0, 0
0, 32770, 0, 0, 0
0, 32769, 0, 0, 0
0, 32768, 0, 0, 0
0, 32768, 0, 0, 0
0, 32767, 0, 1, 0
0, 32766, 0, 0, 0
0, 32765, 0, 0, 0
0, 32763, 0, 0, 0
0, 32761, 0, 0, 0
0, 32762, 0, 0, 0
0, 32762, 0, 0, 0
0, 32763, 0, 0, 0
0, 32765, 0, 0, 0
0, 32766, 0, 0, 0
0, 32766, 0, 0, 0
0, 32765, 0, 0, 0
0, 32764, 0, 0, 0
0, 32763, 0, 0, 0
0, 32763, 0, 0, 0
0, 32762, 0, 0, 0
0, 32762, 0, 0, 0
0, 32762, 0, 0, 0
0, 32763, 0, 0, 0
0, 32764, 0, 0, 0
0, 32765, 0, 0, 0
0, 32766, 0, 0, 0
0, 32768, 0, 0, 0
0, 32768, 0, 0, 0
0, 32767, 0, 0, 0
0, 32765, 0, 0, 0
0, 32763, 0, 0, 0
0, 32761, 0, 1, 0
0, 32759, 0, 0, 0
0, 32759, 0, 0, 0
0, 32762, 0, 0, 0
0, 32765, 0, 0, 0
0, 32768, 0, 0, 0
0, 32771, 0, 0, 0
0, 32773, 0, 0, 0
0, 32773, 0, 0, 0
0, 32772, 0, 0, 0
0, 32771, 0, 0, 0
0, 32769, 0, 0, 0
0, 32767, 0, 0, 0
0, 32764, 0, 1, 0
0, 32763, 0, 0, 0
0, 32764, 0, 0, 0
0, 32767, 0, 0, 0
0, 32771, 0, 0, 0
0, 32775, 1, 0, 0
0, 32777, 0, 0, 0
0, 32776, 0, 0, 0
0, 32772, 0, 0, 0
0, 32768, 0, 0, 0
0, 32765, 0, 0, 0
0, 32764, 0, 1, 0
0, 32765, 0, 0, 0
0, 32768, 0, 0, 0
0, 32771, 0, 0, 0
0, 32774, 0, 0, 0
0, 32775, 0, 0, 0
0, 32773, 0, 0, 0
0, 32770, 0, 0, 0
0, 32768, 0, 0, 0
0, 32767, 0, 0, 0
0, 32766, 0, 0, 0
0, 32767, 0, 1, 0
0, 32769, 0, 0, 0
0, 32771, 0, 0, 0
0, 32772, 0, 0, 0
0, 32774, 0, 0, 0
0, 32776, 0, 0, 0
0, 32775, 0, 0, 0
0, 32772, 0, 0, 0
0, 32767, 0, 0, 0
0, 32761, 0, 0, 0
0, 32758, 0, 0, 0
0, 32759, 0, 0, 0
0, 32762, 0, 0, 0
0, 32768, 1, 0, 0
0, 32772, 0, 0, 0
0, 32773, 0, 0, 0
0, 32773, 0, 0, 0
0, 32773, 0, 0, 0
0, 32772, 0, 0, 0
0, 32771, 0, 0, 0
0, 32769, 0, 0, 0
0, 32767, 0, 0, 0
0, 32764, 0, 0, 0
0, 32762, 0, 1, 0
0, 32762, 0, 0, 0
0, 32762, 0, 0, 0
0, 32762, 0, 0, 0
0, 32763, 0, 0, 0
0, 32765, 0, 0, 0
0, 32764, 0, 0, 0
0, 32762, 0, 0, 0
0, 32761, 0, 0, 0
0, 32760, 0, 0, 0
0, 32760, 0, 0, 0
0, 32762, 0, 0, 0
0, 32766, 0, 0, 0
0, 32769, 0, 0, 0
0, 32770, 0, 0, 0
0, 32769, 0, 0, 0
0, 32767, 0, 0, 0
0, 32764, 0, 0, 0
0, 32761, 0, 0, 0
0, 32757, 0, 1, 0
0, 32754, 0, 0, 0
0, 32755, 0, 0, 0
0, 32756, 0, 0, 0
0, 32757, 0, 0, 0
0, 32760, 0, 0, 0
0, 32762, 0, 0, 0
0, 32762, 0, 0, 0
0, 32761, 0, 0, 0
0, 32762, 0, 0, 0
0, 32765, 0, 0, 0
0, 32769, 0, 0, 0
0, 32772, 0, 0, 0
0, 32775, 0, 0, 0
0, 32775, 0, 0, 0
0, 32775, 0, 0, 0
0, 32775, 0, 0, 0
0, 32775, 0, 0, 0
0, 32774, 0, 0, 0
0, 32774, 0, 1, 0
0, 32772, 0, 0, 0
0, 32769, 0, 0, 0
0, 32768, 0, 0, 0
0, 32768, 0, 0, 0
0, 32769, 0, 0, 0
0, 32770, 0, 0, 0
0, 32770, 0, 0, 0
0, 32769, 0, 0, 0
0, 32769, 0, 0, 0
0, 32770, 0, 0, 0
0, 32770, 0, 0, 0
0, 32771, 0, 0, 0
0, 32772, 0, 0, 0
0, 32772, 0, 0, 0
0, 32772, 0, 0, 0
0, 32774, 0, 0, 0
0, 32776, 0, 0, 0
0, 32777, 0, 0, 0
0, 32777, 0, 0, 0
0, 32776, 0, 0, 0
0, 32773, 0, 0, 0
0, 32769, 0, 1, 0
0, 32766, 0, 0, 0
0, 32764, 0, 0, 0
0, 32763, 0, 0, 0
0, 32764, 0, 0, 0
0, 32766, 0, 0, 0
0, 32768, 0, 0, 0
0, 32770, 0, 0, 0
0, 32771, 0, 0, 0
0, 32773, 0, 0, 0
0, 32774, 0, 0, 0
0, 32776, 0, 0, 0
0, 32776, 0, 0, 0
0, 32775, 0, 0, 0
0, 32772, 0, 0, 0
0, 32768, 0, 0, 0
0, 32764, 0, 1, 0
0, 32762, 0, 0, 0
0, 32761, 0, 0, 0
0, 32759, 0, 0, 0
0, 32757, 0, 0, 0
0, 32756, 0, 0, 0
0, 32757, 0, 0, 0
0, 32758, 0, 0, 0
0, 32763, 0, 0, 0
0, 32769, 1, 0, 0
0, 32774, 0, 0, 0
0, 32777, 0, 0, 0
0, 32779, 0, 0, 0
0, 32777, 0, 0, 0
0, 32776, 0, 0, 0
0, 32774, 0, 0, 0
0, 32773, 0, 0, 0
0, 32772, 0, 0, 0
0, 32771, 0, 1, 0
0, 32770, 0, 0, 0
0, 32770, 0, 0, 0
0, 32770, 0, 0, 0
0, 32769, 0, 0, 0
0, 32768, 0, 0, 0
0, 32767, 0, 0, 0
0, 32768, 0, 0, 0
0, 32769, 0, 0, 0
0, 32769, 0, 0, 0
0, 32769, 0, 0, 0
0, 32769, 0, 0, 0
0, 32767, 0, 0, 0
0, 32764, 0, 0, 0
0, 32763, 0, 0, 0
0, 32763, 0, 0, 0
0, 32764, 0, 0, 0
0, 32764, 0, 0, 0
0, 32765, 0, 0, 0
0, 32767, 0, 0, 0
0, 32768, 0, 0, 0
0, 32767, 0, 0, 0
0, 32766, 0, 0, 0
0, 32765, 0, 0, 0
0, 32764, 0, 0, 0
0, 32764, 0, 0, 0
0, 32764, 0, 0, 0
0, 32764, 0, 0, 0
0, 32765, 0, 0, 0
0, 32765, 0, 0, 0
0, 32765, 0, 0, 0
0, 32764, 0, 0, 0
0, 32764, 0, 0, 0
0, 32763, 0, 0, 0
0, 32763, 0, 0, 0
0, 32766, 0, 0, 0
0, 32769, 0, 0, 0
0, 32771, 0, 0, 0
0, 32773, 0, 0, 0
0, 32773, 0, 0, 0
0, 32771, 0, 0, 0
0, 32768, 0, 0, 0
0, 32767, 0, 0, 0
0, 32767, 0, 0, 0
0, 32767, 0, 1, 0
0, 32768, 0, 0, 0
0, 32770, 0, 0, 0
0, 32771, 0, 0, 0
0, 32771, 0, 0, 0
0, 32770, 0, 0, 0
0, 32767, 0, 0, 0
0, 32762, 0, 0, 0
0, 32757, 0, 0, 0
0, 32753, 0, 0, 0
0, 32753, 0, 0, 0
0, 32755, 0, 0, 0
0, 32760, 0, 0, 0
0, 32764, 1, 0, 0
0, 32767, 0, 0, 0
0, 32768, 0, 0, 0
0, 32768, 0, 0, 0
0, 32769, 0, 0, 0
0, 32770, 0, 0, 0
0, 32771, 0, 0, 0
0, 32771, 0, 0, 0
0, 32771, 0, 0, 0
0, 32769, 0, 0, 0
0, 32769, 0, 0, 0
0, 32770, 0, 1, 0
0, 32771, 0, 0, 0
0, 32770, 0, 0, 0
0, 32768, 0, 0, 0
0, 32765, 0, 0, 0
0, 32761, 0, 0, 0
0, 32758, 0, 0, 0
0, 32760, 0, 0, 0
0, 32763, 0, 0, 0
0, 32767, 0, 0, 0
0, 32771, 1, 0, 0
0, 32774, 0, 0, 0
0, 32774, 0, 0, 0
0, 32771, 0, 0, 0
0, 32767, 0, 0, 0
0, 32763, 0, 0, 0
0, 32760, 0, 0, 0
0, 32759, 0, 0, 0
0, 32758, 0, 1, 0
0, 32759, 0, 0, 0
0, 32761, 0, 0, 0
0, 32762, 0, 0, 0
0, 32763, 0, 0, 0
0, 32765, 0, 0, 0
0, 32765, 0, 0, 0
0, 32765, 0, 0, 0
0, 32765, 0, 0, 0
0, 32766, 0, 0, 0
0, 32766, 0, 0, 0
0, 32766, 0, 0, 0
0, 32767, 0, 0, 0
0, 32768, 0, 0, 0
0, 32770, 0, 0, 0
0, 32772, 0, 0, 0
0, 32774, 0, 0, 0
0, 32775, 0, 0, 0
0, 32776, 0, 0, 0
0, 32773, 0, 0, 0
0, 32770, 0, 1, 0
0, 32768, 0, 0, 0
0, 32767, 0, 0, 0
0, 32767, 0, 0, 0
0, 32768, 0, 0, 0
0, 32769, 0, 0, 0
0, 32769, 0, 0, 0
0, 32767, 0, 0, 0
0, 32765, 0, 0, 0
0, 32763, 0, 0, 0
0, 32763, 0, 0, 0
0, 32765, 0, 0, 0
0, 32768, 0, 0, 0
0, 32771, 0, 0, 0
0, 32773, 0, 0, 0
0, 32773, 0, 0, 0
0, 32772, 0, 0, 0
0, 32772, 0, 0, 0
0, 32770, 0, 0, 0
0, 32769, 0, 0, 0
0, 32770, 0, 0, 0
0, 32770, 0, 0, 0
0, 32770, 0, 1, 0
0, 32769, 0, 0, 0
0, 32769, 0, 0, 0
0, 32769, 0, 0, 0
0, 32770, 0, 0, 0
0, 32771, 0, 0, 0
0, 32773, 0, 0, 0
0, 32773, 0, 0, 0
0, 32772, 0, 0, 0
0, 32770, 0, 0, 0
0, 32769, 0, 0, 0
0, 32768, 0, 0, 0
0, 32767, 0, 0, 0
0, 32768, 0, 0, 0
0, 32769, 0, 0, 0
0, 32770, 0, 0, 0
0, 32771, 0, 0, 0
0, 32773, 0, 0, 0
0, 32773, 0, 0, 0
0, 32771, 0, 0, 0
0, 32769, 0, 0, 0
0, 32768, 0, 0, 0
0, 32767, 0, 1, 0
0, 32766, 0, 0, 0
0, 32767, 0, 0, 0
0, 32769, 0, 0, 0
0, 32770, 0, 0, 0
0, 32771, 0, 0, 0
0, 32771, 0, 0, 0
0, 32771, 0, 0, 0
0, 32770, 0, 0, 0
0, 32770, 0, 0, 0
0, 32769, 0, 0, 0
0, 32768, 0, 0, 0
0, 32767, 0, 1, 0
0, 32767, 0, 0, 0
0, 32767, 0, 0, 0
0, 32767, 0, 0, 0
0, 32767, 0, 0, 0
0, 32767, 0, 0, 0
0, 32766, 0, 0, 0
0, 32765, 0, 0, 0
0, 32765, 0, 0, 0
0, 32766, 0, 0, 0
0, 32766, 0, 0, 0
0, 32765, 0, 0, 0
0, 32764, 0, 0, 0
0, 32765, 0, 0, 0
0, 32767, 0, 0, 0
0, 32768, 0, 0, 0
0, 32769, 0, 0, 0
0, 32769, 0, 0, 0
0, 32766, 0, 0, 0
0, 32764, 0, 0, 0
0, 32763, 0, 1, 0
0, 32764, 0, 0, 0
0, 32766, 0, 0, 0
0, 32769, 0, 0, 0
0, 32772, 0, 0, 0
0, 32774, 0, 0, 0
0, 32774, 0, 0, 0
0, 32771, 0, 0, 0
0, 32767, 0, 0, 0
0, 32764, 0, 0, 0
0, 32762, 0, 0, 0
0, 32762, 0, 0, 0
0, 32763, 0, 0, 0
0, 32766, 0, 0, 0
0, 32768, 0, 0, 0
0, 32769, 0, 0, 0
0, 32770, 0, 0, 0
0, 32770, 0, 0, 0
0, 32769, 0, 0, 0
0, 32767, 0, 0, 0
0, 32765, 0, 0, 0
0, 32764, 0, 0, 0
0, 32764, 0, 0, 0
0, 32765, 0, 1, 0
0, 32767, 0, 0, 0
0, 32770, 0, 0, 0
0, 32771, 0, 0, 0
0, 32770, 0, 0, 0
0, 32767, 0, 0, 0
0, 32764, 0, 0, 0
0, 32761, 0, 0, 0
0, 32759, 0, 0, 0
0, 32759, 0, 0, 0
0, 32762, 0, 0, 0
0, 32765, 0, 0, 0
0, 32768, 0, 0, 0
0, 32772, 0, 0, 0
0, 32775, 0, 0, 0
0, 32776, 0, 0, 0
0, 32774, 0, 0, 0
0, 32773, 0, 0, 0
0, 32771, 0, 0, 0
0, 32769, 0, 0, 0
0, 32768, 0, 0, 0
0, 32769, 0, 1, 0
0, 32770, 0, 0, 0
0, 32772, 0, 0, 0
0, 32772, 0, 0, 0
0, 32772, 0, 0, 0
0, 32770, 0, 0, 0
0, 32765, 0, 0, 0
0, 32759, 0, 0, 0
0, 32756, 0, 0, 0
0, 32756, 0, 0, 0
0, 32755, 0, 0, 0
0, 32756, 0, 0, 0
0, 32757, 0, 0, 0
0, 32758, 0, 0, 0
0, 32759, 0, 0, 0
0, 32763, 0, 0, 0
0, 32767, 0, 0, 0
0, 32769, 0, 0, 0
0, 32771, 0, 0, 0
0, 32772, 0, 0, 0
0, 32771, 0, 0, 0
0, 32769, 0, 0, 0
0, 32767, 0, 0, 0
0, 32766, 0, 0, 0
0, 32768, 0, 0, 0
0, 32770, 0, 1, 0
0, 32772, 0, 0, 0
0, 32774, 0, 0, 0
0, 32774, 0, 0, 0
0, 32771, 0, 0, 0
0, 32768, 0, 0, 0
0, 32765, 0, 0, 0
0, 32764, 0, 0, 0
0, 32765, 0, 0, 0
0, 32768, 0, 0, 0
0, 32771, 0, 0, 0
0, 32774, 0, 0, 0
0, 32775, 0, 0, 0
0, 32773, 0, 0, 0
0, 32770, 0, 0, 0
0, 32767, 0, 0, 0
0, 32763, 0, 1, 0
0, 32760, 0, 0, 0
0, 32761, 0, 0, 0
0, 32763, 0, 0, 0
0, 32766, 0, 0, 0
0, 32769, 0, 0, 0
0, 32771, 0, 0, 0
0, 32771, 0, 0, 0
0, 32770, 0, 0, 0
0, 32769, 0, 0, 0
0, 32769, 0, 0, 0
0, 32770, 0, 0, 0
0, 32769, 0, 0, 0
0, 32768, 0, 0, 0
0, 32767, 0, 1, 0
0, 32767, 0, 0, 0
0, 32767, 0, 0, 0
0, 32767, 0, 0, 0
0, 32768, 0, 0, 0
0, 32768, 0, 0, 0
0, 32768, 0, 0, 0
0, 32768, 0, 0, 0
0, 32769, 0, 0, 0
0, 32770, 0, 0, 0
0, 32771, 0, 0, 0
0, 32771, 0, 0, 0
0, 32771, 0, 0, 0
0, 32770, 0, 0, 0
0, 32769, 0, 0, 0
0, 32768, 0, 1, 0
0, 32767, 0, 0, 0
0, 32766, 0, 0, 0
0, 32767, 0, 0, 0
0, 32767, 0, 0, 0
0, 32767, 0, 0, 0
0, 32768, 0, 0, 0
0, 32770, 0, 0, 0
0, 32771, 0, 0, 0
0, 32771, 0, 0, 0
0, 32770, 0, 0, 0
0, 32766, 0, 0, 0
0, 32763, 0, 1, 0
0, 32761, 0, 0, 0
0, 32761, 0, 0, 0
0, 32762, 0, 0, 0
0, 32765, 0, 0, 0
0, 32768, 0, 0, 0
0, 32772, 0, 0, 0
0, 32775, 0, 0, 0
0, 32776, 0, 0, 0
0, 32776, 0, 0, 0
0, 32773, 0, 0, 0
0, 32770, 0, 0, 0
0, 32766, 0, 0, 0
0, 32763, 0, 1, 0
0, 32760, 0, 0, 0
0, 32759, 0, 0, 0
0, 32760, 0, 0, 0
0, 32762, 0, 0, 0
0, 32765, 0, 0, 0
0, 32767, 0, 0, 0
0, 32769, 0, 0, 0
0, 32770, 0, 0, 0
0, 32769, 0, 0, 0
0, 32768, 0, 0, 0
0, 32768, 0, 0, 0
0, 32766, 0, 0, 0
0, 32764, 0, 0, 0
0, 32763, 0, 0, 0
0, 32763, 0, 1, 0
0, 32763, 0, 0, 0
0, 32766, 0, 0, 0
0, 32767, 0, 0, 0
0, 32768, 0, 0, 0
0, 32767, 0, 0, 0
0, 32765, 0, 0, 0
0, 32762, 0, 0, 0
0, 32760, 0, 0, 0
0, 32758, 0, 0, 0
0, 32757, 0, 0, 0
0, 32758, 0, 0, 0
0, 32759, 0, 0, 0
0, 32761, 0, 0, 0
0, 32764, 0, 0, 0
0, 32768, 0, 0, 0
0, 32772, 1, 0, 0
0, 32774, 0, 0, 0
0, 32776, 0, 0, 0
0, 32777, 0, 0, 0
0, 32778, 0, 0, 0
0, 32777, 0, 0, 0
0, 32777, 0, 0, 0
0, 32776, 0, 0, 0
0, 32772, 0, 1, 0
0, 32769, 0, 0, 0
0, 32767, 0, 0, 0
0, 32766, 0, 0, 0
0, 32766, 0, 0, 0
0, 32768, 0, 0, 0
0, 32771, 0, 0, 0
0, 32773, 0, 0, 0
0, 32774, 0, 0, 0
0, 32775, 0, 0, 0
0, 32775, 0, 0, 0
0, 32773, 0, 0, 0
0, 32772, 0, 0, 0
0, 32770, 0, 0, 0
0, 32766, 0, 0, 0
0, 32764, 0, 1, 0
0, 32763, 0, 0, 0
0, 32762, 0, 0, 0
0, 32762, 0, 0, 0
0, 32765, 0, 0, 0
0, 32766, 0, 0, 0
0, 32765, 0, 0, 0
0, 32764, 0, 0, 0
0, 32763, 0, 0, 0
0, 32762, 0, 0, 0
0, 32760, 0, 0, 0
0, 32760, 0, 0, 0
0, 32762, 0, 0, 0
0, 32763, 0, 0, 0
0, 32763, 0, 0, 0
0, 32764, 0, 0, 0
0, 32765, 0, 0, 0
0, 32766, 0, 0, 0
0, 32767, 0, 0, 0
0, 32769, 0, 0, 0
0, 32770, 0, 0, 0
0, 32769, 0, 0, 0
0, 32768, 0, 0, 0
0, 32768, 0, 0, 0
0, 32769, 0, 0, 0
0, 32770, 0, 0, 0
0, 32770, 0, 1, 0
0, 32769, 0, 0, 0
0, 32767, 0, 0, 0
0, 32765, 0, 0, 0
0, 32764, 0, 0, 0
0, 32765, 0, 0, 0
0, 32766, 0, 0, 0
0, 32768, 0, 0, 0
0, 32770, 0, 0, 0
0, 32772, 0, 0, 0
0, 32774, 0, 0, 0
0, 32775, 0, 0, 0
0, 32774, 0, 0, 0
0, 32772, 0, 0, 0
0, 32771, 0, 0, 0
0, 32770, 0, 0, 0
0, 32771, 0, 0, 0
0, 32772, 0, 1, 0
0, 32772, 0, 0, 0
0, 32771, 0, 0, 0
0, 32770, 0, 0, 0
0, 32770, 0, 0, 0
0, 32770, 0, 0, 0
0, 32771, 0, 0, 0
0, 32771, 0, 0, 0
0, 32769, 0, 0, 0
0, 32767, 0, 0, 0
0, 32766, 0, 0, 0
0, 32766, 0, 0, 0
0, 32766, 0, 0, 0
0, 32767, 0, 0, 0
0, 32767, 0, 0, 0
0, 32766, 0, 0, 0
0, 32766, 0, 0, 0
0, 32767, 0, 0, 0
0, 32768, 0, 0, 0
0, 32768, 0, 0, 0
0, 32767, 0, 0, 0
0, 32765, 0, 0, 0
0, 32763, 0, 0, 0
0, 32761, 0, 0, 0
0, 32761, 0, 0, 0
0, 32762, 0, 0, 0
0, 32763, 0, 0, 0
0, 32764, 0, 0, 0
0, 32764, 0, 0, 0
0, 32765, 0, 0, 0
0, 32764, 0, 0, 0
0, 32762, 0, 0, 0
0, 32760, 0, 0, 0
0, 32758, 0, 0, 0
0, 32757, 0, 0, 0
0, 32758, 0, 0, 0
0, 32761, 0, 0, 0
0, 32764, 0, 0, 0
0, 32766, 0, 0, 0
0, 32767, 0, 0, 0
0, 32766, 0, 0, 0
0, 32765, 0, 0, 0
0, 32765, 0, 0, 0
0, 32766, 0, 0, 0
0, 32767, 0, 0, 0
0, 32769, 0, 0, 0
0, 32771, 0, 0, 0
0, 32771, 0, 0, 0
0, 32770, 0, 1, 0
0, 32767, 0, 0, 0
0, 32765, 0, 0, 0
0, 32763, 0, 0, 0
0, 32763, 0, 0, 0
0, 32765, 0, 0, 0
0, 32768, 0, 0, 0
0, 32770, 0, 0, 0
0, 32771, 0, 0, 0
0, 32770, 0, 0, 0
0, 32767, 0, 0, 0
0, 32763, 0, 0, 0
0, 32759, 0, 0, 0
0, 32756, 0, 0, 0
0, 32757, 0, 0, 0
0, 32759, 0, 0, 0
0, 32762, 0, 0, 0
0, 32766, 0, 0, 0
0, 32769, 0, 0, 0
0, 32771, 0, 0, 0
0, 32772, 0, 0, 0
0, 32774, 0, 0, 0
0, 32776, 0, 0, 0
0, 32777, 0, 0, 0
0, 32776, 0, 0, 0
0, 32772, 0, 0, 0
0, 32769, 0, 0, 0
0, 32767, 0, 1, 0
0, 32767, 0, 0, 0
0, 32768, 0, 0, 0
0, 32769, 0, 0, 0
0, 32769, 0, 0, 0
0, 32768, 0, 0, 0
0, 32766, 0, 0, 0
0, 32764, 0, 0, 0
0, 32764, 0, 0, 0
0, 32766, 0, 0, 0
0, 32769, 0, 0, 0
0, 32772, 0, 0, 0
0, 32775, 0, 0, 0
0, 32778, 0, 0, 0
0, 32780, 0, 0, 0
0, 32781, 0, 0, 0
0, 32780, 0, 0, 0
0, 32777, 0, 0, 0
0, 32774, 0, 0, 0
0, 32770, 0, 1, 0
0, 32767, 0, 0, 0
0, 32766, 0, 0, 0
0, 32766, 0, 0, 0
0, 32767, 0, 0, 0
0, 32768, 0, 0, 0
0, 32769, 0, 0, 0
0, 32769, 0, 0, 0
0, 32769, 0, 0, 0
0, 32768, 0, 0, 0
0, 32767, 0, 0, 0
0, 32766, 0, 0, 0
0, 32767, 0, 0, 0
0, 32769, 0, 0, 0
0, 32771, 0, 0, 0
0, 32773, 0, 0, 0
0, 32772, 0, 0, 0
0, 32769, 0, 0, 0
0, 32764, 0, 1, 0
0, 32759, 0, 0, 0
0, 32757, 0, 0, 0
0, 32757, 0, 0, 0
0, 32759, 0, 0, 0
0, 32762, 0, 0, 0
0, 32765, 0, 0, 0
0, 32768, 0, 0, 0
0, 32770, 0, 0, 0
0, 32770, 0, 0, 0
0, 32770, 0, 0, 0
0, 32770, 0, 0, 0
0, 32768, 0, 0, 0
0, 32766, 0, 0, 0
0, 32766, 0, 0, 0
0, 32768, 0, 0, 0
0, 32769, 0, 1, 0
0, 32769, 0, 0, 0
0, 32769, 0, 0, 0
0, 32769, 0, 0, 0
0, 32767, 0, 0, 0
0, 32765, 0, 0, 0
0, 32765, 0, 0, 0
0, 32764, 0, 0, 0
0, 32763, 0, 0, 0
0, 32762, 0, 0, 0
0, 32762, 0, 0, 0
0, 32762, 0, 0, 0
0, 32762, 0, 0, 0
0, 32763, 0, 0, 0
0, 32763, 0, 0, 0
0, 32763, 0, 0, 0
0, 32763, 0, 0, 0
0, 32762, 0, 0, 0
0, 32762, 0, 0, 0
0, 32763, 0, 0, 0
0, 32766, 0, 0, 0
0, 32767, 0, 0, 0
0, 32768, 0, 0, 0
0, 32767, 0, 0, 0
0, 32766, 0, 0, 0
0, 32765, 0, 0, 0
0, 32766, 0, 0, 0
0, 32766, 0, 0, 0
0, 32765, 0, 1, 0
0, 32763, 0, 0, 0
0, 32762, 0, 0, 0
0, 32761, 0, 0, 0
0, 32761, 0, 0, 0
0, 32762, 0, 0, 0
0, 32762, 0, 0, 0
0, 32762, 0, 0, 0
0, 32763, 0, 0, 0
0, 32766, 0, 0, 0
0, 32770, 0, 0, 0
0, 32774, 1, 0, 0
0, 32775, 0, 0, 0
0, 32774, 0, 0, 0
0, 32772, 0, 0, 0
0, 32769, 0, 0, 0
0, 32767, 0, 0, 0
0, 32767, 0, 1, 0
0, 32768, 0, 0, 0
0, 32769, 0, 0, 0
0, 32770, 0, 0, 0
0, 32770, 0, 0, 0
0, 32769, 0, 0, 0
0, 32766, 0, 0, 0
0, 32763, 0, 0, 0
0, 32762, 0, 0, 0
0, 32763, 0, 0, 0
0, 32766, 0, 0, 0
0, 32769, 0, 0, 0
0, 32771, 0, 0, 0
0, 32770, 0, 0, 0
0, 32770, 0, 0, 0
0, 32769, 0, 0, 0
0, 32768, 0, 0, 0
0, 32768, 0, 0, 0
0, 32769, 0, 0, 0
0, 32770, 0, 0, 0
0, 32770, 0, 0, 0
0, 32770, 0, 0, 0
0, 32769, 0, 0, 0
0, 32768, 0, 0, 0
0, 32767, 0, 0, 0
0, 32767, 0, 0, 0
0, 32766, 0, 0, 0
0, 32765, 0, 0, 0
0, 32765, 0, 0, 0
0, 32764, 0, 0, 0
0, 32764, 0, 0, 0
0, 32765, 0, 0, 0
0, 32767, 0, 0, 0
0, 32768, 0, 0, 0
0, 32768, 0, 0, 0
0, 32766, 0, 0, 0
0, 32764, 0, 0, 0
0, 32763, 0, 0, 0
0, 32764, 0, 0, 0
0, 32766, 0, 0, 0
0, 32769, 0, 0, 0
0, 32771, 0, 0, 0
0, 32771, 0, 0, 0
0, 32768, 0, 0, 0
0, 32765, 0, 0, 0
0, 32764, 0, 0, 0
0, 32763, 0, 0, 0
0, 32763, 0, 0, 0
0, 32765, 0, 0, 0
0, 32769, 0, 0, 0
0, 32772, 0, 0, 0
0, 32775, 0, 0, 0
0, 32777, 0, 0, 0
0, 32776, 0, 0, 0
0, 32774, 0, 0, 0
0, 32773, 0, 0, 0
0, 32772, 0, 0, 0
0, 32772, 0, 0, 0
0, 32772, 0, 1, 0
0, 32773, 0, 0, 0
0, 32772, 0, 0, 0
0, 32771, 0, 0, 0
0, 32770, 0, 0, 0
0, 32769, 0, 0, 0
0, 32769, 0, 0, 0
0, 32770, 0, 0, 0
0, 32771, 0, 0, 0
0, 32771, 0, 0, 0
0, 32771, 0, 0, 0
0, 32769, 0, 0, 0
0, 32767, 0, 0, 0
0, 32764, 0, 0, 0
0, 32761, 0, 0, 0
0, 32760, 0, 0, 0
0, 32761, 0, 0, 0
0, 32762, 0, 0, 0
0, 32763, 0, 0, 0
0, 32764, 0, 0, 0
0, 32764, 0, 0, 0
0, 32765, 0, 0, 0
0, 32765, 0, 0, 0
0, 32767, 0, 0, 0
0, 32768, 0, 0, 0
0, 32769, 0, 0, 0
0, 32769, 0, 0, 0
0, 32769, 0, 0, 0
0, 32768, 0, 0, 0
0, 32768, 0, 0, 0
0, 32769, 0, 0, 0
0, 32770, 0, 0, 0
0, 32771, 0, 0, 0
0, 32772, 0, 0, 0
0, 32773, 0, 1, 0
0, 32772, 0, 0, 0
0, 32770, 0, 0, 0
0, 32767, 0, 0, 0
0, 32764, 0, 0, 0
0, 32762, 0, 0, 0
0, 32762, 0, 0, 0
0, 32763, 0, 0, 0
0, 32764, 0, 0, 0
0, 32765, 0, 0, 0
0, 32766, 0, 0, 0
0, 32766, 0, 0, 0
0, 32766, 0, 0, 0
0, 32767, 0, 0, 0
0, 32768, 0, 0, 0
0, 32768, 0, 0, 0
0, 32769, 0, 0, 0
0, 32771, 0, 0, 0
0, 32773, 0, 0, 0
0, 32774, 0, 0, 0
0, 32773, 0, 0, 0
0, 32771, 0, 0, 0
0, 32769, 0, 0, 0
0, 32767, 0, 1, 0
0, 32765, 0, 0, 0
0, 32764, 0, 0, 0
0, 32764, 0, 0, 0
0, 32764, 0, 0, 0
0, 32766, 0, 0, 0
0, 32769, 0, 0, 0
0, 32773, 0, 0, 0
0, 32775, 0, 0, 0
0, 32774, 0, 0, 0
0, 32770, 0, 0, 0
0, 32768, 0, 0, 0
0, 32767, 0, 0, 0
0, 32766, 0, 0, 0
0, 32767, 0, 0, 0
0, 32768, 0, 1, 0
0, 32769, 0, 0, 0
0, 32769, 0, 0, 0
0, 32769, 0, 0, 0
0, 32768, 0, 0, 0
0, 32766, 0, 0, 0
0, 32763, 0, 0, 0
0, 32761, 0, 0, 0
0, 32761, 0, 0, 0
0, 32764, 0, 0, 0
0, 32768, 0, 0, 0
0, 32773, 1, 0, 0
0, 32777, 0, 0, 0
0, 32778, 0, 0, 0
0, 32778, 0, 0, 0
0, 32777, 0, 0, 0
0, 32773, 0, 0, 0
0, 32770, 0, 0, 0
0, 32769, 0, 0, 0
0, 32769, 0, 1, 0
0, 32769, 0, 0, 0
0, 32770, 0, 0, 0
0, 32772, 0, 0, 0
0, 32772, 0, 0, 0
0, 32771, 0, 0, 0
0, 32769, 0, 0, 0
0, 32767, 0, 0, 0
0, 32764, 0, 0, 0
0, 32763, 0, 0, 0
0, 32762, 0, 0, 0
0, 32761, 0, 0, 0
0, 32762, 0, 0, 0
0, 32765, 0, 0, 0
0, 32768, 0, 0, 0
0, 32770, 0, 0, 0
0, 32771, 0, 0, 0
0, 32770, 0, 0, 0
0, 32767, 0, 0, 0
0, 32764, 0, 0, 0
0, 32763, 0, 0, 0
0, 32764, 0, 0, 0
0, 32767, 0, 0, 0
0, 32770, 0, 0, 0
0, 32774, 0, 0, 0
0, 32776, 0, 0, 0
0, 32775, 0, 0, 0
0, 32772, 0, 0, 0
0, 32767, 0, 1, 0
0, 32762, 0, 0, 0
0, 32759, 0, 0, 0
0, 32758, 0, 0, 0
0, 32758, 0, 0, 0
0, 32760, 0, 0, 0
0, 32764, 0, 0, 0
0, 32768, 1, 0, 0
0, 32771, 0, 0, 0
0, 32773, 0, 0, 0
0, 32772, 0, 0, 0
0, 32772, 0, 0, 0
0, 32772, 0, 0, 0
0, 32771, 0, 0, 0
0, 32771, 0, 0, 0
0, 32771, 0, 0, 0
0, 32771, 0, 0, 0
0, 32770, 0, 1, 0
0, 32769, 0, 0, 0
0, 32768, 0, 0, 0
0, 32768, 0, 0, 0
0, 32766, 0, 0, 0
0, 32764, 0, 0, 0
0, 32762, 0, 0, 0
0, 32760, 0, 0, 0
0, 32758, 0, 0, 0
0, 32758, 0, 0, 0
0, 32759, 0, 0, 0
0, 32761, 0, 0, 0
0, 32764, 0, 0, 0
0, 32768, 0, 0, 0
0, 32770, 0, 0, 0
0, 32772, 0, 0, 0
0, 32772, 0, 0, 0
0, 32770, 0, 0, 0
0, 32767, 0, 0, 0
0, 32765, 0, 0, 0
0, 32764, 0, 0, 0
0, 32765, 0, 0, 0
0, 32766, 0, 1, 0
0, 32767, 0, 0, 0
0, 32766, 0, 0, 0
0, 32764, 0, 0, 0
0, 32762, 0, 0, 0
0, 32762, 0, 0, 0
0, 32764, 0, 0, 0
0, 32766, 0, 0, 0
0, 32767, 0, 0, 0
0, 32767, 0, 0, 0
0, 32767, 0, 0, 0
0, 32766, 0, 0, 0
0, 32767, 0, 0, 0
0, 32768, 0, 0, 0
0, 32767, 0, 0, 0
0, 32765, 0, 0, 0
0, 32763, 0, 1, 0
0, 32762, 0, 0, 0
0, 32763, 0, 0, 0
0, 32766, 0, 0, 0
0, 32769, 0, 0, 0
0, 32771, 0, 0, 0
0, 32771, 0, 0, 0
0, 32770, 0, 0, 0
0, 32770, 0, 0, 0
0, 32771, 0, 0, 0
0, 32773, 0, 0, 0
0, 32774, 0, 0, 0
0, 32773, 0, 0, 0
0, 32772, 0, 0, 0
0, 32769, 0, 1, 0
0, 32767, 0, 0, 0
0, 32767, 0, 0, 0
0, 32768, 0, 0, 0
0, 32768, 0, 0, 0
0, 32768, 0, 0, 0
0, 32767, 0, 0, 0
0, 32765, 0, 0, 0
0, 32763, 0, 0, 0
0, 32761, 0, 0, 0
0, 32760, 0, 0, 0
0, 32761, 0, 0, 0
0, 32762, 0, 0, 0
0, 32763, 0, 0, 0
0, 32766, 0, 0, 0
0, 32769, 0, 0, 0
0, 32771, 0, 0, 0
0, 32772, 0, 0, 0
0, 32772, 0, 0, 0
0, 32770, 0, 0, 0
0, 32768, 0, 0, 0
0, 32764, 0, 0, 0
0, 32760, 0, 1, 0
0, 32759, 0, 0, 0
0, 32760, 0, 0, 0
0, 32763, 0, 0, 0
0, 32766, 0, 0, 0
0, 32768, 0, 0, 0
0, 32768, 0, 0, 0
0, 32767, 0, 0, 0
0, 32765, 0, 0, 0
0, 32764, 0, 0, 0
0, 32764, 0, 0, 0
0, 32765, 0, 0, 0
0, 32767, 0, 0, 0
0, 32770, 0, 0, 0
0, 32772, 0, 0, 0
0, 32774, 0, 0, 0
0, 32775, 0, 0, 0
0, 32774, 0, 0, 0
0, 32773, 0, 0, 0
0, 32772, 0, 0, 0
0, 32770, 0, 0, 0
0, 32769, 0, 1, 0
0, 32770, 0, 0, 0
0, 32771, 0, 0, 0
0, 32772, 0, 0, 0
0, 32772, 0, 0, 0
0, 32769, 0, 0, 0
0, 32766, 0, 0, 0
0, 32764, 0, 0, 0
0, 32764, 0, 0, 0
0, 32768, 0, 0, 0
0, 32771, 0, 0, 0
0, 32771, 0, 0, 0
0, 32771, 0, 0, 0
0, 32770, 0, 0, 0
0, 32768, 0, 0, 0
0, 32766, 0, 0, 0
0, 32765, 0, 0, 0
0, 32764, 0, 0, 0
0, 32763, 0, 1, 0
0, 32762, 0, 0, 0
0, 32764, 0, 0, 0
0, 32766, 0, 0, 0
0, 32769, 0, 0, 0
0, 32771, 0, 0, 0
0, 32773, 0, 0, 0
0, 32772, 0, 0, 0
0, 32771, 0, 0, 0
0, 32769, 0, 0, 0
0, 32769, 0, 0, 0
0, 32769, 0, 0, 0
0, 32769, 0, 0, 0
0, 32769, 0, 1, 0
0, 32768, 0, 0, 0
0, 32768, 0, 0, 0
0, 32768, 0, 0, 0
0, 32769, 0, 0, 0
0, 32769, 0, 0, 0
0, 32769, 0, 0, 0
0, 32768, 0, 0, 0
0, 32768, 0, 0, 0
0, 32768, 0, 0, 0
0, 32769, 0, 0, 0
0, 32771, 0, 0, 0
0, 32772, 0, 0, 0
0, 32770, 0, 0, 0
0, 32768, 0, 0, 0
0, 32766, 0, 0, 0
0, 32764, 0, 0, 0
0, 32762, 0, 0, 0
0, 32763, 0, 0, 0
0, 32764, 0, 0, 0
0, 32765, 0, 0, 0
0, 32766, 0, 0, 0
0, 32766, 0, 0, 0
0, 32765, 0, 0, 0
0, 32764, 0, 0, 0
0, 32764, 0, 0, 0
0, 32764, 0, 0, 0
0, 32765, 0, 0, 0
0, 32766, 0, 0, 0
0, 32766, 0, 0, 0
0, 32764, 0, 0, 0
0, 32762, 0, 0, 0
0, 32761, 0, 0, 0
0, 32761, 0, 0, 0
0, 32764, 0, 0, 0
0, 32767, 0, 0, 0
0, 32769, 0, 0, 0
0, 32769, 0, 0, 0
0, 32767, 0, 0, 0
0, 32764, 0, 0, 0
0, 32761, 0, 0, 0
0, 32760, 0, 0, 0
0, 32759, 0, 0, 0
0, 32761, 0, 0, 0
0, 32764, 0, 0, 0
0, 32767, 0, 0, 0
0, 32769, 0, 0, 0
0, 32771, 0, 0, 0
0, 32771, 0, 0, 0
0, 32770, 0, 0, 0
0, 32768, 0, 0, 0
0, 32767, 0, 0, 0
0, 32766, 0, 0, 0
0, 32766, 0, 0, 0
0, 32767, 0, 1, 0
0, 32770, 0, 0, 0
0, 32772, 0, 0, 0
0, 32775, 0, 0, 0
0, 32776, 0, 0, 0
0, 32774, 0, 0, 0
0, 32771, 0, 0, 0
0, 32768, 0, 0, 0
0, 32764, 0, 0, 0
0, 32762, 0, 0, 0
0, 32763, 0, 0, 0
0, 32766, 0, 0, 0
0, 32769, 0, 0, 0
0, 32771, 0, 0, 0
0, 32772, 0, 0, 0
0, 32772, 0, 0, 0
0, 32772, 0, 0, 0
0, 32774, 0, 0, 0
0, 32776, 0, 0, 0
0, 32776, 0, 0, 0
0, 32774, 0, 0, 0
0, 32771, 0, 0, 0
0, 32768, 0, 1, 0
0, 32766, 0, 0, 0
0, 32765, 0, 0, 0
0, 32766, 0, 0, 0
0, 32767, 0, 0, 0
0, 32768, 0, 0, 0
0, 32769, 0, 0, 0
0, 32770, 0, 0, 0
0, 32771, 0, 0, 0
0, 32771, 0, 0, 0
0, 32771, 0, 0, 0
0, 32771, 0, 0, 0
0, 32771, 0, 0, 0
0, 32772, 0, 0, 0
0, 32774, 0, 0, 0
0, 32774, 0, 0, 0
0, 32773, 0, 0, 0
0, 32771, 0, 0, 0
0, 32767, 0, 1, 0
0, 32764, 0, 0, 0
0, 32763, 0, 0, 0
0, 32764, 0, 0, 0
0, 32766, 0, 0, 0
0, 32769, 0, 0, 0
0, 32772, 0, 0, 0
0, 32774, 0, 0, 0
0, 32773, 0, 0, 0
0, 32769, 0, 0, 0
0, 32765, 0, 0, 0
0, 32761, 0, 0, 0
0, 32759, 0, 1, 0
0, 32757, 0, 0, 0
0, 32756, 0, 0, 0
0, 32757, 0, 0, 0
0, 32758, 0, 0, 0
0, 32760, 0, 0, 0
0, 32762, 0, 0, 0
0, 32764, 0, 0, 0
0, 32764, 0, 0, 0
0, 32763, 0, 0, 0
0, 32762, 0, 0, 0
0, 32762, 0, 0, 0
0, 32765, 0, 0, 0
0, 32768, 0, 0, 0
0, 32770, 0, 0, 0
0, 32770, 0, 0, 0
0, 32769, 0, 0, 0
0, 32766, 0, 0, 0
0, 32764, 0, 1, 0
0, 32764, 0, 0, 0
