6274, 32577, 0, 0, 0
6274, 32707, 0, 1, 0
6288, 32519, 0, 0, 0
6306, 32516, 0, 0, 0
6320, 32539, 0, 0, 0
6336, 32561, 0, 0, 0
6352, 32561, 0, 0, 0
6353, 32532, 0, 0, 0
6368, 32464, 0, 0, 0
6384, 32358, 0, 0, 0
6400, 32218, 0, 0, 0
6416, 32056, 0, 0, 0
6432, 31885, 0, 0, 0
6433, 31713, 0, 0, 0
6448, 31553, 0, 0, 0
6464, 31409, 0, 0, 0
6480, 31284, 0, 0, 0
6496, 31174, 0, 0, 0
6512, 31081, 0, 0, 0
6512, 31000, 0, 0, 0
6528, 30936, 0, 0, 0
6544, 30888, 0, 0, 0
6560, 30864, 0, 0, 0
6576, 30866, 0, 0, 0
6592, 30895, 0, 0, 0
6593, 30939, 0, 0, 0
6608, 30988, 0, 0, 0
6624, 31030, 0, 0, 0
6640, 31061, 0, 0, 0
6656, 31086, 0, 0, 0
6672, 31112, 0, 0, 0
6672, 31140, 0, 0, 0
6688, 31168, 0, 0, 0
6704, 31186, 0, 0, 0
6720, 31185, 0, 0, 0
6736, 31162, 0, 0, 0
6752, 31130, 0, 0, 0
6753, 31110, 0, 0, 0
6768, 31147, 0, 0, 0
6784, 31299, 0, 0, 0
6800, 31624, 0, 0, 0
6816, 32151, 0, 0, 0
6832, 32869, 1, 0, 0
6832, 33720, 0, 0, 0
6848, 34608, 0, 0, 0
6864, 35428, 0, 0, 0
6880, 36100, 0, 0, 0
6896, 36587, 0, 0, 0
6912, 36900, 0, 0, 0
6912, 37063, 0, 0, 0
6928, 37113, 0, 0, 0
6944, 37079, 0, 0, 0
6960, 36984, 0, 0, 0
6976, 36844, 0, 1, 0
6992, 36677, 0, 0, 0
6992, 36498, 0, 0, 0
7008, 36309, 0, 0, 0
7024, 36103, 0, 0, 0
7040, 35866, 0, 0, 0
7056, 35600, 0, 0, 0
7072, 35314, 0, 0, 0
7072, 35030, 0, 0, 0
7088, 34780, 0, 0, 0
7104, 34587, 0, 0, 0
7120, 34458, 0, 0, 0
7136, 34384, 0, 0, 0
7152, 34341, 0, 0, 0
7152, 34289, 0, 0, 0
7168, 34197, 0, 0, 0
7184, 34052, 0, 0, 0
7200, 33864, 0, 0, 0
7216, 33647, 0, 0, 0
7232, 33407, 0, 0, 0
7232, 33147, 0, 0, 0
7248, 32856, 0, 0, 0
7264, 32527, 0, 0, 0
7280, 32169, 0, 0, 0
7296, 31815, 0, 0, 0
7312, 31492, 0, 0, 0
7312, 31219, 0, 0, 0
7327, 31008, 0, 0, 0
7344, 30853, 0, 0, 0
7360, 30745, 0, 0, 0
7375, 30677, 0, 0, 0
7391, 30644, 0, 0, 0
7392, 30639, 0, 0, 0
7407, 30654, 0, 0, 0
7423, 30688, 0, 0, 0
7439, 30739, 0, 0, 0
7456, 30810, 0, 0, 0
7472, 30899, 0, 0, 0
7472, 30997, 0, 0, 0
7488, 31088, 0, 0, 0
7504, 31160, 0, 0, 0
7520, 31207, 0, 0, 0
7536, 31237, 0, 0, 0
7551, 31264, 0, 0, 0
7552, 31306, 0, 0, 0
7568, 31375, 0, 0, 0
7584, 31479, 0, 0, 0
7600, 31625, 0, 0, 0
7615, 31832, 0, 0, 0
7632, 32127, 0, 0, 0
7632, 32535, 0, 0, 0
7648, 33056, 0, 0, 0
7663, 33654, 0, 0, 0
7679, 34266, 1, 0, 0
7695, 34815, 0, 0, 0
7711, 35240, 0, 0, 0
7711, 35508, 0, 0, 0
7727, 35618, 0, 0, 0
7743, 35590, 0, 0, 0
7759, 35455, 0, 0, 0
7775, 35242, 0, 1, 0
7791, 34975, 0, 0, 0
7792, 34675, 0, 0, 0
7807, 34359, 0, 0, 0
7823, 34034, 0, 0, 0
7839, 33708, 0, 0, 0
7855, 33387, 0, 0, 0
7871, 33075, 0, 0, 0
7871, 32776, 0, 0, 0
7887, 32501, 0, 0, 0
7903, 32260, 0, 0, 0
7919, 32068, 0, 0, 0
7935, 31929, 0, 0, 0
7951, 31843, 0, 0, 0
7967, 31805, 0, 0, 0
7968, 31806, 0, 0, 0
7983, 31832, 0, 0, 0
7999, 31869, 0, 0, 0
8015, 31903, 0, 0, 0
8031, 31921, 0, 0, 0
8047, 31908, 0, 0, 0
8048, 31852, 0, 0, 0
8063, 31758, 0, 0, 0
8079, 31642, 0, 0, 0
8095, 31517, 0, 0, 0
8111, 31393, 0, 0, 0
8112, 31273, 0, 0, 0
8127, 31156, 0, 0, 0
8143, 31040, 0, 0, 0
8159, 30929, 0, 0, 0
8175, 30835, 0, 0, 0
8191, 30772, 0, 0, 0
8191, 30746, 0, 0, 0
8207, 30752, 0, 0, 0
8223, 30780, 0, 0, 0
8239, 30815, 0, 0, 0
8255, 30845, 0, 0, 0
8275, 30871, 0, 0, 0
8275, 30899, 0, 0, 0
8287, 30939, 0, 0, 0
8303, 30999, 0, 0, 0
8319, 31079, 0, 0, 0
8335, 31165, 0, 0, 0
8351, 31244, 0, 0, 0
8351, 31302, 0, 0, 0
8367, 31333, 0, 0, 0
8383, 31342, 0, 0, 0
8399, 31350, 0, 0, 0
8415, 31401, 0, 0, 0
8431, 31552, 0, 0, 0
8431, 31860, 0, 0, 0
8447, 32351, 0, 0, 0
8463, 33004, 0, 0, 0
8479, 33756, 1, 0, 0
8495, 34513, 0, 0, 0
8511, 35174, 0, 0, 0
8511, 35666, 0, 0, 0
8527, 35958, 0, 0, 0
8543, 36059, 0, 0, 0
8559, 36004, 0, 0, 0
8575, 35841, 0, 0, 0
8591, 35616, 0, 0, 0
8607, 35369, 0, 1, 0
8607, 35126, 0, 0, 0
8623, 34894, 0, 0, 0
8639, 34670, 0, 0, 0
8655, 34441, 0, 0, 0
8671, 34203, 0, 0, 0
8687, 33958, 0, 0, 0
8687, 33719, 0, 0, 0
8703, 33507, 0, 0, 0
8719, 33348, 0, 0, 0
8735, 33256, 0, 0, 0
8751, 33233, 0, 0, 0
8751, 33269, 0, 0, 0
8767, 33347, 0, 0, 0
8783, 33444, 0, 0, 0
8799, 33533, 0, 0, 0
8815, 33595, 0, 0, 0
8831, 33619, 0, 0, 0
8831, 33604, 0, 0, 0
8847, 33553, 0, 0, 0
8863, 33475, 0, 0, 0
8879, 33378, 0, 0, 0
8895, 33270, 0, 0, 0
8911, 33158, 0, 0, 0
8911, 33046, 0, 0, 0
8927, 32937, 0, 0, 0
8943, 32832, 0, 0, 0
8959, 32731, 0, 0, 0
8974, 32633, 0, 0, 0
8990, 32540, 0, 0, 0
9006, 32457, 0, 0, 0
9007, 32390, 0, 0, 0
9023, 32341, 0, 0, 0
9038, 32308, 0, 0, 0
9055, 32289, 0, 0, 0
9071, 32278, 0, 0, 0
9087, 32270, 0, 0, 0
9087, 32253, 0, 0, 0
9103, 32219, 0, 0, 0
9119, 32166, 0, 0, 0
9135, 32083, 0, 0, 0
9151, 31973, 0, 0, 0
9167, 31836, 0, 0, 0
9167, 31678, 0, 0, 0
9183, 31504, 0, 0, 0
9199, 31321, 0, 0, 0
9215, 31134, 0, 0, 0
9231, 30949, 0, 0, 0
9247, 30778, 0, 0, 0
9247, 30641, 0, 0, 0
9262, 30578, 0, 0, 0
9278, 30647, 0, 0, 0
9294, 30910, 0, 0, 0
9310, 31387, 0, 0, 0
9326, 32046, 0, 0, 0
9327, 32804, 1, 0, 0
9343, 33552, 0, 0, 0
9358, 34179, 0, 0, 0
9374, 34611, 0, 0, 0
9390, 34827, 0, 0, 0
9406, 34852, 0, 0, 0
9407, 34724, 0, 0, 0
9422, 34493, 0, 0, 0
9438, 34205, 0, 0, 0
9454, 33903, 0, 1, 0
9470, 33615, 0, 0, 0
9486, 33356, 0, 0, 0
9487, 33130, 0, 0, 0
9502, 32929, 0, 0, 0
9518, 32742, 0, 0, 0
9534, 32567, 0, 0, 0
9550, 32413, 0, 0, 0
9566, 32293, 0, 0, 0
9567, 32225, 0, 0, 0
9582, 32214, 0, 0, 0
9598, 32254, 0, 0, 0
9614, 32332, 0, 0, 0
9630, 32428, 0, 0, 0
9646, 32525, 0, 0, 0
9647, 32621, 0, 0, 0
9662, 32713, 0, 0, 0
9678, 32800, 0, 0, 0
9694, 32877, 0, 0, 0
9710, 32939, 0, 0, 0
9726, 32986, 0, 0, 0
9727, 33027, 0, 0, 0
9742, 33078, 0, 0, 0
9758, 33152, 0, 0, 0
9774, 33253, 0, 0, 0
9790, 33369, 0, 0, 0
9806, 33487, 0, 0, 0
9806, 33578, 0, 0, 0
9822, 33625, 0, 0, 0
9838, 33623, 0, 0, 0
9854, 33586, 0, 0, 0
9870, 33534, 0, 0, 0
9886, 33485, 0, 0, 0
9886, 33448, 0, 0, 0
9902, 33413, 0, 0, 0
9918, 33358, 0, 0, 0
9934, 33258, 0, 0, 0
9950, 33100, 0, 0, 0
9966, 32880, 0, 0, 0
9967, 32611, 0, 0, 0
9982, 32317, 0, 0, 0
9998, 32019, 0, 0, 0
10014, 31736, 0, 0, 0
10030, 31489, 0, 0, 0
10046, 31287, 0, 0, 0
10046, 31129, 0, 0, 0
10062, 31006, 0, 0, 0
10078, 30907, 0, 0, 0
10094, 30820, 0, 0, 0
10110, 30737, 0, 0, 0
10126, 30658, 0, 0, 0
10126, 30591, 0, 0, 0
10142, 30549, 0, 0, 0
10158, 30549, 0, 0, 0
10174, 30622, 0, 0, 0
10190, 30815, 0, 0, 0
10206, 31178, 0, 0, 0
10206, 31741, 0, 0, 0
10222, 32496, 1, 0, 0
10238, 33394, 0, 0, 0
10254, 34341, 0, 0, 0
10270, 35226, 0, 0, 0
10286, 35949, 0, 0, 0
10286, 36451, 0, 0, 0
10302, 36712, 0, 0, 0
10318, 36756, 0, 0, 0
10334, 36628, 0, 0, 0
10350, 36393, 0, 0, 0
10366, 36113, 0, 1, 0
10366, 35836, 0, 0, 0
10382, 35587, 0, 0, 0
10398, 35366, 0, 0, 0
10414, 35155, 0, 0, 0
10430, 34928, 0, 0, 0
10446, 34671, 0, 0, 0
10446, 34382, 0, 0, 0
10462, 34082, 0, 0, 0
10478, 33802, 0, 0, 0
10494, 33577, 0, 0, 0
10510, 33427, 0, 0, 0
10526, 33353, 0, 0, 0
10526, 33342, 0, 0, 0
10542, 33369, 0, 0, 0
10558, 33402, 0, 0, 0
10574, 33424, 0, 0, 0
10590, 33422, 0, 0, 0
10606, 33400, 0, 0, 0
10606, 33353, 0, 0, 0
10622, 33279, 0, 0, 0
10638, 33168, 0, 0, 0
10654, 33015, 0, 0, 0
10670, 32818, 0, 0, 0
10686, 32590, 0, 0, 0
10686, 32349, 0, 0, 0
10702, 32122, 0, 0, 0
10718, 31921, 0, 0, 0
10734, 31743, 0, 0, 0
10750, 31576, 0, 0, 0
10766, 31419, 0, 0, 0
10766, 31281, 0, 0, 0
10782, 31184, 0, 0, 0
10798, 31148, 0, 0, 0
10814, 31180, 0, 0, 0
10830, 31257, 0, 0, 0
10846, 31338, 0, 0, 0
10846, 31372, 0, 0, 0
10862, 31326, 0, 0, 0
10878, 31194, 0, 0, 0
10894, 31000, 0, 0, 0
10910, 30788, 0, 0, 0
10926, 30605, 0, 0, 0
10926, 30489, 0, 0, 0
10942, 30452, 0, 0, 0
10958, 30481, 0, 0, 0
10974, 30550, 0, 0, 0
10990, 30636, 0, 0, 0
11006, 30732, 0, 0, 0
11006, 30839, 0, 0, 0
11022, 30969, 0, 0, 0
11038, 31136, 0, 0, 0
11053, 31363, 0, 0, 0
11070, 31687, 0, 0, 0
11086, 32155, 0, 0, 0
11086, 32800, 0, 0, 0
11102, 33606, 1, 0, 0
11117, 34507, 0, 0, 0
11134, 35403, 0, 0, 0
11150, 36185, 0, 0, 0
11165, 36767, 0, 0, 0
11166, 37109, 0, 0, 0
11181, 37213, 0, 0, 0
11197, 37109, 0, 0, 0
11213, 36833, 0, 0, 0
11229, 36426, 0, 1, 0
11245, 35931, 0, 0, 0
11246, 35386, 0, 0, 0
11261, 34799, 0, 0, 0
11277, 34156, 0, 0, 0
11293, 33474, 0, 0, 0
11309, 32803, 0, 0, 0
11325, 32205, 0, 0, 0
11326, 31737, 0, 0, 0
11341, 31439, 0, 0, 0
11357, 31316, 0, 0, 0
11373, 31321, 0, 0, 0
11389, 31384, 0, 0, 0
11405, 31449, 0, 0, 0
11406, 31479, 0, 0, 0
11421, 31450, 0, 0, 0
11437, 31352, 0, 0, 0
11453, 31196, 0, 0, 0
11469, 31010, 0, 0, 0
11485, 30823, 0, 0, 0
11486, 30665, 0, 0, 0
11501, 30549, 0, 0, 0
11517, 30476, 0, 0, 0
11533, 30442, 0, 0, 0
11549, 30431, 0, 0, 0
11565, 30423, 0, 0, 0
11566, 30405, 0, 0, 0
11581, 30374, 0, 0, 0
11597, 30338, 0, 0, 0
11613, 30312, 0, 0, 0
11629, 30313, 0, 0, 0
11645, 30349, 0, 0, 0
11649, 30411, 0, 0, 0
11661, 30479, 0, 0, 0
11677, 30533, 0, 0, 0
11693, 30565, 0, 0, 0
11709, 30574, 0, 0, 0
11725, 30566, 0, 0, 0
11725, 30544, 0, 0, 0
11741, 30509, 0, 0, 0
11757, 30453, 0, 0, 0
11773, 30377, 0, 0, 0
11789, 30285, 0, 0, 0
11805, 30191, 0, 0, 0
11805, 30109, 0, 0, 0
11821, 30045, 0, 0, 0
11837, 29998, 0, 0, 0
11853, 29960, 0, 0, 0
11869, 29925, 0, 0, 0
11885, 29883, 0, 0, 0
11885, 29837, 0, 0, 0
11901, 29800, 0, 0, 0
11917, 29801, 0, 0, 0
11933, 29896, 0, 0, 0
11949, 30154, 0, 0, 0
11965, 30626, 0, 0, 0
11965, 31324, 0, 0, 0
11981, 32203, 1, 0, 0
11997, 33171, 0, 0, 0
12013, 34108, 0, 0, 0
12029, 34907, 0, 0, 0
12045, 35491, 0, 0, 0
12045, 35831, 0, 0, 0
12061, 35931, 0, 0, 0
12077, 35823, 0, 0, 0
12093, 35558, 0, 0, 0
12109, 35199, 0, 0, 0
12125, 34809, 0, 1, 0
12125, 34432, 0, 0, 0
12141, 34089, 0, 0, 0
12157, 33781, 0, 0, 0
12173, 33498, 0, 0, 0
12189, 33225, 0, 0, 0
12205, 32963, 0, 0, 0
12205, 32724, 0, 0, 0
12221, 32528, 0, 0, 0
12237, 32394, 0, 0, 0
12253, 32337, 0, 0, 0
12269, 32357, 0, 0, 0
12285, 32441, 0, 0, 0
12285, 32565, 0, 0, 0
12301, 32701, 0, 0, 0
12317, 32821, 0, 0, 0
12333, 32902, 0, 0, 0
12349, 32933, 0, 0, 0
12365, 32888, 0, 0, 0
12365, 32745, 0, 0, 0
12381, 32514, 0, 0, 0
12397, 32222, 0, 0, 0
12413, 31894, 0, 0, 0
12429, 31550, 0, 0, 0
12445, 31217, 0, 0, 0
12445, 30899, 0, 0, 0
12461, 30587, 0, 0, 0
12477, 30299, 0, 0, 0
12493, 30117, 0, 0, 0
12509, 30101, 0, 0, 0
12525, 30244, 0, 0, 0
12525, 30502, 0, 0, 0
12541, 30830, 0, 0, 0
12557, 31206, 0, 0, 0
12573, 31636, 0, 0, 0
12589, 32140, 0, 0, 0
12605, 32733, 0, 0, 0
12605, 33355, 1, 0, 0
12621, 33849, 0, 0, 0
12637, 34070, 0, 0, 0
12653, 33983, 0, 0, 0
12669, 33653, 0, 0, 0
12685, 33194, 0, 0, 0
12685, 32734, 0, 1, 0
12701, 32380, 0, 0, 0
12717, 32158, 0, 0, 0
12733, 32021, 0, 0, 0
12749, 31903, 0, 0, 0
12765, 31762, 0, 0, 0
12765, 31569, 0, 0, 0
12781, 31321, 0, 0, 0
12796, 31031, 0, 0, 0
12813, 30739, 0, 0, 0
12828, 30488, 0, 0, 0
12845, 30305, 0, 0, 0
12845, 30197, 0, 0, 0
12860, 30163, 0, 0, 0
12876, 30186, 0, 0, 0
12892, 30241, 0, 0, 0
12908, 30330, 0, 0, 0
12924, 30479, 0, 0, 0
12925, 30708, 0, 0, 0
12940, 31014, 0, 0, 0
12956, 31378, 0, 0, 0
12973, 31760, 0, 0, 0
12989, 32110, 0, 0, 0
13004, 32395, 0, 0, 0
13005, 32610, 0, 0, 0
13021, 32751, 0, 0, 0
13036, 32805, 0, 0, 0
13053, 32764, 0, 0, 0
13068, 32628, 0, 0, 0
13084, 32417, 0, 1, 0
13085, 32162, 0, 0, 0
13100, 31901, 0, 0, 0
13116, 31672, 0, 0, 0
13132, 31511, 0, 0, 0
13148, 31432, 0, 0, 0
13164, 31424, 0, 0, 0
13165, 31457, 0, 0, 0
13180, 31500, 0, 0, 0
13196, 31519, 0, 0, 0
13212, 31508, 0, 0, 0
13228, 31492, 0, 0, 0
13244, 31508, 0, 0, 0
13244, 31577, 0, 0, 0
13260, 31691, 0, 0, 0
13276, 31819, 0, 0, 0
13292, 31933, 0, 0, 0
13308, 32020, 0, 0, 0
13324, 32079, 0, 0, 0
13324, 32120, 0, 0, 0
13340, 32153, 0, 0, 0
13356, 32183, 0, 0, 0
13372, 32215, 0, 0, 0
13388, 32259, 0, 0, 0
13404, 32321, 0, 0, 0
13404, 32401, 0, 0, 0
13420, 32490, 0, 0, 0
13436, 32569, 0, 0, 0
13452, 32622, 0, 0, 0
13468, 32636, 0, 0, 0
13484, 32617, 0, 0, 0
13485, 32579, 0, 0, 0
13500, 32536, 0, 0, 0
13516, 32498, 0, 0, 0
13532, 32470, 0, 0, 0
13548, 32447, 0, 0, 0
13564, 32420, 0, 0, 0
13565, 32382, 0, 0, 0
13580, 32333, 0, 0, 0
13596, 32281, 0, 0, 0
13612, 32238, 0, 0, 0
13628, 32207, 0, 0, 0
13644, 32187, 0, 0, 0
13660, 32168, 0, 0, 0
13660, 32144, 0, 0, 0
13676, 32114, 0, 0, 0
13692, 32081, 0, 0, 0
13708, 32058, 0, 0, 0
13724, 32053, 0, 0, 0
13724, 32073, 0, 0, 0
13740, 32131, 0, 0, 0
13756, 32280, 0, 0, 0
13772, 32621, 0, 0, 0
13788, 33239, 0, 0, 0
13804, 34119, 1, 0, 0
13804, 35147, 0, 0, 0
13820, 36144, 0, 0, 0
13836, 36926, 0, 0, 0
13852, 37356, 0, 0, 0
13868, 37420, 0, 0, 0
13884, 37210, 0, 0, 0
13884, 36849, 0, 0, 0
13900, 36424, 0, 0, 0
13916, 35990, 0, 1, 0
13932, 35580, 0, 0, 0
13948, 35201, 0, 0, 0
13964, 34848, 0, 0, 0
13964, 34507, 0, 0, 0
13980, 34169, 0, 0, 0
13996, 33841, 0, 0, 0
14012, 33533, 0, 0, 0
14028, 33265, 0, 0, 0
14044, 33061, 0, 0, 0
14044, 32940, 0, 0, 0
14060, 32912, 0, 0, 0
14076, 32968, 0, 0, 0
14092, 33084, 0, 0, 0
14108, 33229, 0, 0, 0
14124, 33360, 0, 0, 0
14124, 33435, 0, 0, 0
14140, 33433, 0, 0, 0
14156, 33355, 0, 0, 0
14172, 33222, 0, 0, 0
14188, 33064, 0, 0, 0
14204, 32908, 0, 0, 0
14204, 32773, 0, 0, 0
14220, 32661, 0, 0, 0
14236, 32565, 0, 0, 0
14252, 32471, 0, 0, 0
14268, 32377, 0, 0, 0
14284, 32282, 0, 0, 0
14300, 32192, 0, 0, 0
14300, 32110, 0, 0, 0
14316, 32042, 0, 0, 0
14332, 31990, 0, 0, 0
14348, 31954, 0, 0, 0
14364, 31935, 0, 0, 0
14380, 31932, 0, 0, 0
14380, 31937, 0, 0, 0
14396, 31940, 0, 0, 0
14412, 31933, 0, 0, 0
14428, 31917, 0, 0, 0
14444, 31896, 0, 0, 0
14460, 31878, 0, 0, 0
14460, 31865, 0, 0, 0
14476, 31857, 0, 0, 0
14492, 31847, 0, 0, 0
14508, 31829, 0, 0, 0
14524, 31804, 0, 0, 0
14539, 31788, 0, 0, 0
14540, 31835, 0, 0, 0
14555, 32068, 0, 0, 0
14572, 32623, 0, 0, 0
14588, 33551, 1, 0, 0
14603, 34786, 0, 0, 0
14619, 36162, 0, 0, 0
14620, 37454, 0, 0, 0
14635, 38441, 0, 0, 0
14652, 39008, 0, 0, 0
14668, 39174, 0, 0, 0
14684, 39036, 0, 0, 0
14699, 38694, 0, 0, 0
14700, 38235, 0, 0, 0
14715, 37726, 0, 1, 0
14731, 37214, 0, 0, 0
14747, 36726, 0, 0, 0
14763, 36270, 0, 0, 0
14779, 35843, 0, 0, 0
14780, 35434, 0, 0, 0
14795, 35036, 0, 0, 0
14811, 34651, 0, 0, 0
14827, 34288, 0, 0, 0
14843, 33966, 0, 0, 0
14859, 33704, 0, 0, 0
14860, 33514, 0, 0, 0
14875, 33396, 0, 0, 0
14891, 33340, 0, 0, 0
14907, 33327, 0, 0, 0
14924, 33333, 0, 0, 0
14939, 33334, 0, 0, 0
14940, 33309, 0, 0, 0
14955, 33247, 0, 0, 0
14972, 33142, 0, 0, 0
14987, 32997, 0, 0, 0
15003, 32819, 0, 0, 0
15019, 32619, 0, 0, 0
15020, 32409, 0, 0, 0
15035, 32201, 0, 0, 0
15051, 32008, 0, 0, 0
15067, 31838, 0, 0, 0
15083, 31691, 0, 0, 0
15099, 31561, 0, 0, 0
15100, 31440, 0, 0, 0
15115, 31322, 0, 0, 0
15131, 31207, 0, 0, 0
15147, 31100, 0, 0, 0
15163, 31009, 0, 0, 0
15179, 30940, 0, 0, 0
15179, 30894, 0, 0, 0
15195, 30865, 0, 0, 0
15211, 30845, 0, 0, 0
15227, 30829, 0, 0, 0
15243, 30813, 0, 0, 0
15259, 30796, 0, 0, 0
15259, 30782, 0, 0, 0
15275, 30774, 0, 0, 0
15291, 30777, 0, 0, 0
15307, 30794, 0, 0, 0
15323, 30828, 0, 0, 0
15339, 30889, 0, 0, 0
15339, 31004, 0, 0, 0
15355, 31261, 0, 0, 0
15371, 31804, 0, 0, 0
15387, 32711, 1, 0, 0
15403, 33911, 0, 0, 0
15419, 35217, 0, 0, 0
15420, 36401, 0, 0, 0
15435, 37240, 0, 0, 0
15451, 37616, 0, 0, 0
15467, 37569, 0, 0, 0
15483, 37260, 0, 0, 0
15499, 36832, 0, 0, 0
15500, 36368, 0, 0, 0
15515, 35914, 0, 1, 0
15531, 35492, 0, 0, 0
15547, 35106, 0, 0, 0
15563, 34752, 0, 0, 0
15579, 34425, 0, 0, 0
15580, 34115, 0, 0, 0
15595, 33820, 0, 0, 0
15611, 33541, 0, 0, 0
15627, 33281, 0, 0, 0
15643, 33043, 0, 0, 0
15659, 32833, 0, 0, 0
15659, 32656, 0, 0, 0
15675, 32509, 0, 0, 0
15691, 32391, 0, 0, 0
15707, 32297, 0, 0, 0
15723, 32222, 0, 0, 0
15739, 32159, 0, 0, 0
15739, 32101, 0, 0, 0
15755, 32042, 0, 0, 0
15771, 31975, 0, 0, 0
15787, 31900, 0, 0, 0
15803, 31815, 0, 0, 0
15819, 31723, 0, 0, 0
15819, 31630, 0, 0, 0
15835, 31539, 0, 0, 0
15851, 31456, 0, 0, 0
15867, 31379, 0, 0, 0
15883, 31309, 0, 0, 0
15899, 31242, 0, 0, 0
15899, 31178, 0, 0, 0
15915, 31117, 0, 0, 0
15931, 31061, 0, 0, 0
15947, 31012, 0, 0, 0
15963, 30975, 0, 0, 0
15979, 30950, 0, 0, 0
15979, 30938, 0, 0, 0
15995, 30937, 0, 0, 0
16011, 30942, 0, 0, 0
16027, 30950, 0, 0, 0
16043, 30960, 0, 0, 0
16059, 30969, 0, 0, 0
16059, 30979, 0, 0, 0
16075, 30992, 0, 0, 0
16091, 31008, 0, 0, 0
16107, 31025, 0, 0, 0
16123, 31047, 0, 0, 0
16139, 31081, 0, 0, 0
16139, 31143, 0, 0, 0
16155, 31255, 0, 0, 0
16171, 31452, 0, 0, 0
16186, 31823, 0, 0, 0
16203, 32481, 0, 0, 0
16218, 33451, 1, 0, 0
16219, 34622, 0, 0, 0
16235, 35801, 0, 0, 0
16251, 36780, 0, 0, 0
16267, 37384, 0, 0, 0
16283, 37552, 0, 0, 0
16299, 37369, 0, 0, 0
16299, 36999, 0, 0, 0
16315, 36562, 0, 0, 0
16331, 36120, 0, 1, 0
16347, 35700, 0, 0, 0
16363, 35305, 0, 0, 0
16379, 34933, 0, 0, 0
16379, 34581, 0, 0, 0
16395, 34249, 0, 0, 0
16411, 33938, 0, 0, 0
16427, 33649, 0, 0, 0
16443, 33391, 0, 0, 0
16459, 33166, 0, 0, 0
16459, 32978, 0, 0, 0
16475, 32827, 0, 0, 0
16490, 32719, 0, 0, 0
16507, 32654, 0, 0, 0
16523, 32642, 0, 0, 0
16538, 32698, 0, 0, 0
16539, 32845, 0, 0, 0
16554, 33095, 0, 0, 0
16570, 33445, 0, 0, 0
16586, 33886, 0, 0, 0
16602, 34409, 0, 0, 0
16618, 34985, 0, 0, 0
16619, 35478, 0, 0, 0
16634, 35756, 0, 0, 0
16650, 35761, 0, 0, 0
16666, 35525, 0, 0, 0
16682, 35102, 0, 0, 0
16698, 34592, 0, 0, 0
16699, 34128, 0, 0, 0
16714, 33768, 0, 0, 0
16730, 33489, 0, 0, 0
16746, 33257, 0, 0, 0
16762, 33102, 0, 0, 0
16778, 33020, 0, 0, 0
16779, 32991, 0, 0, 0
16794, 32981, 0, 0, 0
16810, 32958, 0, 0, 0
16826, 32903, 0, 0, 0
16842, 32814, 0, 0, 0
16858, 32701, 0, 0, 0
16859, 32575, 0, 0, 0
16874, 32442, 0, 0, 0
16890, 32303, 0, 0, 0
16906, 32155, 0, 0, 0
16922, 32007, 0, 0, 0
16938, 31870, 0, 0, 0
16939, 31751, 0, 0, 0
16954, 31668, 0, 0, 0
16970, 31657, 0, 0, 0
16986, 31775, 0, 0, 0
17002, 32078, 0, 0, 0
17018, 32606, 0, 0, 0
17018, 33360, 1, 0, 0
17053, 34284, 0, 0, 0
17053, 35271, 0, 0, 0
17066, 36193, 0, 0, 0
17082, 36943, 0, 0, 0
17098, 37444, 0, 0, 0
17099, 37663, 0, 0, 0
17114, 37609, 0, 0, 0
17130, 37329, 0, 0, 0
17146, 36889, 0, 0, 0
17162, 36359, 0, 1, 0
17178, 35806, 0, 0, 0
17179, 35273, 0, 0, 0
17194, 34773, 0, 0, 0
17210, 34287, 0, 0, 0
17226, 33793, 0, 0, 0
17242, 33284, 0, 0, 0
17258, 32775, 0, 0, 0
17258, 32287, 0, 0, 0
17274, 31849, 0, 0, 0
17290, 31496, 0, 0, 0
17306, 31251, 0, 0, 0
17322, 31117, 0, 0, 0
17338, 31082, 0, 0, 0
17338, 31142, 0, 0, 0
17354, 31276, 0, 0, 0
17370, 31442, 0, 0, 0
17386, 31594, 0, 0, 0
17402, 31691, 0, 0, 0
17418, 31706, 0, 0, 0
17418, 31631, 0, 0, 0
17434, 31491, 0, 0, 0
17450, 31330, 0, 0, 0
17466, 31192, 0, 0, 0
17482, 31104, 0, 0, 0
17498, 31065, 0, 0, 0
17498, 31044, 0, 0, 0
17514, 30991, 0, 0, 0
17530, 30876, 0, 0, 0
17546, 30704, 0, 0, 0
17562, 30501, 0, 0, 0
17578, 30308, 0, 0, 0
17578, 30167, 0, 0, 0
17594, 30100, 0, 0, 0
17610, 30098, 0, 0, 0
17626, 30135, 0, 0, 0
17642, 30187, 0, 0, 0
17658, 30245, 0, 0, 0
17658, 30299, 0, 0, 0
17674, 30356, 0, 0, 0
17690, 30417, 0, 0, 0
17706, 30484, 0, 0, 0
17722, 30553, 0, 0, 0
17738, 30621, 0, 0, 0
17738, 30690, 0, 0, 0
17754, 30764, 0, 0, 0
17770, 30844, 0, 0, 0
17786, 30941, 0, 0, 0
17802, 31085, 0, 0, 0
17818, 31328, 0, 0, 0
17818, 31732, 0, 0, 0
17834, 32337, 0, 0, 0
17850, 33136, 1, 0, 0
17866, 34074, 0, 0, 0
17882, 35051, 0, 0, 0
17898, 35957, 0, 0, 0
17898, 36707, 0, 0, 0
17914, 37253, 0, 0, 0
17930, 37582, 0, 0, 0
17946, 37705, 0, 0, 0
17962, 37648, 0, 0, 0
17978, 37451, 0, 0, 0
17978, 37175, 0, 1, 0
17994, 36864, 0, 0, 0
18010, 36521, 0, 0, 0
18026, 36133, 0, 0, 0
18042, 35696, 0, 0, 0
18058, 35212, 0, 0, 0
18058, 34700, 0, 0, 0
18074, 34206, 0, 0, 0
18090, 33790, 0, 0, 0
18106, 33482, 0, 0, 0
18122, 33278, 0, 0, 0
18138, 33164, 0, 0, 0
18138, 33130, 0, 0, 0
18153, 33158, 0, 0, 0
18169, 33224, 0, 0, 0
18185, 33294, 0, 0, 0
18201, 33340, 0, 0, 0
18217, 33343, 0, 0, 0
18218, 33286, 0, 0, 0
18234, 33168, 0, 0, 0
18249, 33001, 0, 0, 0
18265, 32796, 0, 0, 0
18281, 32566, 0, 0, 0
18297, 32326, 0, 0, 0
18298, 32095, 0, 0, 0
18313, 31891, 0, 0, 0
18329, 31723, 0, 0, 0
18346, 31589, 0, 0, 0
18362, 31475, 0, 0, 0
18378, 31364, 0, 0, 0
18378, 31251, 0, 0, 0
18394, 31143, 0, 0, 0
18410, 31052, 0, 0, 0
18425, 30989, 0, 0, 0
18441, 30955, 0, 0, 0
18457, 30947, 0, 0, 0
18458, 30953, 0, 0, 0
18474, 30967, 0, 0, 0
18489, 30987, 0, 0, 0
18505, 31011, 0, 0, 0
18521, 31037, 0, 0, 0
18537, 31058, 0, 0, 0
18538, 31068, 0, 0, 0
18553, 31065, 0, 0, 0
18569, 31054, 0, 0, 0
18585, 31038, 0, 0, 0
18601, 31017, 0, 0, 0
18617, 30990, 0, 0, 0
18618, 30953, 0, 0, 0
18633, 30899, 0, 0, 0
18649, 30843, 0, 0, 0
18665, 30831, 0, 0, 0
18681, 30935, 0, 0, 0
18697, 31239, 0, 0, 0
18698, 31808, 0, 0, 0
18713, 32656, 1, 0, 0
18729, 33734, 0, 0, 0
18745, 34936, 0, 0, 0
18761, 36122, 0, 0, 0
18777, 37161, 0, 0, 0
18777, 37958, 0, 0, 0
18793, 38459, 0, 0, 0
18809, 38656, 0, 0, 0
18825, 38573, 0, 0, 0
18841, 38257, 0, 0, 0
18857, 37766, 0, 0, 0
18857, 37170, 0, 1, 0
18873, 36533, 0, 0, 0
18889, 35911, 0, 0, 0
18905, 35339, 0, 0, 0
18921, 34835, 0, 0, 0
18937, 34399, 0, 0, 0
18938, 34028, 0, 0, 0
18953, 33723, 0, 0, 0
18969, 33487, 0, 0, 0
18985, 33329, 0, 0, 0
19001, 33249, 0, 0, 0
19017, 33241, 0, 0, 0
19018, 33284, 0, 0, 0
19033, 33351, 0, 0, 0
19049, 33411, 0, 0, 0
19065, 33439, 0, 0, 0
19081, 33420, 0, 0, 0
19097, 33349, 0, 0, 0
19097, 33234, 0, 0, 0
19113, 33084, 0, 0, 0
19129, 32909, 0, 0, 0
19145, 32717, 0, 0, 0
19161, 32515, 0, 0, 0
19177, 32306, 0, 0, 0
19177, 32097, 0, 0, 0
19193, 31892, 0, 0, 0
19209, 31693, 0, 0, 0
19225, 31504, 0, 0, 0
19241, 31326, 0, 0, 0
19257, 31161, 0, 0, 0
19257, 31014, 0, 0, 0
19273, 30891, 0, 0, 0
19289, 30791, 0, 0, 0
19305, 30711, 0, 0, 0
19321, 30644, 0, 0, 0
19337, 30587, 0, 0, 0
19337, 30534, 0, 0, 0
19353, 30485, 0, 0, 0
19369, 30442, 0, 0, 0
19385, 30405, 0, 0, 0
19401, 30372, 0, 0, 0
19417, 30347, 0, 0, 0
19417, 30332, 0, 0, 0
19433, 30324, 0, 0, 0
19449, 30324, 0, 0, 0
19465, 30328, 0, 0, 0
19481, 30330, 0, 0, 0
19497, 30325, 0, 0, 0
19497, 30313, 0, 0, 0
19513, 30298, 0, 0, 0
19529, 30294, 0, 0, 0
19545, 30330, 0, 0, 0
19561, 30459, 0, 0, 0
19577, 30758, 0, 0, 0
19577, 31291, 0, 0, 0
19593, 32076, 1, 0, 0
19609, 33074, 0, 0, 0
19625, 34192, 0, 0, 0
19641, 35292, 0, 0, 0
19657, 36245, 0, 0, 0
19673, 36964, 0, 0, 0
19673, 37408, 0, 0, 0
19689, 37580, 0, 0, 0
19705, 37516, 0, 0, 0
19721, 37272, 0, 0, 0
19737, 36900, 0, 0, 0
19737, 36455, 0, 1, 0
19753, 35985, 0, 0, 0
19769, 35517, 0, 0, 0
19785, 35063, 0, 0, 0
19801, 34625, 0, 0, 0
19817, 34207, 0, 0, 0
19817, 33814, 0, 0, 0
19833, 33460, 0, 0, 0
19849, 33163, 0, 0, 0
19865, 32945, 0, 0, 0
19881, 32811, 0, 0, 0
19897, 32753, 0, 0, 0
19897, 32754, 0, 0, 0
19913, 32793, 0, 0, 0
19929, 32843, 0, 0, 0
19944, 32885, 0, 0, 0
19961, 32904, 0, 0, 0
19977, 32891, 0, 0, 0
19993, 32841, 0, 0, 0
19993, 32754, 0, 0, 0
20009, 32636, 0, 0, 0
20024, 32494, 0, 0, 0
20040, 32334, 0, 0, 0
20057, 32160, 0, 0, 0
20057, 31979, 0, 0, 0
20073, 31796, 0, 0, 0
20088, 31614, 0, 0, 0
20105, 31443, 0, 0, 0
20121, 31287, 0, 0, 0
20136, 31148, 0, 0, 0
20137, 31026, 0, 0, 0
20153, 30921, 0, 0, 0
20168, 30832, 0, 0, 0
20184, 30761, 0, 0, 0
20201, 30709, 0, 0, 0
20217, 30672, 0, 0, 0
20217, 30646, 0, 0, 0
20232, 30625, 0, 0, 0
20248, 30607, 0, 0, 0
20264, 30587, 0, 0, 0
20280, 30567, 0, 0, 0
20296, 30549, 0, 0, 0
20297, 30528, 0, 0, 0
20312, 30499, 0, 0, 0
20328, 30464, 0, 0, 0
20344, 30425, 0, 0, 0
20360, 30389, 0, 0, 0
20376, 30379, 0, 0, 0
20376, 30446, 0, 0, 0
20392, 30660, 0, 0, 0
20408, 31094, 0, 0, 0
20424, 31783, 0, 0, 0
20440, 32705, 1, 0, 0
20456, 33779, 0, 0, 0
20457, 34882, 0, 0, 0
20472, 35884, 0, 0, 0
20488, 36680, 0, 0, 0
20504, 37217, 0, 0, 0
20520, 37487, 0, 0, 0
20536, 37513, 0, 0, 0
20537, 37337, 0, 0, 0
20552, 37011, 0, 0, 0
20568, 36588, 0, 1, 0
20584, 36114, 0, 0, 0
20600, 35620, 0, 0, 0
20616, 35130, 0, 0, 0
20632, 34654, 0, 0, 0
20633, 34199, 0, 0, 0
20648, 33773, 0, 0, 0
20664, 33390, 0, 0, 0
20680, 33075, 0, 0, 0
20696, 32846, 0, 0, 0
20712, 32717, 0, 0, 0
20712, 32682, 0, 0, 0
20728, 32725, 0, 0, 0
20744, 32814, 0, 0, 0
20760, 32919, 0, 0, 0
20776, 33007, 0, 0, 0
20792, 33059, 0, 0, 0
20792, 33060, 0, 0, 0
20808, 33006, 0, 0, 0
20824, 32902, 0, 0, 0
20840, 32755, 0, 0, 0
20856, 32575, 0, 0, 0
20872, 32374, 0, 0, 0
20872, 32161, 0, 0, 0
20888, 31948, 0, 0, 0
20904, 31742, 0, 0, 0
20920, 31546, 0, 0, 0
20936, 31363, 0, 0, 0
20952, 31198, 0, 0, 0
20952, 31052, 0, 0, 0
20968, 30926, 0, 0, 0
20984, 30819, 0, 0, 0
21000, 30734, 0, 0, 0
21016, 30669, 0, 0, 0
21032, 30619, 0, 0, 0
21032, 30585, 0, 0, 0
21048, 30566, 0, 0, 0
21064, 30556, 0, 0, 0
21080, 30554, 0, 0, 0
21096, 30557, 0, 0, 0
21112, 30560, 0, 0, 0
21112, 30561, 0, 0, 0
21128, 30556, 0, 0, 0
21144, 30540, 0, 0, 0
21160, 30514, 0, 0, 0
21176, 30483, 0, 0, 0
21192, 30451, 0, 0, 0
21192, 30427, 0, 0, 0
21208, 30430, 0, 0, 0
21224, 30506, 0, 0, 0
21240, 30730, 0, 0, 0
21256, 31178, 0, 0, 0
21272, 31896, 0, 0, 0
21272, 32870, 1, 0, 0
21288, 34025, 0, 0, 0
21304, 35232, 0, 0, 0
21320, 36350, 0, 0, 0
21336, 37265, 0, 0, 0
21352, 37914, 0, 0, 0
21352, 38282, 0, 0, 0
21368, 38384, 0, 0, 0
21384, 38259, 0, 0, 0
21400, 37961, 0, 0, 0
21416, 37548, 0, 1, 0
21432, 37074, 0, 0, 0
21432, 36578, 0, 0, 0
21448, 36087, 0, 0, 0
21464, 35612, 0, 0, 0
21480, 35149, 0, 0, 0
21496, 34700, 0, 0, 0
21512, 34274, 0, 0, 0
21512, 33887, 0, 0, 0
21528, 33561, 0, 0, 0
21544, 33316, 0, 0, 0
21560, 33159, 0, 0, 0
21576, 33086, 0, 0, 0
21592, 33079, 0, 0, 0
21592, 33115, 0, 0, 0
21608, 33167, 0, 0, 0
21624, 33209, 0, 0, 0
21640, 33219, 0, 0, 0
21655, 33184, 0, 0, 0
21672, 33097, 0, 0, 0
21672, 32958, 0, 0, 0
21687, 32778, 0, 0, 0
21704, 32571, 0, 0, 0
21720, 32348, 0, 0, 0
21735, 32116, 0, 0, 0
21751, 31886, 0, 0, 0
21752, 31664, 0, 0, 0
21767, 31455, 0, 0, 0
21784, 31263, 0, 0, 0
21800, 31092, 0, 0, 0
21816, 30941, 0, 0, 0
21832, 30810, 0, 0, 0
21832, 30697, 0, 0, 0
21848, 30599, 0, 0, 0
21864, 30517, 0, 0, 0
21880, 30452, 0, 0, 0
21896, 30406, 0, 0, 0
21911, 30372, 0, 0, 0
21912, 30349, 0, 0, 0
21927, 30335, 0, 0, 0
21944, 30327, 0, 0, 0
21959, 30320, 0, 0, 0
21976, 30315, 0, 0, 0
21991, 30307, 0, 0, 0
21992, 30295, 0, 0, 0
22007, 30274, 0, 0, 0
22023, 30249, 0, 0, 0
22039, 30221, 0, 0, 0
22055, 30191, 0, 0, 0
22071, 30156, 0, 0, 0
22072, 30124, 0, 0, 0
22087, 30108, 0, 0, 0
22103, 30158, 0, 0, 0
22120, 30352, 0, 0, 0
22135, 30774, 0, 0, 0
22151, 31480, 0, 0, 0
22151, 32462, 1, 0, 0
22167, 33648, 0, 0, 0
22183, 34910, 0, 0, 0
22199, 36099, 0, 0, 0
22215, 37090, 0, 0, 0
22231, 37809, 0, 0, 0
22231, 38227, 0, 0, 0
22247, 38361, 0, 0, 0
22263, 38251, 0, 0, 0
22279, 37956, 0, 0, 0
22295, 37541, 0, 1, 0
22311, 37065, 0, 0, 0
22312, 36573, 0, 0, 0
22327, 36092, 0, 0, 0
22343, 35631, 0, 0, 0
22359, 35185, 0, 0, 0
22375, 34751, 0, 0, 0
22391, 34338, 0, 0, 0
22391, 33961, 0, 0, 0
22408, 33644, 0, 0, 0
22423, 33406, 0, 0, 0
22439, 33256, 0, 0, 0
22455, 33185, 0, 0, 0
22471, 33174, 0, 0, 0
22471, 33195, 0, 0, 0
22487, 33225, 0, 0, 0
22503, 33239, 0, 0, 0
22519, 33219, 0, 0, 0
22535, 33152, 0, 0, 0
22551, 33035, 0, 0, 0
22551, 32873, 0, 0, 0
22567, 32677, 0, 0, 0
22583, 32456, 0, 0, 0
22599, 32223, 0, 0, 0
22615, 31986, 0, 0, 0
22631, 31750, 0, 0, 0
22631, 31523, 0, 0, 0
22647, 31311, 0, 0, 0
22663, 31117, 0, 0, 0
22679, 30946, 0, 0, 0
22695, 30796, 0, 0, 0
22711, 30665, 0, 0, 0
22711, 30554, 0, 0, 0
22727, 30462, 0, 0, 0
22743, 30387, 0, 0, 0
22759, 30327, 0, 0, 0
22775, 30275, 0, 0, 0
22791, 30227, 0, 0, 0
22791, 30180, 0, 0, 0
22807, 30137, 0, 0, 0
22823, 30102, 0, 0, 0
22839, 30079, 0, 0, 0
22855, 30065, 0, 0, 0
22871, 30054, 0, 0, 0
22871, 30042, 0, 0, 0
22887, 30019, 0, 0, 0
22903, 29983, 0, 0, 0
22919, 29935, 0, 0, 0
22935, 29882, 0, 0, 0
22951, 29836, 0, 0, 0
22951, 29811, 0, 0, 0
22967, 29843, 0, 0, 0
22983, 29987, 0, 0, 0
22999, 30319, 0, 0, 0
23015, 30901, 0, 0, 0
23031, 31754, 1, 0, 0
23031, 32832, 0, 0, 0
23047, 34037, 0, 0, 0
23063, 35232, 0, 0, 0
23079, 36278, 0, 0, 0
23095, 37080, 0, 0, 0
23111, 37594, 0, 0, 0
23111, 37825, 0, 0, 0
23127, 37808, 0, 0, 0
23143, 37597, 0, 0, 0
23159, 37249, 0, 0, 0
23175, 36822, 0, 1, 0
23191, 36360, 0, 0, 0
23191, 35891, 0, 0, 0
23207, 35423, 0, 0, 0
23223, 34960, 0, 0, 0
23239, 34503, 0, 0, 0
23255, 34059, 0, 0, 0
23271, 33647, 0, 0, 0
23271, 33297, 0, 0, 0
23287, 33030, 0, 0, 0
23302, 32862, 0, 0, 0
23319, 32789, 0, 0, 0
23335, 32793, 0, 0, 0
23350, 32851, 0, 0, 0
23351, 32936, 0, 0, 0
23367, 33018, 0, 0, 0
23383, 33074, 0, 0, 0
23399, 33086, 0, 0, 0
23415, 33044, 0, 0, 0
23431, 32946, 0, 0, 0
23431, 32797, 0, 0, 0
23447, 32606, 0, 0, 0
23463, 32384, 0, 0, 0
23479, 32142, 0, 0, 0
23495, 31895, 0, 0, 0
23510, 31655, 0, 0, 0
23511, 31435, 0, 0, 0
23527, 31241, 0, 0, 0
23542, 31077, 0, 0, 0
23558, 30937, 0, 0, 0
23575, 30817, 0, 0, 0
23591, 30712, 0, 0, 0
23591, 30623, 0, 0, 0
23607, 30552, 0, 0, 0
23623, 30501, 0, 0, 0
23638, 30466, 0, 0, 0
23654, 30442, 0, 0, 0
23671, 30424, 0, 0, 0
23671, 30408, 0, 0, 0
23686, 30393, 0, 0, 0
23703, 30379, 0, 0, 0
23718, 30370, 0, 0, 0
23734, 30367, 0, 0, 0
23750, 30365, 0, 0, 0
23750, 30361, 0, 0, 0
23766, 30351, 0, 0, 0
23782, 30333, 0, 0, 0
23798, 30309, 0, 0, 0
23814, 30279, 0, 0, 0
23830, 30252, 0, 0, 0
23831, 30244, 0, 0, 0
23846, 30291, 0, 0, 0
23862, 30453, 0, 0, 0
23878, 30808, 0, 0, 0
23894, 31413, 0, 0, 0
23910, 32276, 1, 0, 0
23910, 33347, 0, 0, 0
23926, 34523, 0, 0, 0
23942, 35669, 0, 0, 0
23958, 36664, 0, 0, 0
23974, 37422, 0, 0, 0
23990, 37909, 0, 0, 0
23991, 38128, 0, 0, 0
24006, 38108, 0, 0, 0
24022, 37898, 0, 0, 0
24038, 37553, 0, 0, 0
24054, 37125, 0, 1, 0
24070, 36658, 0, 0, 0
24071, 36177, 0, 0, 0
24086, 35694, 0, 0, 0
24102, 35217, 0, 0, 0
24118, 34749, 0, 0, 0
24134, 34308, 0, 0, 0
24150, 33917, 0, 0, 0
24150, 33600, 0, 0, 0
24166, 33375, 0, 0, 0
24182, 33249, 0, 0, 0
24200, 33210, 0, 0, 0
24214, 33237, 0, 0, 0
24230, 33303, 0, 0, 0
24230, 33379, 0, 0, 0
24246, 33440, 0, 0, 0
24262, 33464, 0, 0, 0
24278, 33438, 0, 0, 0
24294, 33361, 0, 0, 0
24310, 33235, 0, 0, 0
24310, 33070, 0, 0, 0
24326, 32876, 0, 0, 0
24342, 32664, 0, 0, 0
24358, 32439, 0, 0, 0
24374, 32211, 0, 0, 0
24390, 31988, 0, 0, 0
24391, 31774, 0, 0, 0
24406, 31576, 0, 0, 0
24422, 31396, 0, 0, 0
24438, 31234, 0, 0, 0
24454, 31090, 0, 0, 0
24470, 30964, 0, 0, 0
24470, 30856, 0, 0, 0
24486, 30769, 0, 0, 0
24502, 30702, 0, 0, 0
24518, 30653, 0, 0, 0
24534, 30615, 0, 0, 0
24550, 30584, 0, 0, 0
24550, 30560, 0, 0, 0
24566, 30543, 0, 0, 0
24582, 30536, 0, 0, 0
24598, 30539, 0, 0, 0
24614, 30552, 0, 0, 0
24630, 30573, 0, 0, 0
24630, 30598, 0, 0, 0
24646, 30621, 0, 0, 0
24662, 30639, 0, 0, 0
24678, 30648, 0, 0, 0
24694, 30646, 0, 0, 0
24710, 30627, 0, 0, 0
24710, 30591, 0, 0, 0
24726, 30544, 0, 0, 0
24742, 30504, 0, 0, 0
24758, 30509, 0, 0, 0
24774, 30624, 0, 0, 0
24790, 30934, 0, 0, 0
24790, 31508, 0, 0, 0
24806, 32367, 1, 0, 0
24822, 33468, 0, 0, 0
24838, 34707, 0, 0, 0
24854, 35942, 0, 0, 0
24870, 37035, 0, 0, 0
24870, 37884, 0, 0, 0
24886, 38442, 0, 0, 0
24902, 38711, 0, 0, 0
24918, 38724, 0, 0, 0
24934, 38528, 0, 0, 0
24950, 38185, 0, 0, 0
24950, 37757, 0, 1, 0
24966, 37296, 0, 0, 0
24982, 36834, 0, 0, 0
24998, 36382, 0, 0, 0
25014, 35939, 0, 0, 0
25030, 35500, 0, 0, 0
25046, 35067, 0, 0, 0
25046, 34654, 0, 0, 0
25062, 34286, 0, 0, 0
25078, 33985, 0, 0, 0
25094, 33766, 0, 0, 0
25110, 33629, 0, 0, 0
