0, 33760, 0, 0, 0
0, 33305, 0, 0, 0
0, 32724, 0, 0, 0
0, 32057, 0, 0, 0
0, 31334, 0, 0, 0
0, 30582, 0, 0, 0
0, 29822, 0, 0, 0
0, 29079, 0, 0, 0
0, 28373, 0, 0, 0
0, 27722, 0, 0, 0
0, 27138, 0, 0, 0
0, 26631, 0, 0, 0
0, 26200, 0, 0, 0
0, 25841, 0, 0, 0
0, 25553, 0, 0, 0
0, 25333, 0, 0, 0
0, 25180, 0, 0, 0
0, 25097, 0, 0, 0
0, 25082, 0, 0, 0
0, 25138, 0, 0, 0
0, 25261, 0, 0, 0
0, 25441, 0, 0, 0
0, 25667, 0, 0, 0
0, 25924, 0, 0, 0
0, 26195, 0, 0, 0
0, 26466, 0, 0, 0
0, 26728, 0, 0, 0
0, 26973, 0, 0, 0
0, 27190, 0, 0, 0
0, 27372, 0, 0, 0
0, 27511, 0, 0, 0
0, 27599, 0, 0, 0
0, 27628, 0, 0, 0
0, 27598, 0, 0, 0
0, 27521, 0, 0, 0
0, 27424, 0, 0, 0
0, 27387, 0, 0, 0
0, 27619, 0, 0, 0
0, 28467, 0, 0, 0
0, 30265, 0, 0, 0
0, 33116, 0, 0, 0
0, 36792, 0, 0, 0
0, 40800, 0, 0, 0
0, 44523, 0, 0, 0
0, 47413, 0, 0, 0
0, 49188, 0, 0, 0
0, 49885, 0, 0, 0
0, 49711, 0, 0, 0
0, 48884, 0, 0, 0
0, 47583, 0, 0, 0
0, 45956, 0, 1, 0
0, 44129, 0, 0, 0
0, 42214, 0, 0, 0
0, 40302, 0, 0, 0
0, 38460, 0, 0, 0
0, 36722, 0, 0, 0
0, 35118, 0, 0, 0
0, 33699, 0, 0, 0
0, 32543, 0, 0, 0
0, 31744, 0, 0, 0
0, 31375, 0, 0, 0
0, 31458, 0, 0, 0
0, 31938, 0, 0, 0
0, 32683, 0, 0, 0
0, 33526, 0, 0, 0
0, 34307, 0, 0, 0
0, 34905, 0, 0, 0
0, 35250, 0, 0, 0
0, 35325, 0, 0, 0
0, 35143, 0, 0, 0
0, 34740, 0, 0, 0
0, 34161, 0, 0, 0
0, 33442, 0, 0, 0
0, 32620, 0, 0, 0
0, 31731, 0, 0, 0
0, 30811, 0, 0, 0
0, 29901, 0, 0, 0
0, 29037, 0, 0, 0
0, 28245, 0, 0, 0
0, 27545, 0, 0, 0
0, 26943, 0, 0, 0
0, 26445, 0, 0, 0
0, 26054, 0, 0, 0
0, 25766, 0, 0, 0
0, 25574, 0, 0, 0
0, 25472, 0, 0, 0
0, 25451, 0, 0, 0
0, 25499, 0, 0, 0
0, 25605, 0, 0, 0
0, 25765, 0, 0, 0
0, 25972, 0, 0, 0
0, 26219, 0, 0, 0
0, 26492, 0, 0, 0
0, 26777, 0, 0, 0
0, 27055, 0, 0, 0
0, 27305, 0, 0, 0
0, 27516, 0, 0, 0
0, 27674, 0, 0, 0
0, 27772, 0, 0, 0
0, 27809, 0, 0, 0
0, 27789, 0, 0, 0
0, 27728, 0, 0, 0
0, 27689, 0, 0, 0
0, 27854, 0, 0, 0
0, 28555, 0, 0, 0
0, 30149, 0, 0, 0
0, 32795, 0, 0, 0
0, 36322, 0, 0, 0
0, 40278, 0, 0, 0
0, 44062, 0, 0, 0
0, 47104, 0, 0, 0
0, 49073, 0, 0, 0
0, 49955, 0, 0, 0
0, 49937, 0, 0, 0
0, 49233, 0, 0, 0
0, 48022, 0, 0, 0
0, 46448, 0, 1, 0
0, 44645, 0, 0, 0
0, 42733, 0, 0, 0
0, 40812, 0, 0, 0
0, 38956, 0, 0, 0
0, 37214, 0, 0, 0
0, 35609, 0, 0, 0
0, 34163, 0, 0, 0
0, 32929, 0, 0, 0
0, 31982, 0, 0, 0
0, 31402, 0, 0, 0
0, 31235, 0, 0, 0
0, 31464, 0, 0, 0
0, 31993, 0, 0, 0
0, 32681, 0, 0, 0
0, 33375, 0, 0, 0
0, 33956, 0, 0, 0
0, 34347, 0, 0, 0
0, 34511, 0, 0, 0
0, 34442, 0, 0, 0
0, 34154, 0, 0, 0
0, 33678, 0, 0, 0
0, 33047, 0, 0, 0
0, 32299, 0, 0, 0
0, 31471, 0, 0, 0
0, 30599, 0, 0, 0
0, 29715, 0, 0, 0
0, 28856, 0, 0, 0
0, 28053, 0, 0, 0
0, 27337, 0, 0, 0
0, 26727, 0, 0, 0
0, 26226, 0, 0, 0
0, 25824, 0, 0, 0
0, 25511, 0, 0, 0
0, 25275, 0, 0, 0
0, 25115, 0, 0, 0
0, 25037, 0, 0, 0
0, 25050, 0, 0, 0
0, 25153, 0, 0, 0
0, 25340, 0, 0, 0
0, 25595, 0, 0, 0
0, 25896, 0, 0, 0
0, 26220, 0, 0, 0
0, 26545, 0, 0, 0
0, 26853, 0, 0, 0
0, 27133, 0, 0, 0
0, 27372, 0, 0, 0
0, 27556, 0, 0, 0
0, 27682, 0, 0, 0
0, 27750, 0, 0, 0
0, 27765, 0, 0, 0
0, 27733, 0, 0, 0
0, 27666, 0, 0, 0
0, 27566, 0, 0, 0
0, 27442, 0, 0, 0
0, 27313, 0, 0, 0
0, 27273, 0, 0, 0
0, 27569, 0, 0, 0
0, 28610, 0, 0, 0
0, 30751, 0, 0, 0
0, 34047, 0, 0, 0
0, 38182, 0, 0, 0
0, 42569, 1, 0, 0
0, 46526, 0, 0, 0
0, 49484, 0, 0, 0
0, 51210, 0, 0, 0
0, 51805, 0, 0, 0
0, 51523, 0, 0, 0
0, 50587, 0, 0, 0
0, 49181, 0, 0, 0
0, 47453, 0, 1, 0
0, 45545, 0, 0, 0
0, 43585, 0, 0, 0
0, 41683, 0, 0, 0
0, 39906, 0, 0, 0
0, 38281, 0, 0, 0
0, 36816, 0, 0, 0
0, 35522, 0, 0, 0
0, 34425, 0, 0, 0
0, 33578, 0, 0, 0
0, 33046, 0, 0, 0
0, 32861, 0, 0, 0
0, 33002, 0, 0, 0
0, 33386, 0, 0, 0
0, 33893, 0, 0, 0
0, 34397, 0, 0, 0
0, 34790, 0, 0, 0
0, 35006, 0, 0, 0
0, 35012, 0, 0, 0
0, 34801, 0, 0, 0
0, 34387, 0, 0, 0
0, 33805, 0, 0, 0
0, 33086, 0, 0, 0
0, 32267, 0, 0, 0
0, 31384, 0, 0, 0
0, 30479, 0, 0, 0
0, 29590, 0, 0, 0
0, 28747, 0, 0, 0
0, 27972, 0, 0, 0
0, 27283, 0, 0, 0
0, 26684, 0, 0, 0
0, 26178, 0, 0, 0
0, 25769, 0, 0, 0
0, 25465, 0, 0, 0
0, 25265, 0, 0, 0
0, 25169, 0, 0, 0
0, 25172, 0, 0, 0
0, 25260, 0, 0, 0
0, 25416, 0, 0, 0
0, 25623, 0, 0, 0
0, 25866, 0, 0, 0
0, 26128, 0, 0, 0
0, 26392, 0, 0, 0
0, 26646, 0, 0, 0
0, 26882, 0, 0, 0
0, 27092, 0, 0, 0
0, 27271, 0, 0, 0
0, 27413, 0, 0, 0
0, 27516, 0, 0, 0
0, 27572, 0, 0, 0
0, 27580, 0, 0, 0
0, 27543, 0, 0, 0
0, 27465, 0, 0, 0
0, 27347, 0, 0, 0
0, 27207, 0, 0, 0
0, 27086, 0, 0, 0
0, 27113, 0, 0, 0
0, 27573, 0, 0, 0
0, 28851, 0, 0, 0
0, 31206, 0, 0, 0
0, 34580, 0, 0, 0
0, 38591, 0, 0, 0
0, 42648, 0, 0, 0
0, 46123, 0, 0, 0
0, 48569, 0, 0, 0
0, 49868, 0, 0, 0
0, 50169, 0, 0, 0
0, 49706, 0, 0, 0
0, 48676, 0, 0, 0
0, 47238, 0, 0, 0
0, 45531, 0, 1, 0
0, 43679, 0, 0, 0
0, 41792, 0, 0, 0
0, 39957, 0, 0, 0
0, 38229, 0, 0, 0
0, 36636, 0, 0, 0
0, 35196, 0, 0, 0
0, 33939, 0, 0, 0
0, 32920, 0, 0, 0
0, 32206, 0, 0, 0
0, 31847, 0, 0, 0
0, 31850, 0, 0, 0
0, 32160, 0, 0, 0
0, 32671, 0, 0, 0
0, 33249, 0, 0, 0
0, 33777, 0, 0, 0
0, 34166, 0, 0, 0
0, 34363, 0, 0, 0
0, 34345, 0, 0, 0
0, 34118, 0, 0, 0
0, 33703, 0, 0, 0
0, 33127, 0, 0, 0
0, 32425, 0, 0, 0
0, 31636, 0, 0, 0
0, 30795, 0, 0, 0
0, 29936, 0, 0, 0
0, 29090, 0, 0, 0
0, 28290, 0, 0, 0
0, 27555, 0, 0, 0
0, 26893, 0, 0, 0
0, 26307, 0, 0, 0
0, 25797, 0, 0, 0
0, 25356, 0, 0, 0
0, 24980, 0, 0, 0
0, 24667, 0, 0, 0
0, 24422, 0, 0, 0
0, 24253, 0, 0, 0
0, 24177, 0, 0, 0
0, 24218, 0, 0, 0
0, 24395, 0, 0, 0
0, 24712, 0, 0, 0
0, 25152, 0, 0, 0
0, 25684, 0, 0, 0
0, 26264, 0, 0, 0
0, 26845, 0, 0, 0
0, 27389, 0, 0, 0
0, 27864, 0, 0, 0
0, 28235, 0, 0, 0
0, 28468, 0, 0, 0
0, 28545, 0, 0, 0
0, 28492, 0, 0, 0
0, 28360, 0, 0, 0
0, 28217, 0, 0, 0
0, 28142, 0, 0, 0
0, 28262, 0, 0, 0
0, 28796, 0, 0, 0
0, 30022, 0, 0, 0
0, 32125, 0, 0, 0
0, 35063, 0, 0, 0
0, 38540, 0, 0, 0
0, 42079, 0, 0, 0
0, 45155, 0, 0, 0
0, 47380, 0, 0, 0
0, 48622, 0, 0, 0
0, 48975, 0, 0, 0
0, 48614, 0, 0, 0
0, 47705, 0, 0, 0
0, 46388, 0, 0, 0
0, 44785, 0, 1, 0
0, 43006, 0, 0, 0
0, 41150, 0, 0, 0
0, 39295, 0, 0, 0
0, 37497, 0, 0, 0
0, 35806, 0, 0, 0
0, 34275, 0, 0, 0
0, 32974, 0, 0, 0
0, 31988, 0, 0, 0
0, 31399, 0, 0, 0
0, 31252, 0, 0, 0
0, 31520, 0, 0, 0
0, 32104, 0, 0, 0
0, 32859, 0, 0, 0
0, 33628, 0, 0, 0
0, 34278, 0, 0, 0
0, 34725, 0, 0, 0
0, 34932, 0, 0, 0
0, 34899, 0, 0, 0
0, 34651, 0, 0, 0
0, 34222, 0, 0, 0
0, 33654, 0, 0, 0
0, 32986, 0, 0, 0
0, 32248, 0, 0, 0
0, 31469, 0, 0, 0
0, 30683, 0, 0, 0
0, 29911, 0, 0, 0
0, 29175, 0, 0, 0
0, 28496, 0, 0, 0
0, 27891, 0, 0, 0
0, 27359, 0, 0, 0
0, 26903, 0, 0, 0
0, 26528, 0, 0, 0
0, 26239, 0, 0, 0
0, 26040, 0, 0, 0
0, 25939, 0, 0, 0
0, 25931, 0, 0, 0
0, 26003, 0, 0, 0
0, 26129, 0, 0, 0
0, 26289, 0, 0, 0
0, 26471, 0, 0, 0
0, 26666, 0, 0, 0
0, 26871, 0, 0, 0
0, 27087, 0, 0, 0
0, 27302, 0, 0, 0
0, 27495, 0, 0, 0
0, 27646, 0, 0, 0
0, 27749, 0, 0, 0
0, 27820, 0, 0, 0
0, 27924, 0, 0, 0
0, 28255, 0, 0, 0
0, 29133, 0, 0, 0
0, 30856, 0, 0, 0
0, 33506, 0, 0, 0
0, 36877, 0, 0, 0
0, 40532, 0, 0, 0
0, 43921, 0, 0, 0
0, 46551, 0, 0, 0
0, 48170, 0, 0, 0
0, 48802, 0, 0, 0
0, 48618, 0, 0, 0
0, 47809, 0, 0, 0
0, 46546, 0, 0, 0
0, 44985, 0, 1, 0
0, 43266, 0, 0, 0
0, 41510, 0, 0, 0
0, 39810, 0, 0, 0
0, 38220, 0, 0, 0
0, 36760, 0, 0, 0
0, 35435, 0, 0, 0
0, 34263, 0, 0, 0
0, 33291, 0, 0, 0
0, 32585, 0, 0, 0
0, 32209, 0, 0, 0
0, 32177, 0, 0, 0
0, 32445, 0, 0, 0
0, 32917, 0, 0, 0
0, 33474, 0, 0, 0
0, 34002, 0, 0, 0
0, 34411, 0, 0, 0
0, 34647, 0, 0, 0
0, 34682, 0, 0, 0
0, 34501, 0, 0, 0
0, 34115, 0, 0, 0
0, 33556, 0, 0, 0
0, 32867, 0, 0, 0
0, 32092, 0, 0, 0
0, 31275, 0, 0, 0
0, 30452, 0, 0, 0
0, 29647, 0, 0, 0
0, 28868, 0, 0, 0
0, 28120, 0, 0, 0
0, 27412, 0, 0, 0
0, 26762, 0, 0, 0
0, 26190, 0, 0, 0
0, 25721, 0, 0, 0
0, 25368, 0, 0, 0
0, 25132, 0, 0, 0
0, 25003, 0, 0, 0
0, 24972, 0, 0, 0
0, 25029, 0, 0, 0
0, 25165, 0, 0, 0
0, 25368, 0, 0, 0
0, 25625, 0, 0, 0
0, 25918, 0, 0, 0
0, 26224, 0, 0, 0
0, 26522, 0, 0, 0
0, 26793, 0, 0, 0
0, 27020, 0, 0, 0
0, 27189, 0, 0, 0
0, 27286, 0, 0, 0
0, 27308, 0, 0, 0
0, 27254, 0, 0, 0
0, 27146, 0, 0, 0
0, 27038, 0, 0, 0
0, 27082, 0, 0, 0
0, 27566, 0, 0, 0
0, 28838, 0, 0, 0
0, 31105, 0, 0, 0
0, 34295, 0, 0, 0
0, 38053, 0, 0, 0
0, 41842, 0, 0, 0
0, 45106, 0, 0, 0
0, 47451, 0, 0, 0
0, 48771, 0, 0, 0
0, 49184, 0, 0, 0
0, 48880, 0, 0, 0
0, 48038, 0, 0, 0
0, 46814, 0, 0, 0
0, 45350, 0, 1, 0
0, 43769, 0, 0, 0
0, 42167, 0, 0, 0
0, 40614, 0, 0, 0
0, 39144, 0, 0, 0
0, 37764, 0, 0, 0
0, 36476, 0, 0, 0
0, 35300, 0, 0, 0
0, 34285, 0, 0, 0
0, 33498, 0, 0, 0
0, 33000, 0, 0, 0
0, 32811, 0, 0, 0
0, 32895, 0, 0, 0
0, 33171, 0, 0, 0
0, 33533, 0, 0, 0
0, 33877, 0, 0, 0
0, 34120, 0, 0, 0
0, 34206, 0, 0, 0
0, 34109, 0, 0, 0
0, 33830, 0, 0, 0
0, 33385, 0, 0, 0
0, 32805, 0, 0, 0
0, 32128, 0, 0, 0
0, 31387, 0, 0, 0
0, 30613, 0, 0, 0
0, 29838, 0, 0, 0
0, 29089, 0, 0, 0
0, 28397, 0, 0, 0
0, 27785, 0, 0, 0
0, 27263, 0, 0, 0
0, 26836, 0, 0, 0
0, 26503, 0, 0, 0
0, 26257, 0, 0, 0
0, 26094, 0, 0, 0
0, 26014, 0, 0, 0
0, 26012, 0, 0, 0
0, 26075, 0, 0, 0
0, 26188, 0, 0, 0
0, 26333, 0, 0, 0
0, 26498, 0, 0, 0
0, 26667, 0, 0, 0
0, 26833, 0, 0, 0
0, 26984, 0, 0, 0
0, 27103, 0, 0, 0
0, 27180, 0, 0, 0
0, 27212, 0, 0, 0
0, 27207, 0, 0, 0
0, 27171, 0, 0, 0
0, 27113, 0, 0, 0
0, 27034, 0, 0, 0
0, 26933, 0, 0, 0
0, 26820, 0, 0, 0
0, 26744, 0, 0, 0
0, 26860, 0, 0, 0
0, 27468, 0, 0, 0
0, 28898, 0, 0, 0
0, 31315, 0, 0, 0
0, 34602, 0, 0, 0
0, 38381, 0, 0, 0
0, 42103, 0, 0, 0
0, 45220, 0, 0, 0
0, 47378, 0, 0, 0
0, 48511, 0, 0, 0
0, 48746, 0, 0, 0
0, 48265, 0, 0, 0
0, 47249, 0, 0, 0
0, 45864, 0, 0, 0
0, 44260, 0, 1, 0
0, 42573, 0, 0, 0
0, 40915, 0, 0, 0
0, 39362, 0, 0, 0
0, 37947, 0, 0, 0
0, 36669, 0, 0, 0
0, 35523, 0, 0, 0
0, 34529, 0, 0, 0
0, 33730, 0, 0, 0
0, 33174, 0, 0, 0
0, 32886, 0, 0, 0
0, 32851, 0, 0, 0
0, 33008, 0, 0, 0
0, 33275, 0, 0, 0
0, 33564, 0, 0, 0
0, 33791, 0, 0, 0
0, 33894, 0, 0, 0
0, 33831, 0, 0, 0
0, 33580, 0, 0, 0
0, 33144, 0, 0, 0
0, 32543, 0, 0, 0
0, 31815, 0, 0, 0
0, 30999, 0, 0, 0
0, 30129, 0, 0, 0
0, 29246, 0, 0, 0
0, 28399, 0, 0, 0
0, 27643, 0, 0, 0
0, 27023, 0, 0, 0
0, 26560, 0, 0, 0
0, 26244, 0, 0, 0
0, 26044, 0, 0, 0
0, 25915, 0, 0, 0
0, 25820, 0, 0, 0
0, 25745, 0, 0, 0
0, 25698, 0, 0, 0
0, 25692, 0, 0, 0
0, 25741, 0, 0, 0
0, 25841, 0, 0, 0
0, 25983, 0, 0, 0
0, 26153, 0, 0, 0
0, 26337, 0, 0, 0
0, 26531, 0, 0, 0
0, 26730, 0, 0, 0
0, 26930, 0, 0, 0
0, 27121, 0, 0, 0
0, 27302, 0, 0, 0
0, 27466, 0, 0, 0
0, 27608, 0, 0, 0
0, 27712, 0, 0, 0
0, 27766, 0, 0, 0
0, 27760, 0, 0, 0
0, 27695, 0, 0, 0
0, 27591, 0, 0, 0
0, 27488, 0, 0, 0
0, 27498, 0, 0, 0
0, 27860, 0, 0, 0
0, 28905, 0, 0, 0
0, 30885, 0, 0, 0
0, 33803, 0, 0, 0
0, 37379, 0, 0, 0
0, 41124, 0, 0, 0
0, 44474, 0, 0, 0
0, 46987, 0, 0, 0
0, 48490, 0, 0, 0
0, 49058, 0, 0, 0
0, 48867, 0, 0, 0
0, 48091, 0, 0, 0
0, 46882, 0, 0, 0
0, 45380, 0, 1, 0
0, 43719, 0, 0, 0
0, 42020, 0, 0, 0
0, 40378, 0, 0, 0
0, 38839, 0, 0, 0
0, 37416, 0, 0, 0
0, 36105, 0, 0, 0
0, 34928, 0, 0, 0
0, 33934, 0, 0, 0
0, 33195, 0, 0, 0
0, 32768, 0, 0, 0
0, 32669, 0, 0, 0
0, 32848, 0, 0, 0
0, 33209, 0, 0, 0
0, 33638, 0, 0, 0
0, 34034, 0, 0, 0
0, 34322, 0, 0, 0
0, 34452, 0, 0, 0
0, 34402, 0, 0, 0
0, 34166, 0, 0, 0
0, 33758, 0, 0, 0
0, 33205, 0, 0, 0
0, 32548, 0, 0, 0
0, 31826, 0, 0, 0
0, 31074, 0, 0, 0
0, 30321, 0, 0, 0
0, 29592, 0, 0, 0
0, 28905, 0, 0, 0
0, 28276, 0, 0, 0
0, 27717, 0, 0, 0
0, 27241, 0, 0, 0
0, 26850, 0, 0, 0
0, 26543, 0, 0, 0
0, 26318, 0, 0, 0
0, 26169, 0, 0, 0
0, 26096, 0, 0, 0
0, 26095, 0, 0, 0
0, 26168, 0, 0, 0
0, 26303, 0, 0, 0
0, 26486, 0, 0, 0
0, 26696, 0, 0, 0
0, 26914, 0, 0, 0
0, 27123, 0, 0, 0
0, 27313, 0, 0, 0
0, 27483, 0, 0, 0
0, 27630, 0, 0, 0
0, 27746, 0, 0, 0
0, 27822, 0, 0, 0
0, 27851, 0, 0, 0
0, 27830, 0, 0, 0
0, 27782, 0, 0, 0
0, 27791, 0, 0, 0
0, 28068, 0, 0, 0
0, 28913, 0, 0, 0
0, 30560, 0, 0, 0
0, 33040, 0, 0, 0
0, 36150, 0, 0, 0
0, 39491, 0, 0, 0
0, 42580, 0, 0, 0
0, 45004, 0, 0, 0
0, 46560, 0, 0, 0
0, 47245, 0, 0, 0
0, 47166, 0, 0, 0
0, 46455, 0, 0, 0
0, 45257, 0, 0, 0
0, 43723, 0, 1, 0
0, 42001, 0, 0, 0
0, 40218, 0, 0, 0
0, 38473, 0, 0, 0
0, 36833, 0, 0, 0
0, 35323, 0, 0, 0
0, 33956, 0, 0, 0
0, 32767, 0, 0, 0
0, 31820, 0, 0, 0
0, 31185, 0, 0, 0
0, 30917, 0, 0, 0
0, 31017, 0, 0, 0
0, 31429, 0, 0, 0
0, 32036, 0, 0, 0
0, 32708, 0, 0, 0
0, 33334, 0, 0, 0
0, 33833, 0, 0, 0
0, 34151, 0, 0, 0
0, 34258, 0, 0, 0
0, 34152, 0, 0, 0
0, 33845, 0, 0, 0
0, 33350, 0, 0, 0
0, 32693, 0, 0, 0
0, 31904, 0, 0, 0
0, 31022, 0, 0, 0
0, 30084, 0, 0, 0
0, 29136, 0, 0, 0
0, 28228, 0, 0, 0
0, 27397, 0, 0, 0
0, 26665, 0, 0, 0
0, 26044, 0, 0, 0
0, 25543, 0, 0, 0
0, 25168, 0, 0, 0
0, 24916, 0, 0, 0
0, 24783, 0, 0, 0
0, 24763, 0, 0, 0
0, 24842, 0, 0, 0
0, 24995, 0, 0, 0
0, 25199, 0, 0, 0
0, 25438, 0, 0, 0
0, 25704, 0, 0, 0
0, 25992, 0, 0, 0
0, 26292, 0, 0, 0
0, 26596, 0, 0, 0
0, 26880, 0, 0, 0
0, 27119, 0, 0, 0
0, 27293, 0, 0, 0
0, 27399, 0, 0, 0
0, 27441, 0, 0, 0
0, 27432, 0, 0, 0
0, 27382, 0, 0, 0
0, 27298, 0, 0, 0
0, 27187, 0, 0, 0
0, 27079, 0, 0, 0
0, 27078, 0, 0, 0
0, 27459, 0, 0, 0
0, 28619, 0, 0, 0
0, 30865, 0, 0, 0
0, 34203, 0, 0, 0
0, 38304, 0, 0, 0
0, 42601, 1, 0, 0
0, 46443, 0, 0, 0
0, 49319, 0, 0, 0
0, 51036, 0, 0, 0
0, 51695, 0, 0, 0
0, 51506, 0, 0, 0
0, 50663, 0, 0, 0
0, 49336, 0, 0, 0
0, 47675, 0, 1, 0
0, 45821, 0, 0, 0
0, 43898, 0, 0, 0
0, 42013, 0, 0, 0
0, 40233, 0, 0, 0
0, 38589, 0, 0, 0
0, 37093, 0, 0, 0
0, 35753, 0, 0, 0
0, 34598, 0, 0, 0
0, 33669, 0, 0, 0
0, 33007, 0, 0, 0
0, 32636, 0, 0, 0
0, 32551, 0, 0, 0
0, 32703, 0, 0, 0
0, 33012, 0, 0, 0
0, 33386, 0, 0, 0
0, 33726, 0, 0, 0
0, 33949, 0, 0, 0
0, 33993, 0, 0, 0
0, 33837, 0, 0, 0
0, 33492, 0, 0, 0
0, 32991, 0, 0, 0
0, 32374, 0, 0, 0
0, 31671, 0, 0, 0
0, 30908, 0, 0, 0
0, 30109, 0, 0, 0
0, 29302, 0, 0, 0
0, 28516, 0, 0, 0
0, 27783, 0, 0, 0
0, 27129, 0, 0, 0
0, 26565, 0, 0, 0
0, 26097, 0, 0, 0
0, 25727, 0, 0, 0
0, 25461, 0, 0, 0
0, 25291, 0, 0, 0
0, 25214, 0, 0, 0
0, 25219, 0, 0, 0
0, 25292, 0, 0, 0
0, 25414, 0, 0, 0
0, 25573, 0, 0, 0
0, 25764, 0, 0, 0
0, 25984, 0, 0, 0
0, 26224, 0, 0, 0
0, 26471, 0, 0, 0
0, 26709, 0, 0, 0
0, 26926, 0, 0, 0
0, 27103, 0, 0, 0
0, 27236, 0, 0, 0
0, 27321, 0, 0, 0
0, 27359, 0, 0, 0
0, 27351, 0, 0, 0
0, 27299, 0, 0, 0
0, 27207, 0, 0, 0
0, 27101, 0, 0, 0
0, 27048, 0, 0, 0
0, 27242, 0, 0, 0
0, 28028, 0, 0, 0
0, 29754, 0, 0, 0
0, 32545, 0, 0, 0
0, 36202, 0, 0, 0
0, 40254, 0, 0, 0
0, 44088, 0, 0, 0
0, 47137, 0, 0, 0
0, 49091, 0, 0, 0
0, 49958, 0, 0, 0
0, 49932, 0, 0, 0
0, 49223, 0, 0, 0
0, 48012, 0, 0, 0
0, 46453, 0, 1, 0
0, 44686, 0, 0, 0
0, 42832, 0, 0, 0
0, 40994, 0, 0, 0
0, 39245, 0, 0, 0
0, 37619, 0, 0, 0
0, 36126, 0, 0, 0
0, 34775, 0, 0, 0
0, 33604, 0, 0, 0
0, 32671, 0, 0, 0
0, 32039, 0, 0, 0
0, 31751, 0, 0, 0
0, 31800, 0, 0, 0
0, 32121, 0, 0, 0
0, 32599, 0, 0, 0
0, 33117, 0, 0, 0
0, 33570, 0, 0, 0
0, 33881, 0, 0, 0
0, 34003, 0, 0, 0
0, 33923, 0, 0, 0
0, 33649, 0, 0, 0
0, 33203, 0, 0, 0
0, 32611, 0, 0, 0
0, 31903, 0, 0, 0
0, 31114, 0, 0, 0
0, 30279, 0, 0, 0
0, 29431, 0, 0, 0
0, 28605, 0, 0, 0
0, 27833, 0, 0, 0
0, 27134, 0, 0, 0
0, 26523, 0, 0, 0
0, 26009, 0, 0, 0
0, 25599, 0, 0, 0
0, 25288, 0, 0, 0
0, 25072, 0, 0, 0
0, 24951, 0, 0, 0
0, 24920, 0, 0, 0
0, 24975, 0, 0, 0
0, 25109, 0, 0, 0
0, 25318, 0, 0, 0
0, 25595, 0, 0, 0
0, 25928, 0, 0, 0
0, 26296, 0, 0, 0
0, 26677, 0, 0, 0
0, 27042, 0, 0, 0
0, 27360, 0, 0, 0
0, 27603, 0, 0, 0
0, 27760, 0, 0, 0
0, 27827, 0, 0, 0
0, 27811, 0, 0, 0
0, 27721, 0, 0, 0
0, 27575, 0, 0, 0
0, 27392, 0, 0, 0
0, 27234, 0, 0, 0
0, 27273, 0, 0, 0
0, 27832, 0, 0, 0
0, 29281, 0, 0, 0
0, 31806, 0, 0, 0
0, 35262, 0, 0, 0
0, 39209, 0, 0, 0
0, 43044, 0, 0, 0
0, 46176, 0, 0, 0
0, 48244, 0, 0, 0
0, 49215, 0, 0, 0
0, 49275, 0, 0, 0
0, 48646, 0, 0, 0
0, 47510, 0, 0, 0
0, 46012, 0, 0, 0
0, 44285, 0, 1, 0
0, 42448, 0, 0, 0
0, 40599, 0, 0, 0
0, 38809, 0, 0, 0
0, 37117, 0, 0, 0
0, 35546, 0, 0, 0
0, 34126, 0, 0, 0
0, 32915, 0, 0, 0
0, 32002, 0, 0, 0
0, 31472, 0, 0, 0
0, 31369, 0, 0, 0
0, 31662, 0, 0, 0
0, 32251, 0, 0, 0
0, 32995, 0, 0, 0
0, 33745, 0, 0, 0
0, 34375, 0, 0, 0
0, 34805, 0, 0, 0
0, 34998, 0, 0, 0
0, 34948, 0, 0, 0
0, 34672, 0, 0, 0
0, 34206, 0, 0, 0
0, 33590, 0, 0, 0
0, 32863, 0, 0, 0
0, 32059, 0, 0, 0
0, 31213, 0, 0, 0
0, 30359, 0, 0, 0
0, 29526, 0, 0, 0
0, 28738, 0, 0, 0
0, 28017, 0, 0, 0
0, 27378, 0, 0, 0
0, 26825, 0, 0, 0
0, 26364, 0, 0, 0
0, 25999, 0, 0, 0
0, 25731, 0, 0, 0
0, 25557, 0, 0, 0
0, 25474, 0, 0, 0
0, 25479, 0, 0, 0
0, 25573, 0, 0, 0
0, 25747, 0, 0, 0
0, 25987, 0, 0, 0
0, 26276, 0, 0, 0
0, 26588, 0, 0, 0
0, 26894, 0, 0, 0
0, 27168, 0, 0, 0
0, 27390, 0, 0, 0
0, 27546, 0, 0, 0
0, 27629, 0, 0, 0
0, 27647, 0, 0, 0
0, 27656, 0, 0, 0
0, 27820, 0, 0, 0
0, 28452, 0, 0, 0
0, 29901, 0, 0, 0
0, 32345, 0, 0, 0
0, 35660, 0, 0, 0
0, 39438, 0, 0, 0
0, 43114, 0, 0, 0
0, 46126, 0, 0, 0
0, 48124, 0, 0, 0
0, 49056, 0, 0, 0
0, 49081, 0, 0, 0
0, 48408, 0, 0, 0
0, 47220, 0, 0, 0
0, 45670, 0, 1, 0
0, 43887, 0, 0, 0
0, 41991, 0, 0, 0
0, 40085, 0, 0, 0
0, 38241, 0, 0, 0
0, 36502, 0, 0, 0
0, 34893, 0, 0, 0
0, 33444, 0, 0, 0
0, 32213, 0, 0, 0
0, 31284, 0, 0, 0
0, 30746, 0, 0, 0
0, 30645, 0, 0, 0
0, 30957, 0, 0, 0
0, 31578, 0, 0, 0
0, 32353, 0, 0, 0
0, 33128, 0, 0, 0
0, 33777, 0, 0, 0
0, 34219, 0, 0, 0
0, 34412, 0, 0, 0
0, 34349, 0, 0, 0
0, 34052, 0, 0, 0
0, 33554, 0, 0, 0
0, 32894, 0, 0, 0
0, 32116, 0, 0, 0
0, 31262, 0, 0, 0
0, 30367, 0, 0, 0
0, 29468, 0, 0, 0
0, 28602, 0, 0, 0
0, 27800, 0, 0, 0
0, 27085, 0, 0, 0
0, 26467, 0, 0, 0
0, 25949, 0, 0, 0
0, 25529, 0, 0, 0
0, 25208, 0, 0, 0
0, 24986, 0, 0, 0
0, 24867, 0, 0, 0
0, 24853, 0, 0, 0
0, 24938, 0, 0, 0
0, 25109, 0, 0, 0
0, 25345, 0, 0, 0
0, 25625, 0, 0, 0
0, 25928, 0, 0, 0
0, 26233, 0, 0, 0
0, 26528, 0, 0, 0
0, 26802, 0, 0, 0
0, 27051, 0, 0, 0
0, 27264, 0, 0, 0
0, 27426, 0, 0, 0
0, 27529, 0, 0, 0
0, 27574, 0, 0, 0
0, 27597, 0, 0, 0
0, 27730, 0, 0, 0
0, 28277, 0, 0, 0
0, 29635, 0, 0, 0
0, 32065, 0, 0, 0
0, 35507, 0, 0, 0
0, 39578, 0, 0, 0
0, 43686, 0, 0, 0
0, 47196, 0, 0, 0
0, 49658, 0, 0, 0
0, 50956, 0, 0, 0
0, 51239, 0, 0, 0
0, 50738, 0, 0, 0
0, 49655, 0, 0, 0
0, 48159, 0, 0, 0
0, 46392, 0, 1, 0
0, 44484, 0, 0, 0
0, 42548, 0, 0, 0
0, 40683, 0, 0, 0
0, 38945, 0, 0, 0
0, 37361, 0, 0, 0
0, 35936, 0, 0, 0
0, 34683, 0, 0, 0
0, 33637, 0, 0, 0
0, 32854, 0, 0, 0
0, 32389, 0, 0, 0
0, 32269, 0, 0, 0
0, 32458, 0, 0, 0
0, 32863, 0, 0, 0
0, 33365, 0, 0, 0
0, 33847, 0, 0, 0
0, 34214, 0, 0, 0
0, 34405, 0, 0, 0
0, 34389, 0, 0, 0
0, 34167, 0, 0, 0
0, 33751, 0, 0, 0
0, 33168, 0, 0, 0
0, 32458, 0, 0, 0
0, 31660, 0, 0, 0
0, 30816, 0, 0, 0
0, 29963, 0, 0, 0
0, 29137, 0, 0, 0
0, 28363, 0, 0, 0
0, 27657, 0, 0, 0
0, 27029, 0, 0, 0
0, 26487, 0, 0, 0
0, 26032, 0, 0, 0
0, 25666, 0, 0, 0
0, 25393, 0, 0, 0
0, 25218, 0, 0, 0
0, 25141, 0, 0, 0
0, 25157, 0, 0, 0
0, 25258, 0, 0, 0
0, 25433, 0, 0, 0
0, 25664, 0, 0, 0
0, 25930, 0, 0, 0
0, 26209, 0, 0, 0
0, 26483, 0, 0, 0
0, 26739, 0, 0, 0
0, 26965, 0, 0, 0
0, 27162, 0, 0, 0
0, 27329, 0, 0, 0
0, 27461, 0, 0, 0
0, 27549, 0, 0, 0
0, 27583, 0, 0, 0
0, 27562, 0, 0, 0
0, 27514, 0, 0, 0
0, 27555, 0, 0, 0
0, 27956, 0, 0, 0
0, 29099, 0, 0, 0
0, 31266, 0, 0, 0
0, 34446, 0, 0, 0
0, 38305, 0, 0, 0
0, 42285, 0, 0, 0
0, 45768, 0, 0, 0
0, 48287, 0, 0, 0
0, 49683, 0, 0, 0
0, 50068, 0, 0, 0
0, 49659, 0, 0, 0
0, 48657, 0, 0, 0
0, 47232, 0, 0, 0
0, 45534, 0, 1, 0
0, 43705, 0, 0, 0
0, 41870, 0, 0, 0
0, 40119, 0, 0, 0
0, 38503, 0, 0, 0
0, 37036, 0, 0, 0
0, 35717, 0, 0, 0
0, 34558, 0, 0, 0
0, 33594, 0, 0, 0
0, 32881, 0, 0, 0
0, 32474, 0, 0, 0
0, 32391, 0, 0, 0
0, 32589, 0, 0, 0
0, 32974, 0, 0, 0
0, 33428, 0, 0, 0
0, 33847, 0, 0, 0
0, 34146, 0, 0, 0
0, 34274, 0, 0, 0
0, 34209, 0, 0, 0
0, 33951, 0, 0, 0
0, 33515, 0, 0, 0
0, 32929, 0, 0, 0
0, 32232, 0, 0, 0
0, 31459, 0, 0, 0
0, 30644, 0, 0, 0
0, 29816, 0, 0, 0
0, 29005, 0, 0, 0
0, 28231, 0, 0, 0
0, 27516, 0, 0, 0
0, 26878, 0, 0, 0
0, 26333, 0, 0, 0
0, 25885, 0, 0, 0
0, 25537, 0, 0, 0
0, 25290, 0, 0, 0
0, 25140, 0, 0, 0
0, 25076, 0, 0, 0
0, 25090, 0, 0, 0
0, 25167, 0, 0, 0
0, 25298, 0, 0, 0
0, 25465, 0, 0, 0
0, 25657, 0, 0, 0
0, 25862, 0, 0, 0
0, 26072, 0, 0, 0
0, 26272, 0, 0, 0
0, 26454, 0, 0, 0
0, 26611, 0, 0, 0
0, 26740, 0, 0, 0
0, 26836, 0, 0, 0
0, 26899, 0, 0, 0
0, 26929, 0, 0, 0
0, 26922, 0, 0, 0
0, 26879, 0, 0, 0
0, 26805, 0, 0, 0
0, 26732, 0, 0, 0
0, 26768, 0, 0, 0
0, 27177, 0, 0, 0
0, 28349, 0, 0, 0
0, 30573, 0, 0, 0
0, 33837, 0, 0, 0
0, 37796, 0, 0, 0
0, 41885, 0, 0, 0
0, 45466, 0, 0, 0
0, 48051, 0, 0, 0
0, 49478, 0, 0, 0
0, 49874, 0, 0, 0
0, 49475, 0, 0, 0
0, 48483, 0, 0, 0
0, 47070, 0, 0, 0
0, 45385, 0, 1, 0
0, 43560, 0, 0, 0
0, 41709, 0, 0, 0
0, 39923, 0, 0, 0
0, 38259, 0, 0, 0
0, 36741, 0, 0, 0
0, 35384, 0, 0, 0
0, 34214, 0, 0, 0
0, 33274, 0, 0, 0
0, 32624, 0, 0, 0
0, 32309, 0, 0, 0
0, 32333, 0, 0, 0
0, 32642, 0, 0, 0
0, 33130, 0, 0, 0
0, 33667, 0, 0, 0
0, 34139, 0, 0, 0
0, 34462, 0, 0, 0
0, 34589, 0, 0, 0
0, 34512, 0, 0, 0
0, 34248, 0, 0, 0
0, 33831, 0, 0, 0
0, 33291, 0, 0, 0
0, 32656, 0, 0, 0
0, 31946, 0, 0, 0
0, 31176, 0, 0, 0
0, 30369, 0, 0, 0
0, 29550, 0, 0, 0
0, 28751, 0, 0, 0
0, 28000, 0, 0, 0
0, 27324, 0, 0, 0
0, 26742, 0, 0, 0
0, 26263, 0, 0, 0
0, 25888, 0, 0, 0
0, 25616, 0, 0, 0
0, 25445, 0, 0, 0
0, 25375, 0, 0, 0
0, 25401, 0, 0, 0
0, 25518, 0, 0, 0
0, 25713, 0, 0, 0
0, 25963, 0, 0, 0
0, 26248, 0, 0, 0
0, 26547, 0, 0, 0
0, 26842, 0, 0, 0
0, 27119, 0, 0, 0
0, 27370, 0, 0, 0
0, 27586, 0, 0, 0
0, 27762, 0, 0, 0
0, 27887, 0, 0, 0
0, 27951, 0, 0, 0
0, 27955, 0, 0, 0
0, 27902, 0, 0, 0
0, 27819, 0, 0, 0
0, 27792, 0, 0, 0
0, 28032, 0, 0, 0
0, 28872, 0, 0, 0
0, 30602, 0, 0, 0
0, 33280, 0, 0, 0
0, 36674, 0, 0, 0
0, 40330, 0, 0, 0
0, 43684, 0, 0, 0
0, 46251, 0, 0, 0
0, 47798, 0, 0, 0
0, 48364, 0, 0, 0
0, 48122, 0, 0, 0
0, 47255, 0, 0, 0
0, 45928, 0, 0, 0
0, 44293, 0, 1, 0
0, 42479, 0, 0, 0
0, 40598, 0, 0, 0
0, 38735, 0, 0, 0
0, 36941, 0, 0, 0
0, 35243, 0, 0, 0
0, 33676, 0, 0, 0
0, 32302, 0, 0, 0
0, 31209, 0, 0, 0
0, 30502, 0, 0, 0
0, 30254, 0, 0, 0
0, 30468, 0, 0, 0
0, 31066, 0, 0, 0
0, 31898, 0, 0, 0
0, 32791, 0, 0, 0
0, 33585, 0, 0, 0
0, 34169, 0, 0, 0
0, 34485, 0, 0, 0
0, 34521, 0, 0, 0
0, 34300, 0, 0, 0
0, 33863, 0, 0, 0
0, 33259, 0, 0, 0
0, 32534, 0, 0, 0
0, 31735, 0, 0, 0
0, 30904, 0, 0, 0
0, 30073, 0, 0, 0
0, 29271, 0, 0, 0
0, 28519, 0, 0, 0
0, 27834, 0, 0, 0
0, 27224, 0, 0, 0
0, 26699, 0, 0, 0
0, 26269, 0, 0, 0
0, 25939, 0, 0, 0
0, 25711, 0, 0, 0
0, 25584, 0, 0, 0
0, 25551, 0, 0, 0
0, 25606, 0, 0, 0
0, 25735, 0, 0, 0
0, 25925, 0, 0, 0
0, 26160, 0, 0, 0
0, 26428, 0, 0, 0
0, 26715, 0, 0, 0
0, 27000, 0, 0, 0
0, 27271, 0, 0, 0
0, 27511, 0, 0, 0
0, 27702, 0, 0, 0
0, 27834, 0, 0, 0
0, 27915, 0, 0, 0
0, 27990, 0, 0, 0
0, 28207, 0, 0, 0
0, 28865, 0, 0, 0
0, 30301, 0, 0, 0
0, 32689, 0, 0, 0
0, 35917, 0, 0, 0
0, 39609, 0, 0, 0
0, 43220, 0, 0, 0
0, 46202, 0, 0, 0
0, 48207, 0, 0, 0
0, 49174, 0, 0, 0
0, 49248, 0, 0, 0
0, 48620, 0, 0, 0
0, 47469, 0, 0, 0
0, 45954, 0, 1, 0
0, 44217, 0, 0, 0
0, 42381, 0, 0, 0
0, 40553, 0, 0, 0
0, 38809, 0, 0, 0
0, 37186, 0, 0, 0
0, 35695, 0, 0, 0
0, 34357, 0, 0, 0
0, 33218, 0, 0, 0
0, 32352, 0, 0, 0
0, 31830, 0, 0, 0
0, 31696, 0, 0, 0
0, 31933, 0, 0, 0
0, 32448, 0, 0, 0
0, 33105, 0, 0, 0
0, 33761, 0, 0, 0
0, 34300, 0, 0, 0
0, 34640, 0, 0, 0
0, 34743, 0, 0, 0
0, 34604, 0, 0, 0
0, 34251, 0, 0, 0
0, 33720, 0, 0, 0
0, 33057, 0, 0, 0
0, 32299, 0, 0, 0
0, 31481, 0, 0, 0
0, 30635, 0, 0, 0
0, 29798, 0, 0, 0
0, 28998, 0, 0, 0
0, 28266, 0, 0, 0
0, 27625, 0, 0, 0
0, 27084, 0, 0, 0
0, 26639, 0, 0, 0
0, 26290, 0, 0, 0
0, 26034, 0, 0, 0
0, 25873, 0, 0, 0
0, 25802, 0, 0, 0
0, 25819, 0, 0, 0
0, 25919, 0, 0, 0
0, 26089, 0, 0, 0
0, 26309, 0, 0, 0
0, 26561, 0, 0, 0
0, 26829, 0, 0, 0
0, 27096, 0, 0, 0
0, 27348, 0, 0, 0
0, 27570, 0, 0, 0
0, 27747, 0, 0, 0
0, 27870, 0, 0, 0
0, 27935, 0, 0, 0
0, 27947, 0, 0, 0
0, 27939, 0, 0, 0
0, 28016, 0, 0, 0
0, 28425, 0, 0, 0
0, 29505, 0, 0, 0
0, 31509, 0, 0, 0
0, 34440, 0, 0, 0
0, 38021, 0, 0, 0
0, 41759, 0, 0, 0
0, 45087, 0, 0, 0
0, 47562, 0, 0, 0
0, 49010, 0, 0, 0
0, 49499, 0, 0, 0
0, 49202, 0, 0, 0
0, 48309, 0, 0, 0
0, 46993, 0, 0, 0
0, 45410, 0, 1, 0
0, 43710, 0, 0, 0
0, 42018, 0, 0, 0
0, 40422, 0, 0, 0
0, 38965, 0, 0, 0
0, 37649, 0, 0, 0
0, 36459, 0, 0, 0
0, 35390, 0, 0, 0
0, 34471, 0, 0, 0
0, 33755, 0, 0, 0
0, 33294, 0, 0, 0
0, 33112, 0, 0, 0
0, 33179, 0, 0, 0
0, 33420, 0, 0, 0
0, 33733, 0, 0, 0
0, 34020, 0, 0, 0
0, 34203, 0, 0, 0
0, 34238, 0, 0, 0
0, 34097, 0, 0, 0
0, 33778, 0, 0, 0
0, 33300, 0, 0, 0
0, 32694, 0, 0, 0
0, 31991, 0, 0, 0
0, 31227, 0, 0, 0
0, 30439, 0, 0, 0
0, 29656, 0, 0, 0
0, 28908, 0, 0, 0
0, 28215, 0, 0, 0
0, 27596, 0, 0, 0
0, 27066, 0, 0, 0
0, 26630, 0, 0, 0
0, 26290, 0, 0, 0
0, 26042, 0, 0, 0
0, 25886, 0, 0, 0
0, 25813, 0, 0, 0
0, 25816, 0, 0, 0
0, 25887, 0, 0, 0
0, 26017, 0, 0, 0
0, 26193, 0, 0, 0
0, 26401, 0, 0, 0
0, 26623, 0, 0, 0
0, 26844, 0, 0, 0
0, 27047, 0, 0, 0
0, 27217, 0, 0, 0
0, 27345, 0, 0, 0
0, 27422, 0, 0, 0
0, 27445, 0, 0, 0
0, 27415, 0, 0, 0
0, 27334, 0, 0, 0
0, 27209, 0, 0, 0
0, 27062, 0, 0, 0
0, 26968, 0, 0, 0
0, 27107, 0, 0, 0
0, 27780, 0, 0, 0
0, 29283, 0, 0, 0
0, 31728, 0, 0, 0
0, 34957, 0, 0, 0
0, 38573, 0, 0, 0
0, 42044, 0, 0, 0
0, 44873, 0, 0, 0
0, 46768, 0, 0, 0
0, 47692, 0, 0, 0
0, 47774, 0, 0, 0
0, 47189, 0, 0, 0
0, 46111, 0, 0, 0
0, 44704, 0, 1, 0
0, 43125, 0, 0, 0
0, 41505, 0, 0, 0
0, 39946, 0, 0, 0
0, 38506, 0, 0, 0
0, 37192, 0, 0, 0
0, 35988, 0, 0, 0
0, 34884, 0, 0, 0
0, 33904, 0, 0, 0
0, 33103, 0, 0, 0
0, 32543, 0, 0, 0
0, 32266, 0, 0, 0
0, 32266, 0, 0, 0
0, 32481, 0, 0, 0
0, 32814, 0, 0, 0
0, 33160, 0, 0, 0
0, 33433, 0, 0, 0
0, 33568, 0, 0, 0
0, 33531, 0, 0, 0
0, 33311, 0, 0, 0
0, 32923, 0, 0, 0
0, 32391, 0, 0, 0
0, 31749, 0, 0, 0
0, 31034, 0, 0, 0
0, 30280, 0, 0, 0
0, 29519, 0, 0, 0
0, 28781, 0, 0, 0
0, 28094, 0, 0, 0
0, 27475, 0, 0, 0
0, 26933, 0, 0, 0
0, 26478, 0, 0, 0
0, 26113, 0, 0, 0
0, 25843, 0, 0, 0
0, 25663, 0, 0, 0
0, 25572, 0, 0, 0
0, 25561, 0, 0, 0
0, 25619, 0, 0, 0
0, 25733, 0, 0, 0
0, 26077, 0, 0, 0
0, 26284, 0, 0, 0
0, 26496, 0, 0, 0
0, 26704, 0, 0, 0
0, 26899, 0, 0, 0
0, 27071, 0, 0, 0
0, 27218, 0, 0, 0
0, 27338, 0, 0, 0
0, 27425, 0, 0, 0
0, 27475, 0, 0, 0
0, 27483, 0, 0, 0
0, 27446, 0, 0, 0
0, 27367, 0, 0, 0
0, 27259, 0, 0, 0
0, 27147, 0, 0, 0
0, 27098, 0, 0, 0
0, 27284, 0, 0, 0
0, 28003, 0, 0, 0
0, 29552, 0, 0, 0
0, 32041, 0, 0, 0
0, 35306, 0, 0, 0
0, 38947, 0, 0, 0
0, 42426, 0, 0, 0
0, 45237, 0, 0, 0
0, 47091, 0, 0, 0
0, 47970, 0, 0, 0
0, 48010, 0, 0, 0
0, 47386, 0, 0, 0
0, 46266, 0, 0, 0
0, 44811, 0, 1, 0
0, 43166, 0, 0, 0
0, 41468, 0, 0, 0
0, 39824, 0, 0, 0
0, 38300, 0, 0, 0
0, 36909, 0, 0, 0
0, 35651, 0, 0, 0
0, 34544, 0, 0, 0
0, 33637, 0, 0, 0
0, 32988, 0, 0, 0
0, 32648, 0, 0, 0
0, 32628, 0, 0, 0
0, 32873, 0, 0, 0
0, 33276, 0, 0, 0
0, 33715, 0, 0, 0
0, 34088, 0, 0, 0
0, 34323, 0, 0, 0
0, 34378, 0, 0, 0
0, 34246, 0, 0, 0
0, 33936, 0, 0, 0
0, 33469, 0, 0, 0
0, 32876, 0, 0, 0
0, 32195, 0, 0, 0
0, 31461, 0, 0, 0
0, 30708, 0, 0, 0
0, 29968, 0, 0, 0
0, 29278, 0, 0, 0
0, 28662, 0, 0, 0
0, 28128, 0, 0, 0
0, 27678, 0, 0, 0
0, 27302, 0, 0, 0
0, 26990, 0, 0, 0
0, 26738, 0, 0, 0
0, 26558, 0, 0, 0
0, 26456, 0, 0, 0
0, 26435, 0, 0, 0
0, 26484, 0, 0, 0
0, 26587, 0, 0, 0
0, 26724, 0, 0, 0
0, 26883, 0, 0, 0
0, 27062, 0, 0, 0
0, 27258, 0, 0, 0
0, 27458, 0, 0, 0
0, 27640, 0, 0, 0
0, 27788, 0, 0, 0
0, 27883, 0, 0, 0
0, 27916, 0, 0, 0
0, 27886, 0, 0, 0
0, 27798, 0, 0, 0
0, 27668, 0, 0, 0
0, 27515, 0, 0, 0
0, 27387, 0, 0, 0
0, 27415, 0, 0, 0
0, 27856, 0, 0, 0
0, 29027, 0, 0, 0
0, 31128, 0, 0, 0
0, 34108, 0, 0, 0
0, 37656, 0, 0, 0
0, 41274, 0, 0, 0
0, 44425, 0, 0, 0
0, 46714, 0, 0, 0
0, 48007, 0, 0, 0
0, 48387, 0, 0, 0
0, 48023, 0, 0, 0
0, 47090, 0, 0, 0
0, 45754, 0, 0, 0
0, 44166, 0, 1, 0
0, 42462, 0, 0, 0
0, 40752, 0, 0, 0
0, 39111, 0, 0, 0
0, 37578, 0, 0, 0
0, 36159, 0, 0, 0
0, 34864, 0, 0, 0
0, 33731, 0, 0, 0
0, 32822, 0, 0, 0
0, 32205, 0, 0, 0
0, 31927, 0, 0, 0
0, 31978, 0, 0, 0
0, 32288, 0, 0, 0
0, 32744, 0, 0, 0
0, 33228, 0, 0, 0
0, 33640, 0, 0, 0
0, 33904, 0, 0, 0
0, 33979, 0, 0, 0
0, 33852, 0, 0, 0
0, 33530, 0, 0, 0
0, 33032, 0, 0, 0
0, 32397, 0, 0, 0
0, 31663, 0, 0, 0
0, 30870, 0, 0, 0
0, 30058, 0, 0, 0
0, 29270, 0, 0, 0
0, 28537, 0, 0, 0
0, 27882, 0, 0, 0
0, 27314, 0, 0, 0
0, 26829, 0, 0, 0
0, 26419, 0, 0, 0
0, 26073, 0, 0, 0
0, 25790, 0, 0, 0
0, 25577, 0, 0, 0
0, 25444, 0, 0, 0
0, 25398, 0, 0, 0
0, 25439, 0, 0, 0
0, 25559, 0, 0, 0
0, 25741, 0, 0, 0
0, 25964, 0, 0, 0
0, 26213, 0, 0, 0
0, 26475, 0, 0, 0
0, 26739, 0, 0, 0
0, 26989, 0, 0, 0
0, 27215, 0, 0, 0
0, 27408, 0, 0, 0
0, 27558, 0, 0, 0
0, 27662, 0, 0, 0
0, 27720, 0, 0, 0
0, 27736, 0, 0, 0
0, 27705, 0, 0, 0
0, 27627, 0, 0, 0
0, 27517, 0, 0, 0
0, 27430, 0, 0, 0
0, 27522, 0, 0, 0
0, 28103, 0, 0, 0
0, 29540, 0, 0, 0
0, 32035, 0, 0, 0
0, 35483, 0, 0, 0
0, 39490, 0, 0, 0
0, 43476, 0, 0, 0
0, 46848, 0, 0, 0
0, 49210, 0, 0, 0
0, 50469, 0, 0, 0
0, 50764, 0, 0, 0
0, 50293, 0, 0, 0
0, 49247, 0, 0, 0
0, 47801, 0, 0, 0
0, 46120, 0, 1, 0
0, 44356, 0, 0, 0
0, 42637, 0, 0, 0
0, 41046, 0, 0, 0
0, 39618, 0, 0, 0
0, 38337, 0, 0, 0
0, 37174, 0, 0, 0
0, 36114, 0, 0, 0
0, 35181, 0, 0, 0
0, 34430, 0, 0, 0
0, 33916, 0, 0, 0
0, 33662, 0, 0, 0
0, 33643, 0, 0, 0
0, 33790, 0, 0, 0
0, 34014, 0, 0, 0
0, 34229, 0, 0, 0
0, 34366, 0, 0, 0
0, 34374, 0, 0, 0
0, 34219, 0, 0, 0
0, 33886, 0, 0, 0
0, 33383, 0, 0, 0
0, 32728, 0, 0, 0
0, 31956, 0, 0, 0
0, 31104, 0, 0, 0
0, 30216, 0, 0, 0
0, 29328, 0, 0, 0
0, 28468, 0, 0, 0
0, 27666, 0, 0, 0
0, 26942, 0, 0, 0
0, 26304, 0, 0, 0
0, 25763, 0, 0, 0
0, 25332, 0, 0, 0
0, 25011, 0, 0, 0
0, 24799, 0, 0, 0
0, 24688, 0, 0, 0
0, 24672, 0, 0, 0
0, 24741, 0, 0, 0
0, 24884, 0, 0, 0
0, 25084, 0, 0, 0
0, 25325, 0, 0, 0
0, 25589, 0, 0, 0
0, 25857, 0, 0, 0
0, 26115, 0, 0, 0
0, 26351, 0, 0, 0
0, 26563, 0, 0, 0
0, 26745, 0, 0, 0
0, 26899, 0, 0, 0
0, 27019, 0, 0, 0
0, 27107, 0, 0, 0
0, 27155, 0, 0, 0
0, 27161, 0, 0, 0
0, 27123, 0, 0, 0
0, 27041, 0, 0, 0
0, 26915, 0, 0, 0
0, 26757, 0, 0, 0
0, 26595, 0, 0, 0
0, 26503, 0, 0, 0
0, 26689, 0, 0, 0
0, 27520, 0, 0, 0
0, 29363, 0, 0, 0
0, 32345, 0, 0, 0
0, 36248, 0, 0, 0
0, 40570, 0, 0, 0
0, 44659, 1, 0, 0
0, 47915, 0, 0, 0
0, 50011, 0, 0, 0
0, 50954, 0, 0, 0
0, 50944, 0, 0, 0
0, 50201, 0, 0, 0
0, 48920, 0, 0, 0
0, 47275, 0, 1, 0
0, 45432, 0, 0, 0
0, 43538, 0, 0, 0
0, 41716, 0, 0, 0
0, 40041, 0, 0, 0
0, 38534, 0, 0, 0
0, 37181, 0, 0, 0
0, 35960, 0, 0, 0
0, 34872, 0, 0, 0
0, 33955, 0, 0, 0
0, 33269, 0, 0, 0
0, 32865, 0, 0, 0
0, 32753, 0, 0, 0
0, 32883, 0, 0, 0
0, 33162, 0, 0, 0
0, 33483, 0, 0, 0
0, 33750, 0, 0, 0
0, 33886, 0, 0, 0
0, 33851, 0, 0, 0
0, 33633, 0, 0, 0
0, 33236, 0, 0, 0
0, 32677, 0, 0, 0
0, 31990, 0, 0, 0
0, 31211, 0, 0, 0
0, 30376, 0, 0, 0
0, 29512, 0, 0, 0
0, 28654, 0, 0, 0
0, 27834, 0, 0, 0
0, 27074, 0, 0, 0
0, 26393, 0, 0, 0
0, 25804, 0, 0, 0
0, 25317, 0, 0, 0
0, 24930, 0, 0, 0
0, 24644, 0, 0, 0
0, 24460, 0, 0, 0
0, 24381, 0, 0, 0
0, 24404, 0, 0, 0
0, 24518, 0, 0, 0
0, 24709, 0, 0, 0
0, 24954, 0, 0, 0
0, 25232, 0, 0, 0
0, 25526, 0, 0, 0
0, 25823, 0, 0, 0
0, 26107, 0, 0, 0
0, 26371, 0, 0, 0
0, 26607, 0, 0, 0
0, 26804, 0, 0, 0
0, 26956, 0, 0, 0
0, 27063, 0, 0, 0
0, 27128, 0, 0, 0
0, 27156, 0, 0, 0
0, 27155, 0, 0, 0
0, 27135, 0, 0, 0
0, 27098, 0, 0, 0
0, 27047, 0, 0, 0
0, 26981, 0, 0, 0
0, 26902, 0, 0, 0
0, 26820, 0, 0, 0
0, 26760, 0, 0, 0
0, 26821, 0, 0, 0
0, 27268, 0, 0, 0
0, 28507, 0, 0, 0
0, 30873, 0, 0, 0
0, 34381, 0, 0, 0
0, 38679, 0, 0, 0
0, 43150, 1, 0, 0
0, 47097, 0, 0, 0
0, 49962, 0, 0, 0
0, 51546, 0, 0, 0
0, 51983, 0, 0, 0
0, 51539, 0, 0, 0
0, 50446, 0, 0, 0
0, 48885, 0, 0, 0
0, 47019, 0, 1, 0
0, 44993, 0, 0, 0
0, 42941, 0, 0, 0
0, 40967, 0, 0, 0
0, 39137, 0, 0, 0
0, 37472, 0, 0, 0
0, 35974, 0, 0, 0
0, 34656, 0, 0, 0
0, 33565, 0, 0, 0
0, 32774, 0, 0, 0
0, 32346, 0, 0, 0
0, 32299, 0, 0, 0
0, 32590, 0, 0, 0
0, 33111, 0, 0, 0
0, 33719, 0, 0, 0
0, 34284, 0, 0, 0
0, 34713, 0, 0, 0
0, 34944, 0, 0, 0
0, 34949, 0, 0, 0
0, 34730, 0, 0, 0
0, 34309, 0, 0, 0
0, 33718, 0, 0, 0
0, 32996, 0, 0, 0
0, 32189, 0, 0, 0
0, 31332, 0, 0, 0
0, 30455, 0, 0, 0
0, 29585, 0, 0, 0
0, 28749, 0, 0, 0
0, 27971, 0, 0, 0
0, 27269, 0, 0, 0
0, 26662, 0, 0, 0
0, 26159, 0, 0, 0
0, 25766, 0, 0, 0
0, 25478, 0, 0, 0
0, 25287, 0, 0, 0
0, 25183, 0, 0, 0
0, 25158, 0, 0, 0
0, 25202, 0, 0, 0
0, 25307, 0, 0, 0
0, 25464, 0, 0, 0
0, 25662, 0, 0, 0
0, 25887, 0, 0, 0
0, 26125, 0, 0, 0
0, 26364, 0, 0, 0
0, 26597, 0, 0, 0
0, 26816, 0, 0, 0
0, 27014, 0, 0, 0
0, 27181, 0, 0, 0
0, 27309, 0, 0, 0
0, 27381, 0, 0, 0
0, 27392, 0, 0, 0
0, 27342, 0, 0, 0
0, 27252, 0, 0, 0
0, 27187, 0, 0, 0
0, 27338, 0, 0, 0
0, 28076, 0, 0, 0
0, 29802, 0, 0, 0
0, 32688, 0, 0, 0
0, 36532, 0, 0, 0
0, 40821, 0, 0, 0
0, 44879, 1, 0, 0
0, 48074, 0, 0, 0
0, 50051, 0, 0, 0
0, 50831, 0, 0, 0
0, 50652, 0, 0, 0
0, 49763, 0, 0, 0
0, 48362, 0, 0, 0
0, 46605, 0, 1, 0
0, 44636, 0, 0, 0
0, 42579, 0, 0, 0
0, 40546, 0, 0, 0
0, 38609, 0, 0, 0
0, 36812, 0, 0, 0
0, 35168, 0, 0, 0
0, 33701, 0, 0, 0
0, 32462, 0, 0, 0
0, 31531, 0, 0, 0
0, 30992, 0, 0, 0
0, 30901, 0, 0, 0
0, 31235, 0, 0, 0
0, 31892, 0, 0, 0
0, 32716, 0, 0, 0
0, 33541, 0, 0, 0
0, 34226, 0, 0, 0
0, 34683, 0, 0, 0
0, 34877, 0, 0, 0
0, 34810, 0, 0, 0
0, 34509, 0, 0, 0
0, 34014, 0, 0, 0
0, 33370, 0, 0, 0
0, 32620, 0, 0, 0
0, 31810, 0, 0, 0
0, 30976, 0, 0, 0
0, 30147, 0, 0, 0
0, 29339, 0, 0, 0
0, 28566, 0, 0, 0
0, 27834, 0, 0, 0
0, 27154, 0, 0, 0
0, 26539, 0, 0, 0
0, 26004, 0, 0, 0
0, 25556, 0, 0, 0
0, 25200, 0, 0, 0
0, 24939, 0, 0, 0
0, 24773, 0, 0, 0
0, 24706, 0, 0, 0
0, 24736, 0, 0, 0
0, 24857, 0, 0, 0
0, 25057, 0, 0, 0
0, 25323, 0, 0, 0
0, 25641, 0, 0, 0
0, 25998, 0, 0, 0
0, 26381, 0, 0, 0
0, 26778, 0, 0, 0
0, 27171, 0, 0, 0
0, 27548, 0, 0, 0
0, 27896, 0, 0, 0
0, 28206, 0, 0, 0
0, 28471, 0, 0, 0
0, 28681, 0, 0, 0
0, 28828, 0, 0, 0
0, 28907, 0, 0, 0
0, 28937, 0, 0, 0
0, 29025, 0, 0, 0
0, 29439, 0, 0, 0
0, 30573, 0, 0, 0
0, 32737, 0, 0, 0
0, 35946, 0, 0, 0
0, 39872, 0, 0, 0
0, 43945, 0, 0, 0
0, 47518, 0, 0, 0
0, 50092, 0, 0, 0
0, 51494, 0, 0, 0
0, 51841, 0, 0, 0
0, 51370, 0, 0, 0
0, 50297, 0, 0, 0
0, 48796, 0, 0, 0
0, 47013, 0, 1, 0
0, 45082, 0, 0, 0
0, 43125, 0, 0, 0
0, 41243, 0, 0, 0
0, 39493, 0, 0, 0
0, 37895, 0, 0, 0
0, 36448, 0, 0, 0
0, 35157, 0, 0, 0
0, 34045, 0, 0, 0
0, 33167, 0, 0, 0
0, 32590, 0, 0, 0
0, 32355, 0, 0, 0
0, 32445, 0, 0, 0
0, 32784, 0, 0, 0
0, 33259, 0, 0, 0
0, 33749, 0, 0, 0
0, 34147, 0, 0, 0
0, 34379, 0, 0, 0
0, 34407, 0, 0, 0
0, 34221, 0, 0, 0
0, 33837, 0, 0, 0
0, 33283, 0, 0, 0
0, 32593, 0, 0, 0
0, 31804, 0, 0, 0
0, 30953, 0, 0, 0
0, 30072, 0, 0, 0
0, 29195, 0, 0, 0
0, 28360, 0, 0, 0
0, 27594, 0, 0, 0
0, 26917, 0, 0, 0
0, 26338, 0, 0, 0
0, 25864, 0, 0, 0
0, 25491, 0, 0, 0
0, 25215, 0, 0, 0
0, 25034, 0, 0, 0
0, 24946, 0, 0, 0
0, 24946, 0, 0, 0
0, 25029, 0, 0, 0
0, 25182, 0, 0, 0
0, 25395, 0, 0, 0
0, 25648, 0, 0, 0
0, 25917, 0, 0, 0
0, 26183, 0, 0, 0
0, 26432, 0, 0, 0
0, 26656, 0, 0, 0
0, 26857, 0, 0, 0
0, 27038, 0, 0, 0
0, 27203, 0, 0, 0
0, 27350, 0, 0, 0
0, 27471, 0, 0, 0
0, 27556, 0, 0, 0
0, 27593, 0, 0, 0
0, 27575, 0, 0, 0
0, 27504, 0, 0, 0
0, 27408, 0, 0, 0
0, 27393, 0, 0, 0
0, 27726, 0, 0, 0
0, 28832, 0, 0, 0
0, 31073, 0, 0, 0
0, 34498, 0, 0, 0
0, 38767, 0, 0, 0
0, 43264, 1, 0, 0
0, 47280, 0, 0, 0
0, 50236, 0, 0, 0
0, 51901, 0, 0, 0
0, 52394, 0, 0, 0
0, 51986, 0, 0, 0
0, 50917, 0, 0, 0
0, 49378, 0, 0, 0
0, 47529, 0, 1, 0
0, 45518, 0, 0, 0
0, 43483, 0, 0, 0
0, 41533, 0, 0, 0
0, 39745, 0, 0, 0
0, 38149, 0, 0, 0
0, 36741, 0, 0, 0
0, 35507, 0, 0, 0
0, 34452, 0, 0, 0
0, 33607, 0, 0, 0
0, 33018, 0, 0, 0
0, 32716, 0, 0, 0
0, 32692, 0, 0, 0
0, 32879, 0, 0, 0
0, 33179, 0, 0, 0
0, 33486, 0, 0, 0
0, 33712, 0, 0, 0
0, 33796, 0, 0, 0
0, 33709, 0, 0, 0
0, 33443, 0, 0, 0
0, 33009, 0, 0, 0
0, 32433, 0, 0, 0
0, 31744, 0, 0, 0
0, 30976, 0, 0, 0
0, 30156, 0, 0, 0
0, 29314, 0, 0, 0
0, 28476, 0, 0, 0
0, 27669, 0, 0, 0
0, 26913, 0, 0, 0
0, 26227, 0, 0, 0
0, 25627, 0, 0, 0
0, 25123, 0, 0, 0
0, 24722, 0, 0, 0
0, 24424, 0, 0, 0
0, 24228, 0, 0, 0
0, 24126, 0, 0, 0
0, 24110, 0, 0, 0
0, 24169, 0, 0, 0
0, 24296, 0, 0, 0
0, 24483, 0, 0, 0
0, 24721, 0, 0, 0
0, 24996, 0, 0, 0
0, 25296, 0, 0, 0
0, 25608, 0, 0, 0
0, 25920, 0, 0, 0
0, 26216, 0, 0, 0
0, 26486, 0, 0, 0
0, 26719, 0, 0, 0
0, 26907, 0, 0, 0
0, 27045, 0, 0, 0
0, 27134, 0, 0, 0
0, 27172, 0, 0, 0
0, 27159, 0, 0, 0
0, 27104, 0, 0, 0
0, 27043, 0, 0, 0
0, 27089, 0, 0, 0
0, 27524, 0, 0, 0
0, 28767, 0, 0, 0
0, 31147, 0, 0, 0
0, 34658, 0, 0, 0
0, 38921, 0, 0, 0
0, 43306, 1, 0, 0
0, 47115, 0, 0, 0
0, 49821, 0, 0, 0
0, 51249, 0, 0, 0
0, 51556, 0, 0, 0
0, 51019, 0, 0, 0
0, 49869, 0, 0, 0
0, 48284, 0, 0, 0
0, 46414, 0, 1, 0
0, 44395, 0, 0, 0
0, 42347, 0, 0, 0
0, 40361, 0, 0, 0
0, 38492, 0, 0, 0
0, 36763, 0, 0, 0
0, 35187, 0, 0, 0
0, 33788, 0, 0, 0
0, 32620, 0, 0, 0
0, 31769, 0, 0, 0
0, 31314, 0, 0, 0
0, 31283, 0, 0, 0
0, 31639, 0, 0, 0
0, 32276, 0, 0, 0
0, 33038, 0, 0, 0
0, 33771, 0, 0, 0
0, 34352, 0, 0, 0
0, 34709, 0, 0, 0
0, 34814, 0, 0, 0
0, 34673, 0, 0, 0
0, 34310, 0, 0, 0
0, 33753, 0, 0, 0
0, 33044, 0, 0, 0
0, 32220, 0, 0, 0
0, 31327, 0, 0, 0
0, 30411, 0, 0, 0
0, 29518, 0, 0, 0
0, 28680, 0, 0, 0
0, 27913, 0, 0, 0
0, 27220, 0, 0, 0
0, 26600, 0, 0, 0
0, 26059, 0, 0, 0
0, 25602, 0, 0, 0
0, 25247, 0, 0, 0
0, 25010, 0, 0, 0
0, 24904, 0, 0, 0
0, 24922, 0, 0, 0
0, 25046, 0, 0, 0
0, 25248, 0, 0, 0
0, 25498, 0, 0, 0
0, 25770, 0, 0, 0
0, 26046, 0, 0, 0
0, 26313, 0, 0, 0
0, 26564, 0, 0, 0
0, 26792, 0, 0, 0
0, 26989, 0, 0, 0
0, 27139, 0, 0, 0
0, 27228, 0, 0, 0
0, 27250, 0, 0, 0
0, 27214, 0, 0, 0
0, 27175, 0, 0, 0
0, 27296, 0, 0, 0
0, 27909, 0, 0, 0
0, 29409, 0, 0, 0
0, 32019, 0, 0, 0
0, 35621, 0, 0, 0
0, 39769, 0, 0, 0
0, 43829, 0, 0, 0
0, 47162, 0, 0, 0
0, 49361, 0, 0, 0
0, 50366, 0, 0, 0
0, 50370, 0, 0, 0
0, 49626, 0, 0, 0
0, 48339, 0, 0, 0
0, 46673, 0, 1, 0
0, 44768, 0, 0, 0
0, 42745, 0, 0, 0
0, 40709, 0, 0, 0
0, 38742, 0, 0, 0
0, 36888, 0, 0, 0
0, 35172, 0, 0, 0
0, 33620, 0, 0, 0
0, 32285, 0, 0, 0
0, 31252, 0, 0, 0
0, 30617, 0, 0, 0
0, 30442, 0, 0, 0
0, 30723, 0, 0, 0
0, 31370, 0, 0, 0
0, 32227, 0, 0, 0
0, 33119, 0, 0, 0
0, 33891, 0, 0, 0
0, 34442, 0, 0, 0
0, 34719, 0, 0, 0
0, 34710, 0, 0, 0
0, 34435, 0, 0, 0
0, 33929, 0, 0, 0
0, 33231, 0, 0, 0
0, 32380, 0, 0, 0
0, 31421, 0, 0, 0
0, 30397, 0, 0, 0
0, 29352, 0, 0, 0
0, 28328, 0, 0, 0
0, 27364, 0, 0, 0
0, 26494, 0, 0, 0
0, 25737, 0, 0, 0
0, 25104, 0, 0, 0
0, 24602, 0, 0, 0
0, 24232, 0, 0, 0
0, 23995, 0, 0, 0
0, 23894, 0, 0, 0
0, 23934, 0, 0, 0
0, 24114, 0, 0, 0
0, 24417, 0, 0, 0
0, 24810, 0, 0, 0
0, 25253, 0, 0, 0
0, 25708, 0, 0, 0
0, 26143, 0, 0, 0
0, 26540, 0, 0, 0
0, 26891, 0, 0, 0
0, 27197, 0, 0, 0
0, 27451, 0, 0, 0
0, 27649, 0, 0, 0
0, 27786, 0, 0, 0
0, 27863, 0, 0, 0
0, 27893, 0, 0, 0
0, 27950, 0, 0, 0
0, 28238, 0, 0, 0
0, 29130, 0, 0, 0
0, 31009, 0, 0, 0
0, 34018, 0, 0, 0
0, 37935, 0, 0, 0
0, 42243, 0, 0, 0
0, 46273, 1, 0, 0
0, 49419, 0, 0, 0
0, 51360, 0, 0, 0
0, 52126, 0, 0, 0
0, 51949, 0, 0, 0
0, 51071, 0, 0, 0
0, 49683, 0, 0, 0
0, 47948, 0, 1, 0
0, 46016, 0, 0, 0
0, 44017, 0, 0, 0
0, 42066, 0, 0, 0
0, 40250, 0, 0, 0
0, 38611, 0, 0, 0
0, 37152, 0, 0, 0
0, 35863, 0, 0, 0
0, 34748, 0, 0, 0
0, 33844, 0, 0, 0
0, 33200, 0, 0, 0
0, 32856, 0, 0, 0
0, 32817, 0, 0, 0
0, 33029, 0, 0, 0
0, 33398, 0, 0, 0
0, 33814, 0, 0, 0
0, 34175, 0, 0, 0
0, 34406, 0, 0, 0
0, 34462, 0, 0, 0
0, 34321, 0, 0, 0
0, 33985, 0, 0, 0
0, 33470, 0, 0, 0
0, 32806, 0, 0, 0
0, 32027, 0, 0, 0
0, 31176, 0, 0, 0
0, 30284, 0, 0, 0
0, 29394, 0, 0, 0
0, 28542, 0, 0, 0
0, 27761, 0, 0, 0
0, 27067, 0, 0, 0
0, 26469, 0, 0, 0
0, 25968, 0, 0, 0
0, 25558, 0, 0, 0
0, 25234, 0, 0, 0
0, 24992, 0, 0, 0
0, 24837, 0, 0, 0
0, 24773, 0, 0, 0
0, 24797, 0, 0, 0
0, 24897, 0, 0, 0
0, 25058, 0, 0, 0
0, 25260, 0, 0, 0
0, 25484, 0, 0, 0
0, 25718, 0, 0, 0
0, 25955, 0, 0, 0
0, 26188, 0, 0, 0
0, 26408, 0, 0, 0
0, 26601, 0, 0, 0
0, 26758, 0, 0, 0
0, 26868, 0, 0, 0
0, 26924, 0, 0, 0
0, 26924, 0, 0, 0
0, 26868, 0, 0, 0
0, 26777, 0, 0, 0
0, 26714, 0, 0, 0
0, 26871, 0, 0, 0
0, 27611, 0, 0, 0
0, 29336, 0, 0, 0
0, 32219, 0, 0, 0
0, 36075, 0, 0, 0
0, 40408, 0, 0, 0
0, 44553, 1, 0, 0
0, 47879, 0, 0, 0
0, 50020, 0, 0, 0
0, 50967, 0, 0, 0
0, 50932, 0, 0, 0
0, 50160, 0, 0, 0
0, 48849, 0, 0, 0
0, 47170, 0, 1, 0
0, 45274, 0, 0, 0
0, 43296, 0, 0, 0
0, 41351, 0, 0, 0
0, 39523, 0, 0, 0
0, 37850, 0, 0, 0
0, 36337, 0, 0, 0
0, 34978, 0, 0, 0
0, 33797, 0, 0, 0
0, 32844, 0, 0, 0
0, 32184, 0, 0, 0
0, 31869, 0, 0, 0
0, 31903, 0, 0, 0
0, 32224, 0, 0, 0
0, 32718, 0, 0, 0
0, 33253, 0, 0, 0
0, 33718, 0, 0, 0
0, 34026, 0, 0, 0
0, 34128, 0, 0, 0
0, 34005, 0, 0, 0
0, 33666, 0, 0, 0
0, 33142, 0, 0, 0
0, 32470, 0, 0, 0
0, 31691, 0, 0, 0
0, 30843, 0, 0, 0
0, 29963, 0, 0, 0
0, 29087, 0, 0, 0
0, 28246, 0, 0, 0
0, 27466, 0, 0, 0
0, 26771, 0, 0, 0
0, 26174, 0, 0, 0
0, 25683, 0, 0, 0
0, 25304, 0, 0, 0
0, 25035, 0, 0, 0
0, 24872, 0, 0, 0
0, 24809, 0, 0, 0
0, 24835, 0, 0, 0
0, 24934, 0, 0, 0
0, 25094, 0, 0, 0
0, 25302, 0, 0, 0
0, 25548, 0, 0, 0
0, 25816, 0, 0, 0
0, 26095, 0, 0, 0
0, 26371, 0, 0, 0
0, 26635, 0, 0, 0
0, 26871, 0, 0, 0
0, 27064, 0, 0, 0
0, 27206, 0, 0, 0
0, 27292, 0, 0, 0
0, 27322, 0, 0, 0
0, 27308, 0, 0, 0
0, 27279, 0, 0, 0
0, 27316, 0, 0, 0
0, 27639, 0, 0, 0
0, 28601, 0, 0, 0
0, 30515, 0, 0, 0
0, 33445, 0, 0, 0
0, 37137, 0, 0, 0
0, 41096, 0, 0, 0
0, 44708, 0, 0, 0
0, 47451, 0, 0, 0
0, 49086, 0, 0, 0
0, 49668, 0, 0, 0
0, 49398, 0, 0, 0
0, 48480, 0, 0, 0
0, 47088, 0, 0, 0
0, 45380, 0, 1, 0
0, 43500, 0, 0, 0
0, 41564, 0, 0, 0
0, 39665, 0, 0, 0
0, 37862, 0, 0, 0
0, 36183, 0, 0, 0
0, 34647, 0, 0, 0
0, 33296, 0, 0, 0
0, 32199, 0, 0, 0
0, 31447, 0, 0, 0
0, 31108, 0, 0, 0
0, 31193, 0, 0, 0
0, 31631, 0, 0, 0
0, 32290, 0, 0, 0
0, 33013, 0, 0, 0
0, 33660, 0, 0, 0
0, 34130, 0, 0, 0
0, 34370, 0, 0, 0
0, 34364, 0, 0, 0
0, 34120, 0, 0, 0
0, 33669, 0, 0, 0
0, 33052, 0, 0, 0
0, 32316, 0, 0, 0
0, 31507, 0, 0, 0
0, 30661, 0, 0, 0
0, 29802, 0, 0, 0
0, 28957, 0, 0, 0
0, 28144, 0, 0, 0
0, 27383, 0, 0, 0
0, 26688, 0, 0, 0
0, 26078, 0, 0, 0
0, 25564, 0, 0, 0
0, 25157, 0, 0, 0
0, 24863, 0, 0, 0
0, 24690, 0, 0, 0
0, 24639, 0, 0, 0
0, 24707, 0, 0, 0
0, 24879, 0, 0, 0
0, 25133, 0, 0, 0
0, 25439, 0, 0, 0
0, 25771, 0, 0, 0
0, 26104, 0, 0, 0
0, 26421, 0, 0, 0
0, 26714, 0, 0, 0
0, 26983, 0, 0, 0
0, 27222, 0, 0, 0
0, 27428, 0, 0, 0
0, 27595, 0, 0, 0
0, 27732, 0, 0, 0
0, 27902, 0, 0, 0
0, 28293, 0, 0, 0
0, 29233, 0, 0, 0
0, 31035, 0, 0, 0
0, 33789, 0, 0, 0
0, 37284, 0, 0, 0
0, 41065, 0, 0, 0
0, 44557, 0, 0, 0
0, 47252, 0, 0, 0
0, 48893, 0, 0, 0
0, 49509, 0, 0, 0
0, 49283, 0, 0, 0
0, 48417, 0, 0, 0
0, 47089, 0, 0, 0
0, 45457, 0, 1, 0
0, 43656, 0, 0, 0
0, 41806, 0, 0, 0
0, 39998, 0, 0, 0
0, 38292, 0, 0, 0
0, 36716, 0, 0, 0
0, 35287, 0, 0, 0
0, 34034, 0, 0, 0
0, 33008, 0, 0, 0
0, 32271, 0, 0, 0
0, 31870, 0, 0, 0
0, 31818, 0, 0, 0
0, 32067, 0, 0, 0
0, 32516, 0, 0, 0
0, 33039, 0, 0, 0
0, 33520, 0, 0, 0
0, 33873, 0, 0, 0
0, 34038, 0, 0, 0
0, 33989, 0, 0, 0
0, 33727, 0, 0, 0
0, 33271, 0, 0, 0
0, 32653, 0, 0, 0
0, 31912, 0, 0, 0
0, 31094, 0, 0, 0
0, 30242, 0, 0, 0
0, 29391, 0, 0, 0
0, 28575, 0, 0, 0
0, 27822, 0, 0, 0
0, 27150, 0, 0, 0
0, 26569, 0, 0, 0
0, 26083, 0, 0, 0
0, 25699, 0, 0, 0
0, 25418, 0, 0, 0
0, 25240, 0, 0, 0
0, 25162, 0, 0, 0
0, 25184, 0, 0, 0
0, 25293, 0, 0, 0
0, 25470, 0, 0, 0
0, 25699, 0, 0, 0
0, 25966, 0, 0, 0
0, 26256, 0, 0, 0
0, 26553, 0, 0, 0
0, 26843, 0, 0, 0
0, 27110, 0, 0, 0
0, 27338, 0, 0, 0
0, 27518, 0, 0, 0
0, 27640, 0, 0, 0
0, 27697, 0, 0, 0
0, 27689, 0, 0, 0
0, 27614, 0, 0, 0
0, 27490, 0, 0, 0
0, 27370, 0, 0, 0
0, 27409, 0, 0, 0
0, 27923, 0, 0, 0
0, 29310, 0, 0, 0
0, 31812, 0, 0, 0
0, 35337, 0, 0, 0
0, 39470, 0, 0, 0
0, 43596, 0, 0, 0
0, 47075, 0, 0, 0
0, 49469, 0, 0, 0
0, 50682, 0, 0, 0
0, 50878, 0, 0, 0
0, 50295, 0, 0, 0
0, 49143, 0, 0, 0
0, 47597, 0, 0, 0
0, 45815, 0, 1, 0
0, 43939, 0, 0, 0
0, 42092, 0, 0, 0
0, 40361, 0, 0, 0
0, 38786, 0, 0, 0
0, 37368, 0, 0, 0
0, 36096, 0, 0, 0
0, 34971, 0, 0, 0
0, 34027, 0, 0, 0
0, 33320, 0, 0, 0
0, 32901, 0, 0, 0
0, 32782, 0, 0, 0
0, 32923, 0, 0, 0
0, 33236, 0, 0, 0
0, 33608, 0, 0, 0
0, 33936, 0, 0, 0
0, 34141, 0, 0, 0
0, 34174, 0, 0, 0
0, 34014, 0, 0, 0
0, 33667, 0, 0, 0
0, 33163, 0, 0, 0
0, 32536, 0, 0, 0
0, 31818, 0, 0, 0
0, 31043, 0, 0, 0
0, 30236, 0, 0, 0
0, 29419, 0, 0, 0
0, 28610, 0, 0, 0
0, 27835, 0, 0, 0
0, 27118, 0, 0, 0
0, 26482, 0, 0, 0
0, 25947, 0, 0, 0
0, 25539, 0, 0, 0
0, 25263, 0, 0, 0
0, 25114, 0, 0, 0
0, 25071, 0, 0, 0
0, 25108, 0, 0, 0
0, 25193, 0, 0, 0
0, 25304, 0, 0, 0
0, 25436, 0, 0, 0
0, 25601, 0, 0, 0
0, 25810, 0, 0, 0
0, 26063, 0, 0, 0
