9796, 30314, 0, 0, 0
9806, 30353, 0, 0, 0
9822, 30476, 0, 0, 0
9839, 30753, 0, 0, 0
9854, 31243, 0, 0, 0
9870, 31972, 0, 0, 0
9870, 32923, 0, 0, 0
9886, 34025, 0, 0, 0
9902, 35162, 0, 0, 0
9917, 36203, 0, 0, 0
9933, 37047, 0, 0, 0
9949, 37634, 0, 0, 0
9950, 37949, 0, 0, 0
9966, 38015, 0, 0, 0
9981, 37883, 0, 0, 0
9997, 37612, 0, 0, 0
10013, 37263, 0, 1, 0
10029, 36886, 0, 0, 0
10030, 36518, 0, 0, 0
10045, 36172, 0, 0, 0
10061, 35849, 0, 0, 0
10077, 35535, 0, 0, 0
10094, 35221, 0, 0, 0
10109, 34912, 0, 0, 0
10110, 34621, 0, 0, 0
10126, 34369, 0, 0, 0
10141, 34174, 0, 0, 0
10157, 34044, 0, 0, 0
10173, 33974, 0, 0, 0
10189, 33947, 0, 0, 0
10190, 33940, 0, 0, 0
10206, 33932, 0, 0, 0
10222, 33899, 0, 0, 0
10237, 33829, 0, 0, 0
10253, 33712, 0, 0, 0
10269, 33549, 0, 0, 0
10270, 33347, 0, 0, 0
10285, 33116, 0, 0, 0
10301, 32866, 0, 0, 0
10317, 32605, 0, 0, 0
10333, 32339, 0, 0, 0
10349, 32077, 0, 0, 0
10350, 31827, 0, 0, 0
10365, 31591, 0, 0, 0
10381, 31377, 0, 0, 0
10397, 31188, 0, 0, 0
10413, 31026, 0, 0, 0
10429, 30887, 0, 0, 0
10430, 30773, 0, 0, 0
10445, 30679, 0, 0, 0
10461, 30603, 0, 0, 0
10477, 30544, 0, 0, 0
10493, 30501, 0, 0, 0
10509, 30469, 0, 0, 0
10509, 30449, 0, 0, 0
10525, 30437, 0, 0, 0
10541, 30429, 0, 0, 0
10557, 30420, 0, 0, 0
10573, 30410, 0, 0, 0
10589, 30401, 0, 0, 0
10589, 30393, 0, 0, 0
10605, 30384, 0, 0, 0
10621, 30376, 0, 0, 0
10637, 30369, 0, 0, 0
10653, 30363, 0, 0, 0
10669, 30358, 0, 0, 0
10670, 30356, 0, 0, 0
10685, 30355, 0, 0, 0
10701, 30353, 0, 0, 0
10717, 30349, 0, 0, 0
10733, 30341, 0, 0, 0
10749, 30329, 0, 0, 0
10750, 30318, 0, 0, 0
10765, 30322, 0, 0, 0
10781, 30373, 0, 0, 0
10797, 30530, 0, 0, 0
10813, 30861, 0, 0, 0
10829, 31415, 0, 0, 0
10829, 32208, 1, 0, 0
10845, 33195, 0, 0, 0
10861, 34284, 0, 0, 0
10877, 35351, 0, 0, 0
10893, 36281, 0, 0, 0
10909, 36988, 0, 0, 0
10909, 37434, 0, 0, 0
10925, 37620, 0, 0, 0
10941, 37581, 0, 0, 0
10957, 37369, 0, 0, 0
10973, 37043, 0, 0, 0
10989, 36656, 0, 1, 0
10989, 36250, 0, 0, 0
11005, 35850, 0, 0, 0
11021, 35466, 0, 0, 0
11037, 35097, 0, 0, 0
11053, 34744, 0, 0, 0
11069, 34412, 0, 0, 0
11069, 34118, 0, 0, 0
11085, 33880, 0, 0, 0
11101, 33715, 0, 0, 0
11117, 33627, 0, 0, 0
11133, 33605, 0, 0, 0
11149, 33631, 0, 0, 0
11149, 33684, 0, 0, 0
11165, 33740, 0, 0, 0
11181, 33771, 0, 0, 0
11197, 33761, 0, 0, 0
11213, 33699, 0, 0, 0
11229, 33583, 0, 0, 0
11229, 33416, 0, 0, 0
11245, 33211, 0, 0, 0
11261, 32982, 0, 0, 0
11277, 32737, 0, 0, 0
11293, 32483, 0, 0, 0
11309, 32228, 0, 0, 0
11309, 31984, 0, 0, 0
11325, 31757, 0, 0, 0
11341, 31550, 0, 0, 0
11357, 31360, 0, 0, 0
11373, 31188, 0, 0, 0
11389, 31034, 0, 0, 0
11389, 30901, 0, 0, 0
11409, 30789, 0, 0, 0
11421, 30702, 0, 0, 0
11437, 30637, 0, 0, 0
11453, 30591, 0, 0, 0
11469, 30555, 0, 0, 0
11469, 30527, 0, 0, 0
11485, 30505, 0, 0, 0
11501, 30491, 0, 0, 0
11516, 30484, 0, 0, 0
11533, 30485, 0, 0, 0
11549, 30492, 0, 0, 0
11549, 30498, 0, 0, 0
11565, 30500, 0, 0, 0
11581, 30494, 0, 0, 0
11596, 30483, 0, 0, 0
11613, 30465, 0, 0, 0
11628, 30444, 0, 0, 0
11629, 30419, 0, 0, 0
11645, 30398, 0, 0, 0
11660, 30393, 0, 0, 0
11676, 30438, 0, 0, 0
11693, 30591, 0, 0, 0
11709, 30918, 0, 0, 0
11709, 31466, 0, 0, 0
11725, 32241, 1, 0, 0
11741, 33201, 0, 0, 0
11756, 34251, 0, 0, 0
11772, 35275, 0, 0, 0
11788, 36164, 0, 0, 0
11789, 36843, 0, 0, 0
11804, 37276, 0, 0, 0
11820, 37460, 0, 0, 0
11836, 37424, 0, 0, 0
11852, 37218, 0, 0, 0
11868, 36901, 0, 0, 0
11869, 36527, 0, 1, 0
11884, 36136, 0, 0, 0
11900, 35755, 0, 0, 0
11916, 35385, 0, 0, 0
11932, 35015, 0, 0, 0
11948, 34631, 0, 0, 0
11949, 34221, 0, 0, 0
11964, 33794, 0, 0, 0
11980, 33377, 0, 0, 0
11996, 33003, 0, 0, 0
12012, 32698, 0, 0, 0
12028, 32480, 0, 0, 0
12029, 32348, 0, 0, 0
12044, 32284, 0, 0, 0
12060, 32256, 0, 0, 0
12076, 32237, 0, 0, 0
12092, 32209, 0, 0, 0
12108, 32156, 0, 0, 0
12109, 32063, 0, 0, 0
12124, 31930, 0, 0, 0
12140, 31767, 0, 0, 0
12156, 31586, 0, 0, 0
12172, 31398, 0, 0, 0
12188, 31212, 0, 0, 0
12189, 31039, 0, 0, 0
12204, 30887, 0, 0, 0
12220, 30760, 0, 0, 0
12236, 30660, 0, 0, 0
12252, 30588, 0, 0, 0
12268, 30538, 0, 0, 0
12268, 30503, 0, 0, 0
12284, 30479, 0, 0, 0
12300, 30463, 0, 0, 0
12316, 30456, 0, 0, 0
12332, 30457, 0, 0, 0
12348, 30467, 0, 0, 0
12348, 30484, 0, 0, 0
12364, 30508, 0, 0, 0
12380, 30534, 0, 0, 0
12396, 30563, 0, 0, 0
12412, 30593, 0, 0, 0
12428, 30622, 0, 0, 0
12428, 30650, 0, 0, 0
12444, 30678, 0, 0, 0
12460, 30707, 0, 0, 0
12480, 30733, 0, 0, 0
12492, 30759, 0, 0, 0
12508, 30783, 0, 0, 0
12508, 30805, 0, 0, 0
12524, 30823, 0, 0, 0
12540, 30836, 0, 0, 0
12556, 30845, 0, 0, 0
12572, 30847, 0, 0, 0
12588, 30845, 0, 0, 0
12588, 30845, 0, 0, 0
12604, 30865, 0, 0, 0
12620, 30947, 0, 0, 0
12636, 31156, 0, 0, 0
12652, 31563, 0, 0, 0
12668, 32214, 0, 0, 0
12668, 33115, 1, 0, 0
12684, 34208, 0, 0, 0
12700, 35389, 0, 0, 0
12716, 36527, 0, 0, 0
12732, 37507, 0, 0, 0
12748, 38251, 0, 0, 0
12748, 38722, 0, 0, 0
12764, 38922, 0, 0, 0
12780, 38886, 0, 0, 0
12796, 38671, 0, 0, 0
12812, 38337, 0, 0, 0
12828, 37939, 0, 1, 0
12828, 37522, 0, 0, 0
12844, 37116, 0, 0, 0
12860, 36729, 0, 0, 0
12876, 36360, 0, 0, 0
12892, 36004, 0, 0, 0
12908, 35662, 0, 0, 0
12908, 35346, 0, 0, 0
12924, 35069, 0, 0, 0
12940, 34845, 0, 0, 0
12956, 34684, 0, 0, 0
12972, 34582, 0, 0, 0
12988, 34529, 0, 0, 0
12988, 34508, 0, 0, 0
13004, 34499, 0, 0, 0
13020, 34483, 0, 0, 0
13036, 34448, 0, 0, 0
13052, 34385, 0, 0, 0
13068, 34297, 0, 0, 0
13068, 34186, 0, 0, 0
13084, 34050, 0, 0, 0
13100, 33885, 0, 0, 0
13116, 33688, 0, 0, 0
13132, 33463, 0, 0, 0
13148, 33218, 0, 0, 0
13148, 32965, 0, 0, 0
13164, 32712, 0, 0, 0
13180, 32466, 0, 0, 0
13196, 32230, 0, 0, 0
13212, 32008, 0, 0, 0
13228, 31804, 0, 0, 0
13228, 31627, 0, 0, 0
13244, 31479, 0, 0, 0
13259, 31356, 0, 0, 0
13276, 31251, 0, 0, 0
13292, 31164, 0, 0, 0
13308, 31092, 0, 0, 0
13308, 31032, 0, 0, 0
13324, 30978, 0, 0, 0
13340, 30929, 0, 0, 0
13356, 30881, 0, 0, 0
13372, 30834, 0, 0, 0
13388, 30789, 0, 0, 0
13388, 30748, 0, 0, 0
13403, 30715, 0, 0, 0
13420, 30687, 0, 0, 0
13436, 30660, 0, 0, 0
13452, 30633, 0, 0, 0
13467, 30605, 0, 0, 0
13483, 30579, 0, 0, 0
13484, 30549, 0, 0, 0
13500, 30518, 0, 0, 0
13515, 30481, 0, 0, 0
13531, 30435, 0, 0, 0
13548, 30378, 0, 0, 0
13548, 30318, 0, 0, 0
13563, 30280, 0, 0, 0
13579, 30322, 0, 0, 0
13595, 30521, 0, 0, 0
13611, 30947, 0, 0, 0
13627, 31639, 1, 0, 0
13628, 32581, 0, 0, 0
13643, 33698, 0, 0, 0
13659, 34869, 0, 0, 0
13675, 35961, 0, 0, 0
13691, 36865, 0, 0, 0
13707, 37514, 0, 0, 0
13707, 37882, 0, 0, 0
13723, 37980, 0, 0, 0
13739, 37854, 0, 0, 0
13755, 37563, 0, 0, 0
13771, 37167, 0, 1, 0
13787, 36722, 0, 0, 0
13787, 36270, 0, 0, 0
13803, 35837, 0, 0, 0
13819, 35430, 0, 0, 0
13835, 35048, 0, 0, 0
13851, 34688, 0, 0, 0
13867, 34356, 0, 0, 0
13868, 34064, 0, 0, 0
13883, 33824, 0, 0, 0
13899, 33651, 0, 0, 0
13915, 33553, 0, 0, 0
13931, 33520, 0, 0, 0
13947, 33535, 0, 0, 0
13947, 33576, 0, 0, 0
13963, 33617, 0, 0, 0
13979, 33631, 0, 0, 0
13995, 33598, 0, 0, 0
14011, 33511, 0, 0, 0
14027, 33372, 0, 0, 0
14027, 33188, 0, 0, 0
14043, 32969, 0, 0, 0
14059, 32730, 0, 0, 0
14075, 32476, 0, 0, 0
14091, 32215, 0, 0, 0
14107, 31956, 0, 0, 0
14123, 31704, 0, 0, 0
14123, 31465, 0, 0, 0
14139, 31244, 0, 0, 0
14155, 31046, 0, 0, 0
14171, 30873, 0, 0, 0
14187, 30728, 0, 0, 0
14203, 30604, 0, 0, 0
14203, 30503, 0, 0, 0
14219, 30423, 0, 0, 0
14235, 30363, 0, 0, 0
14251, 30322, 0, 0, 0
14267, 30297, 0, 0, 0
14283, 30279, 0, 0, 0
14283, 30258, 0, 0, 0
14299, 30226, 0, 0, 0
14315, 30183, 0, 0, 0
14331, 30129, 0, 0, 0
14347, 30062, 0, 0, 0
14363, 29981, 0, 0, 0
14363, 29893, 0, 0, 0
14379, 29802, 0, 0, 0
14395, 29716, 0, 0, 0
14411, 29640, 0, 0, 0
14427, 29580, 0, 0, 0
14443, 29532, 0, 0, 0
14443, 29496, 0, 0, 0
14459, 29476, 0, 0, 0
14475, 29475, 0, 0, 0
14491, 29500, 0, 0, 0
14507, 29573, 0, 0, 0
14523, 29738, 0, 0, 0
14523, 30066, 0, 0, 0
14539, 30634, 0, 0, 0
14555, 31497, 1, 0, 0
14571, 32642, 0, 0, 0
14587, 33976, 0, 0, 0
14603, 35353, 0, 0, 0
14603, 36614, 0, 0, 0
14619, 37630, 0, 0, 0
14635, 38338, 0, 0, 0
14651, 38734, 0, 0, 0
14667, 38849, 0, 0, 0
14683, 38729, 0, 0, 0
14683, 38436, 0, 0, 0
14699, 38027, 0, 1, 0
14715, 37553, 0, 0, 0
14731, 37054, 0, 0, 0
14747, 36560, 0, 0, 0
14763, 36085, 0, 0, 0
14763, 35631, 0, 0, 0
14779, 35207, 0, 0, 0
14795, 34831, 0, 0, 0
14811, 34510, 0, 0, 0
14827, 34236, 0, 0, 0
14843, 33999, 0, 0, 0
14843, 33797, 0, 0, 0
14859, 33629, 0, 0, 0
14875, 33494, 0, 0, 0
14891, 33389, 0, 0, 0
14907, 33309, 0, 0, 0
14923, 33238, 0, 0, 0
14923, 33160, 0, 0, 0
14939, 33073, 0, 0, 0
14955, 32980, 0, 0, 0
14971, 32883, 0, 0, 0
14987, 32774, 0, 0, 0
15003, 32649, 0, 0, 0
15003, 32501, 0, 0, 0
15022, 32327, 0, 0, 0
15035, 32133, 0, 0, 0
15051, 31928, 0, 0, 0
15066, 31722, 0, 0, 0
15082, 31514, 0, 0, 0
15083, 31310, 0, 0, 0
15098, 31103, 0, 0, 0
15114, 30886, 0, 0, 0
15131, 30655, 0, 0, 0
15146, 30421, 0, 0, 0
15162, 30199, 0, 0, 0
15163, 30005, 0, 0, 0
15195, 29737, 0, 0, 0
15211, 29659, 0, 0, 0
15227, 29605, 0, 0, 0
15243, 29570, 0, 0, 0
15243, 29551, 0, 0, 0
15258, 29547, 0, 0, 0
15274, 29553, 0, 0, 0
15291, 29563, 0, 0, 0
15307, 29575, 0, 0, 0
15323, 29588, 0, 0, 0
15323, 29601, 0, 0, 0
15338, 29621, 0, 0, 0
15354, 29659, 0, 0, 0
15370, 29745, 0, 0, 0
15386, 29938, 0, 0, 0
15402, 30311, 0, 0, 0
15403, 30921, 0, 0, 0
15418, 31798, 1, 0, 0
15434, 32916, 0, 0, 0
15450, 34189, 0, 0, 0
15466, 35487, 0, 0, 0
15482, 36677, 0, 0, 0
15483, 37652, 0, 0, 0
15498, 38346, 0, 0, 0
15514, 38736, 0, 0, 0
15530, 38847, 0, 0, 0
15546, 38729, 0, 0, 0
15562, 38443, 0, 0, 0
15563, 38052, 0, 1, 0
15578, 37612, 0, 0, 0
15594, 37161, 0, 0, 0
15610, 36719, 0, 0, 0
15626, 36293, 0, 0, 0
15642, 35883, 0, 0, 0
15643, 35491, 0, 0, 0
15658, 35134, 0, 0, 0
15674, 34828, 0, 0, 0
15690, 34594, 0, 0, 0
15706, 34442, 0, 0, 0
15722, 34369, 0, 0, 0
15723, 34357, 0, 0, 0
15738, 34380, 0, 0, 0
15754, 34406, 0, 0, 0
15770, 34412, 0, 0, 0
15786, 34380, 0, 0, 0
15802, 34296, 0, 0, 0
15802, 34155, 0, 0, 0
15818, 33959, 0, 0, 0
15834, 33715, 0, 0, 0
15850, 33434, 0, 0, 0
15866, 33128, 0, 0, 0
15882, 32811, 0, 0, 0
15882, 32495, 0, 0, 0
15898, 32186, 0, 0, 0
15914, 31888, 0, 0, 0
15930, 31606, 0, 0, 0
15946, 31341, 0, 0, 0
15962, 31095, 0, 0, 0
15962, 30866, 0, 0, 0
15978, 30654, 0, 0, 0
15994, 30456, 0, 0, 0
16010, 30272, 0, 0, 0
16026, 30110, 0, 0, 0
16042, 29974, 0, 0, 0
16042, 29866, 0, 0, 0
16058, 29789, 0, 0, 0
16074, 29741, 0, 0, 0
16090, 29715, 0, 0, 0
16106, 29705, 0, 0, 0
16122, 29705, 0, 0, 0
16122, 29712, 0, 0, 0
16138, 29726, 0, 0, 0
16154, 29742, 0, 0, 0
16170, 29759, 0, 0, 0
16186, 29776, 0, 0, 0
16202, 29795, 0, 0, 0
16202, 29812, 0, 0, 0
16218, 29825, 0, 0, 0
16234, 29835, 0, 0, 0
16250, 29841, 0, 0, 0
16266, 29843, 0, 0, 0
16282, 29846, 0, 0, 0
16282, 29876, 0, 0, 0
16298, 29981, 0, 0, 0
16314, 30238, 0, 0, 0
16330, 30722, 0, 0, 0
16346, 31482, 1, 0, 0
16362, 32514, 0, 0, 0
16362, 33755, 0, 0, 0
16378, 35085, 0, 0, 0
16394, 36360, 0, 0, 0
16410, 37453, 0, 0, 0
16426, 38276, 0, 0, 0
16442, 38795, 0, 0, 0
16442, 39023, 0, 0, 0
16458, 39005, 0, 0, 0
16474, 38806, 0, 0, 0
16490, 38496, 0, 0, 0
16506, 38136, 0, 1, 0
16522, 37770, 0, 0, 0
16522, 37421, 0, 0, 0
16538, 37091, 0, 0, 0
16554, 36774, 0, 0, 0
16570, 36457, 0, 0, 0
16586, 36133, 0, 0, 0
16602, 35812, 0, 0, 0
16602, 35519, 0, 0, 0
16618, 35278, 0, 0, 0
16634, 35101, 0, 0, 0
16650, 34987, 0, 0, 0
16666, 34921, 0, 0, 0
16682, 34880, 0, 0, 0
16682, 34838, 0, 0, 0
16698, 34775, 0, 0, 0
16714, 34678, 0, 0, 0
16730, 34534, 0, 0, 0
16746, 34342, 0, 0, 0
16762, 34101, 0, 0, 0
16762, 33819, 0, 0, 0
16778, 33505, 0, 0, 0
16794, 33172, 0, 0, 0
16810, 32831, 0, 0, 0
16825, 32496, 0, 0, 0
16841, 32176, 0, 0, 0
16842, 31875, 0, 0, 0
16858, 31599, 0, 0, 0
16874, 31350, 0, 0, 0
16890, 31130, 0, 0, 0
16906, 30939, 0, 0, 0
16922, 30781, 0, 0, 0
16922, 30652, 0, 0, 0
16938, 30549, 0, 0, 0
16954, 30467, 0, 0, 0
16970, 30403, 0, 0, 0
16986, 30351, 0, 0, 0
17001, 30310, 0, 0, 0
17002, 30281, 0, 0, 0
17018, 30260, 0, 0, 0
17034, 30239, 0, 0, 0
17049, 30216, 0, 0, 0
17066, 30193, 0, 0, 0
17082, 30172, 0, 0, 0
17082, 30155, 0, 0, 0
17098, 30139, 0, 0, 0
17113, 30122, 0, 0, 0
17129, 30107, 0, 0, 0
17145, 30091, 0, 0, 0
17161, 30073, 0, 0, 0
17162, 30050, 0, 0, 0
17177, 30023, 0, 0, 0
17193, 29987, 0, 0, 0
17209, 29945, 0, 0, 0
17225, 29900, 0, 0, 0
17241, 29865, 0, 0, 0
17241, 29869, 0, 0, 0
17257, 29960, 0, 0, 0
17273, 30212, 0, 0, 0
17289, 30701, 0, 0, 0
17305, 31477, 1, 0, 0
17321, 32534, 0, 0, 0
17322, 33801, 0, 0, 0
17337, 35148, 0, 0, 0
17353, 36421, 0, 0, 0
17369, 37485, 0, 0, 0
17385, 38249, 0, 0, 0
17401, 38678, 0, 0, 0
17402, 38790, 0, 0, 0
17417, 38640, 0, 0, 0
17433, 38301, 0, 0, 0
17449, 37849, 0, 1, 0
17465, 37352, 0, 0, 0
17481, 36858, 0, 0, 0
17481, 36389, 0, 0, 0
17497, 35949, 0, 0, 0
17513, 35533, 0, 0, 0
17529, 35136, 0, 0, 0
17545, 34761, 0, 0, 0
17561, 34422, 0, 0, 0
17561, 34138, 0, 0, 0
17577, 33927, 0, 0, 0
17593, 33795, 0, 0, 0
17609, 33734, 0, 0, 0
17625, 33723, 0, 0, 0
17641, 33734, 0, 0, 0
17641, 33741, 0, 0, 0
17657, 33717, 0, 0, 0
17673, 33650, 0, 0, 0
17689, 33529, 0, 0, 0
17705, 33352, 0, 0, 0
17721, 33125, 0, 0, 0
17721, 32860, 0, 0, 0
17737, 32567, 0, 0, 0
17753, 32257, 0, 0, 0
17769, 31945, 0, 0, 0
17785, 31645, 0, 0, 0
17801, 31362, 0, 0, 0
17802, 31098, 0, 0, 0
17817, 30858, 0, 0, 0
17833, 30648, 0, 0, 0
17849, 30468, 0, 0, 0
17865, 30317, 0, 0, 0
17885, 30194, 0, 0, 0
17885, 30100, 0, 0, 0
17897, 30035, 0, 0, 0
17913, 29996, 0, 0, 0
17929, 29976, 0, 0, 0
17945, 29974, 0, 0, 0
17961, 29984, 0, 0, 0
17961, 29996, 0, 0, 0
17977, 30006, 0, 0, 0
17993, 30017, 0, 0, 0
18009, 30027, 0, 0, 0
18025, 30037, 0, 0, 0
18041, 30049, 0, 0, 0
18041, 30059, 0, 0, 0
18057, 30070, 0, 0, 0
18073, 30078, 0, 0, 0
18089, 30084, 0, 0, 0
18105, 30084, 0, 0, 0
18121, 30076, 0, 0, 0
18121, 30059, 0, 0, 0
18137, 30038, 0, 0, 0
18153, 30013, 0, 0, 0
18169, 29983, 0, 0, 0
18185, 29958, 0, 0, 0
18201, 29991, 0, 0, 0
18201, 30166, 0, 0, 0
18217, 30573, 0, 0, 0
18233, 31269, 1, 0, 0
18249, 32252, 0, 0, 0
18265, 33443, 0, 0, 0
18281, 34700, 0, 0, 0
18281, 35858, 0, 0, 0
18297, 36793, 0, 0, 0
18313, 37427, 0, 0, 0
18329, 37735, 0, 0, 0
18345, 37743, 0, 0, 0
18361, 37508, 0, 0, 0
18361, 37108, 0, 0, 0
18377, 36619, 0, 1, 0
18393, 36101, 0, 0, 0
18409, 35594, 0, 0, 0
18425, 35115, 0, 0, 0
18441, 34666, 0, 0, 0
18441, 34254, 0, 0, 0
18457, 33892, 0, 0, 0
18473, 33601, 0, 0, 0
18489, 33405, 0, 0, 0
18505, 33316, 0, 0, 0
18521, 33332, 0, 0, 0
18521, 33431, 0, 0, 0
18537, 33578, 0, 0, 0
18553, 33739, 0, 0, 0
18568, 33878, 0, 0, 0
18585, 33971, 0, 0, 0
18601, 33999, 0, 0, 0
18601, 33955, 0, 0, 0
18616, 33841, 0, 0, 0
18633, 33669, 0, 0, 0
18649, 33457, 0, 0, 0
18665, 33223, 0, 0, 0
18680, 32976, 0, 0, 0
18681, 32722, 0, 0, 0
18697, 32468, 0, 0, 0
18713, 32216, 0, 0, 0
18729, 31965, 0, 0, 0
18746, 31722, 0, 0, 0
18761, 31494, 0, 0, 0
18761, 31283, 0, 0, 0
18777, 31088, 0, 0, 0
18792, 30915, 0, 0, 0
18808, 30764, 0, 0, 0
18824, 30635, 0, 0, 0
18841, 30531, 0, 0, 0
18841, 30448, 0, 0, 0
18856, 30382, 0, 0, 0
18872, 30332, 0, 0, 0
18888, 30296, 0, 0, 0
18904, 30273, 0, 0, 0
18920, 30259, 0, 0, 0
18921, 30250, 0, 0, 0
18936, 30245, 0, 0, 0
18952, 30240, 0, 0, 0
18969, 30229, 0, 0, 0
18984, 30214, 0, 0, 0
19001, 30197, 0, 0, 0
19001, 30178, 0, 0, 0
19016, 30154, 0, 0, 0
19032, 30123, 0, 0, 0
19048, 30086, 0, 0, 0
19064, 30061, 0, 0, 0
19080, 30096, 0, 0, 0
19080, 30266, 0, 0, 0
19096, 30660, 0, 0, 0
19112, 31341, 0, 0, 0
19128, 32327, 1, 0, 0
19144, 33565, 0, 0, 0
19160, 34935, 0, 0, 0
19161, 36277, 0, 0, 0
19176, 37435, 0, 0, 0
19192, 38300, 0, 0, 0
19208, 38816, 0, 0, 0
19224, 38984, 0, 0, 0
19240, 38850, 0, 0, 0
19241, 38491, 0, 0, 0
19256, 37988, 0, 0, 0
19272, 37417, 0, 1, 0
19288, 36837, 0, 0, 0
19304, 36285, 0, 0, 0
19320, 35773, 0, 0, 0
19320, 35301, 0, 0, 0
19336, 34861, 0, 0, 0
19352, 34451, 0, 0, 0
19368, 34085, 0, 0, 0
19384, 33784, 0, 0, 0
19400, 33563, 0, 0, 0
19400, 33429, 0, 0, 0
19416, 33375, 0, 0, 0
19432, 33384, 0, 0, 0
19448, 33428, 0, 0, 0
19464, 33474, 0, 0, 0
19480, 33493, 0, 0, 0
19496, 33463, 0, 0, 0
19497, 33367, 0, 0, 0
19512, 33203, 0, 0, 0
19528, 32979, 0, 0, 0
19544, 32706, 0, 0, 0
19560, 32401, 0, 0, 0
19560, 32080, 0, 0, 0
19576, 31759, 0, 0, 0
19592, 31447, 0, 0, 0
19608, 31154, 0, 0, 0
19624, 30883, 0, 0, 0
19640, 30639, 0, 0, 0
19640, 30422, 0, 0, 0
19656, 30233, 0, 0, 0
19672, 30072, 0, 0, 0
19688, 29943, 0, 0, 0
19704, 29846, 0, 0, 0
19720, 29777, 0, 0, 0
19720, 29730, 0, 0, 0
19737, 29705, 0, 0, 0
19752, 29701, 0, 0, 0
19768, 29713, 0, 0, 0
19784, 29735, 0, 0, 0
19800, 29763, 0, 0, 0
19816, 29792, 0, 0, 0
19816, 29820, 0, 0, 0
19832, 29843, 0, 0, 0
19848, 29860, 0, 0, 0
19864, 29875, 0, 0, 0
19880, 29892, 0, 0, 0
19880, 29908, 0, 0, 0
19896, 29922, 0, 0, 0
19912, 29933, 0, 0, 0
19928, 29942, 0, 0, 0
19944, 29949, 0, 0, 0
19960, 29956, 0, 0, 0
19960, 29962, 0, 0, 0
19976, 29972, 0, 0, 0
19992, 29979, 0, 0, 0
20008, 29979, 0, 0, 0
20024, 29973, 0, 0, 0
20040, 29972, 0, 0, 0
20040, 29999, 0, 0, 0
20056, 30114, 0, 0, 0
20072, 30405, 0, 0, 0
20088, 30968, 0, 0, 0
20104, 31865, 1, 0, 0
20120, 33098, 0, 0, 0
20120, 34583, 0, 0, 0
20136, 36164, 0, 0, 0
20152, 37652, 0, 0, 0
20168, 38884, 0, 0, 0
20184, 39751, 0, 0, 0
20200, 40212, 0, 0, 0
20200, 40287, 0, 0, 0
20216, 40047, 0, 0, 0
20232, 39580, 0, 0, 0
20248, 38981, 0, 1, 0
20264, 38336, 0, 0, 0
20280, 37705, 0, 0, 0
20280, 37116, 0, 0, 0
20296, 36574, 0, 0, 0
20312, 36066, 0, 0, 0
20328, 35571, 0, 0, 0
20344, 35086, 0, 0, 0
20359, 34617, 0, 0, 0
20360, 34188, 0, 0, 0
20376, 33820, 0, 0, 0
20392, 33536, 0, 0, 0
20408, 33343, 0, 0, 0
20423, 33229, 0, 0, 0
20439, 33170, 0, 0, 0
20455, 33139, 0, 0, 0
20456, 33111, 0, 0, 0
20471, 33057, 0, 0, 0
20488, 32964, 0, 0, 0
20503, 32829, 0, 0, 0
20519, 32653, 0, 0, 0
20536, 32439, 0, 0, 0
20536, 32199, 0, 0, 0
20552, 31943, 0, 0, 0
20568, 31687, 0, 0, 0
20585, 31447, 0, 0, 0
20599, 31243, 0, 0, 0
20616, 31084, 0, 0, 0
20616, 30958, 0, 0, 0
20632, 30845, 0, 0, 0
20648, 30732, 0, 0, 0
20663, 30620, 0, 0, 0
20679, 30516, 0, 0, 0
20695, 30424, 0, 0, 0
20696, 30352, 0, 0, 0
20711, 30296, 0, 0, 0
20727, 30250, 0, 0, 0
20743, 30207, 0, 0, 0
20759, 30170, 0, 0, 0
20775, 30143, 0, 0, 0
20776, 30132, 0, 0, 0
20791, 30117, 0, 0, 0
20807, 30069, 0, 0, 0
20823, 29966, 0, 0, 0
20839, 29812, 0, 0, 0
20855, 29619, 0, 0, 0
20856, 29411, 0, 0, 0
20871, 29219, 0, 0, 0
20887, 29073, 0, 0, 0
20903, 28979, 0, 0, 0
20919, 28929, 0, 0, 0
20935, 28917, 0, 0, 0
20935, 28946, 0, 0, 0
20951, 29017, 0, 0, 0
20967, 29127, 0, 0, 0
20983, 29264, 0, 0, 0
20999, 29416, 0, 0, 0
21015, 29577, 0, 0, 0
21015, 29738, 0, 0, 0
21031, 29897, 0, 0, 0
21047, 30073, 0, 0, 0
21063, 30322, 0, 0, 0
21079, 30720, 0, 0, 0
21095, 31354, 0, 0, 0
21096, 32299, 1, 0, 0
21111, 33571, 0, 0, 0
21127, 35091, 0, 0, 0
21143, 36709, 0, 0, 0
21159, 38241, 0, 0, 0
21175, 39517, 0, 0, 0
21175, 40420, 0, 0, 0
21191, 40908, 0, 0, 0
21207, 41000, 0, 0, 0
21223, 40757, 0, 0, 0
21239, 40250, 0, 0, 0
21255, 39562, 0, 1, 0
21256, 38773, 0, 0, 0
21271, 37959, 0, 0, 0
21287, 37170, 0, 0, 0
21303, 36439, 0, 0, 0
21319, 35779, 0, 0, 0
21335, 35189, 0, 0, 0
21335, 34664, 0, 0, 0
21351, 34211, 0, 0, 0
21367, 33849, 0, 0, 0
21383, 33593, 0, 0, 0
21399, 33452, 0, 0, 0
21415, 33416, 0, 0, 0
21415, 33463, 0, 0, 0
21431, 33560, 0, 0, 0
21447, 33672, 0, 0, 0
21463, 33763, 0, 0, 0
21479, 33807, 0, 0, 0
21495, 33784, 0, 0, 0
21495, 33688, 0, 0, 0
21511, 33523, 0, 0, 0
21527, 33302, 0, 0, 0
21543, 33044, 0, 0, 0
21559, 32769, 0, 0, 0
21575, 32491, 0, 0, 0
21575, 32221, 0, 0, 0
21591, 31964, 0, 0, 0
21607, 31727, 0, 0, 0
21623, 31513, 0, 0, 0
21639, 31325, 0, 0, 0
21655, 31165, 0, 0, 0
21655, 31035, 0, 0, 0
21671, 30924, 0, 0, 0
21687, 30828, 0, 0, 0
21703, 30743, 0, 0, 0
21719, 30675, 0, 0, 0
21735, 30624, 0, 0, 0
21735, 30591, 0, 0, 0
21751, 30572, 0, 0, 0
21767, 30559, 0, 0, 0
21783, 30540, 0, 0, 0
21799, 30511, 0, 0, 0
21815, 30480, 0, 0, 0
21815, 30460, 0, 0, 0
21831, 30460, 0, 0, 0
21847, 30478, 0, 0, 0
21863, 30511, 0, 0, 0
21879, 30552, 0, 0, 0
21895, 30591, 0, 0, 0
21895, 30619, 0, 0, 0
21911, 30631, 0, 0, 0
21927, 30625, 0, 0, 0
21943, 30601, 0, 0, 0
21959, 30563, 0, 0, 0
21975, 30517, 0, 0, 0
21975, 30480, 0, 0, 0
21991, 30492, 0, 0, 0
22007, 30621, 0, 0, 0
22023, 30954, 0, 0, 0
22039, 31570, 0, 0, 0
22055, 32516, 1, 0, 0
22055, 33760, 0, 0, 0
22071, 35193, 0, 0, 0
22087, 36644, 0, 0, 0
22103, 37932, 0, 0, 0
22118, 38911, 0, 0, 0
22134, 39489, 0, 0, 0
22135, 39630, 0, 0, 0
22150, 39363, 0, 0, 0
22167, 38774, 0, 0, 0
22182, 37975, 0, 0, 0
22198, 37078, 0, 1, 0
22215, 36179, 0, 0, 0
22215, 35344, 0, 0, 0
22231, 34598, 0, 0, 0
22247, 33942, 0, 0, 0
22262, 33376, 0, 0, 0
22279, 32916, 0, 0, 0
22295, 32583, 0, 0, 0
22295, 32388, 0, 0, 0
22311, 32342, 0, 0, 0
22326, 32439, 0, 0, 0
22343, 32653, 0, 0, 0
22359, 32947, 0, 0, 0
22374, 33275, 0, 0, 0
22375, 33580, 0, 0, 0
22391, 33815, 0, 0, 0
22407, 33954, 0, 0, 0
22422, 33987, 0, 0, 0
22438, 33912, 0, 0, 0
22454, 33738, 0, 0, 0
22456, 33487, 0, 0, 0
22470, 33180, 0, 0, 0
22486, 32836, 0, 0, 0
22502, 32472, 0, 0, 0
22519, 32109, 0, 0, 0
22534, 31763, 0, 0, 0
22535, 31439, 0, 0, 0
22550, 31144, 0, 0, 0
22566, 30880, 0, 0, 0
22582, 30648, 0, 0, 0
22598, 30450, 0, 0, 0
22614, 30284, 0, 0, 0
22614, 30154, 0, 0, 0
22630, 30059, 0, 0, 0
22646, 30002, 0, 0, 0
22662, 29975, 0, 0, 0
22678, 29968, 0, 0, 0
22694, 29972, 0, 0, 0
22695, 29975, 0, 0, 0
22710, 29962, 0, 0, 0
22726, 29926, 0, 0, 0
22742, 29867, 0, 0, 0
22758, 29781, 0, 0, 0
22774, 29675, 0, 0, 0
22774, 29571, 0, 0, 0
22790, 29482, 0, 0, 0
22806, 29414, 0, 0, 0
22822, 29370, 0, 0, 0
22838, 29352, 0, 0, 0
22854, 29350, 0, 0, 0
22855, 29356, 0, 0, 0
22870, 29364, 0, 0, 0
22886, 29372, 0, 0, 0
22902, 29382, 0, 0, 0
22918, 29412, 0, 0, 0
22934, 29513, 0, 0, 0
22935, 29778, 0, 0, 0
22950, 30323, 0, 0, 0
22966, 31233, 1, 0, 0
22982, 32533, 0, 0, 0
22998, 34152, 0, 0, 0
23014, 35933, 0, 0, 0
23014, 37669, 0, 0, 0
23030, 39165, 0, 0, 0
23046, 40281, 0, 0, 0
23062, 40946, 0, 0, 0
23078, 41152, 0, 0, 0
23094, 40942, 0, 0, 0
23094, 40407, 0, 0, 0
23110, 39662, 0, 1, 0
23126, 38816, 0, 0, 0
23142, 37966, 0, 0, 0
23158, 37182, 0, 0, 0
23174, 36490, 0, 0, 0
23174, 35880, 0, 0, 0
23190, 35335, 0, 0, 0
23206, 34848, 0, 0, 0
23222, 34426, 0, 0, 0
23238, 34084, 0, 0, 0
23254, 33848, 0, 0, 0
23254, 33732, 0, 0, 0
23270, 33736, 0, 0, 0
23286, 33836, 0, 0, 0
23302, 33994, 0, 0, 0
23318, 34163, 0, 0, 0
23334, 34295, 0, 0, 0
23334, 34346, 0, 0, 0
23350, 34287, 0, 0, 0
23366, 34109, 0, 0, 0
23382, 33815, 0, 0, 0
23398, 33432, 0, 0, 0
23414, 32998, 0, 0, 0
23414, 32544, 0, 0, 0
23430, 32094, 0, 0, 0
23446, 31669, 0, 0, 0
23462, 31279, 0, 0, 0
23478, 30927, 0, 0, 0
23494, 30613, 0, 0, 0
23494, 30344, 0, 0, 0
23510, 30123, 0, 0, 0
23526, 29951, 0, 0, 0
23542, 29834, 0, 0, 0
23558, 29768, 0, 0, 0
23574, 29745, 0, 0, 0
23574, 29755, 0, 0, 0
23590, 29790, 0, 0, 0
23606, 29839, 0, 0, 0
23622, 29896, 0, 0, 0
23638, 29952, 0, 0, 0
23654, 29999, 0, 0, 0
23654, 30029, 0, 0, 0
23670, 30033, 0, 0, 0
23686, 30009, 0, 0, 0
23702, 29961, 0, 0, 0
23717, 29902, 0, 0, 0
23733, 29842, 0, 0, 0
23734, 29794, 0, 0, 0
23750, 29759, 0, 0, 0
23765, 29738, 0, 0, 0
23782, 29725, 0, 0, 0
23797, 29716, 0, 0, 0
23813, 29704, 0, 0, 0
23814, 29691, 0, 0, 0
23829, 29676, 0, 0, 0
23845, 29665, 0, 0, 0
23861, 29670, 0, 0, 0
23878, 29718, 0, 0, 0
23894, 29869, 0, 0, 0
23894, 30224, 0, 0, 0
23910, 30886, 0, 0, 0
23926, 31924, 1, 0, 0
23941, 33329, 0, 0, 0
23957, 34997, 0, 0, 0
23973, 36749, 0, 0, 0
23974, 38371, 0, 0, 0
23989, 39679, 0, 0, 0
24005, 40562, 0, 0, 0
24021, 40993, 0, 0, 0
24037, 41008, 0, 0, 0
24053, 40683, 0, 0, 0
24054, 40115, 0, 0, 0
24069, 39408, 0, 1, 0
24085, 38645, 0, 0, 0
24101, 37895, 0, 0, 0
24117, 37201, 0, 0, 0
24133, 36584, 0, 0, 0
24134, 36035, 0, 0, 0
24149, 35546, 0, 0, 0
24165, 35112, 0, 0, 0
24181, 34735, 0, 0, 0
24197, 34433, 0, 0, 0
24213, 34220, 0, 0, 0
24213, 34105, 0, 0, 0
24229, 34080, 0, 0, 0
24245, 34120, 0, 0, 0
24261, 34194, 0, 0, 0
24277, 34273, 0, 0, 0
24293, 34320, 0, 0, 0
24294, 34308, 0, 0, 0
24309, 34224, 0, 0, 0
24325, 34061, 0, 0, 0
24341, 33825, 0, 0, 0
24357, 33528, 0, 0, 0
24373, 33191, 0, 0, 0
24374, 32832, 0, 0, 0
24389, 32462, 0, 0, 0
24405, 32092, 0, 0, 0
24421, 31735, 0, 0, 0
24437, 31400, 0, 0, 0
24453, 31088, 0, 0, 0
24453, 30803, 0, 0, 0
24469, 30549, 0, 0, 0
24485, 30320, 0, 0, 0
24501, 30116, 0, 0, 0
24517, 29948, 0, 0, 0
24533, 29822, 0, 0, 0
24533, 29740, 0, 0, 0
24549, 29695, 0, 0, 0
24565, 29676, 0, 0, 0
24581, 29673, 0, 0, 0
24597, 29679, 0, 0, 0
24613, 29692, 0, 0, 0
24613, 29712, 0, 0, 0
24629, 29741, 0, 0, 0
24645, 29779, 0, 0, 0
24661, 29815, 0, 0, 0
24677, 29841, 0, 0, 0
24693, 29842, 0, 0, 0
24693, 29802, 0, 0, 0
24709, 29713, 0, 0, 0
24725, 29580, 0, 0, 0
24741, 29419, 0, 0, 0
24757, 29253, 0, 0, 0
24773, 29104, 0, 0, 0
24789, 28986, 0, 0, 0
24789, 28903, 0, 0, 0
24805, 28855, 0, 0, 0
24821, 28850, 0, 0, 0
24837, 28931, 0, 0, 0
24853, 29180, 0, 0, 0
24869, 29700, 0, 0, 0
24869, 30569, 1, 0, 0
24885, 31803, 0, 0, 0
24901, 33337, 0, 0, 0
24917, 35020, 0, 0, 0
24933, 36649, 0, 0, 0
24949, 38041, 0, 0, 0
24949, 39069, 0, 0, 0
24965, 39675, 0, 0, 0
24981, 39864, 0, 0, 0
24997, 39696, 0, 0, 0
25013, 39255, 0, 0, 0
25029, 38637, 0, 0, 0
25029, 37934, 0, 1, 0
25045, 37219, 0, 0, 0
25061, 36539, 0, 0, 0
25077, 35911, 0, 0, 0
25093, 35337, 0, 0, 0
25109, 34812, 0, 0, 0
25109, 34338, 0, 0, 0
25125, 33932, 0, 0, 0
25141, 33620, 0, 0, 0
25157, 33422, 0, 0, 0
25173, 33346, 0, 0, 0
25189, 33379, 0, 0, 0
25189, 33489, 0, 0, 0
25205, 33635, 0, 0, 0
25221, 33772, 0, 0, 0
25237, 33865, 0, 0, 0
25253, 33891, 0, 0, 0
25269, 33835, 0, 0, 0
25269, 33693, 0, 0, 0
25285, 33476, 0, 0, 0
25301, 33195, 0, 0, 0
25317, 32871, 0, 0, 0
25333, 32519, 0, 0, 0
25349, 32156, 0, 0, 0
25349, 31795, 0, 0, 0
25365, 31446, 0, 0, 0
25381, 31113, 0, 0, 0
25397, 30800, 0, 0, 0
25412, 30509, 0, 0, 0
25429, 30243, 0, 0, 0
25429, 30007, 0, 0, 0
25445, 29807, 0, 0, 0
25460, 29651, 0, 0, 0
25477, 29537, 0, 0, 0
25492, 29464, 0, 0, 0
25508, 29426, 0, 0, 0
25509, 29418, 0, 0, 0
25524, 29431, 0, 0, 0
25540, 29464, 0, 0, 0
25556, 29511, 0, 0, 0
25573, 29572, 0, 0, 0
25573, 29644, 0, 0, 0
25589, 29723, 0, 0, 0
25605, 29810, 0, 0, 0
25620, 29904, 0, 0, 0
25637, 30001, 0, 0, 0
25653, 30098, 0, 0, 0
25653, 30189, 0, 0, 0
25669, 30271, 0, 0, 0
25684, 30337, 0, 0, 0
25700, 30384, 0, 0, 0
25716, 30424, 0, 0, 0
25733, 30498, 0, 0, 0
25733, 30688, 0, 0, 0
25748, 31096, 0, 0, 0
25764, 31801, 1, 0, 0
25780, 32827, 0, 0, 0
25797, 34118, 0, 0, 0
25812, 35540, 0, 0, 0
25828, 36909, 0, 0, 0
25829, 38056, 0, 0, 0
25844, 38862, 0, 0, 0
25860, 39277, 0, 0, 0
25876, 39307, 0, 0, 0
25892, 39013, 0, 0, 0
25908, 38480, 0, 0, 0
25909, 37800, 0, 1, 0
25924, 37060, 0, 0, 0
25940, 36328, 0, 0, 0
25956, 35647, 0, 0, 0
25977, 35036, 0, 0, 0
25988, 34497, 0, 0, 0
25988, 34030, 0, 0, 0
26004, 33641, 0, 0, 0
26020, 33350, 0, 0, 0
26036, 33177, 0, 0, 0
26052, 33135, 0, 0, 0
26068, 33220, 0, 0, 0
26068, 33404, 0, 0, 0
26084, 33644, 0, 0, 0
26100, 33889, 0, 0, 0
26116, 34092, 0, 0, 0
26132, 34218, 0, 0, 0
26148, 34242, 0, 0, 0
26148, 34157, 0, 0, 0
26164, 33965, 0, 0, 0
26180, 33669, 0, 0, 0
26196, 33282, 0, 0, 0
26212, 32828, 0, 0, 0
26228, 32341, 0, 0, 0
26228, 31851, 0, 0, 0
26244, 31386, 0, 0, 0
26260, 30970, 0, 0, 0
26276, 30610, 0, 0, 0
26292, 30296, 0, 0, 0
26308, 30025, 0, 0, 0
26308, 29798, 0, 0, 0
26324, 29615, 0, 0, 0
26340, 29473, 0, 0, 0
26356, 29376, 0, 0, 0
26372, 29324, 0, 0, 0
26388, 29314, 0, 0, 0
26389, 29342, 0, 0, 0
26404, 29405, 0, 0, 0
26420, 29497, 0, 0, 0
26436, 29610, 0, 0, 0
26452, 29736, 0, 0, 0
26468, 29864, 0, 0, 0
26469, 29989, 0, 0, 0
26484, 30104, 0, 0, 0
26500, 30205, 0, 0, 0
26516, 30290, 0, 0, 0
26532, 30360, 0, 0, 0
26548, 30411, 0, 0, 0
26548, 30443, 0, 0, 0
26564, 30454, 0, 0, 0
26580, 30447, 0, 0, 0
26596, 30421, 0, 0, 0
26612, 30379, 0, 0, 0
26628, 30330, 0, 0, 0
26628, 30294, 0, 0, 0
26644, 30326, 0, 0, 0
26660, 30524, 0, 0, 0
26676, 30999, 0, 0, 0
26692, 31834, 1, 0, 0
26708, 33039, 0, 0, 0
26708, 34535, 0, 0, 0
26724, 36161, 0, 0, 0
26740, 37714, 0, 0, 0
26756, 39012, 0, 0, 0
26772, 39932, 0, 0, 0
26788, 40426, 0, 0, 0
26788, 40512, 0, 0, 0
26804, 40254, 0, 0, 0
26820, 39746, 0, 0, 0
26836, 39090, 0, 1, 0
26852, 38376, 0, 0, 0
26868, 37675, 0, 0, 0
26868, 37027, 0, 0, 0
26884, 36446, 0, 0, 0
26900, 35924, 0, 0, 0
26916, 35445, 0, 0, 0
26932, 34999, 0, 0, 0
26948, 34593, 0, 0, 0
26948, 34245, 0, 0, 0
26964, 33974, 0, 0, 0
26980, 33795, 0, 0, 0
26996, 33708, 0, 0, 0
27012, 33695, 0, 0, 0
27028, 33725, 0, 0, 0
27028, 33760, 0, 0, 0
27044, 33762, 0, 0, 0
27060, 33702, 0, 0, 0
27076, 33564, 0, 0, 0
27092, 33342, 0, 0, 0
27108, 33047, 0, 0, 0
27108, 32698, 0, 0, 0
27124, 32320, 0, 0, 0
27140, 31929, 0, 0, 0
27155, 31539, 0, 0, 0
27172, 31163, 0, 0, 0
27188, 30812, 0, 0, 0
27188, 30495, 0, 0, 0
27204, 30219, 0, 0, 0
27220, 29987, 0, 0, 0
27236, 29799, 0, 0, 0
27252, 29653, 0, 0, 0
27268, 29547, 0, 0, 0
27268, 29474, 0, 0, 0
27284, 29436, 0, 0, 0
27300, 29433, 0, 0, 0
27315, 29463, 0, 0, 0
27332, 29520, 0, 0, 0
27348, 29597, 0, 0, 0
27348, 29693, 0, 0, 0
27364, 29803, 0, 0, 0
27380, 29919, 0, 0, 0
27396, 30035, 0, 0, 0
27412, 30148, 0, 0, 0
27428, 30253, 0, 0, 0
27428, 30342, 0, 0, 0
27444, 30415, 0, 0, 0
27460, 30470, 0, 0, 0
27475, 30512, 0, 0, 0
27492, 30539, 0, 0, 0
27507, 30555, 0, 0, 0
27508, 30558, 0, 0, 0
27523, 30549, 0, 0, 0
27539, 30525, 0, 0, 0
27555, 30488, 0, 0, 0
27571, 30449, 0, 0, 0
27587, 30436, 0, 0, 0
27588, 30506, 0, 0, 0
27603, 30748, 0, 0, 0
27619, 31257, 0, 0, 0
27635, 32094, 1, 0, 0
27651, 33256, 0, 0, 0
27667, 34656, 0, 0, 0
27668, 36134, 0, 0, 0
27683, 37502, 0, 0, 0
27699, 38599, 0, 0, 0
27716, 39324, 0, 0, 0
27731, 39645, 0, 0, 0
27747, 39594, 0, 0, 0
27748, 39245, 0, 0, 0
27763, 38692, 0, 0, 0
27779, 38028, 0, 1, 0
27795, 37337, 0, 0, 0
27812, 36680, 0, 0, 0
27827, 36085, 0, 0, 0
27828, 35563, 0, 0, 0
27843, 35101, 0, 0, 0
27859, 34692, 0, 0, 0
27875, 34335, 0, 0, 0
27891, 34040, 0, 0, 0
27907, 33819, 0, 0, 0
27908, 33686, 0, 0, 0
27923, 33642, 0, 0, 0
27939, 33675, 0, 0, 0
27955, 33754, 0, 0, 0
27971, 33845, 0, 0, 0
27987, 33909, 0, 0, 0
27987, 33908, 0, 0, 0
28003, 33824, 0, 0, 0
28019, 33653, 0, 0, 0
28035, 33403, 0, 0, 0
28051, 33088, 0, 0, 0
28067, 32735, 0, 0, 0
28067, 32363, 0, 0, 0
28083, 31982, 0, 0, 0
28099, 31606, 0, 0, 0
28115, 31246, 0, 0, 0
28131, 30910, 0, 0, 0
28147, 30601, 0, 0, 0
28147, 30327, 0, 0, 0
28163, 30091, 0, 0, 0
28179, 29897, 0, 0, 0
28195, 29744, 0, 0, 0
28211, 29636, 0, 0, 0
28227, 29574, 0, 0, 0
28227, 29555, 0, 0, 0
28243, 29579, 0, 0, 0
28259, 29637, 0, 0, 0
28275, 29720, 0, 0, 0
28291, 29816, 0, 0, 0
28307, 29921, 0, 0, 0
28307, 30026, 0, 0, 0
28323, 30126, 0, 0, 0
28339, 30220, 0, 0, 0
28355, 30305, 0, 0, 0
28371, 30379, 0, 0, 0
28387, 30439, 0, 0, 0
28387, 30482, 0, 0, 0
28403, 30510, 0, 0, 0
28419, 30526, 0, 0, 0
28435, 30529, 0, 0, 0
28451, 30522, 0, 0, 0
28467, 30503, 0, 0, 0
28467, 30467, 0, 0, 0
28483, 30408, 0, 0, 0
28499, 30328, 0, 0, 0
28515, 30237, 0, 0, 0
28531, 30152, 0, 0, 0
28547, 30112, 0, 0, 0
28547, 30193, 0, 0, 0
28563, 30494, 0, 0, 0
28579, 31106, 0, 0, 0
28595, 32072, 1, 0, 0
28611, 33360, 0, 0, 0
28627, 34854, 0, 0, 0
28627, 36377, 0, 0, 0
28643, 37739, 0, 0, 0
28660, 38796, 0, 0, 0
28675, 39468, 0, 0, 0
28691, 39744, 0, 0, 0
28707, 39667, 0, 0, 0
28707, 39313, 0, 0, 0
28723, 38771, 0, 0, 0
28739, 38126, 0, 1, 0
28755, 37455, 0, 0, 0
28771, 36805, 0, 0, 0
28787, 36199, 0, 0, 0
28787, 35637, 0, 0, 0
28803, 35114, 0, 0, 0
28819, 34631, 0, 0, 0
28835, 34202, 0, 0, 0
28851, 33849, 0, 0, 0
28867, 33597, 0, 0, 0
28867, 33459, 0, 0, 0
28883, 33429, 0, 0, 0
28899, 33482, 0, 0, 0
28915, 33581, 0, 0, 0
28931, 33691, 0, 0, 0
28947, 33775, 0, 0, 0
28947, 33805, 0, 0, 0
28963, 33761, 0, 0, 0
28979, 33640, 0, 0, 0
28995, 33448, 0, 0, 0
29011, 33199, 0, 0, 0
29027, 32909, 0, 0, 0
29027, 32597, 0, 0, 0
29043, 32275, 0, 0, 0
29059, 31953, 0, 0, 0
29075, 31639, 0, 0, 0
29091, 31339, 0, 0, 0
29107, 31060, 0, 0, 0
29107, 30806, 0, 0, 0
29123, 30584, 0, 0, 0
29139, 30400, 0, 0, 0
29155, 30253, 0, 0, 0
29171, 30142, 0, 0, 0
29187, 30064, 0, 0, 0
29187, 30014, 0, 0, 0
29203, 29986, 0, 0, 0
29218, 29976, 0, 0, 0
29234, 29982, 0, 0, 0
29251, 30001, 0, 0, 0
29267, 30031, 0, 0, 0
29267, 30070, 0, 0, 0
29282, 30114, 0, 0, 0
29298, 30158, 0, 0, 0
29314, 30200, 0, 0, 0
29330, 30236, 0, 0, 0
29346, 30263, 0, 0, 0
29347, 30278, 0, 0, 0
29362, 30280, 0, 0, 0
29378, 30268, 0, 0, 0
29395, 30242, 0, 0, 0
29410, 30210, 0, 0, 0
29427, 30191, 0, 0, 0
29427, 30233, 0, 0, 0
29442, 30415, 0, 0, 0
29459, 30833, 0, 0, 0
29475, 31558, 1, 0, 0
29490, 32606, 0, 0, 0
29507, 33912, 0, 0, 0
29507, 35339, 0, 0, 0
29522, 36710, 0, 0, 0
29538, 37858, 0, 0, 0
29554, 38670, 0, 0, 0
29575, 39102, 0, 0, 0
29586, 39172, 0, 0, 0
29587, 38939, 0, 0, 0
29602, 38484, 0, 0, 0
29618, 37894, 0, 1, 0
29634, 37246, 0, 0, 0
29650, 36601, 0, 0, 0
29666, 35994, 0, 0, 0
29666, 35440, 0, 0, 0
29682, 34936, 0, 0, 0
29698, 34478, 0, 0, 0
29714, 34065, 0, 0, 0
29730, 33714, 0, 0, 0
29746, 33441, 0, 0, 0
29747, 33267, 0, 0, 0
29762, 33195, 0, 0, 0
29778, 33213, 0, 0, 0
29794, 33289, 0, 0, 0
29810, 33389, 0, 0, 0
29826, 33476, 0, 0, 0
29826, 33526, 0, 0, 0
29842, 33523, 0, 0, 0
29858, 33456, 0, 0, 0
29874, 33324, 0, 0, 0
29890, 33133, 0, 0, 0
29906, 32888, 0, 0, 0
29907, 32600, 0, 0, 0
29922, 32286, 0, 0, 0
29938, 31965, 0, 0, 0
29954, 31658, 0, 0, 0
29970, 31389, 0, 0, 0
29986, 31172, 0, 0, 0
29987, 31012, 0, 0, 0
30002, 30900, 0, 0, 0
30018, 30824, 0, 0, 0
30034, 30772, 0, 0, 0
30050, 30738, 0, 0, 0
30066, 30722, 0, 0, 0
30066, 30722, 0, 0, 0
30082, 30736, 0, 0, 0
30098, 30758, 0, 0, 0
30114, 30776, 0, 0, 0
30130, 30784, 0, 0, 0
30146, 30783, 0, 0, 0
30146, 30781, 0, 0, 0
30162, 30780, 0, 0, 0
30178, 30780, 0, 0, 0
30194, 30782, 0, 0, 0
30210, 30790, 0, 0, 0
30226, 30800, 0, 0, 0
30226, 30805, 0, 0, 0
30242, 30797, 0, 0, 0
30258, 30773, 0, 0, 0
30274, 30734, 0, 0, 0
30290, 30683, 0, 0, 0
30306, 30629, 0, 0, 0
30306, 30576, 0, 0, 0
30322, 30525, 0, 0, 0
30338, 30476, 0, 0, 0
30354, 30439, 0, 0, 0
30370, 30458, 0, 0, 0
30386, 30613, 0, 0, 0
30387, 31005, 0, 0, 0
30402, 31712, 1, 0, 0
30418, 32759, 0, 0, 0
30434, 34093, 0, 0, 0
30450, 35587, 0, 0, 0
30466, 37060, 0, 0, 0
30482, 38335, 0, 0, 0
30482, 39279, 0, 0, 0
30498, 39832, 0, 0, 0
30514, 39998, 0, 0, 0
30530, 39830, 0, 0, 0
30546, 39410, 0, 0, 0
30546, 38835, 0, 0, 0
30562, 38190, 0, 1, 0
30578, 37539, 0, 0, 0
30594, 36916, 0, 0, 0
30610, 36336, 0, 0, 0
30626, 35804, 0, 0, 0
30626, 35316, 0, 0, 0
30642, 34863, 0, 0, 0
30658, 34451, 0, 0, 0
30674, 34096, 0, 0, 0
30690, 33812, 0, 0, 0
30706, 33609, 0, 0, 0
30706, 33486, 0, 0, 0
30722, 33440, 0, 0, 0
30738, 33453, 0, 0, 0
30754, 33493, 0, 0, 0
30770, 33530, 0, 0, 0
30786, 33533, 0, 0, 0
30786, 33482, 0, 0, 0
30802, 33366, 0, 0, 0
30818, 33183, 0, 0, 0
30834, 32945, 0, 0, 0
30850, 32666, 0, 0, 0
30866, 32365, 0, 0, 0
30866, 32055, 0, 0, 0
30882, 31754, 0, 0, 0
30898, 31465, 0, 0, 0
30914, 31189, 0, 0, 0
30930, 30932, 0, 0, 0
30945, 30700, 0, 0, 0
30946, 30487, 0, 0, 0
30962, 30295, 0, 0, 0
30978, 30129, 0, 0, 0
30994, 29994, 0, 0, 0
31010, 29888, 0, 0, 0
31026, 29806, 0, 0, 0
31026, 29749, 0, 0, 0
31042, 29713, 0, 0, 0
31058, 29683, 0, 0, 0
31073, 29662, 0, 0, 0
31089, 29661, 0, 0, 0
31105, 29677, 0, 0, 0
31121, 29710, 0, 0, 0
31122, 29754, 0, 0, 0
31138, 29800, 0, 0, 0
31153, 29839, 0, 0, 0
31169, 29864, 0, 0, 0
31185, 29877, 0, 0, 0
31201, 29876, 0, 0, 0
31202, 29856, 0, 0, 0
31217, 29812, 0, 0, 0
31233, 29744, 0, 0, 0
31249, 29657, 0, 0, 0
31265, 29560, 0, 0, 0
31266, 29463, 0, 0, 0
31282, 29377, 0, 0, 0
31298, 29310, 0, 0, 0
31314, 29273, 0, 0, 0
31330, 29300, 0, 0, 0
31345, 29461, 0, 0, 0
31346, 29847, 0, 0, 0
31381, 30544, 1, 0, 0
31381, 31581, 0, 0, 0
31393, 32908, 0, 0, 0
31409, 34396, 0, 0, 0
31425, 35871, 0, 0, 0
31426, 37152, 0, 0, 0
31442, 38112, 0, 0, 0
31457, 38694, 0, 0, 0
31473, 38905, 0, 0, 0
31489, 38797, 0, 0, 0
31506, 38445, 0, 0, 0
31506, 37935, 0, 0, 0
31521, 37347, 0, 1, 0
31537, 36747, 0, 0, 0
31553, 36178, 0, 0, 0
31569, 35660, 0, 0, 0
31585, 35200, 0, 0, 0
31601, 34791, 0, 0, 0
31601, 34439, 0, 0, 0
31617, 34157, 0, 0, 0
31633, 33961, 0, 0, 0
31649, 33856, 0, 0, 0
31665, 33839, 0, 0, 0
31681, 33890, 0, 0, 0
31681, 33981, 0, 0, 0
31697, 34082, 0, 0, 0
31713, 34172, 0, 0, 0
31729, 34229, 0, 0, 0
31745, 34234, 0, 0, 0
31761, 34175, 0, 0, 0
31761, 34048, 0, 0, 0
31777, 33853, 0, 0, 0
31793, 33598, 0, 0, 0
31809, 33298, 0, 0, 0
31825, 32973, 0, 0, 0
31841, 32637, 0, 0, 0
31841, 32305, 0, 0, 0
31857, 31990, 0, 0, 0
31873, 31701, 0, 0, 0
31889, 31432, 0, 0, 0
31905, 31177, 0, 0, 0
31921, 30916, 0, 0, 0
31921, 30639, 0, 0, 0
31937, 30346, 0, 0, 0
31953, 30040, 0, 0, 0
31969, 29736, 0, 0, 0
31985, 29456, 0, 0, 0
32001, 29231, 0, 0, 0
32001, 29066, 0, 0, 0
32017, 28958, 0, 0, 0
32033, 28899, 0, 0, 0
32049, 28878, 0, 0, 0
32065, 28879, 0, 0, 0
32081, 28896, 0, 0, 0
32081, 28928, 0, 0, 0
32097, 28975, 0, 0, 0
32113, 29040, 0, 0, 0
32129, 29125, 0, 0, 0
32145, 29230, 0, 0, 0
32161, 29353, 0, 0, 0
32161, 29491, 0, 0, 0
32177, 29634, 0, 0, 0
32193, 29777, 0, 0, 0
32209, 29910, 0, 0, 0
32225, 30025, 0, 0, 0
32241, 30119, 0, 0, 0
32241, 30201, 0, 0, 0
32257, 30296, 0, 0, 0
32273, 30465, 0, 0, 0
32289, 30797, 0, 0, 0
32305, 31382, 0, 0, 0
32321, 32268, 1, 0, 0
32321, 33441, 0, 0, 0
32337, 34812, 0, 0, 0
32353, 36231, 0, 0, 0
32369, 37530, 0, 0, 0
32385, 38568, 0, 0, 0
32401, 39261, 0, 0, 0
32401, 39583, 0, 0, 0
32417, 39562, 0, 0, 0
32433, 39264, 0, 0, 0
32449, 38772, 0, 0, 0
32465, 38166, 0, 1, 0
32481, 37515, 0, 0, 0
32481, 36865, 0, 0, 0
32497, 36240, 0, 0, 0
32513, 35643, 0, 0, 0
32529, 35071, 0, 0, 0
32545, 34533, 0, 0, 0
32561, 34049, 0, 0, 0
32561, 33643, 0, 0, 0
32577, 33341, 0, 0, 0
32593, 33162, 0, 0, 0
32609, 33101, 0, 0, 0
32625, 33128, 0, 0, 0
32641, 33207, 0, 0, 0
32641, 33300, 0, 0, 0
32657, 33374, 0, 0, 0
32673, 33396, 0, 0, 0
32689, 33353, 0, 0, 0
32705, 33241, 0, 0, 0
32721, 33063, 0, 0, 0
32721, 32830, 0, 0, 0
32737, 32555, 0, 0, 0
32753, 32254, 0, 0, 0
32769, 31941, 0, 0, 0
32784, 31627, 0, 0, 0
32801, 31326, 0, 0, 0
32801, 31045, 0, 0, 0
32816, 30794, 0, 0, 0
32833, 30582, 0, 0, 0
32849, 30415, 0, 0, 0
32865, 30295, 0, 0, 0
32880, 30226, 0, 0, 0
32881, 30200, 0, 0, 0
32897, 30212, 0, 0, 0
32912, 30249, 0, 0, 0
32928, 30301, 0, 0, 0
32944, 30363, 0, 0, 0
32960, 30433, 0, 0, 0
32961, 30504, 0, 0, 0
32977, 30572, 0, 0, 0
32993, 30635, 0, 0, 0
33008, 30694, 0, 0, 0
33024, 30745, 0, 0, 0
33040, 30787, 0, 0, 0
33041, 30824, 0, 0, 0
33056, 30854, 0, 0, 0
33072, 30873, 0, 0, 0
33088, 30886, 0, 0, 0
33104, 30891, 0, 0, 0
33121, 30894, 0, 0, 0
33121, 30894, 0, 0, 0
33136, 30896, 0, 0, 0
33153, 30925, 0, 0, 0
33169, 31041, 0, 0, 0
33184, 31338, 0, 0, 0
33200, 31911, 0, 0, 0
33201, 32813, 1, 0, 0
33216, 34023, 0, 0, 0
33232, 35440, 0, 0, 0
33248, 36894, 0, 0, 0
33264, 38204, 0, 0, 0
33280, 39224, 0, 0, 0
33281, 39872, 0, 0, 0
33296, 40136, 0, 0, 0
33313, 40054, 0, 0, 0
33328, 39698, 0, 0, 0
33344, 39152, 0, 0, 0
33360, 38501, 0, 1, 0
33361, 37811, 0, 0, 0
33376, 37130, 0, 0, 0
33392, 36485, 0, 0, 0
33408, 35887, 0, 0, 0
33424, 35341, 0, 0, 0
33440, 34853, 0, 0, 0
33440, 34434, 0, 0, 0
33456, 34103, 0, 0, 0
33472, 33871, 0, 0, 0
33488, 33742, 0, 0, 0
33504, 33713, 0, 0, 0
33520, 33762, 0, 0, 0
33520, 33857, 0, 0, 0
33536, 33966, 0, 0, 0
33552, 34058, 0, 0, 0
33568, 34099, 0, 0, 0
33584, 34066, 0, 0, 0
33600, 33951, 0, 0, 0
33600, 33760, 0, 0, 0
33616, 33500, 0, 0, 0
33632, 33185, 0, 0, 0
33648, 32839, 0, 0, 0
33664, 32482, 0, 0, 0
33680, 32125, 0, 0, 0
33680, 31778, 0, 0, 0
33696, 31449, 0, 0, 0
33712, 31144, 0, 0, 0
33728, 30866, 0, 0, 0
33744, 30618, 0, 0, 0
33760, 30408, 0, 0, 0
33760, 30239, 0, 0, 0
33776, 30103, 0, 0, 0
33792, 29998, 0, 0, 0
33808, 29922, 0, 0, 0
33824, 29868, 0, 0, 0
33840, 29832, 0, 0, 0
33840, 29820, 0, 0, 0
33856, 29826, 0, 0, 0
33872, 29845, 0, 0, 0
33888, 29870, 0, 0, 0
33904, 29897, 0, 0, 0
33920, 29921, 0, 0, 0
33920, 29943, 0, 0, 0
33936, 29962, 0, 0, 0
33952, 29978, 0, 0, 0
33968, 29991, 0, 0, 0
33984, 30004, 0, 0, 0
34000, 30016, 0, 0, 0
34000, 30026, 0, 0, 0
34016, 30033, 0, 0, 0
34032, 30037, 0, 0, 0
34048, 30032, 0, 0, 0
34064, 30013, 0, 0, 0
34080, 29981, 0, 0, 0
34080, 29951, 0, 0, 0
34096, 29950, 0, 0, 0
34112, 30042, 0, 0, 0
34128, 30324, 0, 0, 0
34144, 30898, 0, 0, 0
34160, 31823, 1, 0, 0
34160, 33095, 0, 0, 0
34176, 34619, 0, 0, 0
34192, 36231, 0, 0, 0
34208, 37738, 0, 0, 0
34224, 38973, 0, 0, 0
34240, 39828, 0, 0, 0
34240, 40264, 0, 0, 0
34256, 40308, 0, 0, 0
34272, 40029, 0, 0, 0
34288, 39519, 0, 0, 0
34304, 38876, 0, 1, 0
34320, 38189, 0, 0, 0
34320, 37517, 0, 0, 0
34336, 36895, 0, 0, 0
34352, 36330, 0, 0, 0
34368, 35814, 0, 0, 0
34384, 35336, 0, 0, 0
34400, 34892, 0, 0, 0
34400, 34489, 0, 0, 0
34416, 34147, 0, 0, 0
34432, 33882, 0, 0, 0
34448, 33708, 0, 0, 0
34464, 33625, 0, 0, 0
34480, 33616, 0, 0, 0
34480, 33647, 0, 0, 0
34496, 33683, 0, 0, 0
34512, 33690, 0, 0, 0
34528, 33641, 0, 0, 0
34544, 33525, 0, 0, 0
34560, 33341, 0, 0, 0
34560, 33101, 0, 0, 0
34576, 32815, 0, 0, 0
34592, 32486, 0, 0, 0
34608, 32123, 0, 0, 0
34624, 31736, 0, 0, 0
34640, 31327, 0, 0, 0
34640, 30897, 0, 0, 0
34656, 30462, 0, 0, 0
34671, 30047, 0, 0, 0
34687, 29670, 0, 0, 0
34703, 29345, 0, 0, 0
34719, 29083, 0, 0, 0
34720, 28889, 0, 0, 0
34735, 28752, 0, 0, 0
34751, 28661, 0, 0, 0
34767, 28612, 0, 0, 0
34783, 28607, 0, 0, 0
34800, 28647, 0, 0, 0
34800, 28731, 0, 0, 0
34815, 28854, 0, 0, 0
34832, 29008, 0, 0, 0
34848, 29182, 0, 0, 0
34863, 29361, 0, 0, 0
34879, 29530, 0, 0, 0
34880, 29684, 0, 0, 0
34895, 29821, 0, 0, 0
34911, 29937, 0, 0, 0
34927, 30033, 0, 0, 0
34943, 30112, 0, 0, 0
34960, 30176, 0, 0, 0
34960, 30229, 0, 0, 0
34975, 30274, 0, 0, 0
34991, 30312, 0, 0, 0
35007, 30337, 0, 0, 0
35023, 30347, 0, 0, 0
35039, 30347, 0, 0, 0
35040, 30342, 0, 0, 0
35055, 30360, 0, 0, 0
35071, 30461, 0, 0, 0
35087, 30738, 0, 0, 0
35103, 31287, 0, 0, 0
35119, 32180, 1, 0, 0
35119, 33411, 0, 0, 0
35135, 34899, 0, 0, 0
35151, 36485, 0, 0, 0
35167, 37983, 0, 0, 0
35183, 39222, 0, 0, 0
35199, 40092, 0, 0, 0
35199, 40553, 0, 0, 0
35215, 40624, 0, 0, 0
35231, 40368, 0, 0, 0
35247, 39872, 0, 0, 0
35263, 39233, 0, 1, 0
35279, 38533, 0, 0, 0
35279, 37833, 0, 0, 0
35295, 37168, 0, 0, 0
35311, 36547, 0, 0, 0
35327, 35969, 0, 0, 0
35343, 35433, 0, 0, 0
35359, 34946, 0, 0, 0
35360, 34520, 0, 0, 0
35375, 34179, 0, 0, 0
35391, 33946, 0, 0, 0
35407, 33825, 0, 0, 0
35423, 33801, 0, 0, 0
35439, 33848, 0, 0, 0
35440, 33929, 0, 0, 0
35455, 34005, 0, 0, 0
35471, 34045, 0, 0, 0
35487, 34023, 0, 0, 0
35503, 33928, 0, 0, 0
35519, 33758, 0, 0, 0
35519, 33522, 0, 0, 0
35535, 33233, 0, 0, 0
35551, 32907, 0, 0, 0
35567, 32562, 0, 0, 0
35583, 32210, 0, 0, 0
35599, 31865, 0, 0, 0
35599, 31534, 0, 0, 0
35615, 31224, 0, 0, 0
35631, 30942, 0, 0, 0
35647, 30688, 0, 0, 0
35663, 30463, 0, 0, 0
35679, 30268, 0, 0, 0
35679, 30105, 0, 0, 0
35695, 29974, 0, 0, 0
35711, 29876, 0, 0, 0
35727, 29809, 0, 0, 0
35743, 29767, 0, 0, 0
35759, 29749, 0, 0, 0
35759, 29748, 0, 0, 0
35775, 29763, 0, 0, 0
35791, 29788, 0, 0, 0
35807, 29821, 0, 0, 0
35823, 29858, 0, 0, 0
35839, 29899, 0, 0, 0
35839, 29937, 0, 0, 0
35855, 29970, 0, 0, 0
35871, 29989, 0, 0, 0
35887, 29994, 0, 0, 0
35903, 29985, 0, 0, 0
35919, 29968, 0, 0, 0
35919, 29956, 0, 0, 0
35935, 29984, 0, 0, 0
35951, 30114, 0, 0, 0
35967, 30438, 0, 0, 0
35983, 31039, 0, 0, 0
35999, 31961, 1, 0, 0
36015, 33176, 0, 0, 0
36015, 34581, 0, 0, 0
36031, 36011, 0, 0, 0
36047, 37290, 0, 0, 0
36063, 38274, 0, 0, 0
36079, 38887, 0, 0, 0
36095, 39115, 0, 0, 0
36095, 38997, 0, 0, 0
36111, 38602, 0, 0, 0
36127, 38018, 0, 0, 0
36143, 37331, 0, 1, 0
36159, 36609, 0, 0, 0
36175, 35900, 0, 0, 0
36175, 35227, 0, 0, 0
36191, 34600, 0, 0, 0
36207, 34018, 0, 0, 0
36223, 33496, 0, 0, 0
36239, 33058, 0, 0, 0
36239, 32734, 0, 0, 0
36255, 32542, 0, 0, 0
36271, 32483, 0, 0, 0
36287, 32541, 0, 0, 0
36303, 32678, 0, 0, 0
36319, 32850, 0, 0, 0
36319, 33014, 0, 0, 0
36335, 33135, 0, 0, 0
36351, 33188, 0, 0, 0
36367, 33161, 0, 0, 0
36383, 33050, 0, 0, 0
36399, 32863, 0, 0, 0
36399, 32613, 0, 0, 0
36415, 32319, 0, 0, 0
36431, 31999, 0, 0, 0
36447, 31667, 0, 0, 0
36463, 31337, 0, 0, 0
36478, 31023, 0, 0, 0
36495, 30730, 0, 0, 0
36495, 30461, 0, 0, 0
36510, 30225, 0, 0, 0
36526, 30026, 0, 0, 0
36543, 29863, 0, 0, 0
36559, 29737, 0, 0, 0
36559, 29646, 0, 0, 0
36575, 29586, 0, 0, 0
36590, 29556, 0, 0, 0
36606, 29554, 0, 0, 0
36622, 29577, 0, 0, 0
36638, 29613, 0, 0, 0
36639, 29661, 0, 0, 0
36654, 29717, 0, 0, 0
36670, 29776, 0, 0, 0
36686, 29834, 0, 0, 0
36702, 29889, 0, 0, 0
36718, 29942, 0, 0, 0
36719, 29992, 0, 0, 0
36735, 30035, 0, 0, 0
36751, 30075, 0, 0, 0
36766, 30107, 0, 0, 0
36782, 30128, 0, 0, 0
36798, 30135, 0, 0, 0
36814, 30127, 0, 0, 0
36815, 30108, 0, 0, 0
36830, 30086, 0, 0, 0
36846, 30080, 0, 0, 0
36862, 30137, 0, 0, 0
36879, 30349, 0, 0, 0
36879, 30830, 0, 0, 0
36894, 31666, 1, 0, 0
36910, 32883, 0, 0, 0
36926, 34418, 0, 0, 0
36942, 36122, 0, 0, 0
36958, 37789, 0, 0, 0
36959, 39223, 0, 0, 0
36974, 40288, 0, 0, 0
36990, 40921, 0, 0, 0
37006, 41125, 0, 0, 0
37022, 40956, 0, 0, 0
37038, 40508, 0, 0, 0
37039, 39883, 0, 0, 0
37054, 39178, 0, 1, 0
37070, 38464, 0, 0, 0
37086, 37788, 0, 0, 0
37102, 37169, 0, 0, 0
37118, 36602, 0, 0, 0
37119, 36072, 0, 0, 0
37134, 35572, 0, 0, 0
37150, 35110, 0, 0, 0
37166, 34705, 0, 0, 0
37182, 34384, 0, 0, 0
37198, 34164, 0, 0, 0
37198, 34051, 0, 0, 0
37214, 34025, 0, 0, 0
37230, 34055, 0, 0, 0
37246, 34105, 0, 0, 0
37262, 34136, 0, 0, 0
37278, 34119, 0, 0, 0
37294, 34036, 0, 0, 0
37294, 33879, 0, 0, 0
37310, 33650, 0, 0, 0
37326, 33360, 0, 0, 0
37342, 33027, 0, 0, 0
37358, 32664, 0, 0, 0
37374, 32285, 0, 0, 0
37374, 31905, 0, 0, 0
37390, 31537, 0, 0, 0
37406, 31191, 0, 0, 0
37422, 30876, 0, 0, 0
37438, 30597, 0, 0, 0
37454, 30357, 0, 0, 0
37454, 30158, 0, 0, 0
37470, 29997, 0, 0, 0
37486, 29878, 0, 0, 0
37502, 29794, 0, 0, 0
37518, 29741, 0, 0, 0
37534, 29712, 0, 0, 0
37534, 29702, 0, 0, 0
37550, 29709, 0, 0, 0
37566, 29732, 0, 0, 0
37582, 29766, 0, 0, 0
37598, 29809, 0, 0, 0
37614, 29853, 0, 0, 0
37614, 29891, 0, 0, 0
37630, 29921, 0, 0, 0
37646, 29945, 0, 0, 0
37662, 29965, 0, 0, 0
37680, 29982, 0, 0, 0
37694, 29997, 0, 0, 0
37694, 30010, 0, 0, 0
37710, 30018, 0, 0, 0
37726, 30016, 0, 0, 0
37742, 30000, 0, 0, 0
37758, 29969, 0, 0, 0
37774, 29926, 0, 0, 0
37774, 29884, 0, 0, 0
37790, 29867, 0, 0, 0
37806, 29925, 0, 0, 0
37822, 30142, 0, 0, 0
37838, 30627, 0, 0, 0
37854, 31461, 1, 0, 0
37854, 32668, 0, 0, 0
37870, 34192, 0, 0, 0
37886, 35894, 0, 0, 0
37902, 37570, 0, 0, 0
37918, 39024, 0, 0, 0
37934, 40113, 0, 0, 0
37934, 40776, 0, 0, 0
37950, 41016, 0, 0, 0
37966, 40897, 0, 0, 0
37982, 40514, 0, 0, 0
37998, 39964, 0, 0, 0
38014, 39328, 0, 1, 0
38014, 38675, 0, 0, 0
38030, 38047, 0, 0, 0
38046, 37463, 0, 0, 0
38062, 36923, 0, 0, 0
38078, 36421, 0, 0, 0
38094, 35947, 0, 0, 0
38094, 35514, 0, 0, 0
38110, 35139, 0, 0, 0
38126, 34849, 0, 0, 0
38142, 34655, 0, 0, 0
38158, 34555, 0, 0, 0
38174, 34527, 0, 0, 0
38174, 34543, 0, 0, 0
38190, 34569, 0, 0, 0
38206, 34574, 0, 0, 0
38221, 34533, 0, 0, 0
38237, 34427, 0, 0, 0
38253, 34250, 0, 0, 0
38254, 34009, 0, 0, 0
38270, 33717, 0, 0, 0
38285, 33393, 0, 0, 0
38301, 33052, 0, 0, 0
38317, 32699, 0, 0, 0
38333, 32338, 0, 0, 0
38334, 31975, 0, 0, 0
38349, 31619, 0, 0, 0
38365, 31277, 0, 0, 0
38381, 30961, 0, 0, 0
38398, 30682, 0, 0, 0
38413, 30448, 0, 0, 0
38414, 30255, 0, 0, 0
38430, 30097, 0, 0, 0
38446, 29972, 0, 0, 0
38462, 29876, 0, 0, 0
38478, 29805, 0, 0, 0
38494, 29753, 0, 0, 0
38494, 29716, 0, 0, 0
38509, 29696, 0, 0, 0
38525, 29690, 0, 0, 0
38541, 29695, 0, 0, 0
38557, 29713, 0, 0, 0
38573, 29742, 0, 0, 0
38574, 29772, 0, 0, 0
38589, 29792, 0, 0, 0
38605, 29803, 0, 0, 0
38621, 29810, 0, 0, 0
38637, 29814, 0, 0, 0
38653, 29817, 0, 0, 0
38653, 29815, 0, 0, 0
38669, 29807, 0, 0, 0
38685, 29791, 0, 0, 0
38701, 29769, 0, 0, 0
38717, 29749, 0, 0, 0
38733, 29756, 0, 0, 0
38733, 29843, 0, 0, 0
38749, 30099, 0, 0, 0
38765, 30629, 0, 0, 0
38781, 31505, 1, 0, 0
38797, 32742, 0, 0, 0
38813, 34259, 0, 0, 0
38813, 35902, 0, 0, 0
38829, 37472, 0, 0, 0
38845, 38789, 0, 0, 0
38861, 39731, 0, 0, 0
38877, 40245, 0, 0, 0
38893, 40340, 0, 0, 0
38894, 40071, 0, 0, 0
38909, 39534, 0, 0, 0
38925, 38833, 0, 1, 0
38941, 38061, 0, 0, 0
38957, 37286, 0, 0, 0
38973, 36553, 0, 0, 0
38973, 35872, 0, 0, 0
38989, 35235, 0, 0, 0
39005, 34646, 0, 0, 0
39021, 34118, 0, 0, 0
39037, 33679, 0, 0, 0
39053, 33355, 0, 0, 0
39054, 33165, 0, 0, 0
39070, 33102, 0, 0, 0
39085, 33144, 0, 0, 0
39101, 33251, 0, 0, 0
39117, 33378, 0, 0, 0
39133, 33486, 0, 0, 0
39133, 33543, 0, 0, 0
39149, 33520, 0, 0, 0
39165, 33403, 0, 0, 0
39181, 33193, 0, 0, 0
39197, 32907, 0, 0, 0
39213, 32562, 0, 0, 0
39213, 32185, 0, 0, 0
39229, 31797, 0, 0, 0
39245, 31418, 0, 0, 0
39261, 31054, 0, 0, 0
39277, 30715, 0, 0, 0
39293, 30409, 0, 0, 0
39293, 30140, 0, 0, 0
39309, 29906, 0, 0, 0
39325, 29709, 0, 0, 0
39341, 29552, 0, 0, 0
39357, 29431, 0, 0, 0
39373, 29346, 0, 0, 0
39373, 29293, 0, 0, 0
39389, 29268, 0, 0, 0
39405, 29270, 0, 0, 0
39421, 29293, 0, 0, 0
39438, 29335, 0, 0, 0
39453, 29392, 0, 0, 0
39453, 29457, 0, 0, 0
39469, 29524, 0, 0, 0
39485, 29585, 0, 0, 0
39501, 29635, 0, 0, 0
39517, 29672, 0, 0, 0
39533, 29691, 0, 0, 0
39533, 29691, 0, 0, 0
39549, 29674, 0, 0, 0
39565, 29647, 0, 0, 0
39581, 29623, 0, 0, 0
39597, 29643, 0, 0, 0
39613, 29778, 0, 0, 0
39613, 30134, 0, 0, 0
39629, 30811, 0, 0, 0
39645, 31861, 1, 0, 0
39661, 33251, 0, 0, 0
39677, 34859, 0, 0, 0
39693, 36499, 0, 0, 0
39693, 37961, 0, 0, 0
39709, 39080, 0, 0, 0
39725, 39767, 0, 0, 0
39741, 40008, 0, 0, 0
39757, 39854, 0, 0, 0
39773, 39395, 0, 0, 0
39773, 38742, 0, 0, 0
39789, 37995, 0, 1, 0
39805, 37234, 0, 0, 0
39821, 36512, 0, 0, 0
39837, 35845, 0, 0, 0
39853, 35227, 0, 0, 0
39853, 34654, 0, 0, 0
39868, 34122, 0, 0, 0
39885, 33655, 0, 0, 0
39900, 33282, 0, 0, 0
39916, 33022, 0, 0, 0
39932, 32883, 0, 0, 0
39933, 32859, 0, 0, 0
39949, 32921, 0, 0, 0
39965, 33030, 0, 0, 0
39981, 33151, 0, 0, 0
39997, 33247, 0, 0, 0
40013, 33282, 0, 0, 0
40013, 33230, 0, 0, 0
40029, 33083, 0, 0, 0
40045, 32847, 0, 0, 0
40061, 32540, 0, 0, 0
40077, 32189, 0, 0, 0
40093, 31813, 0, 0, 0
40093, 31428, 0, 0, 0
40108, 31050, 0, 0, 0
40125, 30693, 0, 0, 0
40140, 30365, 0, 0, 0
40157, 30071, 0, 0, 0
40172, 29818, 0, 0, 0
40173, 29607, 0, 0, 0
40188, 29439, 0, 0, 0
40204, 29310, 0, 0, 0
40222, 29221, 0, 0, 0
40236, 29170, 0, 0, 0
40252, 29154, 0, 0, 0
40253, 29166, 0, 0, 0
40268, 29198, 0, 0, 0
40284, 29244, 0, 0, 0
40300, 29301, 0, 0, 0
40317, 29364, 0, 0, 0
40332, 29429, 0, 0, 0
40333, 29495, 0, 0, 0
40349, 29560, 0, 0, 0
40364, 29617, 0, 0, 0
40380, 29666, 0, 0, 0
40396, 29707, 0, 0, 0
40412, 29741, 0, 0, 0
40413, 29766, 0, 0, 0
40428, 29787, 0, 0, 0
40444, 29802, 0, 0, 0
40460, 29810, 0, 0, 0
40476, 29806, 0, 0, 0
40492, 29788, 0, 0, 0
40493, 29756, 0, 0, 0
40508, 29718, 0, 0, 0
40524, 29691, 0, 0, 0
40540, 29721, 0, 0, 0
40556, 29892, 0, 0, 0
40572, 30325, 0, 0, 0
40573, 31130, 1, 0, 0
40588, 32361, 0, 0, 0
40604, 33978, 0, 0, 0
40620, 35842, 0, 0, 0
40636, 37737, 0, 0, 0
40652, 39428, 0, 0, 0
40652, 40730, 0, 0, 0
40668, 41546, 0, 0, 0
40684, 41859, 0, 0, 0
40700, 41723, 0, 0, 0
40716, 41236, 0, 0, 0
40732, 40520, 0, 0, 0
40732, 39688, 0, 1, 0
40748, 38843, 0, 0, 0
40764, 38051, 0, 0, 0
40780, 37341, 0, 0, 0
40796, 36707, 0, 0, 0
40812, 36129, 0, 0, 0
40812, 35586, 0, 0, 0
40828, 35074, 0, 0, 0
40844, 34611, 0, 0, 0
40860, 34227, 0, 0, 0
40876, 33949, 0, 0, 0
40892, 33783, 0, 0, 0
40892, 33715, 0, 0, 0
40908, 33713, 0, 0, 0
40924, 33739, 0, 0, 0
40940, 33756, 0, 0, 0
40956, 33732, 0, 0, 0
40972, 33645, 0, 0, 0
40972, 33484, 0, 0, 0
40988, 33252, 0, 0, 0
41004, 32956, 0, 0, 0
41020, 32610, 0, 0, 0
41036, 32232, 0, 0, 0
41052, 31839, 0, 0, 0
41052, 31448, 0, 0, 0
41068, 31069, 0, 0, 0
41084, 30715, 0, 0, 0
41100, 30396, 0, 0, 0
41116, 30117, 0, 0, 0
41132, 29881, 0, 0, 0
41132, 29690, 0, 0, 0
41148, 29542, 0, 0, 0
41164, 29434, 0, 0, 0
41180, 29362, 0, 0, 0
41196, 29324, 0, 0, 0
41212, 29313, 0, 0, 0
41212, 29325, 0, 0, 0
41228, 29354, 0, 0, 0
41244, 29396, 0, 0, 0
41260, 29448, 0, 0, 0
41276, 29502, 0, 0, 0
41292, 29555, 0, 0, 0
41292, 29606, 0, 0, 0
41308, 29651, 0, 0, 0
41324, 29688, 0, 0, 0
41340, 29719, 0, 0, 0
41356, 29744, 0, 0, 0
41372, 29760, 0, 0, 0
41372, 29767, 0, 0, 0
41388, 29767, 0, 0, 0
41404, 29761, 0, 0, 0
41420, 29752, 0, 0, 0
41436, 29740, 0, 0, 0
41452, 29729, 0, 0, 0
41452, 29722, 0, 0, 0
41468, 29716, 0, 0, 0
41484, 29709, 0, 0, 0
41500, 29698, 0, 0, 0
41516, 29681, 0, 0, 0
41532, 29664, 0, 0, 0
41532, 29671, 0, 0, 0
41548, 29765, 0, 0, 0
41564, 30052, 0, 0, 0
41580, 30666, 0, 0, 0
41596, 31702, 1, 0, 0
41612, 33171, 0, 0, 0
41612, 34977, 0, 0, 0
41628, 36926, 0, 0, 0
41644, 38773, 0, 0, 0
41660, 40292, 0, 0, 0
41676, 41337, 0, 0, 0
41692, 41861, 0, 0, 0
41692, 41897, 0, 0, 0
41708, 41531, 0, 0, 0
41724, 40877, 0, 0, 0
41739, 40057, 0, 1, 0
41756, 39178, 0, 0, 0
41772, 38318, 0, 0, 0
41787, 37525, 0, 0, 0
41788, 36813, 0, 0, 0
41804, 36173, 0, 0, 0
41820, 35585, 0, 0, 0
41836, 35042, 0, 0, 0
41852, 34551, 0, 0, 0
41868, 34134, 0, 0, 0
41868, 33820, 0, 0, 0
41884, 33624, 0, 0, 0
41900, 33543, 0, 0, 0
41916, 33551, 0, 0, 0
41932, 33609, 0, 0, 0
41932, 33675, 0, 0, 0
41948, 33710, 0, 0, 0
41964, 33684, 0, 0, 0
41980, 33582, 0, 0, 0
41995, 33401, 0, 0, 0
42011, 33149, 0, 0, 0
42012, 32841, 0, 0, 0
42028, 32490, 0, 0, 0
42044, 32108, 0, 0, 0
42060, 31710, 0, 0, 0
42075, 31318, 0, 0, 0
42092, 30945, 0, 0, 0
42092, 30600, 0, 0, 0
42107, 30293, 0, 0, 0
42143, 30032, 0, 0, 0
42143, 29809, 0, 0, 0
42155, 29623, 0, 0, 0
42171, 29475, 0, 0, 0
42172, 29369, 0, 0, 0
42187, 29302, 0, 0, 0
42203, 29271, 0, 0, 0
42219, 29272, 0, 0, 0
42235, 29300, 0, 0, 0
42251, 29347, 0, 0, 0
42251, 29408, 0, 0, 0
42267, 29475, 0, 0, 0
42283, 29541, 0, 0, 0
42299, 29603, 0, 0, 0
42315, 29660, 0, 0, 0
42331, 29710, 0, 0, 0
42331, 29748, 0, 0, 0
42347, 29779, 0, 0, 0
42363, 29804, 0, 0, 0
42379, 29822, 0, 0, 0
42395, 29830, 0, 0, 0
42411, 29832, 0, 0, 0
42412, 29833, 0, 0, 0
42427, 29832, 0, 0, 0
42443, 29827, 0, 0, 0
42459, 29818, 0, 0, 0
42475, 29806, 0, 0, 0
42491, 29787, 0, 0, 0
42492, 29764, 0, 0, 0
42507, 29743, 0, 0, 0
42523, 29745, 0, 0, 0
42539, 29823, 0, 0, 0
42555, 30081, 0, 0, 0
42571, 30640, 0, 0, 0
42572, 31597, 1, 0, 0
42587, 32965, 0, 0, 0
42603, 34660, 0, 0, 0
42619, 36498, 0, 0, 0
42635, 38241, 0, 0, 0
42651, 39671, 0, 0, 0
42651, 40648, 0, 0, 0
42667, 41120, 0, 0, 0
42683, 41117, 0, 0, 0
42699, 40714, 0, 0, 0
42715, 40016, 0, 0, 0
42731, 39138, 0, 1, 0
42731, 38189, 0, 0, 0
42747, 37254, 0, 0, 0
42763, 36381, 0, 0, 0
42779, 35587, 0, 0, 0
42795, 34874, 0, 0, 0
42811, 34241, 0, 0, 0
42827, 33690, 0, 0, 0
42827, 33239, 0, 0, 0
42843, 32917, 0, 0, 0
42859, 32744, 0, 0, 0
42875, 32706, 0, 0, 0
42891, 32769, 0, 0, 0
42891, 32884, 0, 0, 0
42907, 33005, 0, 0, 0
42923, 33087, 0, 0, 0
42939, 33106, 0, 0, 0
42955, 33050, 0, 0, 0
42971, 32919, 0, 0, 0
42971, 32719, 0, 0, 0
42987, 32460, 0, 0, 0
43003, 32154, 0, 0, 0
43019, 31822, 0, 0, 0
43035, 31482, 0, 0, 0
43051, 31145, 0, 0, 0
43067, 30818, 0, 0, 0
43067, 30501, 0, 0, 0
43083, 30190, 0, 0, 0
43099, 29880, 0, 0, 0
43115, 29555, 0, 0, 0
43131, 29215, 0, 0, 0
43147, 28873, 0, 0, 0
43147, 28552, 0, 0, 0
43163, 28272, 0, 0, 0
43179, 28051, 0, 0, 0
43195, 27899, 0, 0, 0
43211, 27812, 0, 0, 0
43227, 27773, 0, 0, 0
43227, 27770, 0, 0, 0
43243, 27798, 0, 0, 0
43259, 27849, 0, 0, 0
43275, 27917, 0, 0, 0
43291, 28004, 0, 0, 0
43307, 28108, 0, 0, 0
43307, 28226, 0, 0, 0
43323, 28355, 0, 0, 0
43339, 28491, 0, 0, 0
43355, 28626, 0, 0, 0
43371, 28755, 0, 0, 0
43387, 28875, 0, 0, 0
43387, 28985, 0, 0, 0
43403, 29082, 0, 0, 0
43419, 29174, 0, 0, 0
43435, 29289, 0, 0, 0
43451, 29490, 0, 0, 0
43467, 29889, 0, 0, 0
43467, 30609, 1, 0, 0
43483, 31732, 0, 0, 0
43499, 33260, 0, 0, 0
43515, 35089, 0, 0, 0
43531, 37034, 0, 0, 0
43547, 38867, 0, 0, 0
43547, 40395, 0, 0, 0
43563, 41493, 0, 0, 0
43579, 42123, 0, 0, 0
43595, 42300, 0, 0, 0
43611, 42081, 0, 0, 0
43626, 41544, 0, 0, 0
43627, 40773, 0, 1, 0
43643, 39855, 0, 0, 0
43659, 38875, 0, 0, 0
43674, 37905, 0, 0, 0
43690, 36984, 0, 0, 0
43706, 36135, 0, 0, 0
43707, 35370, 0, 0, 0
43722, 34695, 0, 0, 0
43738, 34118, 0, 0, 0
43754, 33660, 0, 0, 0
43771, 33344, 0, 0, 0
43786, 33173, 0, 0, 0
43787, 33131, 0, 0, 0
43802, 33186, 0, 0, 0
43819, 33300, 0, 0, 0
43835, 33427, 0, 0, 0
43850, 33525, 0, 0, 0
43867, 33562, 0, 0, 0
43867, 33521, 0, 0, 0
43883, 33403, 0, 0, 0
43899, 33218, 0, 0, 0
43915, 32984, 0, 0, 0
43931, 32724, 0, 0, 0
43946, 32464, 0, 0, 0
43947, 32220, 0, 0, 0
43962, 32004, 0, 0, 0
43979, 31822, 0, 0, 0
43995, 31674, 0, 0, 0
44010, 31554, 0, 0, 0
44026, 31459, 0, 0, 0
44027, 31389, 0, 0, 0
44042, 31343, 0, 0, 0
44058, 31313, 0, 0, 0
44074, 31293, 0, 0, 0
44090, 31275, 0, 0, 0
44106, 31253, 0, 0, 0
44106, 31225, 0, 0, 0
44123, 31193, 0, 0, 0
44138, 31163, 0, 0, 0
44154, 31140, 0, 0, 0
44170, 31128, 0, 0, 0
44186, 31128, 0, 0, 0
44186, 31138, 0, 0, 0
44202, 31152, 0, 0, 0
44218, 31168, 0, 0, 0
44234, 31179, 0, 0, 0
44250, 31182, 0, 0, 0
44266, 31177, 0, 0, 0
44267, 31165, 0, 0, 0
44282, 31142, 0, 0, 0
44298, 31105, 0, 0, 0
44314, 31051, 0, 0, 0
44330, 30981, 0, 0, 0
44346, 30908, 0, 0, 0
44347, 30866, 0, 0, 0
44362, 30932, 0, 0, 0
44378, 31223, 0, 0, 0
44394, 31862, 0, 0, 0
44410, 32917, 1, 0, 0
44426, 34366, 0, 0, 0
44426, 36091, 0, 0, 0
44442, 37887, 0, 0, 0
44458, 39518, 0, 0, 0
44474, 40789, 0, 0, 0
44490, 41588, 0, 0, 0
44506, 41891, 0, 0, 0
44506, 41743, 0, 0, 0
44522, 41239, 0, 0, 0
44538, 40498, 0, 0, 0
44554, 39633, 0, 1, 0
44570, 38736, 0, 0, 0
44586, 37876, 0, 0, 0
44586, 37084, 0, 0, 0
44602, 36364, 0, 0, 0
44618, 35705, 0, 0, 0
44634, 35095, 0, 0, 0
44650, 34537, 0, 0, 0
44666, 34052, 0, 0, 0
44666, 33668, 0, 0, 0
44682, 33405, 0, 0, 0
44698, 33265, 0, 0, 0
44714, 33230, 0, 0, 0
44730, 33268, 0, 0, 0
44746, 33337, 0, 0, 0
44746, 33398, 0, 0, 0
44762, 33422, 0, 0, 0
44778, 33382, 0, 0, 0
44794, 33264, 0, 0, 0
44826, 32792, 0, 0, 0
44826, 32460, 0, 0, 0
44842, 32088, 0, 0, 0
44858, 31699, 0, 0, 0
44874, 31310, 0, 0, 0
44890, 30933, 0, 0, 0
44906, 30581, 0, 0, 0
44906, 30259, 0, 0, 0
44922, 29969, 0, 0, 0
44938, 29714, 0, 0, 0
44954, 29494, 0, 0, 0
44970, 29311, 0, 0, 0
44986, 29165, 0, 0, 0
44986, 29057, 0, 0, 0
45002, 28988, 0, 0, 0
45018, 28957, 0, 0, 0
45034, 28961, 0, 0, 0
45050, 28996, 0, 0, 0
45066, 29053, 0, 0, 0
45066, 29124, 0, 0, 0
45082, 29204, 0, 0, 0
45098, 29289, 0, 0, 0
45114, 29377, 0, 0, 0
45130, 29466, 0, 0, 0
45146, 29552, 0, 0, 0
45146, 29630, 0, 0, 0
45162, 29690, 0, 0, 0
45178, 29729, 0, 0, 0
45194, 29746, 0, 0, 0
45210, 29742, 0, 0, 0
45226, 29724, 0, 0, 0
45226, 29705, 0, 0, 0
45242, 29719, 0, 0, 0
45258, 29836, 0, 0, 0
45274, 30168, 0, 0, 0
45290, 30835, 0, 0, 0
45306, 31903, 1, 0, 0
45306, 33353, 0, 0, 0
45322, 35063, 0, 0, 0
45338, 36828, 0, 0, 0
45354, 38421, 0, 0, 0
45370, 39656, 0, 0, 0
45386, 40430, 0, 0, 0
45386, 40723, 0, 0, 0
45401, 40584, 0, 0, 0
45417, 40107, 0, 0, 0
45433, 39400, 0, 0, 0
45449, 38572, 0, 1, 0
45466, 37713, 0, 0, 0
45466, 36883, 0, 0, 0
45482, 36114, 0, 0, 0
45497, 35408, 0, 0, 0
45514, 34758, 0, 0, 0
45530, 34162, 0, 0, 0
45549, 33639, 0, 0, 0
45549, 33214, 0, 0, 0
45561, 32917, 0, 0, 0
45577, 32766, 0, 0, 0
45594, 32752, 0, 0, 0
45609, 32841, 0, 0, 0
45625, 32989, 0, 0, 0
45626, 33148, 0, 0, 0
45641, 33274, 0, 0, 0
45657, 33332, 0, 0, 0
45673, 33304, 0, 0, 0
45689, 33181, 0, 0, 0
45705, 32969, 0, 0, 0
45706, 32684, 0, 0, 0
45721, 32349, 0, 0, 0
45737, 31990, 0, 0, 0
45753, 31625, 0, 0, 0
45769, 31273, 0, 0, 0
45785, 30941, 0, 0, 0
45786, 30634, 0, 0, 0
45801, 30354, 0, 0, 0
45817, 30104, 0, 0, 0
45833, 29886, 0, 0, 0
45849, 29702, 0, 0, 0
45865, 29555, 0, 0, 0
45866, 29448, 0, 0, 0
45881, 29372, 0, 0, 0
45897, 29325, 0, 0, 0
45913, 29305, 0, 0, 0
45929, 29313, 0, 0, 0
45945, 29345, 0, 0, 0
45945, 29398, 0, 0, 0
45961, 29466, 0, 0, 0
45977, 29540, 0, 0, 0
45993, 29613, 0, 0, 0
46009, 29679, 0, 0, 0
46025, 29736, 0, 0, 0
46025, 29776, 0, 0, 0
46041, 29799, 0, 0, 0
46057, 29807, 0, 0, 0
46073, 29800, 0, 0, 0
46089, 29792, 0, 0, 0
46105, 29827, 0, 0, 0
46105, 29986, 0, 0, 0
46121, 30380, 0, 0, 0
46137, 31113, 1, 0, 0
46153, 32237, 0, 0, 0
46169, 33703, 0, 0, 0
46185, 35363, 0, 0, 0
46186, 37011, 0, 0, 0
46201, 38429, 0, 0, 0
46217, 39450, 0, 0, 0
46233, 39998, 0, 0, 0
46249, 40082, 0, 0, 0
46265, 39770, 0, 0, 0
46265, 39167, 0, 0, 0
46281, 38384, 0, 1, 0
46297, 37525, 0, 0, 0
46313, 36671, 0, 0, 0
46329, 35867, 0, 0, 0
46345, 35130, 0, 0, 0
46345, 34457, 0, 0, 0
46361, 33847, 0, 0, 0
46377, 33308, 0, 0, 0
46393, 32864, 0, 0, 0
46409, 32542, 0, 0, 0
46425, 32362, 0, 0, 0
46426, 32325, 0, 0, 0
46441, 32409, 0, 0, 0
46457, 32570, 0, 0, 0
46473, 32760, 0, 0, 0
46489, 32934, 0, 0, 0
46505, 33053, 0, 0, 0
46505, 33088, 0, 0, 0
46521, 33028, 0, 0, 0
46538, 32874, 0, 0, 0
46553, 32637, 0, 0, 0
46569, 32336, 0, 0, 0
46585, 31992, 0, 0, 0
46585, 31629, 0, 0, 0
46601, 31265, 0, 0, 0
46617, 30914, 0, 0, 0
46633, 30586, 0, 0, 0
46649, 30290, 0, 0, 0
46665, 30033, 0, 0, 0
46665, 29813, 0, 0, 0
46681, 29633, 0, 0, 0
46697, 29495, 0, 0, 0
46713, 29399, 0, 0, 0
46729, 29340, 0, 0, 0
46745, 29316, 0, 0, 0
46745, 29323, 0, 0, 0
46761, 29356, 0, 0, 0
46777, 29410, 0, 0, 0
46793, 29476, 0, 0, 0
46809, 29551, 0, 0, 0
46825, 29628, 0, 0, 0
46825, 29704, 0, 0, 0
46841, 29776, 0, 0, 0
46857, 29846, 0, 0, 0
46873, 29910, 0, 0, 0
46889, 29967, 0, 0, 0
46905, 30008, 0, 0, 0
46905, 30025, 0, 0, 0
46921, 30017, 0, 0, 0
46937, 29995, 0, 0, 0
46953, 29975, 0, 0, 0
46969, 29993, 0, 0, 0
46985, 30121, 0, 0, 0
46985, 30473, 0, 0, 0
47001, 31162, 0, 0, 0
47017, 32254, 1, 0, 0
47033, 33736, 0, 0, 0
47049, 35480, 0, 0, 0
47065, 37276, 0, 0, 0
47065, 38884, 0, 0, 0
47081, 40116, 0, 0, 0
47097, 40864, 0, 0, 0
47113, 41121, 0, 0, 0
47129, 40947, 0, 0, 0
47145, 40447, 0, 0, 0
47145, 39739, 0, 0, 0
47161, 38937, 0, 1, 0
47177, 38133, 0, 0, 0
47193, 37385, 0, 0, 0
47209, 36717, 0, 0, 0
47224, 36118, 0, 0, 0
47225, 35568, 0, 0, 0
47241, 35051, 0, 0, 0
47256, 34568, 0, 0, 0
47272, 34135, 0, 0, 0
47288, 33779, 0, 0, 0
47305, 33525, 0, 0, 0
47305, 33382, 0, 0, 0
47321, 33333, 0, 0, 0
47336, 33352, 0, 0, 0
47352, 33399, 0, 0, 0
47369, 33435, 0, 0, 0
47384, 33430, 0, 0, 0
47385, 33363, 0, 0, 0
47400, 33221, 0, 0, 0
47416, 33002, 0, 0, 0
47432, 32720, 0, 0, 0
47448, 32390, 0, 0, 0
47464, 32029, 0, 0, 0
47480, 31658, 0, 0, 0
47481, 31292, 0, 0, 0
47500, 30940, 0, 0, 0
47528, 30315, 0, 0, 0
47544, 30053, 0, 0, 0
47545, 29832, 0, 0, 0
47560, 29652, 0, 0, 0
47576, 29510, 0, 0, 0
47592, 29404, 0, 0, 0
47608, 29331, 0, 0, 0
47624, 29289, 0, 0, 0
47624, 29275, 0, 0, 0
47640, 29285, 0, 0, 0
47656, 29316, 0, 0, 0
47672, 29361, 0, 0, 0
47689, 29410, 0, 0, 0
47704, 29461, 0, 0, 0
47705, 29508, 0, 0, 0
47720, 29547, 0, 0, 0
47736, 29576, 0, 0, 0
47752, 29600, 0, 0, 0
47768, 29619, 0, 0, 0
47784, 29632, 0, 0, 0
47784, 29640, 0, 0, 0
47800, 29646, 0, 0, 0
47816, 29651, 0, 0, 0
47832, 29652, 0, 0, 0
47848, 29652, 0, 0, 0
47864, 29651, 0, 0, 0
47864, 29642, 0, 0, 0
47880, 29625, 0, 0, 0
47896, 29605, 0, 0, 0
47912, 29597, 0, 0, 0
47928, 29638, 0, 0, 0
47944, 29808, 0, 0, 0
47944, 30224, 0, 0, 0
47960, 30995, 1, 0, 0
47976, 32170, 0, 0, 0
47992, 33712, 0, 0, 0
48008, 35483, 0, 0, 0
48024, 37267, 0, 0, 0
48024, 38833, 0, 0, 0
48040, 40003, 0, 0, 0
48056, 40689, 0, 0, 0
48072, 40889, 0, 0, 0
48088, 40674, 0, 0, 0
48104, 40154, 0, 0, 0
48120, 39451, 0, 0, 0
48120, 38676, 0, 1, 0
48136, 37912, 0, 0, 0
48152, 37207, 0, 0, 0
48168, 36578, 0, 0, 0
48184, 36013, 0, 0, 0
48200, 35490, 0, 0, 0
48200, 34995, 0, 0, 0
48216, 34528, 0, 0, 0
48232, 34104, 0, 0, 0
48248, 33750, 0, 0, 0
48264, 33490, 0, 0, 0
48280, 33329, 0, 0, 0
48280, 33257, 0, 0, 0
48296, 33251, 0, 0, 0
48312, 33278, 0, 0, 0
48328, 33300, 0, 0, 0
48344, 33287, 0, 0, 0
48360, 33217, 0, 0, 0
48360, 33077, 0, 0, 0
48376, 32866, 0, 0, 0
48392, 32596, 0, 0, 0
48408, 32283, 0, 0, 0
48424, 31944, 0, 0, 0
48440, 31596, 0, 0, 0
48441, 31252, 0, 0, 0
48456, 30923, 0, 0, 0
48472, 30616, 0, 0, 0
48488, 30337, 0, 0, 0
48504, 30092, 0, 0, 0
48520, 29885, 0, 0, 0
48520, 29715, 0, 0, 0
48536, 29583, 0, 0, 0
48552, 29490, 0, 0, 0
48568, 29430, 0, 0, 0
48589, 29399, 0, 0, 0
48600, 29393, 0, 0, 0
48600, 29408, 0, 0, 0
48616, 29439, 0, 0, 0
48632, 29479, 0, 0, 0
48648, 29523, 0, 0, 0
48664, 29568, 0, 0, 0
48680, 29613, 0, 0, 0
48680, 29655, 0, 0, 0
48696, 29694, 0, 0, 0
48712, 29731, 0, 0, 0
48728, 29766, 0, 0, 0
48744, 29797, 0, 0, 0
48760, 29824, 0, 0, 0
48760, 29846, 0, 0, 0
48776, 29862, 0, 0, 0
48792, 29875, 0, 0, 0
48808, 29885, 0, 0, 0
48824, 29892, 0, 0, 0
48840, 29896, 0, 0, 0
48840, 29899, 0, 0, 0
48856, 29899, 0, 0, 0
48872, 29896, 0, 0, 0
48888, 29893, 0, 0, 0
48904, 29900, 0, 0, 0
48920, 29942, 0, 0, 0
48920, 30084, 0, 0, 0
48936, 30432, 0, 0, 0
48951, 31095, 0, 0, 0
48968, 32132, 1, 0, 0
48984, 33524, 0, 0, 0
49000, 35163, 0, 0, 0
49000, 36855, 0, 0, 0
49016, 38383, 0, 0, 0
49032, 39573, 0, 0, 0
49048, 40323, 0, 0, 0
49064, 40615, 0, 0, 0
49080, 40497, 0, 0, 0
49080, 40061, 0, 0, 0
49095, 39416, 0, 0, 0
49111, 38666, 0, 1, 0
49127, 37899, 0, 0, 0
49144, 37171, 0, 0, 0
49159, 36502, 0, 0, 0
49160, 35891, 0, 0, 0
49176, 35330, 0, 0, 0
49192, 34812, 0, 0, 0
49208, 34348, 0, 0, 0
49224, 33958, 0, 0, 0
49240, 33671, 0, 0, 0
49240, 33502, 0, 0, 0
49255, 33450, 0, 0, 0
49271, 33492, 0, 0, 0
49288, 33591, 0, 0, 0
49304, 33706, 0, 0, 0
49319, 33799, 0, 0, 0
49320, 33835, 0, 0, 0
49335, 33791, 0, 0, 0
49351, 33661, 0, 0, 0
49367, 33452, 0, 0, 0
49383, 33177, 0, 0, 0
49399, 32854, 0, 0, 0
49400, 32505, 0, 0, 0
49415, 32148, 0, 0, 0
49431, 31796, 0, 0, 0
49447, 31458, 0, 0, 0
49463, 31141, 0, 0, 0
49479, 30850, 0, 0, 0
49480, 30590, 0, 0, 0
49495, 30363, 0, 0, 0
49511, 30171, 0, 0, 0
49527, 30016, 0, 0, 0
49543, 29898, 0, 0, 0
49559, 29814, 0, 0, 0
49560, 29760, 0, 0, 0
49575, 29735, 0, 0, 0
49591, 29733, 0, 0, 0
49608, 29742, 0, 0, 0
49624, 29755, 0, 0, 0
49639, 29774, 0, 0, 0
49640, 29793, 0, 0, 0
49655, 29811, 0, 0, 0
49671, 29830, 0, 0, 0
49687, 29854, 0, 0, 0
49703, 29882, 0, 0, 0
49719, 29902, 0, 0, 0
49719, 29896, 0, 0, 0
49735, 29854, 0, 0, 0
49751, 29771, 0, 0, 0
49767, 29649, 0, 0, 0
49783, 29501, 0, 0, 0
49799, 29353, 0, 0, 0
49799, 29235, 0, 0, 0
49815, 29184, 0, 0, 0
49831, 29264, 0, 0, 0
49847, 29582, 0, 0, 0
49863, 30242, 0, 0, 0
49879, 31294, 1, 0, 0
49879, 32705, 0, 0, 0
49895, 34354, 0, 0, 0
49911, 36048, 0, 0, 0
49927, 37577, 0, 0, 0
49943, 38771, 0, 0, 0
49959, 39540, 0, 0, 0
49959, 39875, 0, 0, 0
49975, 39821, 0, 0, 0
49991, 39462, 0, 0, 0
50007, 38892, 0, 0, 0
50023, 38199, 0, 1, 0
50039, 37450, 0, 0, 0
50039, 36688, 0, 0, 0
50055, 35928, 0, 0, 0
50071, 35171, 0, 0, 0
50087, 34418, 0, 0, 0
50103, 33694, 0, 0, 0
50119, 33042, 0, 0, 0
50119, 32501, 0, 0, 0
50135, 32097, 0, 0, 0
50151, 31856, 0, 0, 0
50167, 31777, 0, 0, 0
50183, 31828, 0, 0, 0
50199, 31962, 0, 0, 0
50199, 32136, 0, 0, 0
50219, 32304, 0, 0, 0
50231, 32417, 0, 0, 0
50247, 32448, 0, 0, 0
50263, 32394, 0, 0, 0
50279, 32265, 0, 0, 0
50279, 32079, 0, 0, 0
50295, 31857, 0, 0, 0
50311, 31614, 0, 0, 0
50327, 31364, 0, 0, 0
50343, 31115, 0, 0, 0
50359, 30873, 0, 0, 0
50359, 30643, 0, 0, 0
50375, 30432, 0, 0, 0
50391, 30250, 0, 0, 0
50407, 30102, 0, 0, 0
50423, 29988, 0, 0, 0
50439, 29909, 0, 0, 0
50439, 29864, 0, 0, 0
50455, 29844, 0, 0, 0
50471, 29849, 0, 0, 0
50487, 29874, 0, 0, 0
50503, 29917, 0, 0, 0
50519, 29974, 0, 0, 0
50519, 30042, 0, 0, 0
50535, 30114, 0, 0, 0
50551, 30186, 0, 0, 0
50567, 30254, 0, 0, 0
50583, 30319, 0, 0, 0
50599, 30378, 0, 0, 0
50599, 30431, 0, 0, 0
50615, 30477, 0, 0, 0
50631, 30516, 0, 0, 0
50647, 30547, 0, 0, 0
50663, 30569, 0, 0, 0
50679, 30585, 0, 0, 0
50679, 30598, 0, 0, 0
50695, 30610, 0, 0, 0
50711, 30618, 0, 0, 0
50727, 30621, 0, 0, 0
50743, 30621, 0, 0, 0
50759, 30616, 0, 0, 0
50759, 30601, 0, 0, 0
50775, 30581, 0, 0, 0
50791, 30575, 0, 0, 0
50807, 30638, 0, 0, 0
50823, 30864, 0, 0, 0
50838, 31375, 0, 0, 0
50839, 32260, 1, 0, 0
50855, 33547, 0, 0, 0
50871, 35168, 0, 0, 0
50886, 36959, 0, 0, 0
50902, 38701, 0, 0, 0
50918, 40180, 0, 0, 0
50919, 41248, 0, 0, 0
50934, 41840, 0, 0, 0
50950, 41972, 0, 0, 0
50967, 41716, 0, 0, 0
50983, 41181, 0, 0, 0
50999, 40479, 0, 1, 0
50999, 39707, 0, 0, 0
51014, 38938, 0, 0, 0
51030, 38217, 0, 0, 0
51046, 37560, 0, 0, 0
51062, 36957, 0, 0, 0
51078, 36395, 0, 0, 0
51079, 35869, 0, 0, 0
51094, 35390, 0, 0, 0
51110, 34980, 0, 0, 0
51126, 34664, 0, 0, 0
51142, 34455, 0, 0, 0
51158, 34346, 0, 0, 0
51159, 34320, 0, 0, 0
51174, 34345, 0, 0, 0
51190, 34386, 0, 0, 0
51206, 34406, 0, 0, 0
51223, 34382, 0, 0, 0
51238, 34292, 0, 0, 0
51239, 34125, 0, 0, 0
51254, 33885, 0, 0, 0
51270, 33586, 0, 0, 0
51286, 33240, 0, 0, 0
51302, 32865, 0, 0, 0
51318, 32479, 0, 0, 0
51319, 32097, 0, 0, 0
51334, 31729, 0, 0, 0
51350, 31382, 0, 0, 0
51366, 31061, 0, 0, 0
51382, 30772, 0, 0, 0
51398, 30521, 0, 0, 0
51399, 30308, 0, 0, 0
51414, 30134, 0, 0, 0
51430, 29997, 0, 0, 0
51446, 29896, 0, 0, 0
51462, 29829, 0, 0, 0
51478, 29790, 0, 0, 0
51478, 29775, 0, 0, 0
51494, 29781, 0, 0, 0
51510, 29803, 0, 0, 0
51526, 29838, 0, 0, 0
51542, 29884, 0, 0, 0
51558, 29939, 0, 0, 0
51558, 29997, 0, 0, 0
51574, 30049, 0, 0, 0
51590, 30095, 0, 0, 0
51606, 30134, 0, 0, 0
51622, 30165, 0, 0, 0
51638, 30189, 0, 0, 0
51638, 30209, 0, 0, 0
51654, 30224, 0, 0, 0
51670, 30234, 0, 0, 0
51686, 30240, 0, 0, 0
51702, 30246, 0, 0, 0
51718, 30253, 0, 0, 0
51718, 30258, 0, 0, 0
51734, 30257, 0, 0, 0
51750, 30249, 0, 0, 0
51766, 30234, 0, 0, 0
51782, 30222, 0, 0, 0
51798, 30234, 0, 0, 0
51798, 30334, 0, 0, 0
51814, 30626, 0, 0, 0
51830, 31224, 0, 0, 0
51846, 32210, 1, 0, 0
51862, 33590, 0, 0, 0
51878, 35270, 0, 0, 0
51878, 37070, 0, 0, 0
51894, 38769, 0, 0, 0
51910, 40173, 0, 0, 0
51926, 41158, 0, 0, 0
51942, 41677, 0, 0, 0
51958, 41752, 0, 0, 0
51958, 41455, 0, 0, 0
51974, 40893, 0, 0, 0
51990, 40172, 0, 1, 0
52006, 39387, 0, 0, 0
52022, 38612, 0, 0, 0
52038, 37889, 0, 0, 0
52038, 37224, 0, 0, 0
52054, 36604, 0, 0, 0
52070, 36024, 0, 0, 0
52086, 35486, 0, 0, 0
52102, 35010, 0, 0, 0
52118, 34619, 0, 0, 0
52118, 34338, 0, 0, 0
52134, 34178, 0, 0, 0
52150, 34129, 0, 0, 0
52166, 34159, 0, 0, 0
52182, 34229, 0, 0, 0
52198, 34293, 0, 0, 0
52198, 34317, 0, 0, 0
52214, 34281, 0, 0, 0
52230, 34176, 0, 0, 0
52246, 34000, 0, 0, 0
52262, 33759, 0, 0, 0
52278, 33468, 0, 0, 0
52278, 33136, 0, 0, 0
52294, 32771, 0, 0, 0
52310, 32387, 0, 0, 0
52326, 32008, 0, 0, 0
52342, 31647, 0, 0, 0
52358, 31311, 0, 0, 0
52358, 31004, 0, 0, 0
52374, 30733, 0, 0, 0
52390, 30498, 0, 0, 0
52406, 30298, 0, 0, 0
52422, 30132, 0, 0, 0
52438, 30002, 0, 0, 0
52438, 29903, 0, 0, 0
52454, 29832, 0, 0, 0
52470, 29784, 0, 0, 0
52485, 29760, 0, 0, 0
52502, 29758, 0, 0, 0
52522, 29773, 0, 0, 0
52522, 29795, 0, 0, 0
52534, 29820, 0, 0, 0
52550, 29844, 0, 0, 0
52566, 29866, 0, 0, 0
52582, 29881, 0, 0, 0
52598, 29889, 0, 0, 0
52598, 29887, 0, 0, 0
52614, 29874, 0, 0, 0
52630, 29847, 0, 0, 0
52646, 29810, 0, 0, 0
52661, 29769, 0, 0, 0
52677, 29726, 0, 0, 0
52678, 29695, 0, 0, 0
52694, 29716, 0, 0, 0
52710, 29873, 0, 0, 0
52726, 30273, 0, 0, 0
52742, 31011, 1, 0, 0
52758, 32117, 0, 0, 0
52758, 33540, 0, 0, 0
52774, 35141, 0, 0, 0
52790, 36724, 0, 0, 0
52805, 38087, 0, 0, 0
52821, 39087, 0, 0, 0
52837, 39653, 0, 0, 0
52838, 39784, 0, 0, 0
52853, 39533, 0, 0, 0
52869, 38993, 0, 0, 0
52886, 38268, 0, 1, 0
52901, 37455, 0, 0, 0
52920, 36628, 0, 0, 0
52921, 35830, 0, 0, 0
52933, 35085, 0, 0, 0
52949, 34394, 0, 0, 0
52965, 33764, 0, 0, 0
52981, 33211, 0, 0, 0
52998, 32763, 0, 0, 0
52998, 32447, 0, 0, 0
53013, 32278, 0, 0, 0
53030, 32251, 0, 0, 0
53045, 32337, 0, 0, 0
53061, 32493, 0, 0, 0
53077, 32677, 0, 0, 0
53078, 32848, 0, 0, 0
53093, 32973, 0, 0, 0
53109, 33027, 0, 0, 0
53125, 32995, 0, 0, 0
53141, 32871, 0, 0, 0
53157, 32662, 0, 0, 0
53159, 32388, 0, 0, 0
53173, 32066, 0, 0, 0
53189, 31718, 0, 0, 0
53205, 31364, 0, 0, 0
53221, 31022, 0, 0, 0
53237, 30702, 0, 0, 0
53237, 30409, 0, 0, 0
53253, 30149, 0, 0, 0
53269, 29922, 0, 0, 0
53285, 29728, 0, 0, 0
53301, 29568, 0, 0, 0
53317, 29445, 0, 0, 0
53318, 29359, 0, 0, 0
53333, 29313, 0, 0, 0
53349, 29302, 0, 0, 0
53365, 29320, 0, 0, 0
53381, 29359, 0, 0, 0
53397, 29412, 0, 0, 0
53398, 29474, 0, 0, 0
53413, 29541, 0, 0, 0
53429, 29610, 0, 0, 0
53445, 29680, 0, 0, 0
53461, 29748, 0, 0, 0
53477, 29813, 0, 0, 0
53493, 29873, 0, 0, 0
53494, 29925, 0, 0, 0
53509, 29969, 0, 0, 0
53525, 30002, 0, 0, 0
53541, 30021, 0, 0, 0
53557, 30025, 0, 0, 0
53557, 30017, 0, 0, 0
53573, 30006, 0, 0, 0
53589, 30023, 0, 0, 0
53605, 30128, 0, 0, 0
53621, 30425, 0, 0, 0
53637, 31030, 0, 0, 0
53637, 32027, 1, 0, 0
53653, 33419, 0, 0, 0
53669, 35116, 0, 0, 0
53685, 36939, 0, 0, 0
53701, 38665, 0, 0, 0
53717, 40089, 0, 0, 0
53717, 41079, 0, 0, 0
53733, 41586, 0, 0, 0
53749, 41633, 0, 0, 0
53765, 41300, 0, 0, 0
53781, 40695, 0, 0, 0
53797, 39937, 0, 1, 0
53813, 39123, 0, 0, 0
53813, 38327, 0, 0, 0
53829, 37591, 0, 0, 0
53845, 36928, 0, 0, 0
53861, 36325, 0, 0, 0
53877, 35771, 0, 0, 0
53877, 35267, 0, 0, 0
53893, 34822, 0, 0, 0
53909, 34460, 0, 0, 0
53925, 34201, 0, 0, 0
53941, 34052, 0, 0, 0
53957, 34004, 0, 0, 0
53957, 34031, 0, 0, 0
53973, 34097, 0, 0, 0
53989, 34165, 0, 0, 0
54005, 34198, 0, 0, 0
54021, 34168, 0, 0, 0
54037, 34058, 0, 0, 0
54037, 33860, 0, 0, 0
54053, 33586, 0, 0, 0
54069, 33252, 0, 0, 0
54085, 32881, 0, 0, 0
54101, 32492, 0, 0, 0
54117, 32101, 0, 0, 0
54117, 31723, 0, 0, 0
54133, 31368, 0, 0, 0
54149, 31040, 0, 0, 0
54165, 30746, 0, 0, 0
54181, 30490, 0, 0, 0
54197, 30278, 0, 0, 0
54197, 30110, 0, 0, 0
54213, 29983, 0, 0, 0
54229, 29891, 0, 0, 0
54245, 29831, 0, 0, 0
54261, 29794, 0, 0, 0
54277, 29780, 0, 0, 0
54277, 29788, 0, 0, 0
54293, 29816, 0, 0, 0
54309, 29860, 0, 0, 0
54325, 29915, 0, 0, 0
54341, 29972, 0, 0, 0
54357, 30026, 0, 0, 0
54357, 30076, 0, 0, 0
54373, 30118, 0, 0, 0
54389, 30152, 0, 0, 0
54405, 30177, 0, 0, 0
54421, 30190, 0, 0, 0
54437, 30185, 0, 0, 0
54453, 30164, 0, 0, 0
54453, 30130, 0, 0, 0
54468, 30099, 0, 0, 0
54485, 30107, 0, 0, 0
54501, 30235, 0, 0, 0
54517, 30590, 0, 0, 0
54532, 31279, 0, 0, 0
54533, 32360, 1, 0, 0
54548, 33806, 0, 0, 0
54565, 35491, 0, 0, 0
54581, 37220, 0, 0, 0
54597, 38773, 0, 0, 0
54612, 39970, 0, 0, 0
54613, 40710, 0, 0, 0
54629, 40977, 0, 0, 0
54645, 40822, 0, 0, 0
54661, 40344, 0, 0, 0
54677, 39656, 0, 0, 0
54693, 38872, 0, 1, 0
54693, 38078, 0, 0, 0
54708, 37332, 0, 0, 0
54724, 36657, 0, 0, 0
54741, 36051, 0, 0, 0
54757, 35493, 0, 0, 0
54772, 34973, 0, 0, 0
54773, 34494, 0, 0, 0
54788, 34074, 0, 0, 0
54805, 33740, 0, 0, 0
54821, 33519, 0, 0, 0
54837, 33412, 0, 0, 0
54853, 33399, 0, 0, 0
54853, 33445, 0, 0, 0
54868, 33511, 0, 0, 0
54884, 33555, 0, 0, 0
54900, 33545, 0, 0, 0
54916, 33465, 0, 0, 0
54932, 33305, 0, 0, 0
54932, 33071, 0, 0, 0
54948, 32773, 0, 0, 0
54964, 32435, 0, 0, 0
54980, 32076, 0, 0, 0
54996, 31717, 0, 0, 0
55012, 31368, 0, 0, 0
55012, 31038, 0, 0, 0
55028, 30734, 0, 0, 0
55044, 30459, 0, 0, 0
55060, 30216, 0, 0, 0
55076, 30011, 0, 0, 0
55092, 29845, 0, 0, 0
55093, 29717, 0, 0, 0
55108, 29625, 0, 0, 0
55124, 29564, 0, 0, 0
55140, 29533, 0, 0, 0
55156, 29526, 0, 0, 0
55172, 29536, 0, 0, 0
55173, 29559, 0, 0, 0
55188, 29593, 0, 0, 0
55204, 29632, 0, 0, 0
55220, 29675, 0, 0, 0
55236, 29719, 0, 0, 0
55252, 29767, 0, 0, 0
55253, 29813, 0, 0, 0
55268, 29857, 0, 0, 0
55284, 29894, 0, 0, 0
55300, 29920, 0, 0, 0
55316, 29923, 0, 0, 0
55332, 29895, 0, 0, 0
55333, 29842, 0, 0, 0
55348, 29774, 0, 0, 0
55364, 29713, 0, 0, 0
55380, 29706, 0, 0, 0
55396, 29829, 0, 0, 0
55412, 30184, 0, 0, 0
55412, 30869, 0, 0, 0
55428, 31932, 1, 0, 0
55444, 33344, 0, 0, 0
55460, 34982, 0, 0, 0
55476, 36656, 0, 0, 0
55492, 38149, 0, 0, 0
55492, 39290, 0, 0, 0
55508, 39983, 0, 0, 0
55524, 40218, 0, 0, 0
55540, 40044, 0, 0, 0
55556, 39558, 0, 0, 0
55572, 38875, 0, 0, 0
55572, 38106, 0, 1, 0
55588, 37333, 0, 0, 0
55604, 36603, 0, 0, 0
55622, 35935, 0, 0, 0
55636, 35321, 0, 0, 0
55652, 34750, 0, 0, 0
55652, 34223, 0, 0, 0
55668, 33766, 0, 0, 0
55684, 33413, 0, 0, 0
55700, 33189, 0, 0, 0
55716, 33100, 0, 0, 0
55732, 33128, 0, 0, 0
55732, 33236, 0, 0, 0
55748, 33373, 0, 0, 0
55764, 33494, 0, 0, 0
55780, 33562, 0, 0, 0
55796, 33550, 0, 0, 0
55812, 33447, 0, 0, 0
55812, 33258, 0, 0, 0
55828, 32995, 0, 0, 0
55844, 32679, 0, 0, 0
55860, 32332, 0, 0, 0
55876, 31973, 0, 0, 0
55892, 31613, 0, 0, 0
55892, 31265, 0, 0, 0
55908, 30937, 0, 0, 0
55924, 30638, 0, 0, 0
55940, 30375, 0, 0, 0
55956, 30152, 0, 0, 0
55972, 29972, 0, 0, 0
55972, 29834, 0, 0, 0
55988, 29735, 0, 0, 0
56004, 29669, 0, 0, 0
56020, 29632, 0, 0, 0
56036, 29622, 0, 0, 0
56052, 29638, 0, 0, 0
56052, 29674, 0, 0, 0
56068, 29724, 0, 0, 0
56084, 29779, 0, 0, 0
56100, 29834, 0, 0, 0
56116, 29882, 0, 0, 0
56132, 29918, 0, 0, 0
56132, 29941, 0, 0, 0
56148, 29951, 0, 0, 0
56164, 29949, 0, 0, 0
56180, 29936, 0, 0, 0
56196, 29918, 0, 0, 0
56212, 29904, 0, 0, 0
56212, 29924, 0, 0, 0
56228, 30044, 0, 0, 0
56244, 30364, 0, 0, 0
56260, 30987, 0, 0, 0
56275, 31974, 1, 0, 0
56292, 33306, 0, 0, 0
56292, 34870, 0, 0, 0
56308, 36479, 0, 0, 0
56324, 37920, 0, 0, 0
56339, 39017, 0, 0, 0
56356, 39672, 0, 0, 0
56372, 39871, 0, 0, 0
56372, 39666, 0, 0, 0
56388, 39152, 0, 0, 0
56404, 38447, 0, 0, 0
56420, 37667, 0, 1, 0
56436, 36895, 0, 0, 0
56452, 36180, 0, 0, 0
56452, 35538, 0, 0, 0
56468, 34956, 0, 0, 0
56484, 34415, 0, 0, 0
56500, 33906, 0, 0, 0
56516, 33451, 0, 0, 0
56531, 33080, 0, 0, 0
56532, 32825, 0, 0, 0
56547, 32698, 0, 0, 0
56563, 32690, 0, 0, 0
56579, 32771, 0, 0, 0
56596, 32894, 0, 0, 0
56611, 33019, 0, 0, 0
56612, 33105, 0, 0, 0
56627, 33121, 0, 0, 0
56643, 33048, 0, 0, 0
56659, 32883, 0, 0, 0
56675, 32637, 0, 0, 0
56691, 32329, 0, 0, 0
56692, 31984, 0, 0, 0
56707, 31628, 0, 0, 0
56723, 31275, 0, 0, 0
56739, 30941, 0, 0, 0
56755, 30633, 0, 0, 0
56771, 30358, 0, 0, 0
56772, 30117, 0, 0, 0
56787, 29915, 0, 0, 0
56803, 29751, 0, 0, 0
56819, 29626, 0, 0, 0
56836, 29540, 0, 0, 0
56851, 29488, 0, 0, 0
56852, 29469, 0, 0, 0
56867, 29477, 0, 0, 0
56883, 29506, 0, 0, 0
56899, 29548, 0, 0, 0
56915, 29597, 0, 0, 0
56931, 29651, 0, 0, 0
56932, 29708, 0, 0, 0
56947, 29766, 0, 0, 0
56963, 29823, 0, 0, 0
56979, 29873, 0, 0, 0
56995, 29912, 0, 0, 0
57011, 29937, 0, 0, 0
57011, 29946, 0, 0, 0
57027, 29940, 0, 0, 0
57043, 29922, 0, 0, 0
57059, 29894, 0, 0, 0
57075, 29859, 0, 0, 0
57091, 29821, 0, 0, 0
57091, 29803, 0, 0, 0
57107, 29854, 0, 0, 0
57123, 30069, 0, 0, 0
57139, 30567, 0, 0, 0
57155, 31445, 1, 0, 0
57171, 32733, 0, 0, 0
57171, 34355, 0, 0, 0
57187, 36142, 0, 0, 0
57203, 37864, 0, 0, 0
57219, 39298, 0, 0, 0
57235, 40296, 0, 0, 0
57251, 40801, 0, 0, 0
57251, 40841, 0, 0, 0
57267, 40503, 0, 0, 0
57283, 39903, 0, 0, 0
57299, 39163, 0, 1, 0
57315, 38386, 0, 0, 0
57331, 37648, 0, 0, 0
57331, 36982, 0, 0, 0
57347, 36390, 0, 0, 0
57363, 35849, 0, 0, 0
57379, 35334, 0, 0, 0
57395, 34830, 0, 0, 0
57411, 34348, 0, 0, 0
57411, 33919, 0, 0, 0
57427, 33577, 0, 0, 0
57443, 33346, 0, 0, 0
57459, 33230, 0, 0, 0
57475, 33207, 0, 0, 0
57491, 33239, 0, 0, 0
57491, 33286, 0, 0, 0
57507, 33308, 0, 0, 0
57523, 33275, 0, 0, 0
57539, 33171, 0, 0, 0
57555, 32995, 0, 0, 0
57571, 32753, 0, 0, 0
57571, 32460, 0, 0, 0
57587, 32132, 0, 0, 0
57603, 31784, 0, 0, 0
57619, 31429, 0, 0, 0
57635, 31084, 0, 0, 0
57651, 30760, 0, 0, 0
57651, 30464, 0, 0, 0
57667, 30202, 0, 0, 0
57683, 29978, 0, 0, 0
57699, 29792, 0, 0, 0
57715, 29646, 0, 0, 0
57731, 29541, 0, 0, 0
57731, 29476, 0, 0, 0
57747, 29446, 0, 0, 0
57763, 29446, 0, 0, 0
57779, 29469, 0, 0, 0
57795, 29510, 0, 0, 0
57811, 29563, 0, 0, 0
57811, 29621, 0, 0, 0
57827, 29683, 0, 0, 0
57843, 29747, 0, 0, 0
57859, 29813, 0, 0, 0
57875, 29884, 0, 0, 0
57891, 29964, 0, 0, 0
57891, 30050, 0, 0, 0
57907, 30142, 0, 0, 0
57923, 30248, 0, 0, 0
57939, 30374, 0, 0, 0
57955, 30515, 0, 0, 0
57971, 30651, 0, 0, 0
57971, 30758, 0, 0, 0
57987, 30824, 0, 0, 0
58003, 30845, 0, 0, 0
58019, 30830, 0, 0, 0
58035, 30806, 0, 0, 0
58051, 30838, 0, 0, 0
58051, 31027, 0, 0, 0
58067, 31486, 0, 0, 0
58083, 32320, 1, 0, 0
58099, 33572, 0, 0, 0
58115, 35181, 0, 0, 0
58131, 36972, 0, 0, 0
58131, 38711, 0, 0, 0
58147, 40167, 0, 0, 0
58163, 41184, 0, 0, 0
58179, 41696, 0, 0, 0
58195, 41724, 0, 0, 0
58211, 41354, 0, 0, 0
58211, 40709, 0, 0, 0
58227, 39912, 0, 1, 0
58243, 39068, 0, 0, 0
58259, 38261, 0, 0, 0
58275, 37529, 0, 0, 0
58291, 36876, 0, 0, 0
58291, 36280, 0, 0, 0
58306, 35708, 0, 0, 0
58322, 35130, 0, 0, 0
58338, 34546, 0, 0, 0
58354, 33987, 0, 0, 0
58370, 33491, 0, 0, 0
58371, 33097, 0, 0, 0
58386, 32825, 0, 0, 0
58402, 32672, 0, 0, 0
58419, 32606, 0, 0, 0
58434, 32583, 0, 0, 0
58450, 32562, 0, 0, 0
58451, 32511, 0, 0, 0
58466, 32408, 0, 0, 0
58482, 32242, 0, 0, 0
58499, 32014, 0, 0, 0
58514, 31735, 0, 0, 0
58530, 31422, 0, 0, 0
58531, 31092, 0, 0, 0
58546, 30756, 0, 0, 0
58562, 30431, 0, 0, 0
58578, 30123, 0, 0, 0
58594, 29838, 0, 0, 0
58610, 29585, 0, 0, 0
58611, 29368, 0, 0, 0
58626, 29193, 0, 0, 0
58642, 29058, 0, 0, 0
58658, 28962, 0, 0, 0
58674, 28898, 0, 0, 0
58690, 28864, 0, 0, 0
58690, 28861, 0, 0, 0
58706, 28892, 0, 0, 0
58722, 28958, 0, 0, 0
58738, 29058, 0, 0, 0
58754, 29188, 0, 0, 0
58770, 29341, 0, 0, 0
58770, 29510, 0, 0, 0
58786, 29693, 0, 0, 0
58802, 29891, 0, 0, 0
58818, 30099, 0, 0, 0
58834, 30301, 0, 0, 0
58850, 30478, 0, 0, 0
58850, 30618, 0, 0, 0
58866, 30714, 0, 0, 0
58882, 30769, 0, 0, 0
58898, 30792, 0, 0, 0
58914, 30790, 0, 0, 0
58930, 30770, 0, 0, 0
58930, 30732, 0, 0, 0
58946, 30677, 0, 0, 0
58962, 30616, 0, 0, 0
58978, 30566, 0, 0, 0
58994, 30570, 0, 0, 0
59010, 30703, 0, 0, 0
59010, 31074, 0, 0, 0
59026, 31777, 0, 0, 0
59042, 32861, 1, 0, 0
59058, 34288, 0, 0, 0
59074, 35927, 0, 0, 0
59090, 37573, 0, 0, 0
59106, 39010, 0, 0, 0
59106, 40068, 0, 0, 0
59122, 40660, 0, 0, 0
59138, 40780, 0, 0, 0
59154, 40490, 0, 0, 0
59170, 39896, 0, 0, 0
59186, 39119, 0, 0, 0
59186, 38270, 0, 1, 0
59202, 37428, 0, 0, 0
59218, 36640, 0, 0, 0
59234, 35918, 0, 0, 0
59250, 35254, 0, 0, 0
59266, 34644, 0, 0, 0
59266, 34096, 0, 0, 0
59282, 33634, 0, 0, 0
59298, 33285, 0, 0, 0
59314, 33067, 0, 0, 0
59330, 32978, 0, 0, 0
59346, 32995, 0, 0, 0
59346, 33084, 0, 0, 0
59362, 33201, 0, 0, 0
59378, 33303, 0, 0, 0
59394, 33354, 0, 0, 0
59410, 33330, 0, 0, 0
59426, 33215, 0, 0, 0
59426, 33014, 0, 0, 0
59442, 32741, 0, 0, 0
59458, 32416, 0, 0, 0
59474, 32058, 0, 0, 0
59490, 31687, 0, 0, 0
59506, 31314, 0, 0, 0
59506, 30950, 0, 0, 0
59522, 30604, 0, 0, 0
59538, 30284, 0, 0, 0
59554, 29992, 0, 0, 0
59570, 29736, 0, 0, 0
59570, 29518, 0, 0, 0
59586, 29339, 0, 0, 0
59602, 29204, 0, 0, 0
59618, 29113, 0, 0, 0
59634, 29065, 0, 0, 0
59650, 29056, 0, 0, 0
59650, 29078, 0, 0, 0
59666, 29121, 0, 0, 0
59682, 29175, 0, 0, 0
59698, 29233, 0, 0, 0
59714, 29289, 0, 0, 0
59730, 29339, 0, 0, 0
59730, 29379, 0, 0, 0
59746, 29412, 0, 0, 0
59762, 29439, 0, 0, 0
59778, 29467, 0, 0, 0
59794, 29496, 0, 0, 0
59810, 29522, 0, 0, 0
59826, 29542, 0, 0, 0
59826, 29553, 0, 0, 0
59842, 29551, 0, 0, 0
59858, 29537, 0, 0, 0
59874, 29511, 0, 0, 0
59890, 29479, 0, 0, 0
59890, 29459, 0, 0, 0
59906, 29493, 0, 0, 0
59922, 29663, 0, 0, 0
59938, 30086, 0, 0, 0
59954, 30868, 1, 0, 0
59970, 32052, 0, 0, 0
59970, 33595, 0, 0, 0
59985, 35351, 0, 0, 0
60002, 37112, 0, 0, 0
60018, 38657, 0, 0, 0
60033, 39821, 0, 0, 0
60049, 40520, 0, 0, 0
60050, 40752, 0, 0, 0
60065, 40574, 0, 0, 0
60081, 40089, 0, 0, 0
60098, 39411, 0, 0, 0
60113, 38651, 0, 1, 0
60129, 37892, 0, 0, 0
60145, 37189, 0, 0, 0
60146, 36562, 0, 0, 0
60161, 36005, 0, 0, 0
60177, 35499, 0, 0, 0
60194, 35026, 0, 0, 0
60210, 34586, 0, 0, 0
60210, 34187, 0, 0, 0
60226, 33851, 0, 0, 0
60241, 33601, 0, 0, 0
60258, 33450, 0, 0, 0
60274, 33388, 0, 0, 0
60290, 33394, 0, 0, 0
60290, 33432, 0, 0, 0
60305, 33467, 0, 0, 0
60322, 33464, 0, 0, 0
60337, 33400, 0, 0, 0
60353, 33264, 0, 0, 0
60369, 33057, 0, 0, 0
60370, 32786, 0, 0, 0
60385, 32463, 0, 0, 0
60401, 32111, 0, 0, 0
60417, 31747, 0, 0, 0
60433, 31389, 0, 0, 0
60449, 31047, 0, 0, 0
60465, 30731, 0, 0, 0
60465, 30445, 0, 0, 0
60481, 30191, 0, 0, 0
60497, 29972, 0, 0, 0
60513, 29789, 0, 0, 0
60529, 29645, 0, 0, 0
60545, 29540, 0, 0, 0
60546, 29471, 0, 0, 0
60561, 29432, 0, 0, 0
60577, 29418, 0, 0, 0
60593, 29425, 0, 0, 0
60609, 29449, 0, 0, 0
60626, 29483, 0, 0, 0
60626, 29523, 0, 0, 0
60641, 29566, 0, 0, 0
60657, 29605, 0, 0, 0
60673, 29641, 0, 0, 0
60689, 29674, 0, 0, 0
60705, 29706, 0, 0, 0
60705, 29734, 0, 0, 0
60721, 29755, 0, 0, 0
60737, 29775, 0, 0, 0
60753, 29792, 0, 0, 0
60769, 29808, 0, 0, 0
60785, 29821, 0, 0, 0
60785, 29830, 0, 0, 0
60801, 29832, 0, 0, 0
60817, 29825, 0, 0, 0
60833, 29809, 0, 0, 0
60849, 29797, 0, 0, 0
60865, 29820, 0, 0, 0
60865, 29950, 0, 0, 0
60881, 30298, 0, 0, 0
60897, 30983, 0, 0, 0
60913, 32077, 1, 0, 0
60929, 33566, 0, 0, 0
60945, 35324, 0, 0, 0
60946, 37142, 0, 0, 0
60961, 38787, 0, 0, 0
60977, 40068, 0, 0, 0
60993, 40875, 0, 0, 0
61028, 41193, 0, 0, 0
61029, 41082, 0, 0, 0
61029, 40644, 0, 0, 0
61041, 39986, 0, 0, 0
61057, 39219, 0, 1, 0
61073, 38430, 0, 0, 0
61089, 37678, 0, 0, 0
61105, 36988, 0, 0, 0
61105, 36359, 0, 0, 0
61121, 35775, 0, 0, 0
61137, 35226, 0, 0, 0
61153, 34719, 0, 0, 0
61169, 34277, 0, 0, 0
61185, 33925, 0, 0, 0
61185, 33681, 0, 0, 0
61201, 33550, 0, 0, 0
61217, 33515, 0, 0, 0
61233, 33538, 0, 0, 0
61249, 33585, 0, 0, 0
61265, 33625, 0, 0, 0
61265, 33628, 0, 0, 0
61281, 33570, 0, 0, 0
61297, 33443, 0, 0, 0
61313, 33248, 0, 0, 0
61329, 32996, 0, 0, 0
61345, 32695, 0, 0, 0
61345, 32356, 0, 0, 0
61361, 31990, 0, 0, 0
61377, 31609, 0, 0, 0
61393, 31223, 0, 0, 0
61409, 30842, 0, 0, 0
61425, 30473, 0, 0, 0
61425, 30127, 0, 0, 0
61441, 29819, 0, 0, 0
61457, 29558, 0, 0, 0
61473, 29357, 0, 0, 0
61489, 29229, 0, 0, 0
61505, 29177, 0, 0, 0
61505, 29199, 0, 0, 0
61521, 29285, 0, 0, 0
61537, 29425, 0, 0, 0
61553, 29598, 0, 0, 0
61569, 29780, 0, 0, 0
61585, 29946, 0, 0, 0
61585, 30080, 0, 0, 0
61601, 30172, 0, 0, 0
61617, 30222, 0, 0, 0
61633, 30242, 0, 0, 0
61649, 30245, 0, 0, 0
61665, 30239, 0, 0, 0
61665, 30234, 0, 0, 0
61681, 30237, 0, 0, 0
61697, 30247, 0, 0, 0
61713, 30260, 0, 0, 0
61729, 30273, 0, 0, 0
61745, 30283, 0, 0, 0
61745, 30287, 0, 0, 0
61761, 30287, 0, 0, 0
61777, 30276, 0, 0, 0
61793, 30254, 0, 0, 0
61809, 30225, 0, 0, 0
61824, 30223, 0, 0, 0
61825, 30337, 0, 0, 0
61841, 30693, 0, 0, 0
61857, 31405, 0, 0, 0
61872, 32521, 1, 0, 0
61889, 34000, 0, 0, 0
61905, 35696, 0, 0, 0
61905, 37398, 0, 0, 0
61920, 38892, 0, 0, 0
61936, 40032, 0, 0, 0
61952, 40742, 0, 0, 0
61968, 41016, 0, 0, 0
61984, 40903, 0, 0, 0
61985, 40485, 0, 0, 0
62000, 39850, 0, 0, 0
62016, 39092, 0, 1, 0
62032, 38286, 0, 0, 0
62048, 37489, 0, 0, 0
62064, 36730, 0, 0, 0
62065, 36020, 0, 0, 0
62080, 35359, 0, 0, 0
62096, 34761, 0, 0, 0
62112, 34247, 0, 0, 0
62128, 33843, 0, 0, 0
62144, 33575, 0, 0, 0
62145, 33446, 0, 0, 0
62160, 33441, 0, 0, 0
62176, 33530, 0, 0, 0
62193, 33673, 0, 0, 0
62209, 33828, 0, 0, 0
62225, 33956, 0, 0, 0
62225, 34023, 0, 0, 0
62240, 34007, 0, 0, 0
62257, 33901, 0, 0, 0
62272, 33712, 0, 0, 0
62289, 33454, 0, 0, 0
62305, 33143, 0, 0, 0
62305, 32798, 0, 0, 0
62320, 32429, 0, 0, 0
62336, 32048, 0, 0, 0
62352, 31672, 0, 0, 0
62368, 31312, 0, 0, 0
62384, 30982, 0, 0, 0
62385, 30687, 0, 0, 0
62400, 30431, 0, 0, 0
62416, 30213, 0, 0, 0
62432, 30034, 0, 0, 0
62448, 29895, 0, 0, 0
62464, 29793, 0, 0, 0
62464, 29728, 0, 0, 0
62480, 29697, 0, 0, 0
62496, 29698, 0, 0, 0
62512, 29725, 0, 0, 0
62528, 29770, 0, 0, 0
62544, 29825, 0, 0, 0
62544, 29880, 0, 0, 0
62560, 29930, 0, 0, 0
62576, 29975, 0, 0, 0
62592, 30012, 0, 0, 0
62608, 30040, 0, 0, 0
62624, 30055, 0, 0, 0
62625, 30051, 0, 0, 0
62640, 30021, 0, 0, 0
62656, 29976, 0, 0, 0
62672, 29948, 0, 0, 0
62688, 30013, 0, 0, 0
62704, 30279, 0, 0, 0
62704, 30860, 0, 0, 0
62720, 31824, 1, 0, 0
62736, 33154, 0, 0, 0
62752, 34738, 0, 0, 0
62768, 36389, 0, 0, 0
62784, 37893, 0, 0, 0
62784, 39069, 0, 0, 0
62800, 39814, 0, 0, 0
62816, 40104, 0, 0, 0
62832, 39978, 0, 0, 0
62848, 39519, 0, 0, 0
62864, 38830, 0, 0, 0
62864, 38014, 0, 1, 0
62880, 37159, 0, 0, 0
62896, 36328, 0, 0, 0
62912, 35550, 0, 0, 0
62928, 34836, 0, 0, 0
62944, 34190, 0, 0, 0
62944, 33616, 0, 0, 0
62960, 33130, 0, 0, 0
62976, 32755, 0, 0, 0
62992, 32512, 0, 0, 0
63008, 32410, 0, 0, 0
63024, 32433, 0, 0, 0
63024, 32553, 0, 0, 0
63040, 32727, 0, 0, 0
63056, 32916, 0, 0, 0
63072, 33079, 0, 0, 0
63088, 33180, 0, 0, 0
63104, 33197, 0, 0, 0
63104, 33122, 0, 0, 0
63120, 32957, 0, 0, 0
63136, 32714, 0, 0, 0
63152, 32412, 0, 0, 0
63168, 32071, 0, 0, 0
63184, 31706, 0, 0, 0
63184, 31336, 0, 0, 0
63200, 30976, 0, 0, 0
63216, 30638, 0, 0, 0
63232, 30331, 0, 0, 0
63248, 30059, 0, 0, 0
63264, 29826, 0, 0, 0
63264, 29634, 0, 0, 0
63280, 29488, 0, 0, 0
63296, 29386, 0, 0, 0
63312, 29321, 0, 0, 0
63328, 29286, 0, 0, 0
63344, 29277, 0, 0, 0
63344, 29289, 0, 0, 0
63360, 29320, 0, 0, 0
63376, 29369, 0, 0, 0
63392, 29433, 0, 0, 0
63408, 29507, 0, 0, 0
63424, 29582, 0, 0, 0
63424, 29654, 0, 0, 0
63440, 29720, 0, 0, 0
63456, 29774, 0, 0, 0
63472, 29813, 0, 0, 0
63488, 29837, 0, 0, 0
63504, 29845, 0, 0, 0
63504, 29855, 0, 0, 0
63519, 29914, 0, 0, 0
63536, 30118, 0, 0, 0
63552, 30593, 0, 0, 0
63568, 31444, 1, 0, 0
63584, 32710, 0, 0, 0
63584, 34331, 0, 0, 0
63600, 36146, 0, 0, 0
63616, 37932, 0, 0, 0
63632, 39468, 0, 0, 0
63647, 40593, 0, 0, 0
63664, 41231, 0, 0, 0
63664, 41390, 0, 0, 0
63679, 41136, 0, 0, 0
